:10000000B3C70000C3C70000C1C70000BFC70000DE
:10001000BDC700000C942827B9C700000C949E0EA1
:10002000B5C70000B3C700000C94471F0C941A27F3
:100030000C940C270C94211FA9C70000A7C700002F
:100040000C94E626A3C70000A1C700009FC70000CC
:100050009DC700000C949F0E99C7000097C7000031
:1000600095C7000093C70000AC09AE09B209BC09EE
:10007000BA09B609B609B809BE00B700B000100841
:10008000407E01013E01013E01013E01017E4040F2
:1000900018000720080808F80000002060A03FA012
:1000A0006020020202FF0202021010101F00000076
:1000B000050842818989760508C2A19189860508CB
:1000C000000402FF0010100508F87838588809105D
:1000D00003081C3E7F0D080710FF818181F1E1C1FB
:1000E000FF4040404743410D080110FFFF11080346
:1000F00010F1E1C14743410E000820212112206088
:10010000E0E0E0FEFE0402010001037F7F21C2C4A3
:10011000C4C04094840007030102040E080210FECC
:10012000FE7F7F00000000110005202060E0E0E07D
:100130000201000103C2C4C4C0400703010204520B
:1001400045465F523D005245465F433D00203E31EB
:1001500030306E4600706E056D006B4D0104100965
:100160000A0C00111111131D101000000E11110ABC
:100170001B00041F111111111F04001E0203021E97
:100180000000000F0818080F00001113171F1713A5
:10019000110011191D1F1D1911001B1B1B1B1B1BFF
:1001A0001B005244533D005B435D0031080308339C
:1001B00020005B524C5D003108070608090A08332D
:1001C0002000432B455352405450313A330066408F
:1001D00054503200203530487A00433020005269B4
:1001E0005F4C6F3D0052695F48693D0052303D00F1
:1001F00052482F524C002B52482D2031322031339F
:10020000203233002B524C2D20313220313320321A
:10021000330052482B0052482D005248663D005290
:1002200065663D00494345733D00494345303D0007
:1002300056657273696F6E20312E31326B0008097A
:100240000A080008070608002A0120200008020802
:1002500000080108004E6F742063616C696272616E
:100260007465642120466F72FF63616C696272611C
:1002700074696F6E20636C616D70207468652033E3
:10028000FF70696E7320746F6765746865722061B2
:100290006E64207374617274207769746820746866
:1002A00065FF6B65792E2041636B6E6F776C6564BB
:1002B0006765207468652073656C662D746573745A
:1002C000207769746820746865206B657920776988
:1002D0007468696EFF32732E20446973636F6E6EAB
:1002E0006563742070696E73206166746572207432
:1002F0006865FF6D657373616765202269736F6C54
:10030000617465FF50726F626521222069732073EA
:10031000686F776E2E20536F667477617265206107
:100320006E6420646F63756D656E746174696F6E61
:100330002069732061742073766E3A2F2F206D69C7
:100340006B726F636F6E74726F6C6C65722E206E61
:1003500065742F7472616E736973746F7220746543
:1003600073746572200049723D004C3D0020566C4C
:100370006F73733D00204553523D005643433D008B
:1003800043656C6C2100080308004056673D00205F
:1003900056743D0055663D005562653D0020313282
:1003A000333D0050696E2000424A542D504E50009B
:1003B000424A542D4E504E00433D0043673D006875
:1003C00046453D002D49474254004A464554002DBC
:1003D0004D4F5300444320507772204D6F646500A9
:1003E0004F4B004261742E2000436F6E7472617334
:1003F000740073686F72742050726F6265732100AD
:1004000053656C6674657374007475726E21007246
:100410006F7461727920656E636F6465720031304C
:100420002D6269742050574D00662D47656E6572C8
:1004300061746F7200537769746368206F66660039
:1004400053686F77206461746100566F6C746167E4
:1004500065004672657175656E6379005472616EF0
:10046000736973746F720053656C656374696F6E42
:100470003A005465737420456E640069736F6C6153
:1004800074652050726F626573210053656C6674E9
:10049000657374206D6F64652E2E0054696D656FF1
:1004A000757421006F722064616D6167656420005E
:1004B0004E6F2C20756E6B6E6F776E2C206F7200F6
:1004C00020756E6B6E6F776E005468797269737405
:1004D0002E00547269616300706172740064616D12
:1004E000616765642000656D7074792100776561CE
:1004F0006B0054657374696E672E2E2E00BA0387E5
:100500000358032E030703E402C302A40288020077
:1005100000140029003E005300690080009700AEDF
:1005200000C600DF00F80012012D014901650182BB
:1005300001A001BE01DE01FF012102440268028E1A
:1005400002B502DE020903350364039403C803FE07
:100550000337047304B404F90443059305EA054919
:1005600006B3062907AE074808FF08DE09AF57B9EA
:1005700050C24A97451141133D87395A367E33E8B8
:10058000308E2E692C712AA128F5266925F923A21F
:1005900022622137201E1F161E1E1D341C571B856C
:1005A0001ABF1903195018A61704176A16D6154949
:1005B00015C2144114C5134E13DC126E1205129F9E
:1005C000113D11DF10841000000000000000000049
:1005D000000000000000001E2121211200807F0089
:1005E00000007E4A4A4A34000000000000FC40201F
:1005F00010080402010000000101010101010101D4
:1006000001010101017F0488D0E0F0F80000000042
:100610000000000000000000000000000000FC944A
:10062000948400000102FC000000000000000000B3
:100630000000001E21212112E0C0804020100F0088
:100640000000C020202040000000FC00009E9E040E
:100650000303030302000000202023242525232078
:1006600020203F00007B7B2142840480C0000000EA
:100670000000000000000000000000FC94948400D2
:10068000040607070708F000000000000000000053
:1006900000000000803F2121120C00000000FF003C
:1006A0000000F0084848C80000FE0000E781818192
:1006B000C1E1F18181810100202020212121202020
:1006C000203F0000F340404041434740407FC0008E
:1006D00000000000000000000000000000489494AA
:1006E000946400000000FF00000000000000000013
:1006F000000000000000003F2121120C0000FF005C
:100700000000F0084848D0000000000000FEFE0491
:100710000404040404040700080808090909080877
:100720007F3E1C08087F7F20202020202020E00022
:100730000000000000000000000000000000004871
:10074000949494640000FF0000000000000000008A
:100750000000FF003C0A090A3C002231292926003A
:100760000082868E9EBEFEFEBEDEEFF6FAFEFEFA2A
:10077000F2E2C28200000008080804027984A4A4FE
:100780006800FF0000000000000000000000000002
:1007900000000000000000000000FF0000F028241E
:1007A00028F0001008FC000000000000000000001D
:1007B00000003C0A090A3C00FF00000000000000A5
:1007C0000000000000000000000000040C1C3C7C45
:1007D000FF7C3C1C0C040000000000009EA1A9A9A5
:1007E0009A804323130B0703FF0303030303030050
:1007F00000000000000000000000788484844800AD
:10080000FF000000000000000000F00804E21109F1
:1008100009090909090909091121C2040810E000A0
:1008200000000102040407000000000080402010C6
:1008300088442310080403000000000000000000AA
:100840000000FE0100FC02010000000000000000AA
:100850000000000000000000000079494979000014
:100860000000000000000040F0101010F0400001F7
:10087000010101010040F8F0E040F84000030100F0
:1008800000030040F840E0F0F840000300000103DE
:100890000040FCFC00FCFC4000070700070700E0EC
:1008A000101010E000000407000704000000F8002A
:1008B00000F000000E010201030200080808080809
:1008C000F8400202020202030040F8080808080883
:1008D000000302020202024040404040404000004B
:1008E00000000000004040C0000080000000010245
:1008F00002010200800000C040400201020201002B
:1009000000000000000000000000000000000000E7
:1009100000000000000000000000000000000000D7
:1009200000000000000000000000000000000000C7
:1009300000000000000000000000000000000000B7
:100940000000000000000000F80402FE02000C0796
:100950000404070C00FE000000FE0000070404046D
:10096000070C00FE00FE00FE000007040704070C51
:100970000000E01008F808000C070404070C00E071
:1009800014FC14E00000010A0F0A010000F8000046
:1009900000F8000007040404070C00F800F800F851
:1009A000000007040704070C00000000000000001E
:1009B0000000000000000000000000000000000037
:1009C0000000000000000000000000000000000027
:1009D0000000000000000000000000000000000017
:1009E0000000000000000000000000000000000007
:1009F00000000000000000000000000000000000F7
:100A000000000000000000000000000000000000E6
:100A100000000000000000000000000000000000D6
:100A200000000000000000000000000000000000C6
:100A3000000000000000003CFE3C00000000001B25
:100A400000000000160E00160E000000000000005E
:100A50000008FE0808FE0800010701010701003830
:100A6000FE4484FE0800041F08081F07001C149C95
:100A7000402018000601000E0A0E008854225488F7
:100A8000C000030404020106000000160E0000006E
:100A900000000000000000F008040202000003044F
:100AA00008101000000002020408F00000101008F6
:100AB0000403004850E0E050480002010000010239
:100AC00000004040F0404000000000010000000035
:100AD0000000000000000000160E00000040404032
:100AE0004040400000000000000000000000000046
:100AF00000000000060600000000008040201000FA
:100B000002010000000000F804020204F8000102E3
:100B10000404020100000804FE02000000000407B3
:100B20000400000804824224180006050404040698
:100B300000060212122AC60001020404020100E0AB
:100B4000988680F88000000000040704003E22120E
:100B50001222C60001020404020100F8241212222B
:100B6000C000010204040201000602C262321E003B
:100B7000000007000000008854222254880001026F
:100B800004040201003844828244F8000004040492
:100B900002010000003030000000000006060000E6
:100BA000000000303000000000000A0600000000D5
:100BB00040A01008040000000001020400202020D2
:100BC000202020000101010101010000040810A003
:100BD00040000004020100000018048242241800B2
:100BE00000000D00000000F804629294F800010279
:100BF000040404020000F8848284F8000007000066
:100C000000070002FE222222DC0004070404040381
:100C100000F8040202040E000102040404030002AE
:100C2000FE020204F8000407040402010002FE228E
:100C3000720206000407040404060002FE22720287
:100C4000060004070400000000F8040282848E00FD
:100C50000102040402070000FE202020FE0000071D
:100C60000000000700000002FE0200000000040770
:100C700004000000000002FE020000020404030061
:100C80000002FE22F09C0600040704000704000294
:100C9000FE02000000000407040404060000FE1C1D
:100CA000701CFE0000070000000700FE1C70C0FE64
:100CB000000007000001070000F804020204F80029
:100CC0000102040402010002FE4242423C00040709
:100CD0000400000000F804020204F8000102040508
:100CE00002050002FE42C2423C0004070000070465
:100CF000000C122222448E000102040402010000B2
:100D00000E02FE020E000000040704000000FE00B8
:100D10000000FE0000030404040300007EC000C0C5
:100D20007E000000010701000000FE80F880FE0048
:100D3000000107010701008ED87070D88E000700EF
:100D400000000007003E60C0603E00000004070491
:100D500000000006824222120E000704040404066A
:100D60000000FE0202020000000F08080800000850
:100D7000102040800000000000000001020002027C
:100D800002FE0000000808080F000000080402042A
:100D9000080000000000000000000000000000004B
:100DA0000808080808080800000E160000000000E7
:100DB0000000000000C0282848F0000003040404DC
:100DC00003040002FE120808F000040704040403F0
:100DD00000E010080810380001020404040200F0CA
:100DE000080810FE020003040404070400E09088D1
:100DF0008890E000010204040400000010FC1212BC
:100E0000040000040704000000F0080808F00800CF
:100E1000010A0A0907000002FE100808F000040792
:100E20000400000700000016F600000000000407A0
:100E300004000000000016F6000000040808070087
:100E40000002FE40F09808000407040007040000B8
:100E50000002FE0000000000040704000008F8087B
:100E6000F008F0000407000700070008F810080861
:100E7000F00004070000000700E010080810E00080
:100E80000102040402010008F0080808F000080F3D
:100E90000902020100F0080808F008000102020936
:100EA0000F080008F82010083000040704000000B4
:100EB000003048484890380002040404040300004D
:100EC00010FE1010000000000304040200F80000EF
:100ED00000F808000304040207040078C000C0788A
:100EE000000000010701000000F880F080F8000019
:100EF0000107010701000018B0C0C0B018000603C8
:100F0000000003060008F80000F8080000090A0ABB
:100F1000070000180888482818000605040404067D
:100F2000000040A01C0202000000000708080000AA
:100F300000003E0000000000001F00000000020250
:100F40001CA0400000080807000000040602060478
:100F5000060000000000000000000000000000008B
:100F6000000000000000000011241FBECFEFD8E0F9
:100F7000DEBFCDBF11E0A0E0B1E001C01D92AA3BF1
:100F8000B107E1F70E9451300C94943839C86F933F
:100F90008F93559865D5529A63D588E70DD06F9198
:100FA00080E860FD80E408D08F9106D0529A58D531
:100FB000559856D5529854C50894881F559A10F4E0
:100FC000529801C0529A4CD555984AD5880FB1F71E
:100FD000559A529845D555984D9BFECF4A9981E038
:100FE0003FD5559A3DC5529855985A985D980895A1
:100FF000109211011092040110920501109210013B
:10100000089581E0809311011092040182E08093A1
:10101000050110921001089582E080931101109251
:10102000040184E08093050110921001089583E08B
:10103000809311011092040186E0809305011092C3
:1010400010010895609304018093050187E0689F73
:10105000602D1124609310010895909111019F5FFC
:1010600090931101943038F093E09093110191E046
:1010700090934B0102C010924B0190911101682F87
:10108000892F880FDFCFE9DFBFC5809104018093EE
:101090000101809111018093030108958091030162
:1010A00060910101880FCECF8DE0A5D48AE0A3C462
:1010B000CF93C82F682F80E06ADFCF7BC03809F458
:1010C000F3DFCF9108958EEAF3DF85EAF1CFCF9376
:1010D000DF93C0E080E1ECDF80E0EADF8C2F806B03
:1010E000E7DFD4E860E081E052DFD150D9F7CF5F8D
:1010F000C83081F7D9DF7CDF10921101DF91CF91E9
:10110000089571DF86E0AFD48EEAD2DF82EED0DFC1
:1011100082EACEDF80EACCDF80ECCADF85EDC8DF73
:1011200080E8C6DF8DE8C4DF84E1C2DF81E8C0DF8C
:1011300080E090E00E945638BBDF80E4B9DF84EAAB
:10114000B7DF86EAB5DFC3DF8FEAB2DF10920401B2
:10115000109205011092100108950895582F28E06B
:1011600030E090E841E080E0642F652309F0892BAE
:10117000440F96952150310921153105A9F708959D
:10118000A0E0B0E0E6ECF8E00C94C037EC016A3780
:1011900008F071C0483308F06EC0342E369436948F
:1011A0003694F12CE40EF11C81E0E81AF10853E0CA
:1011B000F594E7945A95E1F7122F127021FF0BC0B6
:1011C000C701992783199109089FA001099F500D14
:1011D0001124C40FD51F97E09E1510F447E0E42EAC
:1011E00080E8801B861BF82EF2949FE0F9229F2D49
:1011F0009061F92E37E0232E23188F70582E21701E
:10120000422EA02EB12C450181E0881A9108E314EA
:1012100060F1822D806B4CDF8F2D4ADF852D48DFFA
:10122000C12CD12C3E01680C791CC016A0F44110D1
:1012300004C0F301EC19FD0903C0FE01EC0DFD1D16
:101240008491111101C08ADF682F81E0A0DE9FEF39
:10125000C91AD90AEACF112319F0CA19DB0902C049
:10126000CA0DDB1D33942A94D2CF87E090910501FB
:10127000891B806B1DDFCDB7DEB7E2E10C94DC3754
:10128000EF920F93282F8F7030E6839FC0011124B7
:1012900089539A4F322F307324FF02C028E001C0D7
:1012A00028E420931201303218F01092000108C097
:1012B00020E220930001209112012D5E2093120163
:1012C00060E2E62E08E120E0409100016091120109
:1012D00057DF0F91EF900895EF920F93262FFC01A7
:1012E000649131964491FC0132960491FC0133964D
:1012F000E49050910001450F50911201650F049642
:101300003FDF0F91EF90089560E0E6CFEF920F93EB
:10131000CF93C82F40910501440F440F440F2EE096
:10132000829FC001112470E1E72E07E020E0609168
:1013300010018959974F24DF80911001895F8093B4
:1013400010014C2F50E0FA013197E830F105D0F44C
:10135000EC5CFF4F0C94F7378EE305C08CE74BD362
:101360008CE311C08CE747D38CE70DC082E50BC03E
:101370008DE209C085E707C08FE43DD388E63BD303
:101380008DE601C08C2F37D3CF910F91EF90089548
:101390008F5CBCCF80E2BACFA1E0B0E0E2EDF9E033
:1013A0000C94D037882329F08983F4DF8981815018
:1013B000F9CF2196E2E00C94EC3784E1EDCF18DE12
:1013C000FCDF16CE1EDEF9DF1CCE8DE39FCFCF9360
:1013D000DF93EC018991882311F098DFFBCFDF9137
:1013E000CF910895CF93DF93EC01FE018491982F64
:1013F0009F7719F08BDF2196F8CFDF91CF91089579
:10140000EF920F93FC0104913196E4900296B8DEBE
:101410000F91EF9008950F938BEB93E0E3DF4091F2
:1014200092014D3F64F4609180017091810180913F
:1014300082019091830103E026E4E5D002C08FE3AE
:1014400065DF0F91089597FF09C08F939F938DE2F9
:101450005DDF9F918F91909581959F4F65E271E03F
:101460004AE050E00E944238B2CFEF92FF920F93D1
:101470001F93182F062FF42E8DE993E0B3DFEE248F
:10148000E0914901F0914A018685E81611F4812F17
:1014900009C08485E81611F4802F04C08585E816FC
:1014A00011F48F2D33DFE3948E2D833049F71F9194
:1014B0000F91FF90EF900895EF92FF920F931F937B
:1014C000182F062FF42E80E0DEDD83EA93E08ADF1A
:1014D000EE248E2D5DDF79DFE0914901F0914A0124
:1014E0008685E81611F4812F09C08485E81611F469
:1014F000802F04C08585E81611F48F2D07DF4ADFA1
:10150000E3948E2D833029F71F910F91FF90EF9078
:101510000895682F80E092E0662309F491E062303C
:1015200009F481E008950F93282F84E0289FF001AB
:101530001124E255FE4F608171818281938164366E
:1015400071058105910588F43091020131110DC0BA
:10155000822FDFDF682F892F0E949622BC0180E056
:1015600090E003E024E04EEF03C004E024E04FEFFE
:101570004AD010DF0F910895863058F4E2EAF1E086
:10158000E80FF11DE80FF11D8081918163E0FAD031
:1015900001CF08951F93182F80917C01882319F0A3
:1015A000F9DE80E0B3DE2DDD84E993E01BDF812FDF
:1015B00082958F70E1DF812F8F70DEDF1F9108959C
:1015C000CF93DF938091130182958F70C6E9D1E0AC
:1015D000C80FD11D8881DCDE81E592E003DF8E81BA
:1015E000D7DE81E592E0FEDEC6E9D1E0809113010D
:1015F0008370C80FD11D8E81CBDE80911301CADFAD
:10160000DF91CF910895A0E0B0E0E9E0FBE00C9419
:10161000C637142FC22F033009F4A1C0043009F4D7
:10162000A5C0053051F0063081F00730B1F0B4E6C6
:10163000CB2ED12CE12CF12C17C0A0EACA2EA6E8A3
:10164000DA2EEE24E394F12C0FC0F0E4CF2EF2E476
:10165000DF2EFFE0EF2EF12C07C0E0E8CE2EE6E90A
:10166000DE2EE8E9EE2EF12C5AE0852E912CA12CED
:10167000B12C6C157D058E059F0560F06B5F7F4F6B
:101680008F4F9F4FA50194010E942437CA01B901D1
:101690001F5FEFCF0CE0010F07FD04C0033118F00E
:1016A00002E101C000E01BEA019F112D11241695F3
:1016B000212F220F210F021B21F01F5F23E0201B8F
:1016C000022F2AE030E04AE351E00E941F38AAE3EB
:1016D000B1E00D900020E9F71197AA53B140BA2E5E
:1016E0009D013327802F90E004968217930714F40E
:1016F0001F5F0D5FE12FF0E0EB5AFE4FA490DA2F51
:10170000D01B1D1634F08EE201DEDD2311F080E3E4
:10171000FDDD011101C0DFEF4AE3E42E41E0F42ECC
:101720008701CD2EDD24C7FCD094802F8E198B1518
:1017300068F4F80181918F01E9DD98012A53314065
:101740002C153D0591F78EE2E1DDEFCFAA2011F0D7
:101750008A2DDCDDCC2389F08C2FD8DD0EC038EE4D
:10176000C32E33E0D32EE12CF12C7ECF20E1C22E0C
:1017700027E2D22EE12CF12C77CFCDB7DEB7ECE00B
:101780000C94E2370F93062FBC0180E090E026E531
:101790004DEF39DF0F910895E82FF0E0EE0FFF1FB6
:1017A000E858FF4F8591949120910001420F2091BC
:1017B0001201620F20E024CECF93DF93C82FD62FE3
:1017C000E0914901F0914A0148E16EE18685E4DF4C
:1017D000E0914901F0914A014D2F6C2F8485DCDFA7
:1017E000E0914901F0914A0140E06EE18585D4DF46
:1017F000DF91CF910895CF936ADC80E341DD62E011
:1018000080E990E069DD80E23BDD85EC90E07CDD05
:1018100060E085E017DC80EB93E0E4DD69E085E0E3
:1018200011DC88EA93E0DEDD88E99AE3B0D14FDC91
:1018300083E126DD83E024DD8EEC90E065DD61E070
:1018400082E000DC8EE462DD8DE260DD8AEC93E014
:10185000C9DD6AE082E0F6DB80E558DD8DE256DD29
:101860008AEC93E0BFDD88E99AE391D130DC81E333
:1018700007DD81E205DD87E291E046DD60E085E09D
:10188000E1DB8EE443DD8DE241DD85E43FDD84EC88
:1018900093E0A8DD69E086E0D5DB80E537DD8DE209
:1018A00035DD85E433DD84EC93E09CDD88E99AE363
:1018B0006ED10DDC81E1E4DC8BE191E025DD81E09E
:1018C000DFDC87EF90E020DD60E081E0BBDB8EE4D1
:1018D0001DDD8DE21BDD84E419DD84EC93E082DD07
:1018E00069E082E0AFDB80E511DD8DE20FDD84E4AD
:1018F0000DDD84EC93E076DD88E99AE348D1E7DBFF
:1019000082E3BEDC82E2BCDC8DEE90E0FDDC60E0D8
:1019100085E098DB8EE4FADC8DE2F8DC85E4F6DC29
:101920008FEC93E05FDD69E086E08CDB80E5EEDC48
:101930008DE2ECDC85E4EADC8FEC93E053DD88E9B2
:101940009AE325D1C4DB82E19BDC87EE90E0DCDC0E
:1019500082E096DC85ED90E0D7DC61E081E072DB2F
:101960008EE4D4DC8DE2D2DC84E4D0DC8FEC93E036
:1019700039DD6AE082E066DB80E5C8DC8DE2C6DC4A
:1019800084E4C4DC8FEC93E02DDD88E99AE3FFD09A
:101990009EDB2EDB83E492E025DD33DB8EE392E0F9
:1019A00021DD3ADB86E893E01DDD41DB81E592E055
:1019B00019DDF0DC8DE492E015DDC0E08C2F8F7036
:1019C00071F48C2F8F7321F488E99AE3E0D07FDBE8
:1019D00060E08C2F869586958695867033DB80E255
:1019E0008C0F94DCCF5FCF3549F788E99AE3CFD0ED
:1019F0006EDBCF9108958F932F932AE080953B9AC9
:101A0000089410F4439802C0439A000020D027D0D5
:101A100086952A95B1F72F918F91089503D002D022
:101A200001D000D000D003D002D001D000D0A895C2
:101A300000D003D002D001D000D000D003D002D01B
:101A400001D000D000D003D002D001D000D000D00F
:101A500003D002D001D000D000D003D002D001D0FA
:101A600000D00000089590E0893C28F0885C48ECA4
:101A7000849FC0011124009709F4089520918100EA
:101A8000277019F0DBDF019716C08130910519F03E
:101A900002973EE303C037E180E090E02091B2007E
:101AA000230F2093B30042E04093700027E023BF50
:101AB000889526E023BFA895DECF8F9384E0D3DFFF
:101AC00007C08F9382E0CFDF03C08F9381E0CBDF2D
:101AD0008F911F93182F106410937C00E12FE078F2
:101AE00080913001E81759F0E0933001B0DF8EE9C2
:101AF00080937A0083E083BF889582E083BF20E0F3
:101B000030E0A901E0E01FC08EE980937A0083E015
:101B100083BF889582E083BF6091780070917900DF
:101B2000260F371F411D511DE43061F480913201B1
:101B3000803041F084E02030380720F417FD02C0E7
:101B40001068CACFEF5F80912F01E817E8F260912B
:101B500033017091340117FF04C06091310170911D
:101B6000320180E090E00E94EE362FEF33E040E05B
:101B700050E00E942437B901CA0120912F0130E0C2
:101B800040E050E00E942437C9011F910895EF9270
:101B9000FF920F931F93CF93DF93F82EE92EC5E6A4
:101BA0004F9B05C0CF2DDE2D05E510E019C081E06B
:101BB0005ADFC150A9F7F6CF82E055DF000F4F9BE7
:101BC0000F5F0F730F3379F4111103C0CF2DDE2D8A
:101BD00014E01F5F163990F4A8951C161D0644F0FA
:101BE000D7FFEACF0BC00111F7CF1123A9F306C02D
:101BF0002A972097A9F7CFEFDFEFF2CF812FCDB74C
:101C0000DEB7E6E00C94E837CF933FDAC82F809137
:101C10004B018823D1F0813051F4C33041F461E1AC
:101C200086E010DA8BE272DB61E186E00BDA80E4B9
:101C30009FE1ADDFC33041F480914B01813021F44D
:101C400060E086E0FFD9B9DB29DACF9108958CE016
:101C500090E00E945638382F8DE090E00E94563870
:101C600020913701230F30913801381F20931C0138
:101C700030931D0183E0283E380720F0C901885EBB
:101C8000934002C080E090E062E370E00E94FD3685
:101C9000683008F067E0EDEFF4E0E60FF11DE60FC5
:101CA000F11D459155912591359162E3681B421BC9
:101CB000530B649FC001659F900D1124499662E308
:101CC00070E00E94FD36620F731F70937F01609376
:101CD0007E018EE090E00E945638992787FD90950E
:101CE0006091370170913801860F971F90933201F0
:101CF0008093310190937B0180937A010895CF9373
:101D0000DF9324E130E0B9010E94FD36DC01EFE011
:101D1000F5E0E60FF71FE60FF71FC591D591459146
:101D200055914C1B4A9FC0011124B9010E94FD36F8
:101D30006C0F7D1FCB01DF91CF91089518951895F9
:101D40001092200110921E011092750110925B01F9
:101D500010921F011092480110927C0110926001B4
:101D60001092610110926201109290011092910103
:101D70001092020110928401109285011092860146
:101D80001092870184EF809393010895A1E0B0E061
:101D9000ECECFEE00C94CE3798E097B998B9E82FB8
:101DA000F0E0E45AFE4F949195B9262F281BE20FDC
:101DB000F11D27FDFA95E491E92BE4B9698389DEE9
:101DC0008C016981862F85DE2091330130913401A9
:101DD00036952795A90143505109B801625E7F4F9E
:101DE0004617570778F4255E3F4F0217130750F444
:101DF000BC01625E7F4F4617570720F441E082170F
:101E0000930708F040E014B8842F2196E4E00C9486
:101E1000EA37CF9361E080E0B9DFC82F62E080E06D
:101E2000B5DFC80F62E081E0B1DF8C0FCF9108957C
:101E3000A3E1B0E0EEE1FFE00C94C037182F109260
:101E40002001807FA9F4E5DF833009F0C7C33FD9C3
:101E50008BE894E0C7DAD5D88FE358DA80ED97E0C5
:101E600096DE8B30C8F433D980E392E0BBDAB6C398
:101E7000A6E9FA2E00E02BD982EF93E0B3DAC9DFAE
:101E8000833021F40F5F043010F006C000E088E2D8
:101E9000EADDFA9481F76CC0B4D88CEE91E0A2DA56
:101EA00060E083E090E00E94633860E084E090E0CE
:101EB0000E94633860E082E090E00E94633860E056
:101EC00082E00E9496225C019A83898361E082E02D
:101ED0000E9496226C019C838B8360E081E00E94CB
:101EE00096227C019E838D83B501882777FD80959E
:101EF000982F03E020E24EEF86DBB601882777FDBE
:101F00008095982F20E24EEF7EDBB701882777FD82
:101F10008095982F24E04EEF76DB2AE5A216B104D7
:101F200024F084E190E09A838983698183E090E0E2
:101F30000E9463388AE5C816D10424F084E190E059
:101F40009C838B836B8184E090E00E9463389AE5E8
:101F5000E916F10424F084E190E09E838D836D8185
:101F600082E090E00E94633882E080934B014CDE77
:101F70001F701F87113009F04FC001E010E058EBCF
:101F8000252E52ED352E57E4452E512C62E0962E2B
:101F900078E0A72EECE06E2EF4ECCF2EF6E3DF2EE9
:101FA000E12CF12C3BC0839423E0281568F10ADA78
:101FB00006DA84E5ABD9C80151DAECD9E1E0BE120A
:101FC00032C00E94981F8FE192E00CDA64E08091A9
:101FD000370190913801D6DB14D88AE192E002DA19
:101FE00080917E0190917F0139DA8EEB80932F01F1
:101FF000A7B8A8B814B815B888EE93E0C8DDF4E027
:10200000BF1689F28B3078F288EE93E0C0DD0F5F67
:102010001F4F0830110511F418E71CC1812CB02E98
:10202000B0E27B2EC4CFF2E0BF1241C02091330159
:1020300030913401A8E5BBE10E94CF36A70196019B
:102040000E94463781E085B985E084B980E0288B1D
:10205000398B4A8B5B8B31DD288939894A895B89C9
:10206000821B930B9A83898381E184B980E0288B5A
:10207000398B4A8B5B8B21DD288939894A895B89B9
:10208000821B930B9C838B8384E085B984E184B9A4
:1020900081E0288B398B4A8B5B8B0FDD288939894E
:1020A000821B930B9E838D8384E092E0B7C093E004
:1020B000B91229C095B8EAE0E4B980E0FEDC2091CD
:1020C0003301309134013695279538872F83821B51
:1020D000930B9A838983F2E2F4B980E0EEDC2F81DE
:1020E0003885821B930B9C838B83A5B828E224B987
:1020F00081E0E3DC2F813885821B930B9E838D83E7
:1021000086EF91E08BC084E0B81207C08BE794E0C3
:1021100069D97FDE81115FC287C095E0B91213C013
:1021200015B894B880E0C9DC9A838983A4B881E0AB
:10213000C4DC9C838B8374B882E0BFDC9E838D8378
:1021400086E192E06BC0E6E0BE1227C094B895B875
:1021500080E0B3DC2091330130913401821B930B7A
:102160009A838983A4B8A5B881E0A7DC20913301C4
:1021700030913401821B930B9C838B8374B875B8A8
:1021800082E09BDC2091330130913401821B930B60
:102190009E838D8382E192E041C0F7E0BF1240C090
:1021A0002091330130913401A8E5BBE10E94CF3684
:1021B000A20191010E94243795B883E084B980E0A0
:1021C000288B398B4A8B5B8B78DC288939894A8943
:1021D0005B89821B930B9A838983A5B864B881E0DD
:1021E000288B398B4A8B5B8B68DC288939894A8933
:1021F0005B89821B930B9C838B8375B890E394B9A6
:1022000082E0288B398B4A8B5B8B57DC2889398994
:10221000821B930B9E838D8380EF91E0E3D804C0F3
:10222000E1E0BE1609F4E4CE0E94010889819A819A
:102230000AD9B0D88B819C8106D9ACD88D819E817A
:1022400002D9D6CEBFD88BE794E0CCD884E60BDC9D
:10225000115019F0DEDD8111F5CF0E94670885EE7F
:1022600091E0C0D8609135017091360180E090E036
:1022700003E024E04FEFC7D90E9401088EED91E002
:10228000B1D8609146017091470180E090E024E070
:102290004FEFB9D982E080934B01B6DC1092200158
:1022A0000E9467088AED91E09DD860E082E00E947C
:1022B0006F1C00918801109189011C870B8761E0D8
:1022C00082E00E946F1CC0908801D0908901DE8658
:1022D000CD8660E081E00E946F1CE0908801F09064
:1022E0008901FE82ED8262E080E00E946F1C809195
:1022F0008801909189019C838B8362E081E00E9438
:102300006F1C80918801909189019A87898761E08B
:1023100080E00E946F1C80918801909189019A83CE
:102320008983EF85E13021F020914501223021F4AD
:10233000029698878F8304C098878F8310924501F7
:10234000B801882777FD8095982F03E020E240E0D0
:102350005AD9B601882777FD8095982F20E240E072
:1023600052D9B701882777FD8095982F26E444EF4E
:102370004AD96E01FFE0CF0ED11CFE01319681914A
:1023800091910A97853B9105E8F4EC15FD05B9F7A5
:10239000A5E0EA2EA0E0FA2E8E010F5F1F4FF80194
:1023A00060810E5F1F4F6E5EC7010E946338FFEFB2
:1023B000EF1AFF0A0C151D0591F70E94010880EE27
:1023C00093E010D882E080934B011EDC2F852130F2
:1023D00029F080914501823009F0E7C0E0E4BE2E8B
:1023E00010E0FAE0CF2ED12CE12CF12C0E946708EE
:1023F00080E00E94C80986E893E00E94F20982E02A
:102400000E94C8098DE491E00E94F2091092200117
:1024100060E082E00E946F1C009192016091800157
:10242000709181018091820190918301073F44F472
:10243000A70196010E9424370F5FB901CA01F6CFA8
:1024400000939201609380017093810180938201D7
:1024500090938301073F09F093C0DC01CB018056C4
:102460009109A109B10980399545A105B10508F087
:1024700087C06091940170919501CB018B569F4F5D
:102480008B32914008F07CC01F5F153008F479C092
:102490008CE090E00E9471380E94670886E491E029
:1024A0000E94F20980919401909195010E94230A63
:1024B000CEDB88E088B989E087B980E284B982E020
:1024C00008DB853D9340DCF714B81092320110927E
:1024D000310182E0FEDA8C0180917A0190917B01DA
:1024E000909332018093310182E0F3DA7C01EE0CAB
:1024F000FF1C109232011092310182E0EADAC090A2
:102500007A01D0907B01D0923201C0923101080F44
:10251000191F0E191F090E9401088FE391E00E9404
:10252000F2098EE090E00E94563873E0B72EB80EA4
:102530009601D8010E94DE369701442737FD409569
:10254000542F0E944637B20E6B2D8EE090E00E9411
:1025500063388B2D992787FD90950E94230A77DB9E
:1025600082E080934B0150DB1092450185E090E0C2
:102570000E945638682F88E090E00E94633815C0AA
:1025800010E00E94010860918001709181018091AA
:1025900082019091830104E026E44091920133D8B6
:1025A00088E261DABA9409F021CF89E180932F01A2
:1025B0000E94670880E392E00E94F2090E940108ED
:1025C00082E794E00E94F2091092200182E0809359
:1025D0004B011ADB03C052E0852E26CE6396E2E162
:1025E0000C94DC378091450181110DC085E090E0AD
:1025F0000E94563861E0680F88E090E00E946338DE
:1026000081E0809345010895CF92DF92FF920F936E
:102610001F93CF93DF931F92CDB7DEB7E82FF0E083
:10262000E15AFE4FE491E8B9E860E7B915B8E62F42
:10263000F0E0E45AFE4FE491E4B908E813E1FE2E1D
:10264000FF0C862F698339DA6C01F4B86981801731
:10265000910710F48C01F5CF009701F10E94170843
:1026600086E693E00E94F209D60120EA36E841E0CE
:1026700050E00E94E43628E937EB40E050E00E9449
:102680002437CA01B9018827992702E021E447EFDE
:102690000E94030B88E087B988B914B80F90DF91C6
:1026A000CF911F910F91FF90DF90CF9008950F93DE
:1026B0001F93CF93DF9385E00CDA85E006DAEC0117
:1026C0008C01000F111F000F111F0A561F4F10928F
:1026D0003901043883E0180740F484ED93E00E9448
:1026E000F20981E08093390121C083EE93E00E94DA
:1026F000F20962E0C80146D80E94CA09CA3F86E0D2
:10270000D80780F4C333D64050F486EE94E00E949C
:10271000F2098DECA8D91BB88AECA5D907C08DEEBB
:1027200094E002C080EE93E00E94F209DF91CF9125
:102730001F910F910895AAE1B0E0E1EAF3E10C9452
:10274000C037B82EA62E842EA895E62FF0E0E45AC6
:10275000FE4F5490339624912E87E42FF0E0E45AF4
:10276000FE4F7490E82FF0E0E45AFE4F94903396B9
:102770004490342D38603D872860622E75B8472D0F
:1027800045294B8344B937B948B8862F9ED99887D5
:102790008F8354B88A2D99D91C0114B84FD915B814
:1027A0005B8154B98A2D91D9AF81B8858A179B076F
:1027B00028F5805E9E4FA817B90708F4E0C467B8F3
:1027C00088E088B995B8892D872984B9E0913301CB
:1027D000F0913401F887EF838B2D77D92F813885DD
:1027E000281B390B38872F8394B820903301309001
:1027F00034018B2D6AD9281A390A08C02F813885EF
:10280000205E3E4F8217930708F4B9C420915B0104
:102810008091750190E0820F911D02974CF021305C
:1028200009F0ADC490915801809172019813A7C42A
:10283000172D110F4F8158854437510508F4A4C056
:10284000CA01880F991F44962816390608F09CC0C3
:102850005D8557B948B8812F852984B98A2D31D92A
:102860007C01882D36D96C0115B98A2D2AD997019A
:10287000295A3D4F192928173907D0F588E088B91A
:1028800067B814B915B9882D1CD988349F4028F031
:1028900084E08093200182E204C084E080932001E0
:1028A00084E280931F01F0925101E0925001CE1416
:1028B000DF0440F4C7018C199D0990935701809360
:1028C000560104C010925701109256019701A0E1E1
:1028D000B7E20E94CF3620911A0130911B0140E0EF
:1028E00050E00E94243730935301209352013EC49C
:1028F00088E088B967B814B915B98B2DE2D88C0176
:10290000882DE7D87C0195B88B2DDBD8895A9D4F4F
:102910008017910708F033C448B8BD85B7B9882D32
:10292000D0D8813D934028F484E08093200182E355
:1029300004C084E08093200184E380931F010E157E
:102940001F0538F4E01AF10AF0927101E09270016B
:1029500004C01092710110927001209133013091E6
:102960003401201B310BA0E1B7E20E94CF36209149
:1029700021013091220140E050E00E942437309341
:102980006D0120936C01B7C188E088B967B895B82C
:10299000092D072904B98B2D98D89A878987E0904B
:1029A0003301F0903401882D94D89E838D830A974B
:1029B00088F514B881E057D8812F892984B98B2DE7
:1029C00084D89A8789872091330130913401281B5C
:1029D000390B3A832983882D7CD89E838D838091FF
:1029E0002101909122019C0140E050E060E677EBEC
:1029F00087E490E00E942437A981BA810E94E436DE
:102A0000AD81BE819D0140E050E00E942437690104
:102A10007A0112C0F70129853A85E21BF30BFA838C
:102A2000E983CF014D815E81841B950BBA010E9421
:102A3000FD366B01E12CF12C14B815B848B85D8552
:102A400057B981E010D889EB281687E0380608F0DE
:102A500096C39B8194B98A2D38D88F359D4008F450
:102A600050C114B881E00E94330DBB81B4B981E03C
:102A70000E94330DE12FE529EA8BE4B98A2D25D890
:102A80009A8F898F882D25D8998B888B8B2D21D86B
:102A90009C878B8728893989213D374008F4B3C04A
:102AA00083E0809320018DE080931F01898D9A8DB2
:102AB0002816390620F48C010219130902C0098D69
:102AC0001A8D40901A0150901B01612C712C60E608
:102AD00077EB87E490E0A30192010E942437D801AC
:102AE0000E94E436A889B9898D0120E030E0A9016F
:102AF00098010E94243780917501882369F08091A4
:102B0000660190916701A0916801B09169018217F7
:102B10009307A407B50710F520936601309367016A
:102B20004093680150936901298D3A8DA0E1B7E285
:102B30000E94CF36A30192010E94243730936D0189
:102B400020936C018B859C85E889F9898E1B9F0BEE
:102B500090936B0180936A0121E001C020E0809195
:102B6000660190916701A0916801B09169018C158F
:102B70009D05AE05BF0538F5C0926601D09267018C
:102B8000E0926801F092690189859A852D813E81E4
:102B9000821B930B90936B0180936A0129813A8188
:102BA000A0E1B7E20E94CF362091210130912201AD
:102BB00040E050E00E942437205F384D30936D0193
:102BC00020936C0103C0222309F49BC39101A0E16F
:102BD000B7E20E94CF36A30192010E9424373093BE
:102BE0006F0120936E012F813885A0E1B7E20E942A
:102BF000CF36A30192010E942437309371012093B4
:102C0000700121E07EC331E62316310408F079C05B
:102C1000498D5A8D413D87E0580708F472C084E021
:102C20008093200182E180931F01CA0186509F4F4B
:102C3000AB85BC858A179B0720F483E180931F0135
:102C400020C0EB85FC85298D3A8D2E173F07A8F40F
:102C5000A0911A01B0911B019F01498D5A8D241B2F
:102C6000350B0E94CF369A0140E050E00E94243795
:102C700030936B0120936A0104C010926B01109293
:102C80006A015E855770D52E882D806480937C0004
:102C9000FBE0CF2E01E010E0EE24EA94A3E0FA2E50
:102CA000A89561E0872D36D58A8984B986B18D21B2
:102CB000E9F354B880917A00806480937A0080911F
:102CC0007A0086FDFCCF8091780090917900D70141
:102CD000A81BB90B0A0F1B1FCA9411F7C801880F54
:102CE000991F880F991F69E070E00E94FD3670936C
:102CF000710160937001809175018F5F8093750100
:102D000080CFBB81B4B975B88A2D0E94650D9A83B6
:102D10008983882D0E94690D9E838D836091330184
:102D200070913401681B790B6A30710590F514B805
:102D300081E00E94330D812F852984B915B98A2D30
:102D40000E94650D9A838983882D0E94690D9E8358
:102D50008D8380911A0190911B019C0140E050E00D
:102D600060E677EB87E490E00E942437A981BA817E
:102D70000E94E4362091330130913401ED81FE81CF
:102D80002E1B3F0B40E050E00E94243769017A017E
:102D900009C089819A81861B970B0E94FD366B01C1
:102DA000E12CF12C67B888E088B904B905B98B2DFE
:102DB0000E94650D9A878987882D0E94690D9C83E2
:102DC0008B838A2D0E94690DAC0129853A852034B8
:102DD000364008F0D1C195B88B2D4E8B5F8B0E9489
:102DE000650DBC0194B88B2D6C8B7D8B0E94650D9D
:102DF0009C0115B881E0288F3B8B0E94330D95B85C
:102E00008B2D0E94650D288D3B894E895F896C89C9
:102E10007D892034364008F05AC08133914108F44E
:102E200056C089859A858A569F4F6817790708F09A
:102E30004EC085E08093200180915B018F5F80937D
:102E40005B018B819C81841B950B90935101809336
:102E5000500129853A85241B350B30935701209367
:102E6000560114B815B8EE85E8B981E00E94330D1B
:102E700094B88B2D0E94650D853F910508F04FC2D7
:102E800004B9882D0E94650D813D934008F447C226
:102E90008B2D0E94690D8D3D924008F440C294B87C
:102EA0008B2D0E94650D8D3D924008F438C295B877
:102EB00081E00E94330D15B88B2D0E94650D853F72
:102EC000910508F02CC286E08093200128C204B945
:102ED00005B981E00E94330D19291B8314B94B8178
:102EE00045B98B2D0E94650D8C0180913301909125
:102EF0003401801B910B998B888B882D0E94690D62
:102F00009F878E87A0913301B0913401A81BB90B24
:102F1000BA87A9878A2D0E94690D9C878B87E985CE
:102F2000FA85EE3FF94008F4B2C083E080932001B7
:102F30008CE080931F01488959892416350620F4B6
:102F40008A010219130902C00889198940902101D8
:102F500050902201612C712C60E677EB87E490E0C1
:102F6000A30192010E942437D8010E94E436A9856A
:102F7000BA859D0140E050E00E94243780915B01BA
:102F8000882369F080914C0190914D01A0914E01F0
:102F9000B0914F0182179307A407B50710F520934E
:102FA0004C0130934D0140934E0150934F018E855B
:102FB0009F85EB85FC858E1B9F0B90935101809321
:102FC000500128893989A0E1B7E20E94CF36A301D8
:102FD00092010E942437309353012093520121E043
:102FE00001C020E080914C0190914D01A0914E01D3
:102FF000B0914F018C159D05AE05BF0528F5C09217
:103000004C01D0924D01E0924E01F0924F018D8122
:103010009E8129813A81821B930B90935101809369
:103020005001A0E1B7E20E94CF3620911A01309101
:103030001B0140E050E00E942437205F384D309360
:1030400053012093520103C0222309F469C1910165
:10305000A0E1B7E20E94CF3620911A0130911B0106
:1030600040E050E00E9424373093550120935401F2
:103070002F813885A0E1B7E20E94CF36A3019201EB
:103080000E942437309357012093560148C131E6FE
:103090002316310408F070C04889598949345D40CD
:1030A00008F46AC084E08093200182E080931F01CD
:1030B0008B859C8586509F4F8017910720F483E075
:1030C00080931F0120C0AB85BC85A017B107B8F461
:1030D000A0912101B09122019801EB85FC852E1B66
:1030E0003F0B0E94CF36A889B9899D0140E050E08E
:1030F0000E942437309351012093500104C0109254
:10310000510110925001042D0770882D8064809326
:103110007C001BE0EE24E394F12CA89560E0872D61
:10312000F9D2BB81B4B9B5B986B18023E9F794B8B7
:1031300080917A00806480937A0080917A0086FD85
:10314000FCCF8091780090917900E80EF91E115023
:1031500021F7C701880F991F880F991F69E070E058
:103160000E94FD36709357016093560180915B0178
:103170008F5F80935B01D3C088E087B988B914B8AA
:1031800015B888E087B9E7EC2E16E1E03E0608F4B2
:10319000ACC088B918EC0D85062907B981E00E94FA
:1031A000330D67B88B2D0E94690D429710F01150B6
:1031B000A1F7352C330C292D220F24B925B961E054
:1031C000872D288FA7D28B2D0E94650D9A83898326
:1031D00034B815B8FD85F7B948B860E0872D9AD2A4
:1031E000E0903301F09034018A2D0E94650D8C012E
:1031F00054B88B2D0E94650D6C018A2D0E94690DBB
:10320000C81AD90A88E088B967B894B895B861E057
:10321000872D80D28B2D0E94650D4C018A2D0E9436
:10322000690D881A990A288DC814D90438F424B96C
:1032300025B98B2D0E94650D640118C09701201BD4
:10324000310B3A83298334B815B83D8537B948B86E
:1032500060E0872D5FD200913301109134018A2DF7
:103260000E94650DA801481B590BCA0196012759F8
:10327000310929383141C8F58C159D05B0F5898192
:103280009A8153E0969587955A95E1F7893C910587
:1032900010F088EC90E029813A81820F931F8C1501
:1032A0009D0518F5C60144E0969587954A95E1F786
:1032B00082179307D0F480912001823018F482E0C5
:1032C0008093200180911E01E82FF0E0DF01AA56D3
:1032D000BE4FBC921696AC92EE0FFF1FEE55FE4FFE
:1032E000D182C0828F5F80931E016A2D8B2D26D0E4
:1032F00088E087B988B914B815B86A96E2E10C94E9
:10330000DC37809175018F5F80937501222381F3F3
:1033100080927201A0927301B0927401E9CF21E012
:1033200080915B018F5F80935B01222309F3809280
:103330005801B0925901A0925A01DACFA0E0B0E052
:10334000E4EAF9E10C94C237982E862EA895E62F70
:10335000F0E0E45AFE4FB49033962491E82FF0E069
:10336000E45AFE4FE4903396F490309175018091C9
:103370005B0190E0830F911D892B09F0C6C1A895D0
:103380008091330190913401880F991F880F991F04
:1033900090933401809333018091310190913201F7
:1033A000880F991F880F991F9093320180933101E4
:1033B0008EEB80932F0188E088B9286027B9E4B8A4
:1033C000E5B858E1D52EC0E0D0E0882D0E94650D0B
:1033D000582E492E892D0E94690D8C018C1B9D0B46
:1033E00097FF03C091958195910903972CF0A895BB
:1033F000DA94D1F1E801E9CFEE0C15B8E4B8892DE3
:103400000E94650D8135910578F5E5B8892D0E94FA
:10341000650DEC018F2D886087B9F8B815B8B4B880
:1034200088E1A82EC12CD12C892D0E94650D782E03
:10343000692E882D0E94690D7C018C199D0997FFCA
:1034400003C0919581959109039734F5BB0CB4B8ED
:10345000882D0E94650D5C01003C94E4190708F575
:10346000C53881E0D80708F180913301909134018B
:10347000969587959695879590933401809333011F
:1034800080917A0190917B01909332018093310178
:1034900089E180932F0139C1A895AA9429F3670186
:1034A000C3CFC03B9DE4D907F8F6C0903301D0905C
:1034B000340184EAE81682E0F80608F05FC098E973
:1034C000A916B10488F29E01A8E9B7EB0E94CF3695
:1034D00096012C1B3D0B40E050E00E94243729014F
:1034E0003A0196012A193B09A8E9B7EB0E94CF36A9
:1034F000850120E030E0A90198010E942437C837F7
:10350000DF4070F4C301B201B2E0660F771F881F7D
:10351000991FBA95D1F7620F731F841F951F12C0B0
:1035200098E7A9169FE0B906A0F4CA01B901A2E084
:10353000660F771F881F991FAA95D1F7640D751D17
:10354000861D971D25E030E040E050E00E942437C2
:1035500008C0240D351D461D571D569547953795B6
:103560002795A4E6B0E00E94E4366B017C018CEA6A
:10357000C80E8DE0D81EE11CF11C70C0252D342D25
:103580000217130708F49801C72DD62DCE15DF05B5
:1035900008F4E70159012017310708F45801A091F8
:1035A0002101B0912201C501821B930B9C010E9455
:1035B000CF3696012A193B0940E050E00E9424379B
:1035C00029013A018E01EC16FD0608F48701A0914D
:1035D0001A01B0911B019E01201B310B0E94CF36B6
:1035E0006801E12CF12CA70196010E94243798E78D
:1035F000A9169FE0B90670F4C301B201E2E0660FBC
:10360000771F881F991FEA95D1F7620F731F841FD8
:10361000951F11C008378FE01807B0F4CA01B9012F
:1036200052E0660F771F881F991F5A95D1F7640DD6
:10363000751D861D971D25E030E040E050E00E949A
:10364000243769017A010AC069017A01C40CD51CCA
:10365000E61CF71CF694E794D794C79410912001C8
:10366000133008F001CF9A94980C892D90E0EC016A
:10367000C05ADE4F2881880F991F880F991FFC01BF
:10368000E255FE4F2223D1F1408051806280738049
:10369000A7019601241935094609570957FF07C0A4
:1036A00050954095309521953F4F4F4F5F4FAAE081
:1036B000B0E00E94E436A30192012C593F4F4F4FD6
:1036C0005F4F2C0D3D1D4E1D5F1D0E942437232B87
:1036D000242B252B09F0C8CE123019F081E08093FD
:1036E000200182E0888380917C01E82FF0E0ED5991
:1036F000FE4F90828F5F80937C01B6CEC082D182D4
:10370000E282F38281E08883AFCECDB7DEB7E0E11D
:103710000C94DE37CF93C82FC09595B160FF02C0DF
:10372000982B01C09C2395B994B1982B94B982E051
:103730000E94330D84B18C2384B985B18C2385B963
:10374000CF910895A0E0B0E0E8EAFBE10C94C9371E
:103750008AE0C82E98E0D92E2FE3B22ED7B8D8B879
:1037600015B8B4B880E00E94650D8C0181E00E941C
:10377000690DEC0182E00E94690D20912001283042
:1037800081F428E027B914B81093070100930601CB
:10379000D0930901C093080190930B0180930A0113
:1037A00059C031E0C430D10508F030E021E00430E8
:1037B000110508F020E0232319F08430910508F367
:1037C000083E134010F028E001C029E0C83ED34075
:1037D00008F42260883E934008F4246027B9C0E0D2
:1037E000D0E0A89580E00E945D0D7C0181E00E9400
:1037F000690D8C0182E00E94690D24E1E21625E04A
:10380000F20608F4389A043135E0130708F4399ABF
:10381000843125E0920708F43A9A36E0E316F10481
:1038200028F40630110510F4069738F02196C43FAD
:1038300081E0D807B1F6D092200100E010E00C172B
:103840001D0729F00E94220D0F5F1F4FF8CFCA9469
:1038500009F084CFCDB7DEB7E9E00C94E537CF921D
:10386000DF92EF92FF92CF932091800130918101FE
:103870004091820150918301C09192018AE0C82E4B
:10388000D12CE12CF12C8C2FCF5F213A96E839070F
:1038900091E04907510538F0CA01B901A701960125
:1038A0000E942437F0CF80939201A0913301B09110
:1038B00034010E94E43628E833E140E050E00E9401
:1038C00024372093800130938101409382015093EB
:1038D0008301CF91FF90EF90DF90CF900895A0E00B
:1038E000B0E0E5E7FCE10C94C837C82FD62F8FEF86
:1038F000860F9C2F990F9C0F890F80935D01EC2FF1
:10390000F0E0E45AFE4F1491862F90E0FC01E45A57
:10391000FE4FF490FC01E15AFE4F0491809120018A
:10392000813009F489C280911E012CE931E062EAFC
:1039300071E0D9019A2F921B9817A0F49D919D13C5
:103940000EC0AD0147505109FA0190819C1307C088
:10395000FB01408151814C3D554008F46DC26E5FC2
:103960007F4FE8CF086010928D0110928C01109269
:1039700080011092810110928201109283011092B5
:103980009201E0DE88E088B907B9F4B8F5B88C2F69
:103990000E94690D6C018D2F0E94690DC81AD90A09
:1039A00014B810925F0110925E01E12CF12C20916D
:1039B0005E0130915F01243F314050F515B914B9D3
:1039C0000E941D0D14B815B80E94230DA8958C2FC8
:1039D0000E94690D7C01EC18FD0820915E01309178
:1039E0005F012E37310528F02BE4E216F1040CF4C8
:1039F0001EC28DE2E81681E0F80684F480915E0133
:103A000090915F01019690935F0180935E01CFCF0B
:103A1000EDE2EE16E1E0FE060CF409C220915E0133
:103A200030915F01232B21F0C70100E010E006C0B8
:103A3000F5E1EF16F5E0FF06BCF375C020915E01DD
:103A400030915F012017310758F00E941E0D8C2F16
:103A50000E94690D8C199D09A8950F5F1F4FEECF2D
:103A60008701081B190B1016110694F4093C110567
:103A70000CF0DDC128EE33E0D8010E94DE3697015C
:103A8000442737FD4095542F0E942437690102C016
:103A9000C12CD12CA0905E01B0905F012FEFA21A33
:103AA000B20AC501A0E0B0E080938801909389013B
:103AB000A0938A01B0938B01C701800F911F09D297
:103AC0009C01D5010E94CF366093880170938901D3
:103AD00080938A0190938B016093800170938101A0
:103AE000809382019093830187EF80939201B7DEE8
:103AF0002091800130918101409182015091830198
:103B0000A8EEB3E00E94E43624E630E040E050E066
:103B10000E942437209380013093810140938201D9
:103B20005093830142C10EDE15B88FE087B988E05B
:103B300088B9F12EFF0CF4B880E480937B0084E513
:103B400080BF8C2F806480937C0086E180937A0014
:103B50000E94260D10925F0110925E01109280006B
:103B6000109285001092840087E286BB81E28093E8
:103B70006F0091E090937D01F5B8809120019093C2
:103B80008100843059F481E090E00C2E01C0880F50
:103B90000A94EAF780958F7087B901C007B9F89445
:103BA00083B7817F83BF80917D01882389F083B7AC
:103BB000816083BF7894889583B78E7F83BFF894A4
:103BC000A89580915E0190915F018034964059F7ED
:103BD000789410928100E0908600F0908700109217
:103BE0006F0086E980937A0014B815B88C2F0E9474
:103BF000690D2091370130913801821B930B0C968F
:103C0000909395018093940180915E0190915F0162
:103C10008032934008F00BC180915E0190915F016A
:103C200090938B0180938A01F0928901E092880140
:103C300084EF8093920180915E0190915F018234C4
:103C40009105C8F0609188017091890180918A0185
:103C500090918B0124E630E040E050E00E94243750
:103C6000209388013093890140938A0150938B01FE
:103C700086EF80939201A0917E01B0917F01209107
:103C800088013091890140918A0150918B010E94F5
:103C9000E43620E233E040E050E00E9424372093F5
:103CA00088013093890140938A0150938B012093BE
:103CB0008001309381014093820150938301CFDDD5
:103CC00080919201843F09F060C0C0908001D09043
:103CD0008101E0908201F090830120EAC2162FE07A
:103CE000D206E104F104C0F4A70196012C543F4F21
:103CF0004F4F5F4F60EA7FE080E090E00E94243702
:103D00002C0D3D1D4E1D5F1D2093800130938101C0
:103D1000409382015093830180915D0190E08B5F1D
:103D20009F4F0E945638C0908001D0908101E09052
:103D30008201F0908301482F50E060E070E04C1564
:103D40005D056E057F0568F4C41AD50AE60AF70A10
:103D5000C0928001D0928101E0928201F0928301B1
:103D600014C084E1C80ED11CE11CF11CC416D50698
:103D7000E606F70610F40E94F212109280011092EB
:103D80008101109282011092830114B98091800107
:103D900090918101A0918201B09183014997A10581
:103DA000B10508F444C0C12CD12C80911E01882398
:103DB00021F0809120018430D1F587E080932001AB
:103DC00020919201809193018217BCF028132FC09B
:103DD0004091800150918101609182017091830135
:103DE0008091840190918501A0918601B091870115
:103DF00084179507A607B707D0F4809180019091AA
:103E00008101A0918201B0918301809384019093FC
:103E10008501A0938601B093870120939301D092EE
:103E20008F01C0928E01D0939001C093910188E0E0
:103E300087B988B914B815B8CDB7DEB7EAE00C94E5
:103E4000E4371F920F920FB60F9211248F939F9316
:103E5000B59904C080917D01811109C0B59B10C046
:103E600080918600909187008A3F910548F4809167
:103E70005E0190915F01019690935F0180935E01D6
:103E80009F918F910F900FBE0F901F9018951F92CA
:103E90000F920FB60F9211248F939F9310927D0172
:103EA000B09B10C080918600909187008A3F910559
:103EB00048F480915E0190915F01019690935F01BB
:103EC00080935E019F918F910F900FBE0F901F9076
:103ED00018950F9221E08C32920710F48CE291E059
:103EE0008C52914069E170E00E94FD3699E16B329D
:103EF00010F0982F6BE2981BEDE6F5E0E60FF11D50
:103F0000E60FF11D4591559125913591692F421B81
:103F1000530B649FC001659F900D11240C9669E1BD
:103F200070E00E94FD36620F731FCB010F90089561
:103F3000A0E0B0E0EEE9FFE10C94C63788E893E139
:103F400090933401809333018EEB80932F01C8E06E
:103F5000C8B988E187B90E942B0DC7B984E00E94D7
:103F6000650DAC018B5C9840833F9140A0F481E0EB
:103F7000809348012091330130913401AFEBB9E0D7
:103F80000E94CF369A0140E050E00E9424373093DF
:103F90003401209333018EE00E94690D8EE00E946F
:103FA000650D90933801809337010E94270ED9E068
:103FB000D7B9C1E0C5B9C4B980E00E94650D7C01E4
:103FC0000AE007B914E015B914B981E00E94650D43
:103FD000E80EF91E8CE0882E87B890E1992E95B8EE
:103FE00094B882E00E94650DE80EF91E15B8D8B9A4
:103FF000D7B9C4B9C0913301D091340180E00E9497
:10400000650D5C0108B907B914B90091330110912D
:10401000340181E00E94650D6C0188B887B894B8BE
:10402000809033019090340182E00E94650DC00FB2
:10403000D11FC80DD91DCA19DB09CC19DD09C81B50
:10404000D90B80913301909134014C01880C991C5B
:10405000880E991E8E189F088C1A9D0AA12CB12CCF
:104060009701A0E9BAE10E94CF36A50194010E9410
:10407000243769017A0130934701209346019E015C
:10408000A0E9BAE10E94CF36A50194010E9424372D
:1040900030933601209335012057354E309322015D
:1040A0002093210180E7C81A85EED80AD0921B011F
:1040B000C0921A0189E180932F01CDB7DEB7ECE001
:1040C0000C94E237A3E1B0E0E8E6F0E20C94C037EC
:1040D0001092020180912001813009F023C2809169
:1040E0007C01813009F01EC22090630124E0229EF1
:1040F000F0011124E255FE4F80819181A281B381AC
:10410000893032E59307A105B10508F00BC29B8BFE
:104110008A8B312C61E0822D631528F00E94890A78
:10412000B82EA92E03C00E94890A5C01EA2DF0E096
:10413000E15AFE4F74908B2D90E0FC01E45AFE4F43
:10414000E49115B828E028B92A893B89203F310538
:10415000A8F430FC13C000911A0110911B01005902
:104160001A4121E030E00B2C02C0220F331F0A94C9
:10417000E2F7C9018860872987B908C0E4B9872DAB
:10418000886087B900911A0110911B0144E1642EE7
:104190008B2D0E94610D4C018A2D0E94690D34E027
:1041A0008316910410F4049710F06A9489F760E480
:1041B00060937B0084E580BF8B2D806480937C00BE
:1041C00086E180937A00E12CF12C1092800010920D
:1041D00085001092840087E286BB0E94260D932DF5
:1041E0009170998B30FC05C081E88093810078B88C
:1041F00008C078B80E942F0D80E286BB81E88093CA
:10420000810046B345FF13C028E028B91092810011
:1042100080E286BB80918600909187006C0120919E
:104220008400309185008217930768F013C040FF27
:10423000E8CF31E036BBA895C70101967C018035F7
:104240009105F9F6E1CF40FF05C061E066BB8FEF55
:10425000E81AF80A86E980937A0034E1732E8B2DF0
:104260000E94610D4C018A2D0E94690D24E0821686
:10427000910410F4049710F07A9489F78090460125
:10428000909047018A899B89880E991E800E911E05
:1042900020911C0130911D0100399AE11907B0F4F9
:1042A00061EEC616D104E104F10438F4C60165E0FC
:1042B00070E00E94FD36645101C069E12852310965
:1042C000261B310967FD339586E009C0C40160EB08
:1042D00076E30E94FD3687E0860F285D3F4F90E031
:1042E000A0E0B0E08C159D05AE05BF0528F4C81A06
:1042F000D90AEA0AFB0A03C0C12CD12C76018989AC
:10430000882329F092E2C90ED11CE11CF11C60E562
:10431000E616F10418F0C12CD12C76018BE0C816FA
:10432000D104E104F10428F091E0C91AD108E108B0
:10433000F1084091330150913401A12CB12CA8EE29
:10434000B3E00E94CF362B013C019801DA010E94B4
:10435000CF36A50194010E94243744275527C30175
:10436000B2010E942437C9010E947F0EFC01A50101
:104370009401C701B6010E94EE364B015C01BF01FA
:1043800080E090E023E0660F771F881F991F2A9531
:10439000D1F76B5F7F4F8F4F9F4F2AE030E040E0B7
:1043A00050E00E942437C501B4010E942437832DB8
:1043B00090E0E1E0F0E0EC0FFD1F64E0369EE00DE0
:1043C000F11D112420833183428353836989611154
:1043D00017C06CE0C616D104E104F10488F0FC01BA
:1043E0003196EE0FFF1FEE0FFF1F81E090E08C0F64
:1043F0009D1FE80FF91F2083318342835383339439
:10440000A895339493E0931508F084CE88E088B99A
:1044100084E00E94330D21E04D815E816F817885BB
:1044200089819A81AB81BC8184179507A607B7075C
:1044300008F020E04D855E856F85788989859A85AD
:10444000AB85BC8584179507A607B70710F032E047
:1044500001C033E0E22FF0E0EE0FFF1FEE0FFF1F71
:1044600081E090E08C0F9D1FE80FF91FDC0194E0C4
:10447000399FA00DB11D11244D915D916D917C91DD
:1044800080819181A281B381481759076A077B0710
:1044900008F0322FE1E0F0E0EC0FFD1F24E0329F46
:1044A000E00DF11D112480819181A281B38180935F
:1044B0000C0190930D01A0930E01B0930F0130FDFC
:1044C00009C02A893B89203F310520F48BEF809376
:1044D000020117C02CEF20930201BC01CD016B5FDC
:1044E0007F4F8F4F9F4F2AE030E040E050E00E9426
:1044F000243720930C0130930D0140930E0150930B
:104500000F0180910C0190910D01A0910E01B091CD
:104510000F01892B8A2B8B2B11F41092020188E05A
:1045200087B914B86396E2E10C94DC372F923F927E
:104530004F925F926F927F928F929F92AF92BF92B3
:10454000CF92DF92EF92FF920F931F93DF93CF935F
:10455000CDB7DEB76E970FB6F894DEBF0FBECDBFF6
:10456000662EB82E860F898320912001273041F5D1
:1045700020918401309185014091860150918701FD
:104580001091930109C0CA01B9012AE0312D412DD2
:10459000512D0E9424371F5F173FACF32A3560E08E
:1045A00036074105510518F48FEF9FEF81C1173F82
:1045B00039F480E028178DE738074105410510F0F0
:1045C00020E03DE72C8B3D8B26EDA22E02C094ED22
:1045D000A92EEFE5F1E0E60DF11D859188608E874B
:1045E000EFE5F1E0EB0DF11D859188608F87ECE53B
:1045F000F1E0E60DF11D7590ECE5F1E0EB0DF11D3C
:10460000C59090EC692AB92A81E0E82EF12C012DA1
:10461000112D8E831F82188619861A861B861C868A
:104620001D86188E198E1B8E1A8E8CD888E088B93C
:1046300060927C000E94270D3F8537B975B874B829
:104640000E942E0D14B815B8DD24B4ED9B2EA6EDF6
:104650008A2E3E8537B975B874B860927C00A895EB
:10466000A0927A0080917A0086FDFCCFA0927A0019
:1046700080917A0086FDFCCF209078003090790000
:10468000B0927C00A0927A0080917A0086FDFCCFE7
:1046900080927A000E942C0D0E942E0DC5B8C4B8DD
:1046A0000E942D0D0E942F0DA895A895A895A8955C
:1046B00014B815B880917A0086FDFCCF209178005F
:1046C00030917900288B398B3F8537B9C5B8C4B88C
:1046D000A895B0927C00A0927A0080917A0086FD25
:1046E000FCCFA0927A0080917A0086FDFCCF609189
:1046F00078007091790060927C00A0927A0080919D
:104700007A0086FDFCCF80927A000E942C0D0E94D8
:104710002E0D75B874B80E942D0D0E942F0DA8950E
:10472000A895A895A89514B815B880917A0086FD2B
:10473000FCCF409178005091790014B8CB01820DE4
:10474000931DE80EF91E011D111DEA82FB820C83E8
:104750001D8388899989840F951F2E813F816885E3
:104760007985280F391F611D711D2E833F8368874E
:10477000798722E32417150650F075B874B80E94A3
:10478000310D14B815B8888D8395888F07C0483EC1
:1047900073E0570718F08A8D83958A8F88899989E5
:1047A0002817190660F03E8537B9C5B8C4B80E940D
:1047B000310D14B815B8898D8395898F07C0883E4F
:1047C00073E0970718F08B8D83958B8FD3945D2DB5
:1047D0005F3F09F03ECF4090460150904701440CA6
:1047E000551C9201E4E0240D351DEA95E1F72901FD
:1047F000570168016E807F80888499842091200110
:104800002730C1F46C897D89812D912D6C537040C6
:10481000804090409B01AC010E94EE369B01AC01B0
:104820006FEF71EC8EE390E00E942437621A730AF6
:10483000840A950AA614B704C804D90428F46A188F
:104840007B088C089D0803C0662477244301B201CD
:1048500080E090E09301A4010E94EE369501A6014C
:104860000E94243781E090E07981870F911D0E949A
:10487000563890E0682EC90160E170E00E94FD3674
:10488000260F371FC9016816190618F486199109F1
:104890000FC08C5E9F4F8615910540F48C899D89D1
:1048A000843981E1980710F00E94F212812D912D38
:1048B0006E960FB6F894DEBF0FBECDBFCF91DF91DD
:1048C0001F910F91FF90EF90DF90CF90BF90AF902E
:1048D0009F908F907F906F905F904F903F902F9020
:1048E0000895A0E0B0E0E7E7F4E20C94C6378091C9
:1048F0008E0190918F01892B09F09DC0E09190016C
:10490000F0E0E15AFE4FC491C860E0919101F0E0FF
:10491000E45AFE4F14910E94A21B88E088B915B892
:10492000C7B914B9809191010E94690DEC01009101
:104930009301083F0CF07FC0045FC0908401D090C9
:104940008501E0908601F09087018AE0882E912C05
:10495000A12CB12C043070F4C701B6016B5F7F4FFE
:104960008F4F9F4FA50194010E9424370F5F69016B
:104970007A01F0CFD701C6010197A109B1098838A2
:104980009341A105B10508F056C015B914B9A12C81
:10499000B12CAC14BD0430F40E942D0D82E0A80EA1
:1049A000B11CF7CF14B815B8A89585E080932F01F6
:1049B000809191010E94690DC817D90720F45C010C
:1049C000AC1ABD0A02C0A12CB12C812C912C8C14E4
:1049D0009D0430F40E942D0D2FEF821A920AF7CF1A
:1049E000809191010E94690D29E120932F01A895E2
:1049F000C817D90718F48C1B9D0B02C080E090E00B
:104A00008A159B0588F49501281B390B69F0A4EFE2
:104A1000B1E00E94CF36950140E050E00E9424377B
:104A200030938F0120938E010E94A21B88E087B9EA
:104A300088B914B815B8CDB7DEB7ECE00C94E237FE
:104A4000A5E0B0E0E6E2F5E20C94C03782E594E040
:104A50001AD620EF2A8354980E94220D14BC16BC4B
:104A60001092140110921501109216011092170164
:104A700031E035BB30936E001092800083E19AE7FD
:104A80009093890080938800E1E0F0E0F0938B0040
:104A9000E0938A00109285001092840083B58160B3
:104AA00083BDF6E0F6BBF0936F00789424E020938A
:104AB000810012E319820E941C0DA8954F9902C033
:104AC00031E0398385B581112CC015BC86B5809342
:104AD00014010E940C080E94DD090E9417080E9420
:104AE000DD090E94E20986E60E9486090E94E50926
:104AF0006091140170911501809116019091170138
:104B000007E028E440E00E94030B8AE70E94860940
:104B1000549880918100882339F08FE30E948609A0
:104B200003C0115041F6D1CF1092810010926F0056
:104B300020911401309115014091160150911701F7
:104B4000DA01C9010197A109B109893D9146A10581
:104B5000B10508F029C1AAE0B0E00E94E436685F20
:104B60007F4F8F4F9F4F23E0969587957795679559
:104B70002A95D1F7660F771F7093770160937601BE
:104B800054980E94220D16BC109214011092150127
:104B9000109216011092170181E085BB80936E0080
:104BA000109279011092780194E09BBB809168008B
:104BB000846080936800789480916D008061809318
:104BC0006D001D820E941C0DA8954F9902C0E1E066
:104BD000E98380916D0084FF05C0FD81FF5FFD8347
:104BE000FA3F81F715BC80916D008F7E80936D0038
:104BF000809168008B7F8093680086B58093140154
:104C00000E940C0884E50E9486090E94E5098091B3
:104C1000140190911501A0911601B09117012091F6
:104C20007601309177013C832B831C012D019C017F
:104C3000A20160E070E080E090E003E00E94FD37B8
:104C400051016201E12CF12C00E010E00E941638C5
:104C500059016A017B01E82F192F03E00E94FD37FB
:104C60000E2F0E94163803E00E94FD3751016201A9
:104C7000E12CF12C00E010E00E94163802E00E94C6
:104C8000FD3700E00E94163801E00E94FD3700E089
:104C90000E94163803E00E94FD37EB81FC815F0122
:104CA000C12CD12C00E00E945C3739014A011B0164
:104CB0002C012B813C812038310530F007E023E7BF
:104CC00045EFB301C40116C084E6A82EB12CC12C57
:104CD000D12CE12CF12C00E010E09301C2010E94E4
:104CE0005C37E22FF42F07E023E747EF6E2F732F97
:104CF0008F2F952F0E94030B3D813A3F21F48FE3C4
:104D00000E94860951C09301A401B101C2012C394E
:104D10003E4C43405105610571058105910509F03F
:104D200008F442C00E94170886E60E9486090E9485
:104D3000E5099301A401B101C201530164017101AC
:104D4000820121153A4C4A495B4361057105810591
:104D5000910589F080F020E030E04AE85DE568E701
:104D600075E483E691E00E945C37E22FF42F07E0C0
:104D700028E44AEF0FC020E030E846EC54EA6EE742
:104D80007DE883E090E00E945C37E22FF42F07E09B
:104D900028E44CEF6E2F732F8F2F952F0E94030B5B
:104DA0008AE70E948609549810926E0080ED97E081
:104DB0000E94C70D2981820F29F43A8131503A832C
:104DC000311149CE2596E2E10C94DC371F920F9207
:104DD0000FB60F9211248F939F93AF93BF93789444
:104DE0008091140190911501A0911601B0911701C5
:104DF0009F5FAF4FBF4F8093140190931501A09315
:104E00001601B0931701BF91AF919F918F910F90B1
:104E10000FBE0F901F9018951F920F920FB60F9212
:104E200011248F9386E085BD8F910F900FBE0F9058
:104E30001F9018951F920F920FB60F921124A895EC
:104E40001092810015BC0F900FBE0F901F90189507
:104E50001F920F920FB60F9211242F933F938F93AF
:104E60009F938091780190917901892B11F481E0D1
:104E700085BD2091780130917901809176019091E2
:104E800077012817390730F015BC80916D008F7EAF
:104E900080936D00809178019091790101969093B3
:104EA0007901809378019F918F913F912F910F907D
:104EB0000FBE0F901F9018958C3008F08C50811108
:104EC00003C08CE594E036C0813019F482E594E0AB
:104ED00031C0823019F489E294E02CC0833019F497
:104EE0008EE194E027C0843019F482EC91E022C076
:104EF000853019F487EB91E01DC0863019F48BEAF8
:104F000091E018C0873019F48FE094E013C0883026
:104F100019F480E094E00EC0893019F489EE93E032
:104F200009C08A3019F480E494E004C08B3021F485
:104F300085E394E00C94F20908950F93CF9382ECEB
:104F400091E0A1D3C0E01092200160E082E0B7D3ED
:104F5000809120018730C1F50E94DF0983E40E941F
:104F600086090E94E5096091840170918501809114
:104F700086019091870103E026E4409193010E940D
:104F8000030B6091900180919101D0DA90938D0193
:104F900080938C010E94E20986E793E00E94F20967
:104FA00060918C0170918D016A3F8FEF780740F41A
:104FB00080E090E002E024E04EEF0E94030B0CC082
:104FC0008FE30E94860908C00E94DF0982EC91E00D
:104FD0000E94F2090E94E2098C2FC9D688EE93E064
:104FE0000E94C70D811109C080913901813009F4F7
:104FF000C0E0CF5FCA3F08F4A6CFCF910F910895CC
:1050000008950F93843108F08451833189F489E045
:105010008093810081E090E09093890080938800E4
:1050200007E028E44DEF60E074E985E397E748C1C5
:10503000823189F489E08093810083E090E090934D
:1050400089008093880007E028E44DEF60E07AEC67
:105050008AE99BE335C1813169F489E0809381005D
:1050600087E090E0909389008093880007E028E42F
:105070004DEF6CC0803169F489E0809381008FE04E
:1050800090E0909389008093880007E028E44DEF3A
:105090006FC08F3089F489E08093810089E190E0CE
:1050A000909389008093880007E028E44DEF6AE838
:1050B00071E88BE299E004C18E3069F489E0809355
:1050C000810087E290E0909389008093880007E058
:1050D00028E44DEF60C08D3069F489E08093810051
:1050E0008FE490E0909389008093880007E028E4A3
:1050F0004CEF2CC08C3069F489E0809381008FE9FB
:1051000090E0909389008093880007E028E44CEFBA
:105110002FC08B3069F489E0809381008FE891E0A3
:10512000909389008093880007E028E44CEF33C017
:105130008A3089F489E0809381008FE193E0909335
:1051400089008093880007E028E44BEF60E075E673
:105150008DEC9DE1B5C0893081F4809381008FE3AF
:1051600096E0909389008093880007E028E44BEF55
:1051700060E872EB86EE9EE0A3C0883089F489E097
:10518000809381008FE99FE090938900809388004D
:1051900007E028E44BEF60E071EE85EF95E090C00A
:1051A000873089F489E08093810084E493E29093CE
:1051B00089008093880007E028E44BEF6FE77DEFDC
:1051C00083EA92E07DC0863089F489E08093810093
:1051D00089E593E2909389008093880007E028E4B2
:1051E0004BEF6FEE7BE682EA92E06AC0853089F48D
:1051F00089E08093810082E893E290938900809314
:10520000880007E028E44BEF68E471E68FE992E05C
:1052100057C0843089F489E0809381008FE79EE352
:10522000909389008093880007E028E44BEF60E4C6
:1052300078E78DE791E044C0833069F48BE0809398
:10524000810080E792E0909389008093880007E0D6
:1052500028E44AEFA0CF823071F481EE94E090937D
:1052600089008093880007E028E44AEF60E870EF47
:105270008AEF92E025C0813089F48BE08093810031
:1052800089E698E1909389008093880007E028E4FC
:105290004AEF60E876E988E990E012C0811112C017
:1052A0008CE08093810088E09DE390938900809357
:1052B000880007E028E44AEF60E472E48FE090E0C1
:1052C0000E94030B8AE70E9486090F910895A0E0CF
:1052D000B0E0EDE6F9E20C94CB3789E294E0D3D16B
:1052E00080E18093800010926F0081E090E09093C5
:1052F00089008093880010928B0010928A0083E0CE
:1053000086BB1092820088E08093810015B891E1FD
:1053100094B988B989E087B9229A8093810000E026
:1053200020E0D12C12E1CEE1D0E0802F90E00A966F
:10533000BE010E941137F62E621771F00E94DF093C
:1053400089E294E00E94F209E12CEF1430F48EE23D
:105350000E948609E394F9CFF22ED11609F1143197
:1053600008F014510E94E2090E94CA0983E1810FEA
:1053700048DE0E9417080E94DD090E9417080E945B
:10538000CA0981E0810F3DDE0E940C080E94DD0900
:105390000E940C088EE30E948609812F32DED12EF6
:1053A00088EE93E00E94C70D882331F0853118F014
:1053B0001F5F803558F400E080913901813009F495
:1053C00000E00F5F003F10F42F2DAFCF109281004F
:1053D0001092800088E087B914B82298CDB7DEB764
:1053E000E7E00C94E737A4E0B0E0E9EFF9E20C94D1
:1053F000C4378EE194E047D183E28093800010921D
:105400006F0081E090E090938900809388008FEF97
:1054100090E090938B0080938A0083E086BB10928B
:10542000820015B881E184B988E088B989E087B93C
:10543000229A80938100612C00E08AE0782E10E0AF
:1054400094E6C92ED12CE12CF12C88248A9423E0F7
:10545000922EA12CB12C7016D1F183E6871510F491
:10546000ECE97E0E272D30E0AFEFB3E00E94CF369F
:105470006E5C7F4F8F4F9F4FA70196010E9424378C
:1054800030938B0020938A0029833A834B835C837B
:105490000E94E209A8EEB3E029813A814B815C8148
:1054A0000E94E43661507E4F8F4F9F4FA5019401BB
:1054B0000E942437CA01B90105E025E24FEF0E949E
:1054C000030B193218F08CE30E94330D072D80E492
:1054D00096E00E94C70D182F833898F4833318F094
:1054E000FAE07F0E03C0882311F07394612C809141
:1054F0003901813009F4612C63948FEE861508F030
:10550000AACF88E087B9109281001092800014B869
:1055100022982496EEE00C94E0370F93CF93DF931C
:1055200089EE93E0B0D080E090E00E945638C82F1A
:10553000D0E081E80E9458088C2F0E9458080E94F1
:10554000E2098C2F90E0A0E0B0E004E020E240E02F
:10555000BC01CD010E94030B80E496E00E94C70DC0
:10556000882331F0823860F4893298F0CF5FD0E040
:1055700080913901813009F4D0E0DF5FD03FC8F27B
:105580006C2F80E090E00E946338DF91CF910F9103
:105590000895C150ECCF1F93CF93DF93D0E0C0E0CC
:1055A00087E694E070D00E94E2090E94CA098BE06D
:1055B0008C0F82DC0E940C080E94DD090E940C08FE
:1055C0008EE30E9486098C2F77DC0E9417080E94C8
:1055D000DD090E9417080E94CA0911E01C0F812FE3
:1055E0006BDC80E49FE10E94C70D8111D0E09091B7
:1055F0003901913009F4D0E0823308F436C0CC236D
:1056000009F43DC0C13019F480E01ADA30C0C2306C
:1056100011F45DDE2CC0C33011F4E5DE28C0C430C7
:1056200011F48BDC24C0C53011F4A8D320C0C630DF
:1056300011F411D41CC0C73011F478D118C0C8308F
:1056400021F481E10E94180F12C0C93011F465DF06
:105650000EC0CA3011F4BFD20AC0CB3041F45E98FC
:1056600080E090E00E94C70D02C08111C12FDF5F72
:10567000D83728F4CC3008F493CFCC5091CFDF91B9
:10568000CF911F910895A2E0B0E0E9E4FBE20C9411
:10569000CF3789839A830E94670889819A810E9403
:1056A000F20914E682E00E94330D4F9902C01150B6
:1056B000C9F70E9401082296E3E00C94EB37A0E0C2
:1056C000B0E0E5E6FBE20C94C737C82FD62F8FEF8A
:1056D000860F9C2F990F9C0F890F80935D01862F59
:1056E00090E0FC01E15AFE4F14911860EC2FF0E0BD
:1056F000E45AFE4FB490FC01E45AFE4F049110921C
:105700008D0110928C0110928001109281011092F3
:1057100082011092830187EF809392010E94A21B65
:1057200088E088B917B904B905B98C2F0E94690DB2
:105730008C018D2F0E94690D081B190B14B8109253
:105740005F0110925E0120E030E09CE2E92EFF2430
:10575000F3944AE0A42E54E6952E80915E01909138
:105760005F01843D904308F069C0B5B880915E0147
:1057700090915F01892B89F06701C21AD30A609169
:105780005E0170915F01A29EC001A39E900D112445
:105790000E94FD36C616D70650F4B4B80E94260DF6
:1057A00014B880915E0190915F01019628C08091AC
:1057B0005E0190915F010B97C8F060915E0170915E
:1057C0005F01929EC001939E900D11240E94FD36B0
:1057D0006C157D0558F4B4B80E941C0D14B8809166
:1057E0005E0190915F018C599F4F09C0B4B80E942F
:1057F000210D14B880915E0190915F010A969093FB
:105800005F0180935E0115B80E94280DA8958C2F2A
:105810000E94690D9C01201B310B80915E019091CB
:105820005F018B31964020F0253231050CF474C0B5
:105830002D3281E038070CF490CF05C02D3281E085
:1058400038070CF469C080915E0190915F01019767
:1058500029F4253145E034070CF05EC000915E016B
:1058600010915F01000F111FA80160E070E04093EC
:1058700088015093890160938A0170938B01C9015B
:1058800068E270E00E941137C901860F971F0E94DD
:10589000691F9C01D8010E94CF36609388017093E4
:1058A000890180938A0190938B01609380017093AA
:1058B000810180938201909383010E942F1C60914B
:1058C00080017091810180918201909183012AE091
:1058D00030E040E050E00E94243720938001309374
:1058E0008101409382015093830187E080932001DE
:1058F0002093840130938501409386015093870162
:10590000809192018093930110928F0110928E01E9
:10591000D0939001C093910188E087B988B914B8F9
:1059200015B8CDB7DEB7EBE00C94E337A8E1B0E0F3
:10593000ECE9FCE20C94C6378FE094E0A4DE0E9410
:10594000010889E094E00E94F209DE015196CE013F
:105950000996AE014F5F5F4F9E01275E3F4FF42EC9
:10596000E52E1D921D92FC0111921192CF01FA01B8
:1059700011921192AF01A217B30799F785E185B98A
:1059800084B900E010E0812C48E0D42E59E0C52E07
:105990006AE0B62E7CE0A72ED8B8C7B80E94300DBA
:1059A00086B181FB992490F882FF02C0939493946E
:1059B0000115110589F0981469F0EF2DFE2DE90D00
:1059C000F11DE90DF11D80859185019691878087F4
:1059D000982C02C034E0932EB7B80E94300D96B1D7
:1059E000892F817092FD8E5FF4E09F120BC0EF2D26
:1059F000FE2DE80FF11DE80FF11D808991890196B8
:105A0000918B808BA7B80E94300D96B1892F817041
:105A100091FD8E5F94E099120BC0EF2DFE2DE80FE3
:105A2000F11DE80FF11D80819181019691838083A2
:105A3000A8950E94220D4F9905C015B814B888E0AA
:105A400087B9C5C049895A894531510508F16B8923
:105A50007C8965317105E0F02D893E89253131055C
:105A6000B8F08F89988D8531910590F0260F371FFA
:105A700011E02417350708F010E0FF24F3942817ED
:105A8000390708F0F12CCC24C39422E0E22E4CC05C
:105A900049855A854531510510F16B857C85653105
:105AA0007105E8F02D853E8525313105C0F08F85E3
:105AB00098898531910598F0260F371F11E024173A
:105AC000350708F010E0FF24F3942817390708F091
:105AD000F12CC12C92E0E92EDD24D39430C0498111
:105AE0005A814531510510F16B817C816531710519
:105AF000E8F02D813E8125313105C0F08F819885F8
:105B00008531910598F0260F371F11E024173507CE
:105B100008F010E0FF24F3942817390708F0F12C5F
:105B200082E0C82EEE24E394D12C09C00F5F1F4FF2
:105B30000931E6EF1E0709F44AC0892C2DCF0E94D7
:105B4000E20900E00E9401088D2D0E94C8098DE243
:105B50000E94860900FD02C08DE201C08FE20E9412
:105B600086098DE20E9486098C2D0E94C8098DE26B
:105B70000E94860901FD02C08DE201C08FE20E94F1
:105B800086098DE20E9486098E2D0E94C8090E9416
:105B9000CA09802F837021F4112361F083E405C0CA
:105BA000833041F4FF2031F08FE60E94860980EDBA
:105BB00097E004C00E94CA0980E991E00E94C70DE5
:105BC00081113BCF0F5F083709F0BCCF36CF689605
:105BD000ECE00C94E2370F930E94670880E392E0B8
:105BE0000E94F2090E9401088CEE91E00E94F209E5
:105BF00083E090E00E945638682F70E080E090E0EB
:105C000003E020E24EEF0E94030B84E090E00E944C
:105C10005638682F70E080E090E020E24EEF0E945E
:105C2000030B82E090E00E945638682F70E080E01D
:105C300090E024E04EEF0E94030B0E940C0885EEDA
:105C400091E00E94F209609135017091360180E087
:105C500090E024E04FEF0E94030B0E9417088EEDA6
:105C600091E00E94F209609146017091470180E045
:105C700090E024E04FEF0E94030B88E99AE30E9432
:105C8000C70D0E9467088AED91E00E94F2098AE040
:105C900090E00E945638682F70E080E090E020E2AB
:105CA00040E00E94030B8BE090E00E945638682F82
:105CB00070E080E090E020E240E00E94030B87E08B
:105CC00090E00E945638682F70E080E090E026E473
:105CD00044EF0E94030B0E94010883E00E94CC095C
:105CE00086E090E00E945638682F70E080E090E0F7
:105CF00020E240E00E94030B89E090E00E945638C9
:105D0000682F70E080E090E020E240E00E94030B0A
:105D100085E090E00E945638682F70E080E090E0C7
:105D200026E444EF0E94030B0E940C0886E491E0F5
:105D30000E94F2098CE090E00E945E380E94230AE3
:105D40000E9417088FE391E00E94F2098EE090E034
:105D50000E945638992787FD90950E94230A88E96A
:105D60009AE30E94C70D0E94FB0B0F9108958F705C
:105D700021F40E9417080C94571308950F93CF93A2
:105D800087EB91E080DC6EE080E00E94220882EBED
:105D900091E00E94F209C0E00E94A00E60E082E063
:105DA0000E949E1962E080E00E949E190E940108F4
:105DB00080917C01882349F10E94622081E00E9449
:105DC000930A809102018823F1F08AE693E00E9411
:105DD000F20960910C0170910D0180910E0190917A
:105DE0000F0103E028E4409102010E94030B65E0EB
:105DF00080E00E9422088EE392E00E94F20982E095
:105E00000E94C80912C08CE004C08FE30E9486097A
:105E100083E10E94CC0965E080E00E94220882E0D4
:105E20000E94C80984E00E94CC098C2FA0DF88EE74
:105E300093E00E94C70D811109C080913901813022
:105E400009F4C0E0CF5FCA3F08F4A6CF0E946708FC
:105E5000CF910F9108950F93CF93DF938BEA91E049
:105E600012DC6FE080E00E94220887EA91E00E9445
:105E7000F209C0E0D7E00E94A00E10928F011092AC
:105E80008E0160E082E00E946F1C0E9401088091F8
:105E9000920187FF6FC088E00E94CC090E94010830
:105EA00060918001709181018091820190918301C4
:105EB00004E026E4409192010E94030BD09320015C
:105EC00060E082E00E94962290938D0180938C0185
:105ED00068E08A3F9F4F08F582E00E94220886E72B
:105EE00093E00E94F20960918C0170918D0180E035
:105EF00090E002E024E04EEF0E94030B82E00E945B
:105F0000CC0964E080E00E94220883E492E00E94D1
:105F1000F20982E00E94C80910C082E00E942208B3
:105F20008AE00E94CC0964E080E00E94220882E0BE
:105F30000E94C80985E00E94CC090E9471240E9439
:105F40000C0880918E0190918F01892BD9F08EE6FB
:105F500093E00E94F20960918E0170918F0180E0C0
:105F600090E002E025E24FEF0E94030B84E00E94E4
:105F7000CC090AC08FE30E94860982E10E94CC0905
:105F80000E940C080E94DD098C2FF1DE88EE93E060
:105F90000E94C70D811109C080913901813009F437
:105FA000C0E0CF5FCA3F08F466CF0E946708DF9168
:105FB000CF910F9108951F93CF93DF9381E090E0ED
:105FC0000E945638182F843131F5C0E0D0E0CE0160
:105FD0008B5F9F4F0E945638CC23A1F0C33099F4B9
:105FE000811789F0282F30E0412F50E0BA016F5F10
:105FF0007F4F2617370739F04E5F5F4F241735075D
:1060000011F009C0182F8A50853B28F42196C7301B
:10601000D105E9F642C00E94F80785E40E9486098E
:1060200085E40E94860963E08EE090E00E94633878
:106030006CE070E08CE090E00E94713869E379E3F5
:1060400085E090E00E9471386BE387E090E00E9469
:1060500063386BE388E090E00E9463386BE389E08B
:1060600090E00E94633869E379E38AE090E00E945F
:10607000713864E174E181E090E00E94713864E17C
:1060800074E183E090E00E9471386CE380E090E07E
:106090000E94633888EC0E94330DDF91CF911F91ED
:1060A0000895A4E0B0E0E6E5F0E36AC780E48AB9C9
:1060B0008BB986E880937A001092C10014B784B738
:1060C000877F84BF88E10FB6F894809360001092B8
:1060D00060000FBE86E88093640088E380937E00B2
:1060E0001092B00087E08093B10078940E948108FC
:1060F00013FD44C680E185BF5EDF10E04F9906C006
:1061000082E00E94330D1F5F1C33C1F78FE59DE6CF
:1061100090931901809318011F3130F080E69DE6BD
:106120009093190180931801109230010E94981FDA
:106130001C3308F030DA08E1C02ED12C8CE4A82EF4
:1061400081E0B82E96E6E92E91E0F92E8FEA0E94C2
:10615000580884EA0E9458080E94670828E027B976
:106160000E94A00E0E94981F0E9454080E94F807E7
:106170000E9457133FE00FB6F894A895C0926000B4
:106180000FBE3093600080914801882381F00E9407
:1061900001088BE793E00E94F20963E080913301EC
:1061A000909134010E94C20B88EC0E94330D0E9432
:1061B00001080E94A21B80912001883041F50E94B5
:1061C000670880E893E00E94F2090E94010863E0FA
:1061D00080910601909107010E94C20B0E94CA099A
:1061E00063E080910801909109010E94C20B0E9416
:1061F000CA0963E080910A0190910B010E94C20BD1
:106200008AEC0E94330D81E10E94180F37C588E0A7
:1062100090E04CD7082F85E090E048D7081B00930A
:10622000450180E00E94180F0E94010882EF94E06F
:106230000E94F20942E061E080E00E949B1342E08C
:1062400060E081E00E949B1341E062E080E00E94F8
:106250009B1341E060E082E00E949B1340E062E01B
:1062600081E00E949B1340E061E082E00E949B136A
:1062700080912001811111C083E40E9486090E944F
:10628000A21B60E082E00E946F1C61E082E00E943D
:106290006F1C60E081E00E946F1C0E946708B09252
:1062A0004A01A092490180912001853071F485E373
:1062B0000E94400960E188EF0E94DC0B67E080E00B
:1062C0000E94220889EC94E00FC08630F9F484E340
:1062D0000E94400960E188EF0E94DC0B67E080E0EB
:1062E0000E94220882ED94E00E94F20967E082E0B9
:1062F0000E94220884E993E00E94F20962E0809102
:106300005001909151010E94C20BB8C4873009F02E
:106310006BC0809190010E94C80986E893E00E94BA
:10632000F209809191010E94C8090E947124809114
:106330008E0190918F01892B89F00E940C088EE6C6
:1063400093E00E94F20960918E0170918F0180E0CC
:1063500090E002E025E24FEF0E94030B0E9401084B
:1063600060918401709185018091860190918701EF
:1063700004E026E4409193010E94030B6091900198
:10638000809191010E94962290938D0180938C01BF
:106390008A3F9F4FE8F485E793E00E94F2096091FD
:1063A0008C0170918D0180E090E002E024E04EEFDE
:1063B0000E94030B64E080E00E94220883E492E0E4
:1063C0000E94F209809191010E94C8090E94CA09A5
:1063D000209190018091910190E0820F911D029790
:1063E00009F04CC438DDB2CE823009F0E6C08091AD
:1063F0001E01813009F043C09091960180919C016B
:10640000981750F4892F0E94C80981E592E00E94F4
:10641000F20980919C0108C00E94C8098DE492E0B5
:106420000E94F209809196010E94C809609196012C
:1064300080919C010E94041380E70E94CA0A609127
:10644000960180919C010E946F1C809192018D3F6A
:106450000CF033C30E940C0888EB93E00E94F20911
:1064600060918001709181018091820190918301FE
:1064700003E026E4409192010E94030B1EC3823088
:1064800009F048C082E30E94860988E492E00E94F5
:10649000F2098091960120919701821313C0809197
:1064A0009C010E94C8098DE492E00E94F20980914B
:1064B00096010E94C80981E592E00E94F20980914C
:1064C0009D0116C030919C0190919D01391316C019
:1064D0000E94C80981E592E00E94F20980919C0126
:1064E0000E94C8098DE492E00E94F2098091970110
:1064F0000E94C80981E00E94CA0ADFC2321304C0A8
:1065000081E08093130140C0981341C0F0E1F09303
:1065100013013AC08330D9F583E38093130180914E
:106520009C0190919701891303C021E020931301EE
:106530004091960130919D01431303C020E12093C7
:10654000130120919801821303C082E0809313010C
:1065500080919E01481303C040E24093130132131F
:1065600003C022E120931301981303C081E28093BA
:10657000130180911301823250F483E30E94860953
:1065800088E492E00E94F2090E94E00A96C288ED37
:1065900094E00E94F20980EC94E00E94F2090E94CB
:1065A000010884EA94E00E94F20980911E01805D56
:1065B0000E94860981E592E059C3833009F04CC1FD
:1065C00080917501882399F180915B01882379F18D
:1065D0006091580180915A010E946F1C4090800187
:1065E000509081016090820170908301109192011E
:1065F00060917401809172010E946F1C80919201E0
:1066000018130EC08091800190918101A0918201A8
:10661000B0918301481659066A067B0618F004C03B
:10662000181714F48DE001C08CE080931F01809155
:106630007501882361F080915B01882341F04F99B7
:1066400006C080911F0191E0892780931F0167E0B8
:1066500080E00E94220880E30E94400980911F018F
:106660008C3051F480EB93E00E94F2098091750127
:106670008823A9F080E711C0F0924A01E092490115
:1066800085EC90E00E94840988EA93E00E94F20978
:1066900080915B01882319F08EE60E948609209183
:1066A0001E014091490150914A01ACE9B1E066E90F
:1066B00071E0162F86E991E0181B1217C0F4FB0158
:1066C0008191BF01FA019485891719F03C91391322
:1066D00002C01196EECFFA019585981302C060E0D2
:1066E00001C062E080E990E00E946C0901C014E101
:1066F00060E189EF0E94DC0B87E00E942D088FEBA0
:1067000093E00E94F209E0914901F0914A01608111
:1067100071818281938103E020E040E00E94030BBD
:1067200088E00E942D0889E40E948609E0914901D1
:10673000F0914A01868197818031974270F085E619
:106740000E948609E0914901F0914A018681978172
:10675000805197429783868303C083E60E9486090F
:106760000E94E509E0914901F0914A016681778133
:1067700080E090E002E021E44AEF0E94030B87E012
:106780000E942D0888E993E00E94F209E0914901F6
:10679000F0914A0163E0848195810E94C20B81E0FF
:1067A00080934B01E0914901F0914A0180859185E8
:1067B000892B99F086E00E9443088AE292E00E94C9
:1067C000F209E0914901F0914A016085718580E00C
:1067D00090E021E44AEF0E94030BE0914901F0911F
:1067E0004A0182859385892BA1F086E00E944308A7
:1067F00084E292E00E94F209E0914901F0914A019D
:106800006285738580E090E002E021E44AEF0E9417
:10681000030B1530F0F480E00E944308812E912C88
:1068200094012A563E4F4901F90186810E94C80908
:106830008DE492E00E94F209F40180810E94C8096F
:106840000E94CA0984E993E00E94F209812F0E9404
:10685000BC0A43E462E429C1843009F039C167E02D
:1068600080E00E94220880911F0184FF09C080E51A
:106870000E948609F0924A01E092490101E004C0B9
:106880008EE40E94860900E08DE20E9486098091D4
:106890001F01182F1F70143061F48AEC93E00E94DE
:1068A000F20983E30E9440090023E1F18EEC90E0BD
:1068B00037C085FF05C084E40E9486090E5F03C0CF
:1068C00085E40E9486091330B1F484EC93E00E94C1
:1068D000F20981E30E944009013019F487E291E056
:1068E0001FC0023019F48BE191E01AC00330D1F4DB
:1068F00087EF90E015C08FEC93E00E94F20982E3ED
:106900000E944009013019F48DEE90E009C0023078
:1069100019F487EE90E004C0033021F485ED90E097
:106920000E94840980911E01813029F580911F0108
:1069300084FF08C09091730180917401981740F012
:1069400080E007C09091590180915A018917C0F7E2
:1069500081E0982EE0914901F0914A01958580915E
:106960009601981302C060E001C062E080E990E007
:106970000E946C0901C0912C60E189EF0E94DC0B40
:1069800087E00E942D0880911F0185FD2FC080E9BE
:1069900093E00E94F209E0914901F0914A0162E01E
:1069A000828593850E94C20BE0914901F0914A01D2
:1069B000668584850E946F1C87E00E942D080E94D6
:1069C0000B0A86E00E942D0882EA91E00E94F209FB
:1069D000E0914901F0914A016481758180E090E085
:1069E00002E024E04FEF0E94030B32C08F7084302E
:1069F00051F0E0914901F0914A01668584850E9439
:106A00006F1C0E940B0A80E00E942D0889E40E94FE
:106A1000860984E60E9486090E94E509E091490101
:106A2000F0914A016681778180E090E002E021E404
:106A30004AEF0E94030B8AE893E00E94F209E0917A
:106A40004901F0914A0162E0828593850E94C20B60
:106A500080911E01813029F580E00E944308992031
:106A600059F0809196010E94C80981E592E00E9448
:106A7000F20980919C010AC080919C010E94C80982
:106A80008DE492E00E94F209809196010E94C8096B
:106A90000E94CA0984E993E00E94F20980E00E9402
:106AA000BC0A133021F443E467E485E403C044E402
:106AB00067E483E50E945C0AE1C080917C01882341
:106AC00009F4DCC038E137B988E087B90E940C08C6
:106AD00000917C01002309F4BDC0013039F480919C
:106AE00063010E94890A092F392E59C01091630150
:106AF00030916401F4E03F9FD0011124A255BE4FB4
:106B000024E0129FF0011124E255FE4F4D915D915A
:106B10006D917C9180819181A281B38184179507C9
:106B2000A607B70710F0212F01C0232F023021F450
:106B3000310F13E0131B1CC01091650134E0139F4B
:106B4000D0011124A255BE4F84E0289FF0011124EA
:106B5000E255FE4F4D915D916D917C9180819181C7
:106B6000A281B38184179507A607B70708F0122FF3
:106B7000113029F0123039F001E022E002C002E0C9
:106B800021E080E003C002E020E081E02C830E944D
:106B9000C80983E492E00E94F2092C81822F0E94AE
:106BA000C80983E492E00E94F209802F0E94C8097C
:106BB00080912001823019F40E94170802C00E94BF
:106BC000010880917C01813089F50E9462208091CA
:106BD00063010E94930A809102018823E9F08AE60A
:106BE00093E00E94F20960910C0170910D01809177
:106BF0000E0190910F0103E028E4409102010E94F0
:106C0000030B65E080E00E9422088EE392E00E9480
:106C1000F209832D0E94C80980916301813071F5CA
:106C200080911E0181112AC0A9D890CA111102C0F9
:106C300081E003C0113029F480E00E94930A82E0D1
:106C400006C01230D9F480E00E94930A81E00E94CD
:106C5000930A14C080EB94E00E94F2090E9401089C
:106C60008DED94E00E94F20988ED94E00E94F20913
:106C700086E00E94400980E49FE104C080911801F1
:106C800090911901E8E1E7B94F9BFECF0E94C70D33
:106C9000182F823318F00E94CB2A58CA811156CA85
:106CA00080914501882309F461C0B4E04B2E1B821A
:106CB0001A8280E090E000E12A813B812B5A3D4F0F
:106CC0004901F401E80FF91F2490F0E22F1201C0EE
:106CD000082F019681319105A1F7442031F0142D40
:106CE000137059F40E94670808C080E197E20E947F
:106CF000C70D8823A1F311E135C060E0812F880F13
:106D00000E9422084394242D2370422E612C712C62
:106D1000162D601698F4F401E60DF71D249022203C
:106D200009F13FEF231203C00E94CA0903C0822D5C
:106D30000E9486098FEF681A780AEACF222091F024
:106D40002A813B81200F311D3B832A83F901EB5AB5
:106D5000FD4FE491E03209F0ACCF2F5F3F4F3B8312
:106D60002A83A7CF80E197E20E94C70D0E946308A3
:106D70005E9880E090E00E94C70DE8C90E94F80785
:106D80008BE994E00E94F2098BEC0E94330D0E9483
:106D900063085E9880E090E02496E2E10DC1A29F36
:106DA000B001B39FC001A39F700D811D1124911DDF
:106DB000B29F700D811D1124911D0895F0DFB7FF62
:106DC0000895821B930B0895EADFA59F900DB49F51
:106DD000900DA49F800D911D11240895DB018F93C8
:106DE0009F93F2DFBF91AF91A29F800D911DA39F52
:106DF000900DB29F900D11240895AA1BBB1B51E169
:106E000007C0AA1FBB1FA617B70710F0A61BB70B1A
:106E1000881F991F5A95A9F780959095BC01CD01BF
:106E2000089597FB072E16F4009406D077FD08D03E
:106E3000E4DF07FC05D03EF4909581959F4F0895BF
:106E4000709561957F4F0895A1E21A2EAA1BBB1B76
:106E5000FD010DC0AA1FBB1FEE1FFF1FA217B30726
:106E6000E407F50720F0A21BB30BE40BF50B661F3C
:106E7000771F881F991F1A9469F760957095809500
:106E800090959B01AC01BD01CF010895052E97FBA4
:106E900016F400946DD057FD05D0D6DF07FC02D064
:106EA00046F466C050954095309521953F4F4F4F21
:106EB0005F4F0895689401C0E8948F929F92CF939A
:106EC000DF9305D0DF91CF919F908F900895882414
:106ED0009924F401E401B0E49F93AA279A158B0446
:106EE0009C04ED05FE05CF05D007A10798F4AD2F52
:106EF000DC2FCF2FFE2FE92D982C892E982F872F4E
:106F0000762F652F542F432F322F2227B85031F779
:106F1000BF9127C01B2EBF91BB27220F331F441FD9
:106F2000551F661F771F881F991F881C991CEE1F0D
:106F3000FF1FCC1FDD1FAA1FBB1F8A149B04EC057B
:106F4000FD05CE05DF05A007B10748F08A189B08AC
:106F5000EC09FD09CE09DF09A00BB10B21601A94E1
:106F6000E1F62EF49401AF01BE01CD01000C0895AD
:106F700090958095709561957F4F8F4F9F4F0895A5
:106F80002F923F924F925F926F927F928F929F9239
:106F9000AF92BF92CF92DF92EF92FF920F931F9327
:106FA000CF93DF93CDB7DEB7CA1BDB0B0FB6F894D8
:106FB000DEBF0FBECDBF09942A88398848885F8418
:106FC0006E847D848C849B84AA84B984C884DF8089
:106FD000EE80FD800C811B81AA81B981CE0FD11D6D
:106FE0000FB6F894DEBF0FBECDBFED010895EE0FD2
:106FF000FF1F0590F491E02D09940F93083090F055
:10700000982F872F762F652F542F432F322F22272B
:107010000850F4CF220F331F441F551F661F771FE0
:10702000881F991F0A95B2F70F9108952A193B09F5
:107030004C095D096E097F09800B910B0895FA01D7
:10704000CF93FF93EF932230C4F02532B4F4C22FD4
:107050002C2F332744275527FF93EF93F5DEEF912D
:10706000FF91605D6A330CF0695D6193B901CA01FB
:10707000605070408040904059F710828F919F91EE
:10708000CF9132C0FB019F0142306CF045325CF47D
:10709000642F7727B2DE805D8A330CF0895D81939F
:1070A000CB010097A9F71082C9011EC0F999FECF44
:1070B00092BD81BDF89A992780B50895A8E1B0E006
:1070C00042E050E023C0262FF999FECF1FBA92BDAF
:1070D00081BD20BD0FB6F894FA9AF99A0FBE0196B9
:1070E0000895F1DF272FF0CFDC01FC01672F7191AC
:1070F0007723E1F7329704C07C916D93708362919E
:10710000AE17BF07C8F30895DC01CB01FC01F99964
:10711000FECF06C0F2BDE1BDF89A319600B40D92E3
:0C71200041505040B8F70895F894FFCF9C
:00000001FF
