%!PS-Adobe-2.0 EPSF-2.0
%%Title: ../GNU/Cap_FC_data.tex
%%Creator: gnuplot 4.6 patchlevel 4
%%CreationDate: Mon Apr  6 22:22:33 2015
%%DocumentFonts: 
%%BoundingBox: 50 50 410 302
%%EndComments
%%BeginProlog
/gnudict 256 dict def
gnudict begin
%
% The following true/false flags may be edited by hand if desired.
% The unit line width and grayscale image gamma correction may also be changed.
%
/Color true def
/Blacktext true def
/Solid true def
/Dashlength 1 def
/Landscape false def
/Level1 false def
/Rounded false def
/ClipToBoundingBox false def
/SuppressPDFMark false def
/TransparentPatterns false def
/gnulinewidth 5.000 def
/userlinewidth gnulinewidth def
/Gamma 1.0 def
/BackgroundColor {-1.000 -1.000 -1.000} def
%
/vshift -73 def
/dl1 {
  10.0 Dashlength mul mul
  Rounded { currentlinewidth 0.75 mul sub dup 0 le { pop 0.01 } if } if
} def
/dl2 {
  10.0 Dashlength mul mul
  Rounded { currentlinewidth 0.75 mul add } if
} def
/hpt_ 31.5 def
/vpt_ 31.5 def
/hpt hpt_ def
/vpt vpt_ def
/doclip {
  ClipToBoundingBox {
    newpath 50 50 moveto 410 50 lineto 410 302 lineto 50 302 lineto closepath
    clip
  } if
} def
%
% Gnuplot Prolog Version 4.6 (September 2012)
%
%/SuppressPDFMark true def
%
/M {moveto} bind def
/L {lineto} bind def
/R {rmoveto} bind def
/V {rlineto} bind def
/N {newpath moveto} bind def
/Z {closepath} bind def
/C {setrgbcolor} bind def
/f {rlineto fill} bind def
/g {setgray} bind def
/Gshow {show} def   % May be redefined later in the file to support UTF-8
/vpt2 vpt 2 mul def
/hpt2 hpt 2 mul def
/Lshow {currentpoint stroke M 0 vshift R 
	Blacktext {gsave 0 setgray show grestore} {show} ifelse} def
/Rshow {currentpoint stroke M dup stringwidth pop neg vshift R
	Blacktext {gsave 0 setgray show grestore} {show} ifelse} def
/Cshow {currentpoint stroke M dup stringwidth pop -2 div vshift R 
	Blacktext {gsave 0 setgray show grestore} {show} ifelse} def
/UP {dup vpt_ mul /vpt exch def hpt_ mul /hpt exch def
  /hpt2 hpt 2 mul def /vpt2 vpt 2 mul def} def
/DL {Color {setrgbcolor Solid {pop []} if 0 setdash}
 {pop pop pop 0 setgray Solid {pop []} if 0 setdash} ifelse} def
/BL {stroke userlinewidth 2 mul setlinewidth
	Rounded {1 setlinejoin 1 setlinecap} if} def
/AL {stroke userlinewidth 2 div setlinewidth
	Rounded {1 setlinejoin 1 setlinecap} if} def
/UL {dup gnulinewidth mul /userlinewidth exch def
	dup 1 lt {pop 1} if 10 mul /udl exch def} def
/PL {stroke userlinewidth setlinewidth
	Rounded {1 setlinejoin 1 setlinecap} if} def
3.8 setmiterlimit
% Default Line colors
/LCw {1 1 1} def
/LCb {0 0 0} def
/LCa {0 0 0} def
/LC0 {1 0 0} def
/LC1 {0 1 0} def
/LC2 {0 0 1} def
/LC3 {1 0 1} def
/LC4 {0 1 1} def
/LC5 {1 1 0} def
/LC6 {0 0 0} def
/LC7 {1 0.3 0} def
/LC8 {0.5 0.5 0.5} def
% Default Line Types
/LTw {PL [] 1 setgray} def
/LTb {BL [] LCb DL} def
/LTa {AL [1 udl mul 2 udl mul] 0 setdash LCa setrgbcolor} def
/LT0 {PL [] LC0 DL} def
/LT1 {PL [4 dl1 2 dl2] LC1 DL} def
/LT2 {PL [2 dl1 3 dl2] LC2 DL} def
/LT3 {PL [1 dl1 1.5 dl2] LC3 DL} def
/LT4 {PL [6 dl1 2 dl2 1 dl1 2 dl2] LC4 DL} def
/LT5 {PL [3 dl1 3 dl2 1 dl1 3 dl2] LC5 DL} def
/LT6 {PL [2 dl1 2 dl2 2 dl1 6 dl2] LC6 DL} def
/LT7 {PL [1 dl1 2 dl2 6 dl1 2 dl2 1 dl1 2 dl2] LC7 DL} def
/LT8 {PL [2 dl1 2 dl2 2 dl1 2 dl2 2 dl1 2 dl2 2 dl1 4 dl2] LC8 DL} def
/Pnt {stroke [] 0 setdash gsave 1 setlinecap M 0 0 V stroke grestore} def
/Dia {stroke [] 0 setdash 2 copy vpt add M
  hpt neg vpt neg V hpt vpt neg V
  hpt vpt V hpt neg vpt V closepath stroke
  Pnt} def
/Pls {stroke [] 0 setdash vpt sub M 0 vpt2 V
  currentpoint stroke M
  hpt neg vpt neg R hpt2 0 V stroke
 } def
/Box {stroke [] 0 setdash 2 copy exch hpt sub exch vpt add M
  0 vpt2 neg V hpt2 0 V 0 vpt2 V
  hpt2 neg 0 V closepath stroke
  Pnt} def
/Crs {stroke [] 0 setdash exch hpt sub exch vpt add M
  hpt2 vpt2 neg V currentpoint stroke M
  hpt2 neg 0 R hpt2 vpt2 V stroke} def
/TriU {stroke [] 0 setdash 2 copy vpt 1.12 mul add M
  hpt neg vpt -1.62 mul V
  hpt 2 mul 0 V
  hpt neg vpt 1.62 mul V closepath stroke
  Pnt} def
/Star {2 copy Pls Crs} def
/BoxF {stroke [] 0 setdash exch hpt sub exch vpt add M
  0 vpt2 neg V hpt2 0 V 0 vpt2 V
  hpt2 neg 0 V closepath fill} def
/TriUF {stroke [] 0 setdash vpt 1.12 mul add M
  hpt neg vpt -1.62 mul V
  hpt 2 mul 0 V
  hpt neg vpt 1.62 mul V closepath fill} def
/TriD {stroke [] 0 setdash 2 copy vpt 1.12 mul sub M
  hpt neg vpt 1.62 mul V
  hpt 2 mul 0 V
  hpt neg vpt -1.62 mul V closepath stroke
  Pnt} def
/TriDF {stroke [] 0 setdash vpt 1.12 mul sub M
  hpt neg vpt 1.62 mul V
  hpt 2 mul 0 V
  hpt neg vpt -1.62 mul V closepath fill} def
/DiaF {stroke [] 0 setdash vpt add M
  hpt neg vpt neg V hpt vpt neg V
  hpt vpt V hpt neg vpt V closepath fill} def
/Pent {stroke [] 0 setdash 2 copy gsave
  translate 0 hpt M 4 {72 rotate 0 hpt L} repeat
  closepath stroke grestore Pnt} def
/PentF {stroke [] 0 setdash gsave
  translate 0 hpt M 4 {72 rotate 0 hpt L} repeat
  closepath fill grestore} def
/Circle {stroke [] 0 setdash 2 copy
  hpt 0 360 arc stroke Pnt} def
/CircleF {stroke [] 0 setdash hpt 0 360 arc fill} def
/C0 {BL [] 0 setdash 2 copy moveto vpt 90 450 arc} bind def
/C1 {BL [] 0 setdash 2 copy moveto
	2 copy vpt 0 90 arc closepath fill
	vpt 0 360 arc closepath} bind def
/C2 {BL [] 0 setdash 2 copy moveto
	2 copy vpt 90 180 arc closepath fill
	vpt 0 360 arc closepath} bind def
/C3 {BL [] 0 setdash 2 copy moveto
	2 copy vpt 0 180 arc closepath fill
	vpt 0 360 arc closepath} bind def
/C4 {BL [] 0 setdash 2 copy moveto
	2 copy vpt 180 270 arc closepath fill
	vpt 0 360 arc closepath} bind def
/C5 {BL [] 0 setdash 2 copy moveto
	2 copy vpt 0 90 arc
	2 copy moveto
	2 copy vpt 180 270 arc closepath fill
	vpt 0 360 arc} bind def
/C6 {BL [] 0 setdash 2 copy moveto
	2 copy vpt 90 270 arc closepath fill
	vpt 0 360 arc closepath} bind def
/C7 {BL [] 0 setdash 2 copy moveto
	2 copy vpt 0 270 arc closepath fill
	vpt 0 360 arc closepath} bind def
/C8 {BL [] 0 setdash 2 copy moveto
	2 copy vpt 270 360 arc closepath fill
	vpt 0 360 arc closepath} bind def
/C9 {BL [] 0 setdash 2 copy moveto
	2 copy vpt 270 450 arc closepath fill
	vpt 0 360 arc closepath} bind def
/C10 {BL [] 0 setdash 2 copy 2 copy moveto vpt 270 360 arc closepath fill
	2 copy moveto
	2 copy vpt 90 180 arc closepath fill
	vpt 0 360 arc closepath} bind def
/C11 {BL [] 0 setdash 2 copy moveto
	2 copy vpt 0 180 arc closepath fill
	2 copy moveto
	2 copy vpt 270 360 arc closepath fill
	vpt 0 360 arc closepath} bind def
/C12 {BL [] 0 setdash 2 copy moveto
	2 copy vpt 180 360 arc closepath fill
	vpt 0 360 arc closepath} bind def
/C13 {BL [] 0 setdash 2 copy moveto
	2 copy vpt 0 90 arc closepath fill
	2 copy moveto
	2 copy vpt 180 360 arc closepath fill
	vpt 0 360 arc closepath} bind def
/C14 {BL [] 0 setdash 2 copy moveto
	2 copy vpt 90 360 arc closepath fill
	vpt 0 360 arc} bind def
/C15 {BL [] 0 setdash 2 copy vpt 0 360 arc closepath fill
	vpt 0 360 arc closepath} bind def
/Rec {newpath 4 2 roll moveto 1 index 0 rlineto 0 exch rlineto
	neg 0 rlineto closepath} bind def
/Square {dup Rec} bind def
/Bsquare {vpt sub exch vpt sub exch vpt2 Square} bind def
/S0 {BL [] 0 setdash 2 copy moveto 0 vpt rlineto BL Bsquare} bind def
/S1 {BL [] 0 setdash 2 copy vpt Square fill Bsquare} bind def
/S2 {BL [] 0 setdash 2 copy exch vpt sub exch vpt Square fill Bsquare} bind def
/S3 {BL [] 0 setdash 2 copy exch vpt sub exch vpt2 vpt Rec fill Bsquare} bind def
/S4 {BL [] 0 setdash 2 copy exch vpt sub exch vpt sub vpt Square fill Bsquare} bind def
/S5 {BL [] 0 setdash 2 copy 2 copy vpt Square fill
	exch vpt sub exch vpt sub vpt Square fill Bsquare} bind def
/S6 {BL [] 0 setdash 2 copy exch vpt sub exch vpt sub vpt vpt2 Rec fill Bsquare} bind def
/S7 {BL [] 0 setdash 2 copy exch vpt sub exch vpt sub vpt vpt2 Rec fill
	2 copy vpt Square fill Bsquare} bind def
/S8 {BL [] 0 setdash 2 copy vpt sub vpt Square fill Bsquare} bind def
/S9 {BL [] 0 setdash 2 copy vpt sub vpt vpt2 Rec fill Bsquare} bind def
/S10 {BL [] 0 setdash 2 copy vpt sub vpt Square fill 2 copy exch vpt sub exch vpt Square fill
	Bsquare} bind def
/S11 {BL [] 0 setdash 2 copy vpt sub vpt Square fill 2 copy exch vpt sub exch vpt2 vpt Rec fill
	Bsquare} bind def
/S12 {BL [] 0 setdash 2 copy exch vpt sub exch vpt sub vpt2 vpt Rec fill Bsquare} bind def
/S13 {BL [] 0 setdash 2 copy exch vpt sub exch vpt sub vpt2 vpt Rec fill
	2 copy vpt Square fill Bsquare} bind def
/S14 {BL [] 0 setdash 2 copy exch vpt sub exch vpt sub vpt2 vpt Rec fill
	2 copy exch vpt sub exch vpt Square fill Bsquare} bind def
/S15 {BL [] 0 setdash 2 copy Bsquare fill Bsquare} bind def
/D0 {gsave translate 45 rotate 0 0 S0 stroke grestore} bind def
/D1 {gsave translate 45 rotate 0 0 S1 stroke grestore} bind def
/D2 {gsave translate 45 rotate 0 0 S2 stroke grestore} bind def
/D3 {gsave translate 45 rotate 0 0 S3 stroke grestore} bind def
/D4 {gsave translate 45 rotate 0 0 S4 stroke grestore} bind def
/D5 {gsave translate 45 rotate 0 0 S5 stroke grestore} bind def
/D6 {gsave translate 45 rotate 0 0 S6 stroke grestore} bind def
/D7 {gsave translate 45 rotate 0 0 S7 stroke grestore} bind def
/D8 {gsave translate 45 rotate 0 0 S8 stroke grestore} bind def
/D9 {gsave translate 45 rotate 0 0 S9 stroke grestore} bind def
/D10 {gsave translate 45 rotate 0 0 S10 stroke grestore} bind def
/D11 {gsave translate 45 rotate 0 0 S11 stroke grestore} bind def
/D12 {gsave translate 45 rotate 0 0 S12 stroke grestore} bind def
/D13 {gsave translate 45 rotate 0 0 S13 stroke grestore} bind def
/D14 {gsave translate 45 rotate 0 0 S14 stroke grestore} bind def
/D15 {gsave translate 45 rotate 0 0 S15 stroke grestore} bind def
/DiaE {stroke [] 0 setdash vpt add M
  hpt neg vpt neg V hpt vpt neg V
  hpt vpt V hpt neg vpt V closepath stroke} def
/BoxE {stroke [] 0 setdash exch hpt sub exch vpt add M
  0 vpt2 neg V hpt2 0 V 0 vpt2 V
  hpt2 neg 0 V closepath stroke} def
/TriUE {stroke [] 0 setdash vpt 1.12 mul add M
  hpt neg vpt -1.62 mul V
  hpt 2 mul 0 V
  hpt neg vpt 1.62 mul V closepath stroke} def
/TriDE {stroke [] 0 setdash vpt 1.12 mul sub M
  hpt neg vpt 1.62 mul V
  hpt 2 mul 0 V
  hpt neg vpt -1.62 mul V closepath stroke} def
/PentE {stroke [] 0 setdash gsave
  translate 0 hpt M 4 {72 rotate 0 hpt L} repeat
  closepath stroke grestore} def
/CircE {stroke [] 0 setdash 
  hpt 0 360 arc stroke} def
/Opaque {gsave closepath 1 setgray fill grestore 0 setgray closepath} def
/DiaW {stroke [] 0 setdash vpt add M
  hpt neg vpt neg V hpt vpt neg V
  hpt vpt V hpt neg vpt V Opaque stroke} def
/BoxW {stroke [] 0 setdash exch hpt sub exch vpt add M
  0 vpt2 neg V hpt2 0 V 0 vpt2 V
  hpt2 neg 0 V Opaque stroke} def
/TriUW {stroke [] 0 setdash vpt 1.12 mul add M
  hpt neg vpt -1.62 mul V
  hpt 2 mul 0 V
  hpt neg vpt 1.62 mul V Opaque stroke} def
/TriDW {stroke [] 0 setdash vpt 1.12 mul sub M
  hpt neg vpt 1.62 mul V
  hpt 2 mul 0 V
  hpt neg vpt -1.62 mul V Opaque stroke} def
/PentW {stroke [] 0 setdash gsave
  translate 0 hpt M 4 {72 rotate 0 hpt L} repeat
  Opaque stroke grestore} def
/CircW {stroke [] 0 setdash 
  hpt 0 360 arc Opaque stroke} def
/BoxFill {gsave Rec 1 setgray fill grestore} def
/Density {
  /Fillden exch def
  currentrgbcolor
  /ColB exch def /ColG exch def /ColR exch def
  /ColR ColR Fillden mul Fillden sub 1 add def
  /ColG ColG Fillden mul Fillden sub 1 add def
  /ColB ColB Fillden mul Fillden sub 1 add def
  ColR ColG ColB setrgbcolor} def
/BoxColFill {gsave Rec PolyFill} def
/PolyFill {gsave Density fill grestore grestore} def
/h {rlineto rlineto rlineto gsave closepath fill grestore} bind def
%
% PostScript Level 1 Pattern Fill routine for rectangles
% Usage: x y w h s a XX PatternFill
%	x,y = lower left corner of box to be filled
%	w,h = width and height of box
%	  a = angle in degrees between lines and x-axis
%	 XX = 0/1 for no/yes cross-hatch
%
/PatternFill {gsave /PFa [ 9 2 roll ] def
  PFa 0 get PFa 2 get 2 div add PFa 1 get PFa 3 get 2 div add translate
  PFa 2 get -2 div PFa 3 get -2 div PFa 2 get PFa 3 get Rec
  TransparentPatterns {} {gsave 1 setgray fill grestore} ifelse
  clip
  currentlinewidth 0.5 mul setlinewidth
  /PFs PFa 2 get dup mul PFa 3 get dup mul add sqrt def
  0 0 M PFa 5 get rotate PFs -2 div dup translate
  0 1 PFs PFa 4 get div 1 add floor cvi
	{PFa 4 get mul 0 M 0 PFs V} for
  0 PFa 6 get ne {
	0 1 PFs PFa 4 get div 1 add floor cvi
	{PFa 4 get mul 0 2 1 roll M PFs 0 V} for
 } if
  stroke grestore} def
%
/languagelevel where
 {pop languagelevel} {1} ifelse
 2 lt
	{/InterpretLevel1 true def}
	{/InterpretLevel1 Level1 def}
 ifelse
%
% PostScript level 2 pattern fill definitions
%
/Level2PatternFill {
/Tile8x8 {/PaintType 2 /PatternType 1 /TilingType 1 /BBox [0 0 8 8] /XStep 8 /YStep 8}
	bind def
/KeepColor {currentrgbcolor [/Pattern /DeviceRGB] setcolorspace} bind def
<< Tile8x8
 /PaintProc {0.5 setlinewidth pop 0 0 M 8 8 L 0 8 M 8 0 L stroke} 
>> matrix makepattern
/Pat1 exch def
<< Tile8x8
 /PaintProc {0.5 setlinewidth pop 0 0 M 8 8 L 0 8 M 8 0 L stroke
	0 4 M 4 8 L 8 4 L 4 0 L 0 4 L stroke}
>> matrix makepattern
/Pat2 exch def
<< Tile8x8
 /PaintProc {0.5 setlinewidth pop 0 0 M 0 8 L
	8 8 L 8 0 L 0 0 L fill}
>> matrix makepattern
/Pat3 exch def
<< Tile8x8
 /PaintProc {0.5 setlinewidth pop -4 8 M 8 -4 L
	0 12 M 12 0 L stroke}
>> matrix makepattern
/Pat4 exch def
<< Tile8x8
 /PaintProc {0.5 setlinewidth pop -4 0 M 8 12 L
	0 -4 M 12 8 L stroke}
>> matrix makepattern
/Pat5 exch def
<< Tile8x8
 /PaintProc {0.5 setlinewidth pop -2 8 M 4 -4 L
	0 12 M 8 -4 L 4 12 M 10 0 L stroke}
>> matrix makepattern
/Pat6 exch def
<< Tile8x8
 /PaintProc {0.5 setlinewidth pop -2 0 M 4 12 L
	0 -4 M 8 12 L 4 -4 M 10 8 L stroke}
>> matrix makepattern
/Pat7 exch def
<< Tile8x8
 /PaintProc {0.5 setlinewidth pop 8 -2 M -4 4 L
	12 0 M -4 8 L 12 4 M 0 10 L stroke}
>> matrix makepattern
/Pat8 exch def
<< Tile8x8
 /PaintProc {0.5 setlinewidth pop 0 -2 M 12 4 L
	-4 0 M 12 8 L -4 4 M 8 10 L stroke}
>> matrix makepattern
/Pat9 exch def
/Pattern1 {PatternBgnd KeepColor Pat1 setpattern} bind def
/Pattern2 {PatternBgnd KeepColor Pat2 setpattern} bind def
/Pattern3 {PatternBgnd KeepColor Pat3 setpattern} bind def
/Pattern4 {PatternBgnd KeepColor Landscape {Pat5} {Pat4} ifelse setpattern} bind def
/Pattern5 {PatternBgnd KeepColor Landscape {Pat4} {Pat5} ifelse setpattern} bind def
/Pattern6 {PatternBgnd KeepColor Landscape {Pat9} {Pat6} ifelse setpattern} bind def
/Pattern7 {PatternBgnd KeepColor Landscape {Pat8} {Pat7} ifelse setpattern} bind def
} def
%
%
%End of PostScript Level 2 code
%
/PatternBgnd {
  TransparentPatterns {} {gsave 1 setgray fill grestore} ifelse
} def
%
% Substitute for Level 2 pattern fill codes with
% grayscale if Level 2 support is not selected.
%
/Level1PatternFill {
/Pattern1 {0.250 Density} bind def
/Pattern2 {0.500 Density} bind def
/Pattern3 {0.750 Density} bind def
/Pattern4 {0.125 Density} bind def
/Pattern5 {0.375 Density} bind def
/Pattern6 {0.625 Density} bind def
/Pattern7 {0.875 Density} bind def
} def
%
% Now test for support of Level 2 code
%
Level1 {Level1PatternFill} {Level2PatternFill} ifelse
%
/Symbol-Oblique /Symbol findfont [1 0 .167 1 0 0] makefont
dup length dict begin {1 index /FID eq {pop pop} {def} ifelse} forall
currentdict end definefont pop
Level1 SuppressPDFMark or 
{} {
/SDict 10 dict def
systemdict /pdfmark known not {
  userdict /pdfmark systemdict /cleartomark get put
} if
SDict begin [
  /Title (../GNU/Cap_FC_data.tex)
  /Subject (gnuplot plot)
  /Creator (gnuplot 4.6 patchlevel 4)
  /Author (kub)
%  /Producer (gnuplot)
%  /Keywords ()
  /CreationDate (Mon Apr  6 22:22:33 2015)
  /DOCINFO pdfmark
end
} ifelse
end
%%EndProlog
%%Page: 1 1
gnudict begin
gsave
doclip
50 50 translate
0.050 0.050 scale
0 setgray
newpath
1.000 UL
LTb
LCb setrgbcolor
1.000 UL
LTa
LCa setrgbcolor
1210 704 M
5483 0 V
stroke
LTb
LCb setrgbcolor
1210 704 M
63 0 V
5420 0 R
-63 0 V
stroke
LTb
1210 1112 M
31 0 V
5452 0 R
-31 0 V
1210 1351 M
31 0 V
5452 0 R
-31 0 V
1210 1521 M
31 0 V
5452 0 R
-31 0 V
1210 1653 M
31 0 V
5452 0 R
-31 0 V
1210 1760 M
31 0 V
5452 0 R
-31 0 V
-5452 91 R
31 0 V
5452 0 R
-31 0 V
-5452 78 R
31 0 V
5452 0 R
-31 0 V
-5452 70 R
31 0 V
5452 0 R
-31 0 V
stroke
LTa
LCa setrgbcolor
1210 2061 M
5483 0 V
stroke
LTb
LCb setrgbcolor
1210 2061 M
63 0 V
5420 0 R
-63 0 V
stroke
LTb
1210 2469 M
31 0 V
5452 0 R
-31 0 V
1210 2708 M
31 0 V
5452 0 R
-31 0 V
1210 2878 M
31 0 V
5452 0 R
-31 0 V
1210 3010 M
31 0 V
5452 0 R
-31 0 V
1210 3117 M
31 0 V
5452 0 R
-31 0 V
-5452 91 R
31 0 V
5452 0 R
-31 0 V
-5452 78 R
31 0 V
5452 0 R
-31 0 V
-5452 70 R
31 0 V
5452 0 R
-31 0 V
stroke
LTa
LCa setrgbcolor
1210 3418 M
5483 0 V
stroke
LTb
LCb setrgbcolor
1210 3418 M
63 0 V
5420 0 R
-63 0 V
stroke
LTb
1210 3826 M
31 0 V
5452 0 R
-31 0 V
1210 4065 M
31 0 V
5452 0 R
-31 0 V
1210 4235 M
31 0 V
5452 0 R
-31 0 V
1210 4367 M
31 0 V
5452 0 R
-31 0 V
1210 4474 M
31 0 V
5452 0 R
-31 0 V
-5452 91 R
31 0 V
5452 0 R
-31 0 V
-5452 78 R
31 0 V
5452 0 R
-31 0 V
-5452 70 R
31 0 V
5452 0 R
-31 0 V
stroke
LTa
LCa setrgbcolor
1210 4775 M
5483 0 V
stroke
LTb
LCb setrgbcolor
1210 4775 M
63 0 V
5420 0 R
-63 0 V
stroke
LTb
1.000 UL
LTa
LCa setrgbcolor
1210 704 M
0 4071 V
stroke
LTb
LCb setrgbcolor
1210 704 M
0 63 V
0 4008 R
0 -63 V
stroke
LTb
1540 704 M
0 31 V
0 4040 R
0 -31 V
1976 704 M
0 31 V
0 4040 R
0 -31 V
2200 704 M
0 31 V
0 4040 R
0 -31 V
stroke
LTa
LCa setrgbcolor
2307 704 M
0 4071 V
stroke
LTb
LCb setrgbcolor
2307 704 M
0 63 V
0 4008 R
0 -63 V
stroke
LTb
2637 704 M
0 31 V
0 4040 R
0 -31 V
3073 704 M
0 31 V
0 4040 R
0 -31 V
3297 704 M
0 31 V
0 4040 R
0 -31 V
stroke
LTa
LCa setrgbcolor
3403 704 M
0 4071 V
stroke
LTb
LCb setrgbcolor
3403 704 M
0 63 V
0 4008 R
0 -63 V
stroke
LTb
3733 704 M
0 31 V
0 4040 R
0 -31 V
4170 704 M
0 31 V
0 4040 R
0 -31 V
4394 704 M
0 31 V
0 4040 R
0 -31 V
stroke
LTa
LCa setrgbcolor
4500 704 M
0 4071 V
stroke
LTb
LCb setrgbcolor
4500 704 M
0 63 V
0 4008 R
0 -63 V
stroke
LTb
4830 704 M
0 31 V
0 4040 R
0 -31 V
5266 704 M
0 31 V
0 4040 R
0 -31 V
5490 704 M
0 31 V
0 4040 R
0 -31 V
stroke
LTa
LCa setrgbcolor
5596 704 M
0 3128 V
0 880 R
0 63 V
stroke
LTb
LCb setrgbcolor
5596 704 M
0 63 V
0 4008 R
0 -63 V
stroke
LTb
5927 704 M
0 31 V
0 4040 R
0 -31 V
6363 704 M
0 31 V
0 4040 R
0 -31 V
6587 704 M
0 31 V
0 4040 R
0 -31 V
stroke
LTa
LCa setrgbcolor
6693 704 M
0 4071 V
stroke
LTb
LCb setrgbcolor
6693 704 M
0 63 V
0 4008 R
0 -63 V
stroke
LTb
1.000 UL
LTb
1210 4775 N
0 -4071 V
5483 0 V
0 4071 V
-5483 0 V
Z stroke
1.000 UP
1.000 UL
LTb
2.000 UP
3.000 UL
LT0
LC0 setrgbcolor
1.00 0.00 0.00 C LCb setrgbcolor
LT0
LC0 setrgbcolor
1.00 0.00 0.00 C 5838 4602 M
591 0 V
2780 3826 M
347 -438 V
93 185 V
183 -287 V
87 -339 V
106 63 V
183 -211 V
97 0 V
96 -198 V
79 -447 V
89 0 V
84 0 V
181 -189 V
95 34 V
87 -192 V
106 -131 V
87 -86 V
95 0 V
98 -148 V
95 49 V
80 -140 V
89 -107 V
83 -75 V
93 -119 V
89 0 V
94 -69 V
87 -38 V
107 0 V
2780 3826 CircleF
3127 3388 CircleF
3220 3573 CircleF
3403 3286 CircleF
3490 2947 CircleF
3596 3010 CircleF
3779 2799 CircleF
3876 2799 CircleF
3972 2601 CircleF
4051 2154 CircleF
4140 2154 CircleF
4224 2154 CircleF
4405 1965 CircleF
4500 1999 CircleF
4587 1807 CircleF
4693 1676 CircleF
4780 1590 CircleF
4875 1590 CircleF
4973 1442 CircleF
5068 1491 CircleF
5148 1351 CircleF
5237 1244 CircleF
5320 1169 CircleF
5413 1050 CircleF
5502 1050 CircleF
5596 981 CircleF
5683 943 CircleF
5790 943 CircleF
6133 4602 CircleF
2.000 UP
3.000 UL
LT0
LC0 setrgbcolor
0.00 1.00 0.00 C LCb setrgbcolor
LT0
LC0 setrgbcolor
0.00 1.00 0.00 C 5838 4382 M
591 0 V
2500 3826 M
280 -438 V
175 185 V
89 -287 V
83 -339 V
93 339 V
89 -276 V
94 -211 V
87 0 V
193 -198 V
96 -447 V
97 0 V
96 0 V
79 -155 V
89 -34 V
84 -131 V
92 -27 V
89 -131 V
95 -86 V
87 -26 V
106 -122 V
87 -91 V
95 -20 V
98 -87 V
95 -75 V
80 0 V
89 -119 V
83 -69 V
93 -38 V
89 0 V
2500 3826 Box
2780 3388 Box
2955 3573 Box
3044 3286 Box
3127 2947 Box
3220 3286 Box
3309 3010 Box
3403 2799 Box
3490 2799 Box
3683 2601 Box
3779 2154 Box
3876 2154 Box
3972 2154 Box
4051 1999 Box
4140 1965 Box
4224 1834 Box
4316 1807 Box
4405 1676 Box
4500 1590 Box
4587 1564 Box
4693 1442 Box
4780 1351 Box
4875 1331 Box
4973 1244 Box
5068 1169 Box
5148 1169 Box
5237 1050 Box
5320 981 Box
5413 943 Box
5502 943 Box
6133 4382 Box
2.000 UP
3.000 UL
LT0
LC0 setrgbcolor
0.00 0.00 1.00 C LCb setrgbcolor
LT0
LC0 setrgbcolor
0.00 0.00 1.00 C 5838 4162 M
591 0 V
2123 3826 M
270 -438 V
194 185 V
95 -287 V
98 -339 V
95 339 V
80 -276 V
89 -211 V
83 0 V
93 0 V
89 -198 V
94 -447 V
87 0 V
106 0 V
87 -155 V
96 -34 V
97 -131 V
96 -27 V
79 -131 V
89 0 V
84 -185 V
92 -49 V
89 -91 V
95 0 V
87 -107 V
106 -75 V
87 -119 V
95 0 V
98 -69 V
95 -38 V
80 -41 V
2123 3826 Crs
2393 3388 Crs
2587 3573 Crs
2682 3286 Crs
2780 2947 Crs
2875 3286 Crs
2955 3010 Crs
3044 2799 Crs
3127 2799 Crs
3220 2799 Crs
3309 2601 Crs
3403 2154 Crs
3490 2154 Crs
3596 2154 Crs
3683 1999 Crs
3779 1965 Crs
3876 1834 Crs
3972 1807 Crs
4051 1676 Crs
4140 1676 Crs
4224 1491 Crs
4316 1442 Crs
4405 1351 Crs
4500 1351 Crs
4587 1244 Crs
4693 1169 Crs
4780 1050 Crs
4875 1050 Crs
4973 981 Crs
5068 943 Crs
5148 902 Crs
6133 4162 Crs
2.000 UP
3.000 UL
LT0
LC0 setrgbcolor
1.00 0.00 0.00 C LCb setrgbcolor
LT0
LC0 setrgbcolor
1.00 0.00 0.00 C 5838 3942 M
591 0 V
2123 4156 M
270 -330 V
194 -253 V
95 -155 V
193 0 V
80 -210 V
89 -422 V
83 0 V
93 0 V
89 -171 V
94 -63 V
87 -100 V
106 -51 V
87 -113 V
96 -323 V
97 34 V
96 -34 V
79 -114 V
89 -142 V
84 -56 V
92 -37 V
89 -66 V
95 -91 V
87 -108 V
106 0 V
87 -107 V
2123 4156 Circle
2393 3826 Circle
2587 3573 Circle
2682 3418 Circle
2875 3418 Circle
2955 3208 Circle
3044 2786 Circle
3127 2786 Circle
3220 2786 Circle
3309 2615 Circle
3403 2552 Circle
3490 2452 Circle
3596 2401 Circle
3683 2288 Circle
3779 1965 Circle
3876 1999 Circle
3972 1965 Circle
4051 1851 Circle
4140 1709 Circle
4224 1653 Circle
4316 1616 Circle
4405 1550 Circle
4500 1459 Circle
4587 1351 Circle
4693 1351 Circle
4780 1244 Circle
6133 3942 Circle
1.000 UL
LTb
LCb setrgbcolor
1210 4775 N
0 -4071 V
5483 0 V
0 4071 V
-5483 0 V
Z stroke
1.000 UP
1.000 UL
LTb
stroke
grestore
end
showpage
%%Trailer
