%!PS-Adobe-2.0 EPSF-2.0
%%Title: ../GNU/Cesr2.tex
%%Creator: gnuplot 4.6 patchlevel 4
%%CreationDate: Mon Apr  6 22:22:22 2015
%%DocumentFonts: 
%%BoundingBox: 50 50 410 302
%%EndComments
%%BeginProlog
/gnudict 256 dict def
gnudict begin
%
% The following true/false flags may be edited by hand if desired.
% The unit line width and grayscale image gamma correction may also be changed.
%
/Color true def
/Blacktext true def
/Solid true def
/Dashlength 1 def
/Landscape false def
/Level1 false def
/Rounded false def
/ClipToBoundingBox false def
/SuppressPDFMark false def
/TransparentPatterns false def
/gnulinewidth 5.000 def
/userlinewidth gnulinewidth def
/Gamma 1.0 def
/BackgroundColor {-1.000 -1.000 -1.000} def
%
/vshift -73 def
/dl1 {
  10.0 Dashlength mul mul
  Rounded { currentlinewidth 0.75 mul sub dup 0 le { pop 0.01 } if } if
} def
/dl2 {
  10.0 Dashlength mul mul
  Rounded { currentlinewidth 0.75 mul add } if
} def
/hpt_ 31.5 def
/vpt_ 31.5 def
/hpt hpt_ def
/vpt vpt_ def
/doclip {
  ClipToBoundingBox {
    newpath 50 50 moveto 410 50 lineto 410 302 lineto 50 302 lineto closepath
    clip
  } if
} def
%
% Gnuplot Prolog Version 4.6 (September 2012)
%
%/SuppressPDFMark true def
%
/M {moveto} bind def
/L {lineto} bind def
/R {rmoveto} bind def
/V {rlineto} bind def
/N {newpath moveto} bind def
/Z {closepath} bind def
/C {setrgbcolor} bind def
/f {rlineto fill} bind def
/g {setgray} bind def
/Gshow {show} def   % May be redefined later in the file to support UTF-8
/vpt2 vpt 2 mul def
/hpt2 hpt 2 mul def
/Lshow {currentpoint stroke M 0 vshift R 
	Blacktext {gsave 0 setgray show grestore} {show} ifelse} def
/Rshow {currentpoint stroke M dup stringwidth pop neg vshift R
	Blacktext {gsave 0 setgray show grestore} {show} ifelse} def
/Cshow {currentpoint stroke M dup stringwidth pop -2 div vshift R 
	Blacktext {gsave 0 setgray show grestore} {show} ifelse} def
/UP {dup vpt_ mul /vpt exch def hpt_ mul /hpt exch def
  /hpt2 hpt 2 mul def /vpt2 vpt 2 mul def} def
/DL {Color {setrgbcolor Solid {pop []} if 0 setdash}
 {pop pop pop 0 setgray Solid {pop []} if 0 setdash} ifelse} def
/BL {stroke userlinewidth 2 mul setlinewidth
	Rounded {1 setlinejoin 1 setlinecap} if} def
/AL {stroke userlinewidth 2 div setlinewidth
	Rounded {1 setlinejoin 1 setlinecap} if} def
/UL {dup gnulinewidth mul /userlinewidth exch def
	dup 1 lt {pop 1} if 10 mul /udl exch def} def
/PL {stroke userlinewidth setlinewidth
	Rounded {1 setlinejoin 1 setlinecap} if} def
3.8 setmiterlimit
% Default Line colors
/LCw {1 1 1} def
/LCb {0 0 0} def
/LCa {0 0 0} def
/LC0 {1 0 0} def
/LC1 {0 1 0} def
/LC2 {0 0 1} def
/LC3 {1 0 1} def
/LC4 {0 1 1} def
/LC5 {1 1 0} def
/LC6 {0 0 0} def
/LC7 {1 0.3 0} def
/LC8 {0.5 0.5 0.5} def
% Default Line Types
/LTw {PL [] 1 setgray} def
/LTb {BL [] LCb DL} def
/LTa {AL [1 udl mul 2 udl mul] 0 setdash LCa setrgbcolor} def
/LT0 {PL [] LC0 DL} def
/LT1 {PL [4 dl1 2 dl2] LC1 DL} def
/LT2 {PL [2 dl1 3 dl2] LC2 DL} def
/LT3 {PL [1 dl1 1.5 dl2] LC3 DL} def
/LT4 {PL [6 dl1 2 dl2 1 dl1 2 dl2] LC4 DL} def
/LT5 {PL [3 dl1 3 dl2 1 dl1 3 dl2] LC5 DL} def
/LT6 {PL [2 dl1 2 dl2 2 dl1 6 dl2] LC6 DL} def
/LT7 {PL [1 dl1 2 dl2 6 dl1 2 dl2 1 dl1 2 dl2] LC7 DL} def
/LT8 {PL [2 dl1 2 dl2 2 dl1 2 dl2 2 dl1 2 dl2 2 dl1 4 dl2] LC8 DL} def
/Pnt {stroke [] 0 setdash gsave 1 setlinecap M 0 0 V stroke grestore} def
/Dia {stroke [] 0 setdash 2 copy vpt add M
  hpt neg vpt neg V hpt vpt neg V
  hpt vpt V hpt neg vpt V closepath stroke
  Pnt} def
/Pls {stroke [] 0 setdash vpt sub M 0 vpt2 V
  currentpoint stroke M
  hpt neg vpt neg R hpt2 0 V stroke
 } def
/Box {stroke [] 0 setdash 2 copy exch hpt sub exch vpt add M
  0 vpt2 neg V hpt2 0 V 0 vpt2 V
  hpt2 neg 0 V closepath stroke
  Pnt} def
/Crs {stroke [] 0 setdash exch hpt sub exch vpt add M
  hpt2 vpt2 neg V currentpoint stroke M
  hpt2 neg 0 R hpt2 vpt2 V stroke} def
/TriU {stroke [] 0 setdash 2 copy vpt 1.12 mul add M
  hpt neg vpt -1.62 mul V
  hpt 2 mul 0 V
  hpt neg vpt 1.62 mul V closepath stroke
  Pnt} def
/Star {2 copy Pls Crs} def
/BoxF {stroke [] 0 setdash exch hpt sub exch vpt add M
  0 vpt2 neg V hpt2 0 V 0 vpt2 V
  hpt2 neg 0 V closepath fill} def
/TriUF {stroke [] 0 setdash vpt 1.12 mul add M
  hpt neg vpt -1.62 mul V
  hpt 2 mul 0 V
  hpt neg vpt 1.62 mul V closepath fill} def
/TriD {stroke [] 0 setdash 2 copy vpt 1.12 mul sub M
  hpt neg vpt 1.62 mul V
  hpt 2 mul 0 V
  hpt neg vpt -1.62 mul V closepath stroke
  Pnt} def
/TriDF {stroke [] 0 setdash vpt 1.12 mul sub M
  hpt neg vpt 1.62 mul V
  hpt 2 mul 0 V
  hpt neg vpt -1.62 mul V closepath fill} def
/DiaF {stroke [] 0 setdash vpt add M
  hpt neg vpt neg V hpt vpt neg V
  hpt vpt V hpt neg vpt V closepath fill} def
/Pent {stroke [] 0 setdash 2 copy gsave
  translate 0 hpt M 4 {72 rotate 0 hpt L} repeat
  closepath stroke grestore Pnt} def
/PentF {stroke [] 0 setdash gsave
  translate 0 hpt M 4 {72 rotate 0 hpt L} repeat
  closepath fill grestore} def
/Circle {stroke [] 0 setdash 2 copy
  hpt 0 360 arc stroke Pnt} def
/CircleF {stroke [] 0 setdash hpt 0 360 arc fill} def
/C0 {BL [] 0 setdash 2 copy moveto vpt 90 450 arc} bind def
/C1 {BL [] 0 setdash 2 copy moveto
	2 copy vpt 0 90 arc closepath fill
	vpt 0 360 arc closepath} bind def
/C2 {BL [] 0 setdash 2 copy moveto
	2 copy vpt 90 180 arc closepath fill
	vpt 0 360 arc closepath} bind def
/C3 {BL [] 0 setdash 2 copy moveto
	2 copy vpt 0 180 arc closepath fill
	vpt 0 360 arc closepath} bind def
/C4 {BL [] 0 setdash 2 copy moveto
	2 copy vpt 180 270 arc closepath fill
	vpt 0 360 arc closepath} bind def
/C5 {BL [] 0 setdash 2 copy moveto
	2 copy vpt 0 90 arc
	2 copy moveto
	2 copy vpt 180 270 arc closepath fill
	vpt 0 360 arc} bind def
/C6 {BL [] 0 setdash 2 copy moveto
	2 copy vpt 90 270 arc closepath fill
	vpt 0 360 arc closepath} bind def
/C7 {BL [] 0 setdash 2 copy moveto
	2 copy vpt 0 270 arc closepath fill
	vpt 0 360 arc closepath} bind def
/C8 {BL [] 0 setdash 2 copy moveto
	2 copy vpt 270 360 arc closepath fill
	vpt 0 360 arc closepath} bind def
/C9 {BL [] 0 setdash 2 copy moveto
	2 copy vpt 270 450 arc closepath fill
	vpt 0 360 arc closepath} bind def
/C10 {BL [] 0 setdash 2 copy 2 copy moveto vpt 270 360 arc closepath fill
	2 copy moveto
	2 copy vpt 90 180 arc closepath fill
	vpt 0 360 arc closepath} bind def
/C11 {BL [] 0 setdash 2 copy moveto
	2 copy vpt 0 180 arc closepath fill
	2 copy moveto
	2 copy vpt 270 360 arc closepath fill
	vpt 0 360 arc closepath} bind def
/C12 {BL [] 0 setdash 2 copy moveto
	2 copy vpt 180 360 arc closepath fill
	vpt 0 360 arc closepath} bind def
/C13 {BL [] 0 setdash 2 copy moveto
	2 copy vpt 0 90 arc closepath fill
	2 copy moveto
	2 copy vpt 180 360 arc closepath fill
	vpt 0 360 arc closepath} bind def
/C14 {BL [] 0 setdash 2 copy moveto
	2 copy vpt 90 360 arc closepath fill
	vpt 0 360 arc} bind def
/C15 {BL [] 0 setdash 2 copy vpt 0 360 arc closepath fill
	vpt 0 360 arc closepath} bind def
/Rec {newpath 4 2 roll moveto 1 index 0 rlineto 0 exch rlineto
	neg 0 rlineto closepath} bind def
/Square {dup Rec} bind def
/Bsquare {vpt sub exch vpt sub exch vpt2 Square} bind def
/S0 {BL [] 0 setdash 2 copy moveto 0 vpt rlineto BL Bsquare} bind def
/S1 {BL [] 0 setdash 2 copy vpt Square fill Bsquare} bind def
/S2 {BL [] 0 setdash 2 copy exch vpt sub exch vpt Square fill Bsquare} bind def
/S3 {BL [] 0 setdash 2 copy exch vpt sub exch vpt2 vpt Rec fill Bsquare} bind def
/S4 {BL [] 0 setdash 2 copy exch vpt sub exch vpt sub vpt Square fill Bsquare} bind def
/S5 {BL [] 0 setdash 2 copy 2 copy vpt Square fill
	exch vpt sub exch vpt sub vpt Square fill Bsquare} bind def
/S6 {BL [] 0 setdash 2 copy exch vpt sub exch vpt sub vpt vpt2 Rec fill Bsquare} bind def
/S7 {BL [] 0 setdash 2 copy exch vpt sub exch vpt sub vpt vpt2 Rec fill
	2 copy vpt Square fill Bsquare} bind def
/S8 {BL [] 0 setdash 2 copy vpt sub vpt Square fill Bsquare} bind def
/S9 {BL [] 0 setdash 2 copy vpt sub vpt vpt2 Rec fill Bsquare} bind def
/S10 {BL [] 0 setdash 2 copy vpt sub vpt Square fill 2 copy exch vpt sub exch vpt Square fill
	Bsquare} bind def
/S11 {BL [] 0 setdash 2 copy vpt sub vpt Square fill 2 copy exch vpt sub exch vpt2 vpt Rec fill
	Bsquare} bind def
/S12 {BL [] 0 setdash 2 copy exch vpt sub exch vpt sub vpt2 vpt Rec fill Bsquare} bind def
/S13 {BL [] 0 setdash 2 copy exch vpt sub exch vpt sub vpt2 vpt Rec fill
	2 copy vpt Square fill Bsquare} bind def
/S14 {BL [] 0 setdash 2 copy exch vpt sub exch vpt sub vpt2 vpt Rec fill
	2 copy exch vpt sub exch vpt Square fill Bsquare} bind def
/S15 {BL [] 0 setdash 2 copy Bsquare fill Bsquare} bind def
/D0 {gsave translate 45 rotate 0 0 S0 stroke grestore} bind def
/D1 {gsave translate 45 rotate 0 0 S1 stroke grestore} bind def
/D2 {gsave translate 45 rotate 0 0 S2 stroke grestore} bind def
/D3 {gsave translate 45 rotate 0 0 S3 stroke grestore} bind def
/D4 {gsave translate 45 rotate 0 0 S4 stroke grestore} bind def
/D5 {gsave translate 45 rotate 0 0 S5 stroke grestore} bind def
/D6 {gsave translate 45 rotate 0 0 S6 stroke grestore} bind def
/D7 {gsave translate 45 rotate 0 0 S7 stroke grestore} bind def
/D8 {gsave translate 45 rotate 0 0 S8 stroke grestore} bind def
/D9 {gsave translate 45 rotate 0 0 S9 stroke grestore} bind def
/D10 {gsave translate 45 rotate 0 0 S10 stroke grestore} bind def
/D11 {gsave translate 45 rotate 0 0 S11 stroke grestore} bind def
/D12 {gsave translate 45 rotate 0 0 S12 stroke grestore} bind def
/D13 {gsave translate 45 rotate 0 0 S13 stroke grestore} bind def
/D14 {gsave translate 45 rotate 0 0 S14 stroke grestore} bind def
/D15 {gsave translate 45 rotate 0 0 S15 stroke grestore} bind def
/DiaE {stroke [] 0 setdash vpt add M
  hpt neg vpt neg V hpt vpt neg V
  hpt vpt V hpt neg vpt V closepath stroke} def
/BoxE {stroke [] 0 setdash exch hpt sub exch vpt add M
  0 vpt2 neg V hpt2 0 V 0 vpt2 V
  hpt2 neg 0 V closepath stroke} def
/TriUE {stroke [] 0 setdash vpt 1.12 mul add M
  hpt neg vpt -1.62 mul V
  hpt 2 mul 0 V
  hpt neg vpt 1.62 mul V closepath stroke} def
/TriDE {stroke [] 0 setdash vpt 1.12 mul sub M
  hpt neg vpt 1.62 mul V
  hpt 2 mul 0 V
  hpt neg vpt -1.62 mul V closepath stroke} def
/PentE {stroke [] 0 setdash gsave
  translate 0 hpt M 4 {72 rotate 0 hpt L} repeat
  closepath stroke grestore} def
/CircE {stroke [] 0 setdash 
  hpt 0 360 arc stroke} def
/Opaque {gsave closepath 1 setgray fill grestore 0 setgray closepath} def
/DiaW {stroke [] 0 setdash vpt add M
  hpt neg vpt neg V hpt vpt neg V
  hpt vpt V hpt neg vpt V Opaque stroke} def
/BoxW {stroke [] 0 setdash exch hpt sub exch vpt add M
  0 vpt2 neg V hpt2 0 V 0 vpt2 V
  hpt2 neg 0 V Opaque stroke} def
/TriUW {stroke [] 0 setdash vpt 1.12 mul add M
  hpt neg vpt -1.62 mul V
  hpt 2 mul 0 V
  hpt neg vpt 1.62 mul V Opaque stroke} def
/TriDW {stroke [] 0 setdash vpt 1.12 mul sub M
  hpt neg vpt 1.62 mul V
  hpt 2 mul 0 V
  hpt neg vpt -1.62 mul V Opaque stroke} def
/PentW {stroke [] 0 setdash gsave
  translate 0 hpt M 4 {72 rotate 0 hpt L} repeat
  Opaque stroke grestore} def
/CircW {stroke [] 0 setdash 
  hpt 0 360 arc Opaque stroke} def
/BoxFill {gsave Rec 1 setgray fill grestore} def
/Density {
  /Fillden exch def
  currentrgbcolor
  /ColB exch def /ColG exch def /ColR exch def
  /ColR ColR Fillden mul Fillden sub 1 add def
  /ColG ColG Fillden mul Fillden sub 1 add def
  /ColB ColB Fillden mul Fillden sub 1 add def
  ColR ColG ColB setrgbcolor} def
/BoxColFill {gsave Rec PolyFill} def
/PolyFill {gsave Density fill grestore grestore} def
/h {rlineto rlineto rlineto gsave closepath fill grestore} bind def
%
% PostScript Level 1 Pattern Fill routine for rectangles
% Usage: x y w h s a XX PatternFill
%	x,y = lower left corner of box to be filled
%	w,h = width and height of box
%	  a = angle in degrees between lines and x-axis
%	 XX = 0/1 for no/yes cross-hatch
%
/PatternFill {gsave /PFa [ 9 2 roll ] def
  PFa 0 get PFa 2 get 2 div add PFa 1 get PFa 3 get 2 div add translate
  PFa 2 get -2 div PFa 3 get -2 div PFa 2 get PFa 3 get Rec
  TransparentPatterns {} {gsave 1 setgray fill grestore} ifelse
  clip
  currentlinewidth 0.5 mul setlinewidth
  /PFs PFa 2 get dup mul PFa 3 get dup mul add sqrt def
  0 0 M PFa 5 get rotate PFs -2 div dup translate
  0 1 PFs PFa 4 get div 1 add floor cvi
	{PFa 4 get mul 0 M 0 PFs V} for
  0 PFa 6 get ne {
	0 1 PFs PFa 4 get div 1 add floor cvi
	{PFa 4 get mul 0 2 1 roll M PFs 0 V} for
 } if
  stroke grestore} def
%
/languagelevel where
 {pop languagelevel} {1} ifelse
 2 lt
	{/InterpretLevel1 true def}
	{/InterpretLevel1 Level1 def}
 ifelse
%
% PostScript level 2 pattern fill definitions
%
/Level2PatternFill {
/Tile8x8 {/PaintType 2 /PatternType 1 /TilingType 1 /BBox [0 0 8 8] /XStep 8 /YStep 8}
	bind def
/KeepColor {currentrgbcolor [/Pattern /DeviceRGB] setcolorspace} bind def
<< Tile8x8
 /PaintProc {0.5 setlinewidth pop 0 0 M 8 8 L 0 8 M 8 0 L stroke} 
>> matrix makepattern
/Pat1 exch def
<< Tile8x8
 /PaintProc {0.5 setlinewidth pop 0 0 M 8 8 L 0 8 M 8 0 L stroke
	0 4 M 4 8 L 8 4 L 4 0 L 0 4 L stroke}
>> matrix makepattern
/Pat2 exch def
<< Tile8x8
 /PaintProc {0.5 setlinewidth pop 0 0 M 0 8 L
	8 8 L 8 0 L 0 0 L fill}
>> matrix makepattern
/Pat3 exch def
<< Tile8x8
 /PaintProc {0.5 setlinewidth pop -4 8 M 8 -4 L
	0 12 M 12 0 L stroke}
>> matrix makepattern
/Pat4 exch def
<< Tile8x8
 /PaintProc {0.5 setlinewidth pop -4 0 M 8 12 L
	0 -4 M 12 8 L stroke}
>> matrix makepattern
/Pat5 exch def
<< Tile8x8
 /PaintProc {0.5 setlinewidth pop -2 8 M 4 -4 L
	0 12 M 8 -4 L 4 12 M 10 0 L stroke}
>> matrix makepattern
/Pat6 exch def
<< Tile8x8
 /PaintProc {0.5 setlinewidth pop -2 0 M 4 12 L
	0 -4 M 8 12 L 4 -4 M 10 8 L stroke}
>> matrix makepattern
/Pat7 exch def
<< Tile8x8
 /PaintProc {0.5 setlinewidth pop 8 -2 M -4 4 L
	12 0 M -4 8 L 12 4 M 0 10 L stroke}
>> matrix makepattern
/Pat8 exch def
<< Tile8x8
 /PaintProc {0.5 setlinewidth pop 0 -2 M 12 4 L
	-4 0 M 12 8 L -4 4 M 8 10 L stroke}
>> matrix makepattern
/Pat9 exch def
/Pattern1 {PatternBgnd KeepColor Pat1 setpattern} bind def
/Pattern2 {PatternBgnd KeepColor Pat2 setpattern} bind def
/Pattern3 {PatternBgnd KeepColor Pat3 setpattern} bind def
/Pattern4 {PatternBgnd KeepColor Landscape {Pat5} {Pat4} ifelse setpattern} bind def
/Pattern5 {PatternBgnd KeepColor Landscape {Pat4} {Pat5} ifelse setpattern} bind def
/Pattern6 {PatternBgnd KeepColor Landscape {Pat9} {Pat6} ifelse setpattern} bind def
/Pattern7 {PatternBgnd KeepColor Landscape {Pat8} {Pat7} ifelse setpattern} bind def
} def
%
%
%End of PostScript Level 2 code
%
/PatternBgnd {
  TransparentPatterns {} {gsave 1 setgray fill grestore} ifelse
} def
%
% Substitute for Level 2 pattern fill codes with
% grayscale if Level 2 support is not selected.
%
/Level1PatternFill {
/Pattern1 {0.250 Density} bind def
/Pattern2 {0.500 Density} bind def
/Pattern3 {0.750 Density} bind def
/Pattern4 {0.125 Density} bind def
/Pattern5 {0.375 Density} bind def
/Pattern6 {0.625 Density} bind def
/Pattern7 {0.875 Density} bind def
} def
%
% Now test for support of Level 2 code
%
Level1 {Level1PatternFill} {Level2PatternFill} ifelse
%
/Symbol-Oblique /Symbol findfont [1 0 .167 1 0 0] makefont
dup length dict begin {1 index /FID eq {pop pop} {def} ifelse} forall
currentdict end definefont pop
Level1 SuppressPDFMark or 
{} {
/SDict 10 dict def
systemdict /pdfmark known not {
  userdict /pdfmark systemdict /cleartomark get put
} if
SDict begin [
  /Title (../GNU/Cesr2.tex)
  /Subject (gnuplot plot)
  /Creator (gnuplot 4.6 patchlevel 4)
  /Author (kub)
%  /Producer (gnuplot)
%  /Keywords ()
  /CreationDate (Mon Apr  6 22:22:22 2015)
  /DOCINFO pdfmark
end
} ifelse
end
%%EndProlog
%%Page: 1 1
gnudict begin
gsave
doclip
50 50 translate
0.050 0.050 scale
0 setgray
newpath
1.000 UL
LTb
LCb setrgbcolor
1.000 UL
LTa
LCa setrgbcolor
814 704 M
5989 0 V
stroke
LTb
LCb setrgbcolor
814 704 M
63 0 V
5926 0 R
-63 0 V
stroke
LTb
1.000 UL
LTa
LCa setrgbcolor
814 1383 M
5989 0 V
stroke
LTb
LCb setrgbcolor
814 1383 M
63 0 V
5926 0 R
-63 0 V
stroke
LTb
1.000 UL
LTa
LCa setrgbcolor
814 2061 M
5989 0 V
stroke
LTb
LCb setrgbcolor
814 2061 M
63 0 V
5926 0 R
-63 0 V
stroke
LTb
1.000 UL
LTa
LCa setrgbcolor
814 2740 M
5989 0 V
stroke
LTb
LCb setrgbcolor
814 2740 M
63 0 V
5926 0 R
-63 0 V
stroke
LTb
1.000 UL
LTa
LCa setrgbcolor
814 3418 M
4348 0 V
1509 0 R
132 0 V
stroke
LTb
LCb setrgbcolor
814 3418 M
63 0 V
5926 0 R
-63 0 V
stroke
LTb
1.000 UL
LTa
LCa setrgbcolor
814 4097 M
4348 0 V
1509 0 R
132 0 V
stroke
LTb
LCb setrgbcolor
814 4097 M
63 0 V
5926 0 R
-63 0 V
stroke
LTb
1.000 UL
LTa
LCa setrgbcolor
814 4775 M
5989 0 V
stroke
LTb
LCb setrgbcolor
814 4775 M
63 0 V
5926 0 R
-63 0 V
stroke
LTb
1.000 UL
LTa
LCa setrgbcolor
814 704 M
0 4071 V
stroke
LTb
LCb setrgbcolor
814 704 M
0 63 V
0 4008 R
0 -63 V
stroke
LTb
1265 704 M
0 31 V
0 4040 R
0 -31 V
1528 704 M
0 31 V
0 4040 R
0 -31 V
1715 704 M
0 31 V
0 4040 R
0 -31 V
1861 704 M
0 31 V
0 4040 R
0 -31 V
1979 704 M
0 31 V
0 4040 R
0 -31 V
2079 704 M
0 31 V
0 4040 R
0 -31 V
2166 704 M
0 31 V
0 4040 R
0 -31 V
2243 704 M
0 31 V
0 4040 R
0 -31 V
stroke
LTa
LCa setrgbcolor
2311 704 M
0 4071 V
stroke
LTb
LCb setrgbcolor
2311 704 M
0 63 V
0 4008 R
0 -63 V
stroke
LTb
2762 704 M
0 31 V
0 4040 R
0 -31 V
3026 704 M
0 31 V
0 4040 R
0 -31 V
3213 704 M
0 31 V
0 4040 R
0 -31 V
3358 704 M
0 31 V
0 4040 R
0 -31 V
3476 704 M
0 31 V
0 4040 R
0 -31 V
3577 704 M
0 31 V
0 4040 R
0 -31 V
3663 704 M
0 31 V
0 4040 R
0 -31 V
3740 704 M
0 31 V
0 4040 R
0 -31 V
stroke
LTa
LCa setrgbcolor
3809 704 M
0 4071 V
stroke
LTb
LCb setrgbcolor
3809 704 M
0 63 V
0 4008 R
0 -63 V
stroke
LTb
4259 704 M
0 31 V
0 4040 R
0 -31 V
4523 704 M
0 31 V
0 4040 R
0 -31 V
4710 704 M
0 31 V
0 4040 R
0 -31 V
4855 704 M
0 31 V
0 4040 R
0 -31 V
4974 704 M
0 31 V
0 4040 R
0 -31 V
5074 704 M
0 31 V
0 4040 R
0 -31 V
5161 704 M
0 31 V
0 4040 R
0 -31 V
5237 704 M
0 31 V
0 4040 R
0 -31 V
stroke
LTa
LCa setrgbcolor
5306 704 M
0 2592 V
0 1416 R
0 63 V
stroke
LTb
LCb setrgbcolor
5306 704 M
0 63 V
0 4008 R
0 -63 V
stroke
LTb
5756 704 M
0 31 V
0 4040 R
0 -31 V
6020 704 M
0 31 V
0 4040 R
0 -31 V
6207 704 M
0 31 V
0 4040 R
0 -31 V
6352 704 M
0 31 V
0 4040 R
0 -31 V
6471 704 M
0 31 V
0 4040 R
0 -31 V
6571 704 M
0 31 V
0 4040 R
0 -31 V
6658 704 M
0 31 V
0 4040 R
0 -31 V
6734 704 M
0 31 V
0 4040 R
0 -31 V
stroke
LTa
LCa setrgbcolor
6803 704 M
0 4071 V
stroke
LTb
LCb setrgbcolor
6803 704 M
0 63 V
0 4008 R
0 -63 V
stroke
LTb
1.000 UL
LTb
814 4775 N
814 704 L
5989 0 V
0 4071 V
-5989 0 V
Z stroke
3.000 UP
1.000 UL
LTb
3.000 UP
3.000 UL
LT0
LC0 setrgbcolor
1.00 0.00 0.00 C LCb setrgbcolor
LT0
LC0 setrgbcolor
1.00 0.00 0.00 C 833 1790 Box
1310 962 Box
1589 1654 Box
1847 779 Box
1849 1023 Box
1998 880 Box
2199 738 Box
2281 1084 Box
2800 4164 Box
2818 758 Box
3243 758 Box
3803 724 Box
3911 1199 Box
3766 1790 Box
4505 1518 Box
4785 1315 Box
5017 765 Box
5171 1070 Box
5408 1098 Box
5617 887 Box
5508 745 Box
5857 751 Box
6046 765 Box
6265 799 Box
6496 901 Box
6778 731 Box
6180 4594 Box
3.000 UP
3.000 UL
LT0
LC0 setrgbcolor
1.00 0.00 0.00 C 833 1790 Box
1310 948 Box
1589 1654 Box
1847 765 Box
1849 1009 Box
1998 860 Box
2199 724 Box
2281 1070 Box
2800 4164 Box
2818 738 Box
3243 745 Box
3803 704 Box
3911 1186 Box
3766 1790 Box
4505 1518 Box
4785 1294 Box
5017 724 Box
5171 1050 Box
5408 1084 Box
5617 867 Box
5508 724 Box
5857 738 Box
6046 745 Box
6265 765 Box
6496 880 Box
6778 704 Box
3.000 UP
3.000 UL
LT0
LC0 setrgbcolor
1.00 0.00 0.00 C 833 1790 Box
1310 955 Box
1589 1654 Box
1847 758 Box
1849 1003 Box
1998 853 Box
2199 711 Box
2281 1064 Box
2800 3961 Box
2818 731 Box
3243 731 Box
3803 704 Box
3911 1172 Box
3766 1790 Box
4505 1518 Box
4785 1281 Box
5017 731 Box
5171 1043 Box
5408 1070 Box
5617 867 Box
5508 724 Box
5857 731 Box
6046 738 Box
6265 772 Box
6496 867 Box
6778 704 Box
3.000 UP
3.000 UL
LT0
LC0 setrgbcolor
1.00 0.00 0.00 C LCb setrgbcolor
LT0
LC0 setrgbcolor
1.00 0.00 0.00 C 833 1722 Circle
1310 921 Circle
1589 1654 Circle
1847 765 Circle
1849 1003 Circle
1998 867 Circle
2199 718 Circle
2281 1077 Circle
2800 4164 Circle
2818 751 Circle
3243 751 Circle
3803 718 Circle
3911 1199 Circle
3766 1790 Circle
4505 1518 Circle
4785 1294 Circle
5017 738 Circle
5171 1064 Circle
5408 1091 Circle
5617 880 Circle
5508 731 Circle
5857 745 Circle
6046 751 Circle
6265 785 Circle
6496 887 Circle
6778 724 Circle
6180 4358 Circle
3.000 UP
3.000 UL
LT0
LC0 setrgbcolor
1.00 0.00 0.00 C 833 1722 Circle
1310 914 Circle
1589 1586 Circle
1847 751 Circle
1849 989 Circle
1998 846 Circle
2199 711 Circle
2281 1057 Circle
2800 4164 Circle
2818 731 Circle
3243 738 Circle
3803 704 Circle
3911 1186 Circle
3766 1790 Circle
4505 1450 Circle
4785 1288 Circle
5017 724 Circle
5171 1050 Circle
5408 1084 Circle
5617 867 Circle
5508 724 Circle
5857 738 Circle
6046 745 Circle
6265 779 Circle
6496 901 Circle
6778 711 Circle
3.000 UP
3.000 UL
LT0
LC0 setrgbcolor
1.00 0.00 0.00 C 833 1790 Circle
1310 908 Circle
1589 1654 Circle
1847 751 Circle
1849 1003 Circle
1998 846 Circle
2199 711 Circle
2281 1064 Circle
2800 4164 Circle
2818 738 Circle
3243 738 Circle
3803 704 Circle
3911 1186 Circle
3766 1790 Circle
4505 1518 Circle
4785 1288 Circle
5017 731 Circle
5171 1057 Circle
5408 1084 Circle
5617 874 Circle
5508 724 Circle
5857 738 Circle
6046 751 Circle
6265 785 Circle
6496 887 Circle
6778 718 Circle
2.000 UP
3.000 UL
LT0
LC0 setrgbcolor
0.00 1.00 0.00 C LCb setrgbcolor
LT0
LC0 setrgbcolor
0.00 1.00 0.00 C 833 1857 Box
1310 969 Box
1589 1654 Box
1847 785 Box
1849 1030 Box
1998 887 Box
2199 738 Box
2281 1084 Box
2800 4164 Box
2818 758 Box
3243 758 Box
3803 718 Box
3911 1186 Box
3766 1790 Box
4505 1518 Box
4785 1294 Box
5017 738 Box
5171 1091 Box
5408 1125 Box
5617 887 Box
5508 724 Box
5857 751 Box
6046 758 Box
6265 779 Box
6496 887 Box
6778 711 Box
6180 4122 Box
2.000 UP
3.000 UL
LT0
LC0 setrgbcolor
0.00 1.00 0.00 C 833 1857 Box
1310 989 Box
1589 1654 Box
1847 779 Box
1849 1030 Box
1998 880 Box
2199 738 Box
2281 1084 Box
2800 4097 Box
2818 758 Box
3243 758 Box
3803 718 Box
3911 1199 Box
3766 1790 Box
4505 1518 Box
4785 1308 Box
5017 751 Box
5171 1070 Box
5408 1104 Box
5617 894 Box
5508 751 Box
5857 758 Box
6046 765 Box
6265 792 Box
6496 901 Box
6778 724 Box
2.000 UP
3.000 UL
LT0
LC0 setrgbcolor
0.00 1.00 0.00 C 833 1790 Box
1310 948 Box
1589 1654 Box
1847 758 Box
1849 996 Box
1998 853 Box
2199 711 Box
2281 1057 Box
2800 4029 Box
2818 724 Box
3243 731 Box
3803 704 Box
3911 1172 Box
3766 1790 Box
4505 1450 Box
4785 1274 Box
5017 711 Box
5171 1043 Box
5408 1064 Box
5617 860 Box
5508 718 Box
5857 718 Box
6046 738 Box
6265 758 Box
6496 874 Box
6778 704 Box
2.000 UP
3.000 UL
LT0
LC0 setrgbcolor
0.00 1.00 0.00 C LCb setrgbcolor
LT0
LC0 setrgbcolor
0.00 1.00 0.00 C 833 1790 CircleF
1310 935 CircleF
1589 1654 CircleF
1847 758 CircleF
1849 996 CircleF
1998 853 CircleF
2199 711 CircleF
2281 1057 CircleF
2800 4097 CircleF
2818 738 CircleF
3243 738 CircleF
3803 711 CircleF
3911 1186 CircleF
3766 1790 CircleF
4505 1518 CircleF
4785 1294 CircleF
5017 745 CircleF
5171 1084 CircleF
5408 1104 CircleF
5617 874 CircleF
5508 731 CircleF
5857 738 CircleF
6046 738 CircleF
6265 765 CircleF
6496 874 CircleF
6778 704 CircleF
6180 3886 CircleF
2.000 UP
3.000 UL
LT0
LC0 setrgbcolor
0.00 1.00 0.00 C 833 1790 CircleF
1310 941 CircleF
1589 1654 CircleF
1847 772 CircleF
1849 996 CircleF
1998 853 CircleF
2199 711 CircleF
2281 1070 CircleF
2800 4097 CircleF
2818 738 CircleF
3243 745 CircleF
3803 711 CircleF
3911 1193 CircleF
3766 1790 CircleF
4505 1518 CircleF
4785 1294 CircleF
5017 738 CircleF
5171 1091 CircleF
5408 1084 CircleF
5617 874 CircleF
5508 738 CircleF
5857 745 CircleF
6046 751 CircleF
6265 785 CircleF
6496 874 CircleF
6778 724 CircleF
2.000 UP
3.000 UL
LT0
LC0 setrgbcolor
0.00 1.00 0.00 C 833 1790 CircleF
1310 935 CircleF
1589 1654 CircleF
1847 758 CircleF
1849 996 CircleF
1998 853 CircleF
2199 711 CircleF
2281 1057 CircleF
2800 4164 CircleF
2818 731 CircleF
3243 724 CircleF
3803 704 CircleF
3911 1186 CircleF
3766 1790 CircleF
4505 1518 CircleF
4785 1288 CircleF
5017 724 CircleF
5171 1050 CircleF
5408 1084 CircleF
5617 860 CircleF
5508 724 CircleF
5857 738 CircleF
6046 745 CircleF
6265 772 CircleF
6496 880 CircleF
6778 704 CircleF
2.000 UP
3.000 UL
LT0
LC0 setrgbcolor
0.00 0.00 1.00 C LCb setrgbcolor
LT0
LC0 setrgbcolor
0.00 0.00 1.00 C 833 1857 CircleF
1310 928 CircleF
1589 1654 CircleF
1847 765 CircleF
1849 1009 CircleF
1998 874 CircleF
2199 718 CircleF
2281 1070 CircleF
2800 3622 CircleF
2818 745 CircleF
3243 751 CircleF
3803 711 CircleF
3911 1172 CircleF
3766 1722 CircleF
4505 1450 CircleF
4785 1206 CircleF
5017 745 CircleF
5171 1057 CircleF
5408 1070 CircleF
5617 880 CircleF
5508 745 CircleF
5857 751 CircleF
6046 765 CircleF
6265 779 CircleF
6496 880 CircleF
6778 738 CircleF
6180 3650 CircleF
2.000 UP
3.000 UL
LT0
LC0 setrgbcolor
0.00 0.00 1.00 C 833 1654 CircleF
1310 894 CircleF
1589 1586 CircleF
1847 751 CircleF
1849 996 CircleF
1998 867 CircleF
2199 718 CircleF
2281 1070 CircleF
2800 4164 CircleF
2818 751 CircleF
3243 758 CircleF
3803 718 CircleF
3911 1206 CircleF
3766 1790 CircleF
4505 1518 CircleF
4785 1301 CircleF
5017 745 CircleF
5171 1070 CircleF
5408 1098 CircleF
5617 880 CircleF
5508 745 CircleF
5857 751 CircleF
6046 765 CircleF
6265 792 CircleF
6496 908 CircleF
6778 724 CircleF
2.000 UP
3.000 UL
LT0
LC0 setrgbcolor
0.00 0.00 1.00 C 833 1790 CircleF
1310 935 CircleF
1589 1654 CircleF
1847 772 CircleF
1849 1009 CircleF
1998 874 CircleF
2199 724 CircleF
2281 1077 CircleF
2800 4164 CircleF
2818 758 CircleF
3243 758 CircleF
3803 718 CircleF
3911 1206 CircleF
3766 1790 CircleF
4505 1518 CircleF
4785 1315 CircleF
5017 751 CircleF
5171 1104 CircleF
5408 1118 CircleF
5617 894 CircleF
5508 751 CircleF
5857 765 CircleF
6046 772 CircleF
6265 792 CircleF
6496 908 CircleF
6778 745 CircleF
4.000 UP
3.000 UL
LT0
LC0 setrgbcolor
0.00 0.00 0.00 C LCb setrgbcolor
LT0
LC0 setrgbcolor
0.00 0.00 0.00 C 833 1532 Box
1310 785 Box
1589 1613 Box
1847 745 Box
1849 1084 Box
1998 894 Box
2199 718 Box
2281 1077 Box
2800 3954 Box
2818 751 Box
3243 765 Box
3803 711 Box
3911 1206 Box
3766 1790 Box
4505 1484 Box
4785 1308 Box
5017 731 Box
5171 1050 Box
5408 1104 Box
5617 874 Box
5508 731 Box
5857 745 Box
6046 751 Box
6265 772 Box
6496 962 Box
6778 718 Box
6180 3414 Box
1.000 UL
LTb
LCb setrgbcolor
814 4775 N
814 704 L
5989 0 V
0 4071 V
-5989 0 V
Z stroke
3.000 UP
1.000 UL
LTb
stroke
grestore
end
showpage
%%Trailer
