%!PS-Adobe-2.0 EPSF-2.0
%%Title: ../GNU/induct328p.tex
%%Creator: gnuplot 4.6 patchlevel 4
%%CreationDate: Mon Apr  6 22:22:22 2015
%%DocumentFonts: 
%%BoundingBox: 50 50 410 302
%%EndComments
%%BeginProlog
/gnudict 256 dict def
gnudict begin
%
% The following true/false flags may be edited by hand if desired.
% The unit line width and grayscale image gamma correction may also be changed.
%
/Color true def
/Blacktext true def
/Solid true def
/Dashlength 1 def
/Landscape false def
/Level1 false def
/Rounded false def
/ClipToBoundingBox false def
/SuppressPDFMark false def
/TransparentPatterns false def
/gnulinewidth 5.000 def
/userlinewidth gnulinewidth def
/Gamma 1.0 def
/BackgroundColor {-1.000 -1.000 -1.000} def
%
/vshift -73 def
/dl1 {
  10.0 Dashlength mul mul
  Rounded { currentlinewidth 0.75 mul sub dup 0 le { pop 0.01 } if } if
} def
/dl2 {
  10.0 Dashlength mul mul
  Rounded { currentlinewidth 0.75 mul add } if
} def
/hpt_ 31.5 def
/vpt_ 31.5 def
/hpt hpt_ def
/vpt vpt_ def
/doclip {
  ClipToBoundingBox {
    newpath 50 50 moveto 410 50 lineto 410 302 lineto 50 302 lineto closepath
    clip
  } if
} def
%
% Gnuplot Prolog Version 4.6 (September 2012)
%
%/SuppressPDFMark true def
%
/M {moveto} bind def
/L {lineto} bind def
/R {rmoveto} bind def
/V {rlineto} bind def
/N {newpath moveto} bind def
/Z {closepath} bind def
/C {setrgbcolor} bind def
/f {rlineto fill} bind def
/g {setgray} bind def
/Gshow {show} def   % May be redefined later in the file to support UTF-8
/vpt2 vpt 2 mul def
/hpt2 hpt 2 mul def
/Lshow {currentpoint stroke M 0 vshift R 
	Blacktext {gsave 0 setgray show grestore} {show} ifelse} def
/Rshow {currentpoint stroke M dup stringwidth pop neg vshift R
	Blacktext {gsave 0 setgray show grestore} {show} ifelse} def
/Cshow {currentpoint stroke M dup stringwidth pop -2 div vshift R 
	Blacktext {gsave 0 setgray show grestore} {show} ifelse} def
/UP {dup vpt_ mul /vpt exch def hpt_ mul /hpt exch def
  /hpt2 hpt 2 mul def /vpt2 vpt 2 mul def} def
/DL {Color {setrgbcolor Solid {pop []} if 0 setdash}
 {pop pop pop 0 setgray Solid {pop []} if 0 setdash} ifelse} def
/BL {stroke userlinewidth 2 mul setlinewidth
	Rounded {1 setlinejoin 1 setlinecap} if} def
/AL {stroke userlinewidth 2 div setlinewidth
	Rounded {1 setlinejoin 1 setlinecap} if} def
/UL {dup gnulinewidth mul /userlinewidth exch def
	dup 1 lt {pop 1} if 10 mul /udl exch def} def
/PL {stroke userlinewidth setlinewidth
	Rounded {1 setlinejoin 1 setlinecap} if} def
3.8 setmiterlimit
% Default Line colors
/LCw {1 1 1} def
/LCb {0 0 0} def
/LCa {0 0 0} def
/LC0 {1 0 0} def
/LC1 {0 1 0} def
/LC2 {0 0 1} def
/LC3 {1 0 1} def
/LC4 {0 1 1} def
/LC5 {1 1 0} def
/LC6 {0 0 0} def
/LC7 {1 0.3 0} def
/LC8 {0.5 0.5 0.5} def
% Default Line Types
/LTw {PL [] 1 setgray} def
/LTb {BL [] LCb DL} def
/LTa {AL [1 udl mul 2 udl mul] 0 setdash LCa setrgbcolor} def
/LT0 {PL [] LC0 DL} def
/LT1 {PL [4 dl1 2 dl2] LC1 DL} def
/LT2 {PL [2 dl1 3 dl2] LC2 DL} def
/LT3 {PL [1 dl1 1.5 dl2] LC3 DL} def
/LT4 {PL [6 dl1 2 dl2 1 dl1 2 dl2] LC4 DL} def
/LT5 {PL [3 dl1 3 dl2 1 dl1 3 dl2] LC5 DL} def
/LT6 {PL [2 dl1 2 dl2 2 dl1 6 dl2] LC6 DL} def
/LT7 {PL [1 dl1 2 dl2 6 dl1 2 dl2 1 dl1 2 dl2] LC7 DL} def
/LT8 {PL [2 dl1 2 dl2 2 dl1 2 dl2 2 dl1 2 dl2 2 dl1 4 dl2] LC8 DL} def
/Pnt {stroke [] 0 setdash gsave 1 setlinecap M 0 0 V stroke grestore} def
/Dia {stroke [] 0 setdash 2 copy vpt add M
  hpt neg vpt neg V hpt vpt neg V
  hpt vpt V hpt neg vpt V closepath stroke
  Pnt} def
/Pls {stroke [] 0 setdash vpt sub M 0 vpt2 V
  currentpoint stroke M
  hpt neg vpt neg R hpt2 0 V stroke
 } def
/Box {stroke [] 0 setdash 2 copy exch hpt sub exch vpt add M
  0 vpt2 neg V hpt2 0 V 0 vpt2 V
  hpt2 neg 0 V closepath stroke
  Pnt} def
/Crs {stroke [] 0 setdash exch hpt sub exch vpt add M
  hpt2 vpt2 neg V currentpoint stroke M
  hpt2 neg 0 R hpt2 vpt2 V stroke} def
/TriU {stroke [] 0 setdash 2 copy vpt 1.12 mul add M
  hpt neg vpt -1.62 mul V
  hpt 2 mul 0 V
  hpt neg vpt 1.62 mul V closepath stroke
  Pnt} def
/Star {2 copy Pls Crs} def
/BoxF {stroke [] 0 setdash exch hpt sub exch vpt add M
  0 vpt2 neg V hpt2 0 V 0 vpt2 V
  hpt2 neg 0 V closepath fill} def
/TriUF {stroke [] 0 setdash vpt 1.12 mul add M
  hpt neg vpt -1.62 mul V
  hpt 2 mul 0 V
  hpt neg vpt 1.62 mul V closepath fill} def
/TriD {stroke [] 0 setdash 2 copy vpt 1.12 mul sub M
  hpt neg vpt 1.62 mul V
  hpt 2 mul 0 V
  hpt neg vpt -1.62 mul V closepath stroke
  Pnt} def
/TriDF {stroke [] 0 setdash vpt 1.12 mul sub M
  hpt neg vpt 1.62 mul V
  hpt 2 mul 0 V
  hpt neg vpt -1.62 mul V closepath fill} def
/DiaF {stroke [] 0 setdash vpt add M
  hpt neg vpt neg V hpt vpt neg V
  hpt vpt V hpt neg vpt V closepath fill} def
/Pent {stroke [] 0 setdash 2 copy gsave
  translate 0 hpt M 4 {72 rotate 0 hpt L} repeat
  closepath stroke grestore Pnt} def
/PentF {stroke [] 0 setdash gsave
  translate 0 hpt M 4 {72 rotate 0 hpt L} repeat
  closepath fill grestore} def
/Circle {stroke [] 0 setdash 2 copy
  hpt 0 360 arc stroke Pnt} def
/CircleF {stroke [] 0 setdash hpt 0 360 arc fill} def
/C0 {BL [] 0 setdash 2 copy moveto vpt 90 450 arc} bind def
/C1 {BL [] 0 setdash 2 copy moveto
	2 copy vpt 0 90 arc closepath fill
	vpt 0 360 arc closepath} bind def
/C2 {BL [] 0 setdash 2 copy moveto
	2 copy vpt 90 180 arc closepath fill
	vpt 0 360 arc closepath} bind def
/C3 {BL [] 0 setdash 2 copy moveto
	2 copy vpt 0 180 arc closepath fill
	vpt 0 360 arc closepath} bind def
/C4 {BL [] 0 setdash 2 copy moveto
	2 copy vpt 180 270 arc closepath fill
	vpt 0 360 arc closepath} bind def
/C5 {BL [] 0 setdash 2 copy moveto
	2 copy vpt 0 90 arc
	2 copy moveto
	2 copy vpt 180 270 arc closepath fill
	vpt 0 360 arc} bind def
/C6 {BL [] 0 setdash 2 copy moveto
	2 copy vpt 90 270 arc closepath fill
	vpt 0 360 arc closepath} bind def
/C7 {BL [] 0 setdash 2 copy moveto
	2 copy vpt 0 270 arc closepath fill
	vpt 0 360 arc closepath} bind def
/C8 {BL [] 0 setdash 2 copy moveto
	2 copy vpt 270 360 arc closepath fill
	vpt 0 360 arc closepath} bind def
/C9 {BL [] 0 setdash 2 copy moveto
	2 copy vpt 270 450 arc closepath fill
	vpt 0 360 arc closepath} bind def
/C10 {BL [] 0 setdash 2 copy 2 copy moveto vpt 270 360 arc closepath fill
	2 copy moveto
	2 copy vpt 90 180 arc closepath fill
	vpt 0 360 arc closepath} bind def
/C11 {BL [] 0 setdash 2 copy moveto
	2 copy vpt 0 180 arc closepath fill
	2 copy moveto
	2 copy vpt 270 360 arc closepath fill
	vpt 0 360 arc closepath} bind def
/C12 {BL [] 0 setdash 2 copy moveto
	2 copy vpt 180 360 arc closepath fill
	vpt 0 360 arc closepath} bind def
/C13 {BL [] 0 setdash 2 copy moveto
	2 copy vpt 0 90 arc closepath fill
	2 copy moveto
	2 copy vpt 180 360 arc closepath fill
	vpt 0 360 arc closepath} bind def
/C14 {BL [] 0 setdash 2 copy moveto
	2 copy vpt 90 360 arc closepath fill
	vpt 0 360 arc} bind def
/C15 {BL [] 0 setdash 2 copy vpt 0 360 arc closepath fill
	vpt 0 360 arc closepath} bind def
/Rec {newpath 4 2 roll moveto 1 index 0 rlineto 0 exch rlineto
	neg 0 rlineto closepath} bind def
/Square {dup Rec} bind def
/Bsquare {vpt sub exch vpt sub exch vpt2 Square} bind def
/S0 {BL [] 0 setdash 2 copy moveto 0 vpt rlineto BL Bsquare} bind def
/S1 {BL [] 0 setdash 2 copy vpt Square fill Bsquare} bind def
/S2 {BL [] 0 setdash 2 copy exch vpt sub exch vpt Square fill Bsquare} bind def
/S3 {BL [] 0 setdash 2 copy exch vpt sub exch vpt2 vpt Rec fill Bsquare} bind def
/S4 {BL [] 0 setdash 2 copy exch vpt sub exch vpt sub vpt Square fill Bsquare} bind def
/S5 {BL [] 0 setdash 2 copy 2 copy vpt Square fill
	exch vpt sub exch vpt sub vpt Square fill Bsquare} bind def
/S6 {BL [] 0 setdash 2 copy exch vpt sub exch vpt sub vpt vpt2 Rec fill Bsquare} bind def
/S7 {BL [] 0 setdash 2 copy exch vpt sub exch vpt sub vpt vpt2 Rec fill
	2 copy vpt Square fill Bsquare} bind def
/S8 {BL [] 0 setdash 2 copy vpt sub vpt Square fill Bsquare} bind def
/S9 {BL [] 0 setdash 2 copy vpt sub vpt vpt2 Rec fill Bsquare} bind def
/S10 {BL [] 0 setdash 2 copy vpt sub vpt Square fill 2 copy exch vpt sub exch vpt Square fill
	Bsquare} bind def
/S11 {BL [] 0 setdash 2 copy vpt sub vpt Square fill 2 copy exch vpt sub exch vpt2 vpt Rec fill
	Bsquare} bind def
/S12 {BL [] 0 setdash 2 copy exch vpt sub exch vpt sub vpt2 vpt Rec fill Bsquare} bind def
/S13 {BL [] 0 setdash 2 copy exch vpt sub exch vpt sub vpt2 vpt Rec fill
	2 copy vpt Square fill Bsquare} bind def
/S14 {BL [] 0 setdash 2 copy exch vpt sub exch vpt sub vpt2 vpt Rec fill
	2 copy exch vpt sub exch vpt Square fill Bsquare} bind def
/S15 {BL [] 0 setdash 2 copy Bsquare fill Bsquare} bind def
/D0 {gsave translate 45 rotate 0 0 S0 stroke grestore} bind def
/D1 {gsave translate 45 rotate 0 0 S1 stroke grestore} bind def
/D2 {gsave translate 45 rotate 0 0 S2 stroke grestore} bind def
/D3 {gsave translate 45 rotate 0 0 S3 stroke grestore} bind def
/D4 {gsave translate 45 rotate 0 0 S4 stroke grestore} bind def
/D5 {gsave translate 45 rotate 0 0 S5 stroke grestore} bind def
/D6 {gsave translate 45 rotate 0 0 S6 stroke grestore} bind def
/D7 {gsave translate 45 rotate 0 0 S7 stroke grestore} bind def
/D8 {gsave translate 45 rotate 0 0 S8 stroke grestore} bind def
/D9 {gsave translate 45 rotate 0 0 S9 stroke grestore} bind def
/D10 {gsave translate 45 rotate 0 0 S10 stroke grestore} bind def
/D11 {gsave translate 45 rotate 0 0 S11 stroke grestore} bind def
/D12 {gsave translate 45 rotate 0 0 S12 stroke grestore} bind def
/D13 {gsave translate 45 rotate 0 0 S13 stroke grestore} bind def
/D14 {gsave translate 45 rotate 0 0 S14 stroke grestore} bind def
/D15 {gsave translate 45 rotate 0 0 S15 stroke grestore} bind def
/DiaE {stroke [] 0 setdash vpt add M
  hpt neg vpt neg V hpt vpt neg V
  hpt vpt V hpt neg vpt V closepath stroke} def
/BoxE {stroke [] 0 setdash exch hpt sub exch vpt add M
  0 vpt2 neg V hpt2 0 V 0 vpt2 V
  hpt2 neg 0 V closepath stroke} def
/TriUE {stroke [] 0 setdash vpt 1.12 mul add M
  hpt neg vpt -1.62 mul V
  hpt 2 mul 0 V
  hpt neg vpt 1.62 mul V closepath stroke} def
/TriDE {stroke [] 0 setdash vpt 1.12 mul sub M
  hpt neg vpt 1.62 mul V
  hpt 2 mul 0 V
  hpt neg vpt -1.62 mul V closepath stroke} def
/PentE {stroke [] 0 setdash gsave
  translate 0 hpt M 4 {72 rotate 0 hpt L} repeat
  closepath stroke grestore} def
/CircE {stroke [] 0 setdash 
  hpt 0 360 arc stroke} def
/Opaque {gsave closepath 1 setgray fill grestore 0 setgray closepath} def
/DiaW {stroke [] 0 setdash vpt add M
  hpt neg vpt neg V hpt vpt neg V
  hpt vpt V hpt neg vpt V Opaque stroke} def
/BoxW {stroke [] 0 setdash exch hpt sub exch vpt add M
  0 vpt2 neg V hpt2 0 V 0 vpt2 V
  hpt2 neg 0 V Opaque stroke} def
/TriUW {stroke [] 0 setdash vpt 1.12 mul add M
  hpt neg vpt -1.62 mul V
  hpt 2 mul 0 V
  hpt neg vpt 1.62 mul V Opaque stroke} def
/TriDW {stroke [] 0 setdash vpt 1.12 mul sub M
  hpt neg vpt 1.62 mul V
  hpt 2 mul 0 V
  hpt neg vpt -1.62 mul V Opaque stroke} def
/PentW {stroke [] 0 setdash gsave
  translate 0 hpt M 4 {72 rotate 0 hpt L} repeat
  Opaque stroke grestore} def
/CircW {stroke [] 0 setdash 
  hpt 0 360 arc Opaque stroke} def
/BoxFill {gsave Rec 1 setgray fill grestore} def
/Density {
  /Fillden exch def
  currentrgbcolor
  /ColB exch def /ColG exch def /ColR exch def
  /ColR ColR Fillden mul Fillden sub 1 add def
  /ColG ColG Fillden mul Fillden sub 1 add def
  /ColB ColB Fillden mul Fillden sub 1 add def
  ColR ColG ColB setrgbcolor} def
/BoxColFill {gsave Rec PolyFill} def
/PolyFill {gsave Density fill grestore grestore} def
/h {rlineto rlineto rlineto gsave closepath fill grestore} bind def
%
% PostScript Level 1 Pattern Fill routine for rectangles
% Usage: x y w h s a XX PatternFill
%	x,y = lower left corner of box to be filled
%	w,h = width and height of box
%	  a = angle in degrees between lines and x-axis
%	 XX = 0/1 for no/yes cross-hatch
%
/PatternFill {gsave /PFa [ 9 2 roll ] def
  PFa 0 get PFa 2 get 2 div add PFa 1 get PFa 3 get 2 div add translate
  PFa 2 get -2 div PFa 3 get -2 div PFa 2 get PFa 3 get Rec
  TransparentPatterns {} {gsave 1 setgray fill grestore} ifelse
  clip
  currentlinewidth 0.5 mul setlinewidth
  /PFs PFa 2 get dup mul PFa 3 get dup mul add sqrt def
  0 0 M PFa 5 get rotate PFs -2 div dup translate
  0 1 PFs PFa 4 get div 1 add floor cvi
	{PFa 4 get mul 0 M 0 PFs V} for
  0 PFa 6 get ne {
	0 1 PFs PFa 4 get div 1 add floor cvi
	{PFa 4 get mul 0 2 1 roll M PFs 0 V} for
 } if
  stroke grestore} def
%
/languagelevel where
 {pop languagelevel} {1} ifelse
 2 lt
	{/InterpretLevel1 true def}
	{/InterpretLevel1 Level1 def}
 ifelse
%
% PostScript level 2 pattern fill definitions
%
/Level2PatternFill {
/Tile8x8 {/PaintType 2 /PatternType 1 /TilingType 1 /BBox [0 0 8 8] /XStep 8 /YStep 8}
	bind def
/KeepColor {currentrgbcolor [/Pattern /DeviceRGB] setcolorspace} bind def
<< Tile8x8
 /PaintProc {0.5 setlinewidth pop 0 0 M 8 8 L 0 8 M 8 0 L stroke} 
>> matrix makepattern
/Pat1 exch def
<< Tile8x8
 /PaintProc {0.5 setlinewidth pop 0 0 M 8 8 L 0 8 M 8 0 L stroke
	0 4 M 4 8 L 8 4 L 4 0 L 0 4 L stroke}
>> matrix makepattern
/Pat2 exch def
<< Tile8x8
 /PaintProc {0.5 setlinewidth pop 0 0 M 0 8 L
	8 8 L 8 0 L 0 0 L fill}
>> matrix makepattern
/Pat3 exch def
<< Tile8x8
 /PaintProc {0.5 setlinewidth pop -4 8 M 8 -4 L
	0 12 M 12 0 L stroke}
>> matrix makepattern
/Pat4 exch def
<< Tile8x8
 /PaintProc {0.5 setlinewidth pop -4 0 M 8 12 L
	0 -4 M 12 8 L stroke}
>> matrix makepattern
/Pat5 exch def
<< Tile8x8
 /PaintProc {0.5 setlinewidth pop -2 8 M 4 -4 L
	0 12 M 8 -4 L 4 12 M 10 0 L stroke}
>> matrix makepattern
/Pat6 exch def
<< Tile8x8
 /PaintProc {0.5 setlinewidth pop -2 0 M 4 12 L
	0 -4 M 8 12 L 4 -4 M 10 8 L stroke}
>> matrix makepattern
/Pat7 exch def
<< Tile8x8
 /PaintProc {0.5 setlinewidth pop 8 -2 M -4 4 L
	12 0 M -4 8 L 12 4 M 0 10 L stroke}
>> matrix makepattern
/Pat8 exch def
<< Tile8x8
 /PaintProc {0.5 setlinewidth pop 0 -2 M 12 4 L
	-4 0 M 12 8 L -4 4 M 8 10 L stroke}
>> matrix makepattern
/Pat9 exch def
/Pattern1 {PatternBgnd KeepColor Pat1 setpattern} bind def
/Pattern2 {PatternBgnd KeepColor Pat2 setpattern} bind def
/Pattern3 {PatternBgnd KeepColor Pat3 setpattern} bind def
/Pattern4 {PatternBgnd KeepColor Landscape {Pat5} {Pat4} ifelse setpattern} bind def
/Pattern5 {PatternBgnd KeepColor Landscape {Pat4} {Pat5} ifelse setpattern} bind def
/Pattern6 {PatternBgnd KeepColor Landscape {Pat9} {Pat6} ifelse setpattern} bind def
/Pattern7 {PatternBgnd KeepColor Landscape {Pat8} {Pat7} ifelse setpattern} bind def
} def
%
%
%End of PostScript Level 2 code
%
/PatternBgnd {
  TransparentPatterns {} {gsave 1 setgray fill grestore} ifelse
} def
%
% Substitute for Level 2 pattern fill codes with
% grayscale if Level 2 support is not selected.
%
/Level1PatternFill {
/Pattern1 {0.250 Density} bind def
/Pattern2 {0.500 Density} bind def
/Pattern3 {0.750 Density} bind def
/Pattern4 {0.125 Density} bind def
/Pattern5 {0.375 Density} bind def
/Pattern6 {0.625 Density} bind def
/Pattern7 {0.875 Density} bind def
} def
%
% Now test for support of Level 2 code
%
Level1 {Level1PatternFill} {Level2PatternFill} ifelse
%
/Symbol-Oblique /Symbol findfont [1 0 .167 1 0 0] makefont
dup length dict begin {1 index /FID eq {pop pop} {def} ifelse} forall
currentdict end definefont pop
Level1 SuppressPDFMark or 
{} {
/SDict 10 dict def
systemdict /pdfmark known not {
  userdict /pdfmark systemdict /cleartomark get put
} if
SDict begin [
  /Title (../GNU/induct328p.tex)
  /Subject (gnuplot plot)
  /Creator (gnuplot 4.6 patchlevel 4)
  /Author (kub)
%  /Producer (gnuplot)
%  /Keywords ()
  /CreationDate (Mon Apr  6 22:22:22 2015)
  /DOCINFO pdfmark
end
} ifelse
end
%%EndProlog
%%Page: 1 1
gnudict begin
gsave
doclip
50 50 translate
0.050 0.050 scale
0 setgray
newpath
1.000 UL
LTb
LCb setrgbcolor
1.000 UL
LTa
LCa setrgbcolor
946 704 M
5857 0 V
stroke
LTb
LCb setrgbcolor
946 704 M
63 0 V
5794 0 R
-63 0 V
stroke
LTb
1.000 UL
LTa
LCa setrgbcolor
946 1213 M
5857 0 V
stroke
LTb
LCb setrgbcolor
946 1213 M
63 0 V
5794 0 R
-63 0 V
stroke
LTb
1.000 UL
LTa
LCa setrgbcolor
946 1722 M
5857 0 V
stroke
LTb
LCb setrgbcolor
946 1722 M
63 0 V
5794 0 R
-63 0 V
stroke
LTb
1.000 UL
LTa
LCa setrgbcolor
946 2231 M
5857 0 V
stroke
LTb
LCb setrgbcolor
946 2231 M
63 0 V
5794 0 R
-63 0 V
stroke
LTb
1.000 UL
LTa
LCa setrgbcolor
946 2740 M
5857 0 V
stroke
LTb
LCb setrgbcolor
946 2740 M
63 0 V
5794 0 R
-63 0 V
stroke
LTb
1.000 UL
LTa
LCa setrgbcolor
946 3248 M
5857 0 V
stroke
LTb
LCb setrgbcolor
946 3248 M
63 0 V
5794 0 R
-63 0 V
stroke
LTb
1.000 UL
LTa
LCa setrgbcolor
946 3757 M
4216 0 V
1509 0 R
132 0 V
stroke
LTb
LCb setrgbcolor
946 3757 M
63 0 V
5794 0 R
-63 0 V
stroke
LTb
1.000 UL
LTa
LCa setrgbcolor
946 4266 M
4216 0 V
1509 0 R
132 0 V
stroke
LTb
LCb setrgbcolor
946 4266 M
63 0 V
5794 0 R
-63 0 V
stroke
LTb
1.000 UL
LTa
LCa setrgbcolor
946 4775 M
5857 0 V
stroke
LTb
LCb setrgbcolor
946 4775 M
63 0 V
5794 0 R
-63 0 V
stroke
LTb
1.000 UL
LTa
LCa setrgbcolor
946 704 M
0 4071 V
stroke
LTb
LCb setrgbcolor
946 704 M
0 63 V
0 4008 R
0 -63 V
stroke
LTb
1198 704 M
0 31 V
0 4040 R
0 -31 V
1531 704 M
0 31 V
0 4040 R
0 -31 V
1702 704 M
0 31 V
0 4040 R
0 -31 V
stroke
LTa
LCa setrgbcolor
1783 704 M
0 4071 V
stroke
LTb
LCb setrgbcolor
1783 704 M
0 63 V
0 4008 R
0 -63 V
stroke
LTb
2035 704 M
0 31 V
0 4040 R
0 -31 V
2368 704 M
0 31 V
0 4040 R
0 -31 V
2538 704 M
0 31 V
0 4040 R
0 -31 V
stroke
LTa
LCa setrgbcolor
2619 704 M
0 4071 V
stroke
LTb
LCb setrgbcolor
2619 704 M
0 63 V
0 4008 R
0 -63 V
stroke
LTb
2871 704 M
0 31 V
0 4040 R
0 -31 V
3204 704 M
0 31 V
0 4040 R
0 -31 V
3375 704 M
0 31 V
0 4040 R
0 -31 V
stroke
LTa
LCa setrgbcolor
3456 704 M
0 4071 V
stroke
LTb
LCb setrgbcolor
3456 704 M
0 63 V
0 4008 R
0 -63 V
stroke
LTb
3708 704 M
0 31 V
0 4040 R
0 -31 V
4041 704 M
0 31 V
0 4040 R
0 -31 V
4212 704 M
0 31 V
0 4040 R
0 -31 V
stroke
LTa
LCa setrgbcolor
4293 704 M
0 4071 V
stroke
LTb
LCb setrgbcolor
4293 704 M
0 63 V
0 4008 R
0 -63 V
stroke
LTb
4545 704 M
0 31 V
0 4040 R
0 -31 V
4878 704 M
0 31 V
0 4040 R
0 -31 V
5048 704 M
0 31 V
0 4040 R
0 -31 V
stroke
LTa
LCa setrgbcolor
5130 704 M
0 4071 V
stroke
LTb
LCb setrgbcolor
5130 704 M
0 63 V
0 4008 R
0 -63 V
stroke
LTb
5381 704 M
0 31 V
0 4040 R
0 -31 V
5714 704 M
0 31 V
0 4040 R
0 -31 V
5885 704 M
0 31 V
0 4040 R
0 -31 V
stroke
LTa
LCa setrgbcolor
5966 704 M
0 2828 V
0 1180 R
0 63 V
stroke
LTb
LCb setrgbcolor
5966 704 M
0 63 V
0 4008 R
0 -63 V
stroke
LTb
6218 704 M
0 31 V
0 4040 R
0 -31 V
6551 704 M
0 31 V
0 4040 R
0 -31 V
6722 704 M
0 31 V
0 4040 R
0 -31 V
stroke
LTa
LCa setrgbcolor
6803 704 M
0 4071 V
stroke
LTb
LCb setrgbcolor
6803 704 M
0 63 V
0 4008 R
0 -63 V
stroke
LTb
1.000 UL
LTb
946 4775 N
946 704 L
5857 0 V
0 4071 V
-5857 0 V
Z stroke
3.000 UP
1.000 UL
LTb
3.000 UP
3.000 UL
LT0
LC0 setrgbcolor
1.00 0.00 0.00 C LCb setrgbcolor
LT0
LC0 setrgbcolor
1.00 0.00 0.00 C 946 2740 Box
1198 2740 Box
1493 1609 Box
1783 2740 Box
1930 2061 Box
2035 3248 Box
2182 3079 Box
2217 2740 Box
2345 2956 Box
2468 3202 Box
2479 3039 Box
2597 3064 Box
2731 2740 Box
2767 3214 Box
2906 2878 Box
3019 3214 Box
3053 2678 Box
3316 2754 Box
3456 2943 Box
3568 2964 Box
3708 3045 Box
3890 2986 Box
4142 2878 Box
4293 2566 Box
4545 2434 Box
5130 2241 Box
5196 2824 Box
5196 1552 Box
5999 946 Box
6236 1770 Box
6180 4594 Box
3.000 UP
3.000 UL
LT0
LC0 setrgbcolor
1.00 0.00 0.00 C 946 2740 Box
1198 2740 Box
1493 1609 Box
1783 2740 Box
1930 2061 Box
2035 3248 Box
2182 3079 Box
2217 3048 Box
2345 2956 Box
2468 3048 Box
2479 3039 Box
2597 3064 Box
2731 2964 Box
2767 3214 Box
2906 2971 Box
3019 3316 Box
3053 2647 Box
3316 3009 Box
3456 2841 Box
3568 2889 Box
3708 2892 Box
3890 2863 Box
4142 2817 Box
4293 2424 Box
4545 2332 Box
5130 1844 Box
5196 1637 Box
5196 1383 Box
5999 825 Box
6236 1479 Box
3.000 UP
3.000 UL
LT0
LC0 setrgbcolor
1.00 0.00 0.00 C 946 2740 Box
1198 2740 Box
1493 1609 Box
1783 2740 Box
1930 2061 Box
2035 3248 Box
2182 3079 Box
2217 2740 Box
2345 2740 Box
2468 3048 Box
2479 2889 Box
2597 2956 Box
2731 2740 Box
2767 3079 Box
2906 2786 Box
3019 3113 Box
3053 2524 Box
3316 2784 Box
3456 2943 Box
3568 2964 Box
3708 3045 Box
3890 2925 Box
4142 2863 Box
4293 2536 Box
4545 2383 Box
5130 2200 Box
5196 2740 Box
5196 1552 Box
5999 853 Box
6236 1286 Box
3.000 UP
3.000 UL
LT0
LC0 setrgbcolor
1.00 0.00 0.00 C LCb setrgbcolor
LT0
LC0 setrgbcolor
1.00 0.00 0.00 C 946 2740 Circle
1198 2740 Circle
1493 1609 Circle
1783 2740 Circle
1930 2061 Circle
2035 3248 Circle
2182 3079 Circle
2217 3048 Circle
2345 2956 Circle
2468 3202 Circle
2479 3039 Circle
2597 3173 Circle
2731 2964 Circle
2767 3282 Circle
2906 2925 Circle
3019 3282 Circle
3053 2740 Circle
3316 2994 Circle
3456 3248 Circle
3568 2964 Circle
3708 2943 Circle
3890 2894 Circle
4142 2863 Circle
4293 2516 Circle
4545 2383 Circle
5130 1895 Circle
5196 2655 Circle
5196 1298 Circle
5999 760 Circle
6236 1092 Circle
6180 4358 Circle
3.000 UP
3.000 UL
LT0
LC0 setrgbcolor
1.00 0.00 0.00 C 946 2740 Circle
1198 2740 Circle
1493 1609 Circle
1783 1722 Circle
1930 2061 Circle
2035 2740 Circle
2182 3079 Circle
2217 3048 Circle
2345 2956 Circle
2468 4744 Circle
2479 3039 Circle
2597 3173 Circle
2731 2964 Circle
2767 3214 Circle
2906 2878 Circle
3019 3214 Circle
3053 2709 Circle
3316 2994 Circle
3456 3248 Circle
3568 2964 Circle
3708 2943 Circle
3890 2986 Circle
4142 2755 Circle
4293 2546 Circle
4545 2434 Circle
5130 1956 Circle
5196 2655 Circle
5196 1383 Circle
5999 788 Circle
6236 1140 Circle
3.000 UP
3.000 UL
LT0
LC0 setrgbcolor
1.00 0.00 0.00 C 946 2740 Circle
1198 2740 Circle
1493 1609 Circle
1783 1722 Circle
1930 2061 Circle
2035 2740 Circle
2182 3079 Circle
2217 3048 Circle
2345 2956 Circle
2468 3048 Circle
2479 3039 Circle
2597 3064 Circle
2731 2814 Circle
2767 3214 Circle
2906 2878 Circle
3019 3181 Circle
3053 2616 Circle
3316 2844 Circle
3456 3045 Circle
3568 3039 Circle
3708 2994 Circle
3890 2986 Circle
4142 2894 Circle
4293 2526 Circle
4545 2383 Circle
5130 2078 Circle
5196 2740 Circle
5196 1467 Circle
5999 881 Circle
6236 1189 Circle
2.000 UP
3.000 UL
LT0
LC0 setrgbcolor
0.00 1.00 0.00 C LCb setrgbcolor
LT0
LC0 setrgbcolor
0.00 1.00 0.00 C 946 2740 Box
1198 2740 Box
1493 1609 Box
1783 1722 Box
1930 2061 Box
2035 2231 Box
2182 2740 Box
2217 2431 Box
2345 2306 Box
2468 2740 Box
2479 2740 Box
2597 2631 Box
2731 2665 Box
2767 2740 Box
2906 2554 Box
3019 2773 Box
3053 2277 Box
3316 2680 Box
3456 2841 Box
3568 2889 Box
3708 2740 Box
3890 2832 Box
4142 2709 Box
4293 2444 Box
4545 2282 Box
5130 2210 Box
5196 2824 Box
5196 1467 Box
5999 871 Box
6236 1286 Box
6180 4122 Box
2.000 UP
3.000 UL
LT0
LC0 setrgbcolor
0.00 1.00 0.00 C 946 2740 Box
1198 2740 Box
1493 1609 Box
1783 1722 Box
1930 1383 Box
2035 2231 Box
2182 2740 Box
2217 2431 Box
2345 2523 Box
2468 2585 Box
2479 2440 Box
2597 2631 Box
2731 2590 Box
2767 2807 Box
2906 2462 Box
3019 2740 Box
3053 2246 Box
3316 2620 Box
3456 2740 Box
3568 2814 Box
3708 2943 Box
3890 2801 Box
4142 2740 Box
4293 2444 Box
4545 2332 Box
5130 2271 Box
5196 2909 Box
5196 1552 Box
5999 843 Box
6236 1286 Box
2.000 UP
3.000 UL
LT0
LC0 setrgbcolor
0.00 1.00 0.00 C 946 2740 Box
1198 2740 Box
1493 1609 Box
1783 1722 Box
1930 1383 Box
2035 2231 Box
2182 2740 Box
2217 2431 Box
2345 2523 Box
2468 2740 Box
2479 2590 Box
2597 2740 Box
2731 2515 Box
2767 2740 Box
2906 2508 Box
3019 2740 Box
3053 2277 Box
3316 2530 Box
3456 2943 Box
3568 2964 Box
3708 2943 Box
3890 2863 Box
4142 2770 Box
4293 2444 Box
4545 2332 Box
5130 2383 Box
5196 2994 Box
5196 1637 Box
5999 955 Box
6236 1916 Box
3.000 UP
3.000 UL
LT0
LC0 setrgbcolor
0.00 1.00 0.00 C LCb setrgbcolor
LT0
LC0 setrgbcolor
0.00 1.00 0.00 C 946 2740 Star
1198 2740 Star
1493 1609 Star
1783 1722 Star
1930 2061 Star
2035 2740 Star
2182 2740 Star
2217 2740 Star
2345 2740 Star
2468 2894 Star
2479 2590 Star
2597 2848 Star
2731 2740 Star
2767 2875 Star
2906 2601 Star
3019 2909 Star
3053 2431 Star
3316 2754 Star
3456 2943 Star
3568 2964 Star
3708 2892 Star
3890 2894 Star
4142 2724 Star
4293 2434 Star
4545 2332 Star
5130 2149 Star
5196 2824 Star
5196 1552 Star
5999 899 Star
6236 1286 Star
6180 3886 Star
3.000 UP
3.000 UL
LT0
LC0 setrgbcolor
0.00 1.00 0.00 C 946 2740 Star
1198 2740 Star
1493 1609 Star
1783 2740 Star
1930 2061 Star
2035 2740 Star
2182 2740 Star
2217 2431 Star
2345 2523 Star
2468 2740 Star
2479 2590 Star
2597 2740 Star
2731 2365 Star
2767 2875 Star
2906 2554 Star
3019 2841 Star
3053 2308 Star
3316 2934 Star
3456 2943 Star
3568 2889 Star
3708 2892 Star
3890 2955 Star
4142 2847 Star
4293 2495 Star
4545 2434 Star
5130 2434 Star
5196 3079 Star
5196 1722 Star
5999 1048 Star
6236 1479 Star
3.000 UP
3.000 UL
LT0
LC0 setrgbcolor
0.00 1.00 0.00 C 946 2740 Star
1198 2740 Star
1493 1609 Star
1783 2740 Star
1930 2061 Star
2035 2740 Star
2182 2740 Star
2217 2740 Star
2345 2740 Star
2468 2894 Star
2479 2740 Star
2597 2848 Star
2731 2515 Star
2767 2943 Star
2906 2647 Star
3019 2909 Star
3053 2431 Star
3316 2575 Star
3456 2740 Star
3568 2740 Star
3708 2841 Star
3890 2863 Star
4142 2817 Star
4293 2485 Star
4545 2332 Star
5130 2332 Star
5196 2994 Star
5196 1722 Star
5999 946 Star
6236 1867 Star
2.000 UP
3.000 UL
LT0
LC0 setrgbcolor
0.00 0.00 1.00 C LCb setrgbcolor
LT0
LC0 setrgbcolor
0.00 0.00 1.00 C 946 2740 CircleF
1198 2740 CircleF
1493 1609 CircleF
1783 2740 CircleF
1930 2061 CircleF
2035 2740 CircleF
2182 3079 CircleF
2217 2740 CircleF
2345 2956 CircleF
2468 3048 CircleF
2479 3039 CircleF
2597 3064 CircleF
2731 2515 CircleF
2767 3147 CircleF
2906 2878 CircleF
3019 3113 CircleF
3053 2616 CircleF
3316 3084 CircleF
3456 3147 CircleF
3568 3039 CircleF
3708 2994 CircleF
3890 2955 CircleF
4142 2832 CircleF
4293 2546 CircleF
4545 2332 CircleF
5130 2261 CircleF
5196 2824 CircleF
5196 1722 CircleF
5999 955 CircleF
6236 1867 CircleF
6180 3650 CircleF
2.000 UP
3.000 UL
LT0
LC0 setrgbcolor
0.00 0.00 1.00 C 946 2740 CircleF
1198 2740 CircleF
1493 3870 CircleF
1783 2740 CircleF
1930 2061 CircleF
2035 3248 CircleF
2182 3079 CircleF
2217 2740 CircleF
2345 2740 CircleF
2468 3048 CircleF
2479 2889 CircleF
2597 2956 CircleF
2731 2740 CircleF
2767 3079 CircleF
2906 2832 CircleF
3019 3045 CircleF
3053 2554 CircleF
3316 2710 CircleF
3456 2943 CircleF
3568 2964 CircleF
3708 2994 CircleF
3890 2925 CircleF
4142 2847 CircleF
4293 2485 CircleF
4545 2383 CircleF
5130 2149 CircleF
5196 2824 CircleF
5196 1467 CircleF
5999 760 CircleF
6236 1237 CircleF
2.000 UP
3.000 UL
LT0
LC0 setrgbcolor
0.00 0.00 1.00 C 946 2740 CircleF
1198 2740 CircleF
1493 1609 CircleF
1783 2740 CircleF
1930 2061 CircleF
2035 3248 CircleF
2182 3079 CircleF
2217 3048 CircleF
2345 2956 CircleF
2468 3202 CircleF
2479 3039 CircleF
2597 3281 CircleF
2731 1991 CircleF
2767 3214 CircleF
2906 2832 CircleF
3019 3181 CircleF
3053 2647 CircleF
3316 3009 CircleF
3456 3248 CircleF
3568 2964 CircleF
3708 2943 CircleF
3890 2986 CircleF
4142 2863 CircleF
4293 2556 CircleF
4545 2383 CircleF
5130 2689 CircleF
5196 3164 CircleF
5196 1976 CircleF
5999 1169 CircleF
6236 2352 CircleF
1.000 UL
LTb
LCb setrgbcolor
946 4775 N
946 704 L
5857 0 V
0 4071 V
-5857 0 V
Z stroke
3.000 UP
1.000 UL
LTb
stroke
grestore
end
showpage
%%Trailer
