%!PS-Adobe-2.0 EPSF-2.0
%%Title: ../GNU/m328res_all.tex
%%Creator: gnuplot 4.6 patchlevel 4
%%CreationDate: Mon Apr  6 22:22:22 2015
%%DocumentFonts: 
%%BoundingBox: 50 50 410 302
%%EndComments
%%BeginProlog
/gnudict 256 dict def
gnudict begin
%
% The following true/false flags may be edited by hand if desired.
% The unit line width and grayscale image gamma correction may also be changed.
%
/Color true def
/Blacktext true def
/Solid true def
/Dashlength 1 def
/Landscape false def
/Level1 false def
/Rounded false def
/ClipToBoundingBox false def
/SuppressPDFMark false def
/TransparentPatterns false def
/gnulinewidth 5.000 def
/userlinewidth gnulinewidth def
/Gamma 1.0 def
/BackgroundColor {-1.000 -1.000 -1.000} def
%
/vshift -73 def
/dl1 {
  10.0 Dashlength mul mul
  Rounded { currentlinewidth 0.75 mul sub dup 0 le { pop 0.01 } if } if
} def
/dl2 {
  10.0 Dashlength mul mul
  Rounded { currentlinewidth 0.75 mul add } if
} def
/hpt_ 31.5 def
/vpt_ 31.5 def
/hpt hpt_ def
/vpt vpt_ def
/doclip {
  ClipToBoundingBox {
    newpath 50 50 moveto 410 50 lineto 410 302 lineto 50 302 lineto closepath
    clip
  } if
} def
%
% Gnuplot Prolog Version 4.6 (September 2012)
%
%/SuppressPDFMark true def
%
/M {moveto} bind def
/L {lineto} bind def
/R {rmoveto} bind def
/V {rlineto} bind def
/N {newpath moveto} bind def
/Z {closepath} bind def
/C {setrgbcolor} bind def
/f {rlineto fill} bind def
/g {setgray} bind def
/Gshow {show} def   % May be redefined later in the file to support UTF-8
/vpt2 vpt 2 mul def
/hpt2 hpt 2 mul def
/Lshow {currentpoint stroke M 0 vshift R 
	Blacktext {gsave 0 setgray show grestore} {show} ifelse} def
/Rshow {currentpoint stroke M dup stringwidth pop neg vshift R
	Blacktext {gsave 0 setgray show grestore} {show} ifelse} def
/Cshow {currentpoint stroke M dup stringwidth pop -2 div vshift R 
	Blacktext {gsave 0 setgray show grestore} {show} ifelse} def
/UP {dup vpt_ mul /vpt exch def hpt_ mul /hpt exch def
  /hpt2 hpt 2 mul def /vpt2 vpt 2 mul def} def
/DL {Color {setrgbcolor Solid {pop []} if 0 setdash}
 {pop pop pop 0 setgray Solid {pop []} if 0 setdash} ifelse} def
/BL {stroke userlinewidth 2 mul setlinewidth
	Rounded {1 setlinejoin 1 setlinecap} if} def
/AL {stroke userlinewidth 2 div setlinewidth
	Rounded {1 setlinejoin 1 setlinecap} if} def
/UL {dup gnulinewidth mul /userlinewidth exch def
	dup 1 lt {pop 1} if 10 mul /udl exch def} def
/PL {stroke userlinewidth setlinewidth
	Rounded {1 setlinejoin 1 setlinecap} if} def
3.8 setmiterlimit
% Default Line colors
/LCw {1 1 1} def
/LCb {0 0 0} def
/LCa {0 0 0} def
/LC0 {1 0 0} def
/LC1 {0 1 0} def
/LC2 {0 0 1} def
/LC3 {1 0 1} def
/LC4 {0 1 1} def
/LC5 {1 1 0} def
/LC6 {0 0 0} def
/LC7 {1 0.3 0} def
/LC8 {0.5 0.5 0.5} def
% Default Line Types
/LTw {PL [] 1 setgray} def
/LTb {BL [] LCb DL} def
/LTa {AL [1 udl mul 2 udl mul] 0 setdash LCa setrgbcolor} def
/LT0 {PL [] LC0 DL} def
/LT1 {PL [4 dl1 2 dl2] LC1 DL} def
/LT2 {PL [2 dl1 3 dl2] LC2 DL} def
/LT3 {PL [1 dl1 1.5 dl2] LC3 DL} def
/LT4 {PL [6 dl1 2 dl2 1 dl1 2 dl2] LC4 DL} def
/LT5 {PL [3 dl1 3 dl2 1 dl1 3 dl2] LC5 DL} def
/LT6 {PL [2 dl1 2 dl2 2 dl1 6 dl2] LC6 DL} def
/LT7 {PL [1 dl1 2 dl2 6 dl1 2 dl2 1 dl1 2 dl2] LC7 DL} def
/LT8 {PL [2 dl1 2 dl2 2 dl1 2 dl2 2 dl1 2 dl2 2 dl1 4 dl2] LC8 DL} def
/Pnt {stroke [] 0 setdash gsave 1 setlinecap M 0 0 V stroke grestore} def
/Dia {stroke [] 0 setdash 2 copy vpt add M
  hpt neg vpt neg V hpt vpt neg V
  hpt vpt V hpt neg vpt V closepath stroke
  Pnt} def
/Pls {stroke [] 0 setdash vpt sub M 0 vpt2 V
  currentpoint stroke M
  hpt neg vpt neg R hpt2 0 V stroke
 } def
/Box {stroke [] 0 setdash 2 copy exch hpt sub exch vpt add M
  0 vpt2 neg V hpt2 0 V 0 vpt2 V
  hpt2 neg 0 V closepath stroke
  Pnt} def
/Crs {stroke [] 0 setdash exch hpt sub exch vpt add M
  hpt2 vpt2 neg V currentpoint stroke M
  hpt2 neg 0 R hpt2 vpt2 V stroke} def
/TriU {stroke [] 0 setdash 2 copy vpt 1.12 mul add M
  hpt neg vpt -1.62 mul V
  hpt 2 mul 0 V
  hpt neg vpt 1.62 mul V closepath stroke
  Pnt} def
/Star {2 copy Pls Crs} def
/BoxF {stroke [] 0 setdash exch hpt sub exch vpt add M
  0 vpt2 neg V hpt2 0 V 0 vpt2 V
  hpt2 neg 0 V closepath fill} def
/TriUF {stroke [] 0 setdash vpt 1.12 mul add M
  hpt neg vpt -1.62 mul V
  hpt 2 mul 0 V
  hpt neg vpt 1.62 mul V closepath fill} def
/TriD {stroke [] 0 setdash 2 copy vpt 1.12 mul sub M
  hpt neg vpt 1.62 mul V
  hpt 2 mul 0 V
  hpt neg vpt -1.62 mul V closepath stroke
  Pnt} def
/TriDF {stroke [] 0 setdash vpt 1.12 mul sub M
  hpt neg vpt 1.62 mul V
  hpt 2 mul 0 V
  hpt neg vpt -1.62 mul V closepath fill} def
/DiaF {stroke [] 0 setdash vpt add M
  hpt neg vpt neg V hpt vpt neg V
  hpt vpt V hpt neg vpt V closepath fill} def
/Pent {stroke [] 0 setdash 2 copy gsave
  translate 0 hpt M 4 {72 rotate 0 hpt L} repeat
  closepath stroke grestore Pnt} def
/PentF {stroke [] 0 setdash gsave
  translate 0 hpt M 4 {72 rotate 0 hpt L} repeat
  closepath fill grestore} def
/Circle {stroke [] 0 setdash 2 copy
  hpt 0 360 arc stroke Pnt} def
/CircleF {stroke [] 0 setdash hpt 0 360 arc fill} def
/C0 {BL [] 0 setdash 2 copy moveto vpt 90 450 arc} bind def
/C1 {BL [] 0 setdash 2 copy moveto
	2 copy vpt 0 90 arc closepath fill
	vpt 0 360 arc closepath} bind def
/C2 {BL [] 0 setdash 2 copy moveto
	2 copy vpt 90 180 arc closepath fill
	vpt 0 360 arc closepath} bind def
/C3 {BL [] 0 setdash 2 copy moveto
	2 copy vpt 0 180 arc closepath fill
	vpt 0 360 arc closepath} bind def
/C4 {BL [] 0 setdash 2 copy moveto
	2 copy vpt 180 270 arc closepath fill
	vpt 0 360 arc closepath} bind def
/C5 {BL [] 0 setdash 2 copy moveto
	2 copy vpt 0 90 arc
	2 copy moveto
	2 copy vpt 180 270 arc closepath fill
	vpt 0 360 arc} bind def
/C6 {BL [] 0 setdash 2 copy moveto
	2 copy vpt 90 270 arc closepath fill
	vpt 0 360 arc closepath} bind def
/C7 {BL [] 0 setdash 2 copy moveto
	2 copy vpt 0 270 arc closepath fill
	vpt 0 360 arc closepath} bind def
/C8 {BL [] 0 setdash 2 copy moveto
	2 copy vpt 270 360 arc closepath fill
	vpt 0 360 arc closepath} bind def
/C9 {BL [] 0 setdash 2 copy moveto
	2 copy vpt 270 450 arc closepath fill
	vpt 0 360 arc closepath} bind def
/C10 {BL [] 0 setdash 2 copy 2 copy moveto vpt 270 360 arc closepath fill
	2 copy moveto
	2 copy vpt 90 180 arc closepath fill
	vpt 0 360 arc closepath} bind def
/C11 {BL [] 0 setdash 2 copy moveto
	2 copy vpt 0 180 arc closepath fill
	2 copy moveto
	2 copy vpt 270 360 arc closepath fill
	vpt 0 360 arc closepath} bind def
/C12 {BL [] 0 setdash 2 copy moveto
	2 copy vpt 180 360 arc closepath fill
	vpt 0 360 arc closepath} bind def
/C13 {BL [] 0 setdash 2 copy moveto
	2 copy vpt 0 90 arc closepath fill
	2 copy moveto
	2 copy vpt 180 360 arc closepath fill
	vpt 0 360 arc closepath} bind def
/C14 {BL [] 0 setdash 2 copy moveto
	2 copy vpt 90 360 arc closepath fill
	vpt 0 360 arc} bind def
/C15 {BL [] 0 setdash 2 copy vpt 0 360 arc closepath fill
	vpt 0 360 arc closepath} bind def
/Rec {newpath 4 2 roll moveto 1 index 0 rlineto 0 exch rlineto
	neg 0 rlineto closepath} bind def
/Square {dup Rec} bind def
/Bsquare {vpt sub exch vpt sub exch vpt2 Square} bind def
/S0 {BL [] 0 setdash 2 copy moveto 0 vpt rlineto BL Bsquare} bind def
/S1 {BL [] 0 setdash 2 copy vpt Square fill Bsquare} bind def
/S2 {BL [] 0 setdash 2 copy exch vpt sub exch vpt Square fill Bsquare} bind def
/S3 {BL [] 0 setdash 2 copy exch vpt sub exch vpt2 vpt Rec fill Bsquare} bind def
/S4 {BL [] 0 setdash 2 copy exch vpt sub exch vpt sub vpt Square fill Bsquare} bind def
/S5 {BL [] 0 setdash 2 copy 2 copy vpt Square fill
	exch vpt sub exch vpt sub vpt Square fill Bsquare} bind def
/S6 {BL [] 0 setdash 2 copy exch vpt sub exch vpt sub vpt vpt2 Rec fill Bsquare} bind def
/S7 {BL [] 0 setdash 2 copy exch vpt sub exch vpt sub vpt vpt2 Rec fill
	2 copy vpt Square fill Bsquare} bind def
/S8 {BL [] 0 setdash 2 copy vpt sub vpt Square fill Bsquare} bind def
/S9 {BL [] 0 setdash 2 copy vpt sub vpt vpt2 Rec fill Bsquare} bind def
/S10 {BL [] 0 setdash 2 copy vpt sub vpt Square fill 2 copy exch vpt sub exch vpt Square fill
	Bsquare} bind def
/S11 {BL [] 0 setdash 2 copy vpt sub vpt Square fill 2 copy exch vpt sub exch vpt2 vpt Rec fill
	Bsquare} bind def
/S12 {BL [] 0 setdash 2 copy exch vpt sub exch vpt sub vpt2 vpt Rec fill Bsquare} bind def
/S13 {BL [] 0 setdash 2 copy exch vpt sub exch vpt sub vpt2 vpt Rec fill
	2 copy vpt Square fill Bsquare} bind def
/S14 {BL [] 0 setdash 2 copy exch vpt sub exch vpt sub vpt2 vpt Rec fill
	2 copy exch vpt sub exch vpt Square fill Bsquare} bind def
/S15 {BL [] 0 setdash 2 copy Bsquare fill Bsquare} bind def
/D0 {gsave translate 45 rotate 0 0 S0 stroke grestore} bind def
/D1 {gsave translate 45 rotate 0 0 S1 stroke grestore} bind def
/D2 {gsave translate 45 rotate 0 0 S2 stroke grestore} bind def
/D3 {gsave translate 45 rotate 0 0 S3 stroke grestore} bind def
/D4 {gsave translate 45 rotate 0 0 S4 stroke grestore} bind def
/D5 {gsave translate 45 rotate 0 0 S5 stroke grestore} bind def
/D6 {gsave translate 45 rotate 0 0 S6 stroke grestore} bind def
/D7 {gsave translate 45 rotate 0 0 S7 stroke grestore} bind def
/D8 {gsave translate 45 rotate 0 0 S8 stroke grestore} bind def
/D9 {gsave translate 45 rotate 0 0 S9 stroke grestore} bind def
/D10 {gsave translate 45 rotate 0 0 S10 stroke grestore} bind def
/D11 {gsave translate 45 rotate 0 0 S11 stroke grestore} bind def
/D12 {gsave translate 45 rotate 0 0 S12 stroke grestore} bind def
/D13 {gsave translate 45 rotate 0 0 S13 stroke grestore} bind def
/D14 {gsave translate 45 rotate 0 0 S14 stroke grestore} bind def
/D15 {gsave translate 45 rotate 0 0 S15 stroke grestore} bind def
/DiaE {stroke [] 0 setdash vpt add M
  hpt neg vpt neg V hpt vpt neg V
  hpt vpt V hpt neg vpt V closepath stroke} def
/BoxE {stroke [] 0 setdash exch hpt sub exch vpt add M
  0 vpt2 neg V hpt2 0 V 0 vpt2 V
  hpt2 neg 0 V closepath stroke} def
/TriUE {stroke [] 0 setdash vpt 1.12 mul add M
  hpt neg vpt -1.62 mul V
  hpt 2 mul 0 V
  hpt neg vpt 1.62 mul V closepath stroke} def
/TriDE {stroke [] 0 setdash vpt 1.12 mul sub M
  hpt neg vpt 1.62 mul V
  hpt 2 mul 0 V
  hpt neg vpt -1.62 mul V closepath stroke} def
/PentE {stroke [] 0 setdash gsave
  translate 0 hpt M 4 {72 rotate 0 hpt L} repeat
  closepath stroke grestore} def
/CircE {stroke [] 0 setdash 
  hpt 0 360 arc stroke} def
/Opaque {gsave closepath 1 setgray fill grestore 0 setgray closepath} def
/DiaW {stroke [] 0 setdash vpt add M
  hpt neg vpt neg V hpt vpt neg V
  hpt vpt V hpt neg vpt V Opaque stroke} def
/BoxW {stroke [] 0 setdash exch hpt sub exch vpt add M
  0 vpt2 neg V hpt2 0 V 0 vpt2 V
  hpt2 neg 0 V Opaque stroke} def
/TriUW {stroke [] 0 setdash vpt 1.12 mul add M
  hpt neg vpt -1.62 mul V
  hpt 2 mul 0 V
  hpt neg vpt 1.62 mul V Opaque stroke} def
/TriDW {stroke [] 0 setdash vpt 1.12 mul sub M
  hpt neg vpt 1.62 mul V
  hpt 2 mul 0 V
  hpt neg vpt -1.62 mul V Opaque stroke} def
/PentW {stroke [] 0 setdash gsave
  translate 0 hpt M 4 {72 rotate 0 hpt L} repeat
  Opaque stroke grestore} def
/CircW {stroke [] 0 setdash 
  hpt 0 360 arc Opaque stroke} def
/BoxFill {gsave Rec 1 setgray fill grestore} def
/Density {
  /Fillden exch def
  currentrgbcolor
  /ColB exch def /ColG exch def /ColR exch def
  /ColR ColR Fillden mul Fillden sub 1 add def
  /ColG ColG Fillden mul Fillden sub 1 add def
  /ColB ColB Fillden mul Fillden sub 1 add def
  ColR ColG ColB setrgbcolor} def
/BoxColFill {gsave Rec PolyFill} def
/PolyFill {gsave Density fill grestore grestore} def
/h {rlineto rlineto rlineto gsave closepath fill grestore} bind def
%
% PostScript Level 1 Pattern Fill routine for rectangles
% Usage: x y w h s a XX PatternFill
%	x,y = lower left corner of box to be filled
%	w,h = width and height of box
%	  a = angle in degrees between lines and x-axis
%	 XX = 0/1 for no/yes cross-hatch
%
/PatternFill {gsave /PFa [ 9 2 roll ] def
  PFa 0 get PFa 2 get 2 div add PFa 1 get PFa 3 get 2 div add translate
  PFa 2 get -2 div PFa 3 get -2 div PFa 2 get PFa 3 get Rec
  TransparentPatterns {} {gsave 1 setgray fill grestore} ifelse
  clip
  currentlinewidth 0.5 mul setlinewidth
  /PFs PFa 2 get dup mul PFa 3 get dup mul add sqrt def
  0 0 M PFa 5 get rotate PFs -2 div dup translate
  0 1 PFs PFa 4 get div 1 add floor cvi
	{PFa 4 get mul 0 M 0 PFs V} for
  0 PFa 6 get ne {
	0 1 PFs PFa 4 get div 1 add floor cvi
	{PFa 4 get mul 0 2 1 roll M PFs 0 V} for
 } if
  stroke grestore} def
%
/languagelevel where
 {pop languagelevel} {1} ifelse
 2 lt
	{/InterpretLevel1 true def}
	{/InterpretLevel1 Level1 def}
 ifelse
%
% PostScript level 2 pattern fill definitions
%
/Level2PatternFill {
/Tile8x8 {/PaintType 2 /PatternType 1 /TilingType 1 /BBox [0 0 8 8] /XStep 8 /YStep 8}
	bind def
/KeepColor {currentrgbcolor [/Pattern /DeviceRGB] setcolorspace} bind def
<< Tile8x8
 /PaintProc {0.5 setlinewidth pop 0 0 M 8 8 L 0 8 M 8 0 L stroke} 
>> matrix makepattern
/Pat1 exch def
<< Tile8x8
 /PaintProc {0.5 setlinewidth pop 0 0 M 8 8 L 0 8 M 8 0 L stroke
	0 4 M 4 8 L 8 4 L 4 0 L 0 4 L stroke}
>> matrix makepattern
/Pat2 exch def
<< Tile8x8
 /PaintProc {0.5 setlinewidth pop 0 0 M 0 8 L
	8 8 L 8 0 L 0 0 L fill}
>> matrix makepattern
/Pat3 exch def
<< Tile8x8
 /PaintProc {0.5 setlinewidth pop -4 8 M 8 -4 L
	0 12 M 12 0 L stroke}
>> matrix makepattern
/Pat4 exch def
<< Tile8x8
 /PaintProc {0.5 setlinewidth pop -4 0 M 8 12 L
	0 -4 M 12 8 L stroke}
>> matrix makepattern
/Pat5 exch def
<< Tile8x8
 /PaintProc {0.5 setlinewidth pop -2 8 M 4 -4 L
	0 12 M 8 -4 L 4 12 M 10 0 L stroke}
>> matrix makepattern
/Pat6 exch def
<< Tile8x8
 /PaintProc {0.5 setlinewidth pop -2 0 M 4 12 L
	0 -4 M 8 12 L 4 -4 M 10 8 L stroke}
>> matrix makepattern
/Pat7 exch def
<< Tile8x8
 /PaintProc {0.5 setlinewidth pop 8 -2 M -4 4 L
	12 0 M -4 8 L 12 4 M 0 10 L stroke}
>> matrix makepattern
/Pat8 exch def
<< Tile8x8
 /PaintProc {0.5 setlinewidth pop 0 -2 M 12 4 L
	-4 0 M 12 8 L -4 4 M 8 10 L stroke}
>> matrix makepattern
/Pat9 exch def
/Pattern1 {PatternBgnd KeepColor Pat1 setpattern} bind def
/Pattern2 {PatternBgnd KeepColor Pat2 setpattern} bind def
/Pattern3 {PatternBgnd KeepColor Pat3 setpattern} bind def
/Pattern4 {PatternBgnd KeepColor Landscape {Pat5} {Pat4} ifelse setpattern} bind def
/Pattern5 {PatternBgnd KeepColor Landscape {Pat4} {Pat5} ifelse setpattern} bind def
/Pattern6 {PatternBgnd KeepColor Landscape {Pat9} {Pat6} ifelse setpattern} bind def
/Pattern7 {PatternBgnd KeepColor Landscape {Pat8} {Pat7} ifelse setpattern} bind def
} def
%
%
%End of PostScript Level 2 code
%
/PatternBgnd {
  TransparentPatterns {} {gsave 1 setgray fill grestore} ifelse
} def
%
% Substitute for Level 2 pattern fill codes with
% grayscale if Level 2 support is not selected.
%
/Level1PatternFill {
/Pattern1 {0.250 Density} bind def
/Pattern2 {0.500 Density} bind def
/Pattern3 {0.750 Density} bind def
/Pattern4 {0.125 Density} bind def
/Pattern5 {0.375 Density} bind def
/Pattern6 {0.625 Density} bind def
/Pattern7 {0.875 Density} bind def
} def
%
% Now test for support of Level 2 code
%
Level1 {Level1PatternFill} {Level2PatternFill} ifelse
%
/Symbol-Oblique /Symbol findfont [1 0 .167 1 0 0] makefont
dup length dict begin {1 index /FID eq {pop pop} {def} ifelse} forall
currentdict end definefont pop
Level1 SuppressPDFMark or 
{} {
/SDict 10 dict def
systemdict /pdfmark known not {
  userdict /pdfmark systemdict /cleartomark get put
} if
SDict begin [
  /Title (../GNU/m328res_all.tex)
  /Subject (gnuplot plot)
  /Creator (gnuplot 4.6 patchlevel 4)
  /Author (kub)
%  /Producer (gnuplot)
%  /Keywords ()
  /CreationDate (Mon Apr  6 22:22:22 2015)
  /DOCINFO pdfmark
end
} ifelse
end
%%EndProlog
%%Page: 1 1
gnudict begin
gsave
doclip
50 50 translate
0.050 0.050 scale
0 setgray
newpath
1.000 UL
LTb
LCb setrgbcolor
1.000 UL
LTa
LCa setrgbcolor
814 704 M
5989 0 V
stroke
LTb
LCb setrgbcolor
814 704 M
63 0 V
5926 0 R
-63 0 V
stroke
LTb
1.000 UL
LTa
LCa setrgbcolor
814 1111 M
5989 0 V
stroke
LTb
LCb setrgbcolor
814 1111 M
63 0 V
5926 0 R
-63 0 V
stroke
LTb
1.000 UL
LTa
LCa setrgbcolor
814 1518 M
5989 0 V
stroke
LTb
LCb setrgbcolor
814 1518 M
63 0 V
5926 0 R
-63 0 V
stroke
LTb
1.000 UL
LTa
LCa setrgbcolor
814 1925 M
5989 0 V
stroke
LTb
LCb setrgbcolor
814 1925 M
63 0 V
5926 0 R
-63 0 V
stroke
LTb
1.000 UL
LTa
LCa setrgbcolor
814 2332 M
5989 0 V
stroke
LTb
LCb setrgbcolor
814 2332 M
63 0 V
5926 0 R
-63 0 V
stroke
LTb
1.000 UL
LTa
LCa setrgbcolor
814 2740 M
5989 0 V
stroke
LTb
LCb setrgbcolor
814 2740 M
63 0 V
5926 0 R
-63 0 V
stroke
LTb
1.000 UL
LTa
LCa setrgbcolor
814 3147 M
5989 0 V
stroke
LTb
LCb setrgbcolor
814 3147 M
63 0 V
5926 0 R
-63 0 V
stroke
LTb
1.000 UL
LTa
LCa setrgbcolor
814 3554 M
4015 0 V
1842 0 R
132 0 V
stroke
LTb
LCb setrgbcolor
814 3554 M
63 0 V
5926 0 R
-63 0 V
stroke
LTb
1.000 UL
LTa
LCa setrgbcolor
814 3961 M
4015 0 V
1842 0 R
132 0 V
stroke
LTb
LCb setrgbcolor
814 3961 M
63 0 V
5926 0 R
-63 0 V
stroke
LTb
1.000 UL
LTa
LCa setrgbcolor
814 4368 M
4015 0 V
1842 0 R
132 0 V
stroke
LTb
LCb setrgbcolor
814 4368 M
63 0 V
5926 0 R
-63 0 V
stroke
LTb
1.000 UL
LTa
LCa setrgbcolor
814 4775 M
5989 0 V
stroke
LTb
LCb setrgbcolor
814 4775 M
63 0 V
5926 0 R
-63 0 V
stroke
LTb
1.000 UL
LTa
LCa setrgbcolor
814 704 M
0 4071 V
stroke
LTb
LCb setrgbcolor
814 704 M
0 63 V
0 4008 R
0 -63 V
stroke
LTb
1039 704 M
0 31 V
0 4040 R
0 -31 V
1337 704 M
0 31 V
0 4040 R
0 -31 V
1490 704 M
0 31 V
0 4040 R
0 -31 V
stroke
LTa
LCa setrgbcolor
1563 704 M
0 4071 V
stroke
LTb
LCb setrgbcolor
1563 704 M
0 63 V
0 4008 R
0 -63 V
stroke
LTb
1788 704 M
0 31 V
0 4040 R
0 -31 V
2086 704 M
0 31 V
0 4040 R
0 -31 V
2239 704 M
0 31 V
0 4040 R
0 -31 V
stroke
LTa
LCa setrgbcolor
2311 704 M
0 4071 V
stroke
LTb
LCb setrgbcolor
2311 704 M
0 63 V
0 4008 R
0 -63 V
stroke
LTb
2537 704 M
0 31 V
0 4040 R
0 -31 V
2835 704 M
0 31 V
0 4040 R
0 -31 V
2987 704 M
0 31 V
0 4040 R
0 -31 V
stroke
LTa
LCa setrgbcolor
3060 704 M
0 4071 V
stroke
LTb
LCb setrgbcolor
3060 704 M
0 63 V
0 4008 R
0 -63 V
stroke
LTb
3285 704 M
0 31 V
0 4040 R
0 -31 V
3583 704 M
0 31 V
0 4040 R
0 -31 V
3736 704 M
0 31 V
0 4040 R
0 -31 V
stroke
LTa
LCa setrgbcolor
3809 704 M
0 4071 V
stroke
LTb
LCb setrgbcolor
3809 704 M
0 63 V
0 4008 R
0 -63 V
stroke
LTb
4034 704 M
0 31 V
0 4040 R
0 -31 V
4332 704 M
0 31 V
0 4040 R
0 -31 V
4485 704 M
0 31 V
0 4040 R
0 -31 V
stroke
LTa
LCa setrgbcolor
4557 704 M
0 4071 V
stroke
LTb
LCb setrgbcolor
4557 704 M
0 63 V
0 4008 R
0 -63 V
stroke
LTb
4782 704 M
0 31 V
0 4040 R
0 -31 V
5080 704 M
0 31 V
0 4040 R
0 -31 V
5233 704 M
0 31 V
0 4040 R
0 -31 V
stroke
LTa
LCa setrgbcolor
5306 704 M
0 2688 V
0 1320 R
0 63 V
stroke
LTb
LCb setrgbcolor
5306 704 M
0 63 V
0 4008 R
0 -63 V
stroke
LTb
5531 704 M
0 31 V
0 4040 R
0 -31 V
5829 704 M
0 31 V
0 4040 R
0 -31 V
5982 704 M
0 31 V
0 4040 R
0 -31 V
stroke
LTa
LCa setrgbcolor
6054 704 M
0 2688 V
0 1320 R
0 63 V
stroke
LTb
LCb setrgbcolor
6054 704 M
0 63 V
0 4008 R
0 -63 V
stroke
LTb
6280 704 M
0 31 V
0 4040 R
0 -31 V
6578 704 M
0 31 V
0 4040 R
0 -31 V
6730 704 M
0 31 V
0 4040 R
0 -31 V
stroke
LTa
LCa setrgbcolor
6803 704 M
0 4071 V
stroke
LTb
LCb setrgbcolor
6803 704 M
0 63 V
0 4008 R
0 -63 V
stroke
LTb
1.000 UL
LTb
814 4775 N
814 704 L
5989 0 V
0 4071 V
-5989 0 V
Z stroke
2.000 UP
1.000 UL
LTb
2.000 UP
3.000 UL
LT0
LC0 setrgbcolor
1.00 0.00 0.00 C LCb setrgbcolor
LT0
LC0 setrgbcolor
1.00 0.00 0.00 C 1437 4536 Box
1563 4368 Box
1663 3638 Box
1788 3554 Box
1920 3554 Box
2145 3486 Box
2371 3554 Box
2596 2485 Box
2709 2668 Box
2934 2638 Box
3160 2799 Box
3292 2879 Box
3385 2889 Box
3502 1998 Box
3728 2004 Box
3839 2036 Box
3953 2113 Box
4065 3887 Box
4290 3554 Box
4332 3619 Box
4422 3474 Box
4516 3540 Box
4557 3594 Box
4655 2559 Box
4782 2556 Box
4880 2574 Box
5060 2843 Box
5286 2848 Box
5306 2678 Box
5531 1762 Box
5663 1790 Box
5756 1793 Box
5829 1771 Box
6054 2141 Box
6280 2088 Box
6412 1912 Box
6578 1705 Box
6212 4602 Box
2.000 UP
3.000 UL
LT0
LC0 setrgbcolor
0.00 1.00 0.00 C LCb setrgbcolor
LT0
LC0 setrgbcolor
0.00 1.00 0.00 C 1070 4590 Crs
1202 3973 Crs
1337 3554 Crs
1437 3338 Crs
1563 3554 Crs
1663 3338 Crs
1788 3554 Crs
1920 3418 Crs
2145 3214 Crs
2371 3248 Crs
2596 2536 Crs
2709 2584 Crs
2934 2728 Crs
3160 2740 Crs
3292 2779 Crs
3385 2844 Crs
3502 2218 Crs
3728 2249 Crs
3839 2258 Crs
3953 2400 Crs
4065 3498 Crs
4290 3341 Crs
4332 3383 Crs
4422 3227 Crs
4516 3179 Crs
4557 3269 Crs
4655 2438 Crs
4782 2475 Crs
4880 2498 Crs
5060 2757 Crs
5286 2848 Crs
5306 2678 Crs
5531 2047 Crs
5663 2034 Crs
5756 2017 Crs
5829 2056 Crs
6054 2450 Crs
6280 2373 Crs
6412 1980 Crs
6578 1624 Crs
6212 4382 Crs
2.000 UP
3.000 UL
LT0
LC0 setrgbcolor
0.00 0.00 1.00 C LCb setrgbcolor
LT0
LC0 setrgbcolor
0.00 0.00 1.00 C 946 2740 Star
1070 2740 Star
1202 3973 Star
1337 2740 Star
1437 2740 Star
1563 2740 Star
1663 2740 Star
1788 2740 Star
1920 2604 Star
2145 2400 Star
2371 2400 Star
2596 2570 Star
2709 2596 Star
2934 2662 Star
3160 2740 Star
3292 2779 Star
3385 2844 Star
3502 3063 Star
3728 3006 Star
3839 2999 Star
3953 3053 Star
4065 2777 Star
4290 2554 Star
4332 2593 Star
4422 2425 Star
4516 2578 Star
4557 2381 Star
4655 2438 Star
4782 2455 Star
4880 2574 Star
5060 2878 Star
5286 2765 Star
5306 2467 Star
5531 2902 Star
5663 2848 Star
5756 2841 Star
5829 2862 Star
6054 3065 Star
6280 3086 Star
6412 2753 Star
6578 2308 Star
6212 4162 Star
3.000 UL
LT0
LC0 setrgbcolor
1.00 0.00 0.00 C LCb setrgbcolor
LT0
LC0 setrgbcolor
1.00 0.00 0.00 C 5885 3942 M
654 0 V
1272 4775 M
65 -407 V
1437 3338 L
126 -191 V
100 -407 V
125 0 V
132 135 V
225 -271 V
226 0 V
225 -34 V
113 158 V
225 -42 V
226 113 V
132 100 V
93 35 V
117 -7 V
226 -41 V
111 39 V
114 49 V
112 117 V
225 -407 V
42 64 V
90 -181 V
94 6 V
41 44 V
98 -58 V
127 -3 V
98 18 V
180 269 V
226 5 V
20 -170 V
225 41 V
132 -34 V
93 -17 V
73 -34 V
225 350 V
226 -102 V
132 -319 V
166 71 V
stroke
LT0
LC0 setrgbcolor
0.00 1.00 0.00 C LCb setrgbcolor
LT0
LC0 setrgbcolor
0.00 1.00 0.00 C 5885 3722 M
654 0 V
880 4775 M
946 2740 L
124 1850 V
132 -617 V
135 -419 V
100 -814 V
126 407 V
100 -407 V
125 203 V
132 -203 V
225 -68 V
226 -136 V
225 51 V
113 33 V
225 120 V
226 0 V
132 39 V
93 65 V
117 104 V
226 -15 V
111 -45 V
114 86 V
112 -123 V
225 -195 V
42 51 V
90 -177 V
94 -77 V
41 99 V
98 -114 V
127 37 V
98 23 V
180 276 V
226 69 V
20 -156 V
225 114 V
132 -48 V
93 -34 V
73 12 V
225 293 V
226 21 V
132 -523 V
166 -361 V
stroke
LT0
LC0 setrgbcolor
0.00 0.00 1.00 C LCb setrgbcolor
LT0
LC0 setrgbcolor
0.00 0.00 1.00 C 5885 3502 M
654 0 V
880 4775 M
946 2740 L
124 0 V
132 1233 V
135 -419 V
100 -814 V
126 814 V
100 -814 V
125 203 V
132 -203 V
225 -272 V
226 34 V
225 68 V
113 38 V
225 66 V
226 66 V
132 59 V
93 45 V
117 115 V
226 -42 V
111 8 V
114 23 V
112 -97 V
225 -223 V
42 63 V
90 -161 V
94 -91 V
41 81 V
98 -82 V
127 17 V
98 88 V
180 145 V
226 73 V
20 -172 V
225 212 V
132 -48 V
93 -13 V
73 16 V
225 268 V
226 82 V
132 -353 V
166 -445 V
stroke
1.000 UL
LTb
LCb setrgbcolor
814 4775 N
814 704 L
5989 0 V
0 4071 V
-5989 0 V
Z stroke
2.000 UP
1.000 UL
LTb
stroke
grestore
end
showpage
%%Trailer
