%!PS-Adobe-2.0 EPSF-2.0
%%Title: ../GNU/Mega168cal.tex
%%Creator: gnuplot 4.6 patchlevel 4
%%CreationDate: Tue May  5 17:14:41 2015
%%DocumentFonts: 
%%BoundingBox: 50 50 410 302
%%EndComments
%%BeginProlog
/gnudict 256 dict def
gnudict begin
%
% The following true/false flags may be edited by hand if desired.
% The unit line width and grayscale image gamma correction may also be changed.
%
/Color true def
/Blacktext true def
/Solid true def
/Dashlength 1 def
/Landscape false def
/Level1 false def
/Rounded false def
/ClipToBoundingBox false def
/SuppressPDFMark false def
/TransparentPatterns false def
/gnulinewidth 5.000 def
/userlinewidth gnulinewidth def
/Gamma 1.0 def
/BackgroundColor {-1.000 -1.000 -1.000} def
%
/vshift -73 def
/dl1 {
  10.0 Dashlength mul mul
  Rounded { currentlinewidth 0.75 mul sub dup 0 le { pop 0.01 } if } if
} def
/dl2 {
  10.0 Dashlength mul mul
  Rounded { currentlinewidth 0.75 mul add } if
} def
/hpt_ 31.5 def
/vpt_ 31.5 def
/hpt hpt_ def
/vpt vpt_ def
/doclip {
  ClipToBoundingBox {
    newpath 50 50 moveto 410 50 lineto 410 302 lineto 50 302 lineto closepath
    clip
  } if
} def
%
% Gnuplot Prolog Version 4.6 (September 2012)
%
%/SuppressPDFMark true def
%
/M {moveto} bind def
/L {lineto} bind def
/R {rmoveto} bind def
/V {rlineto} bind def
/N {newpath moveto} bind def
/Z {closepath} bind def
/C {setrgbcolor} bind def
/f {rlineto fill} bind def
/g {setgray} bind def
/Gshow {show} def   % May be redefined later in the file to support UTF-8
/vpt2 vpt 2 mul def
/hpt2 hpt 2 mul def
/Lshow {currentpoint stroke M 0 vshift R 
	Blacktext {gsave 0 setgray show grestore} {show} ifelse} def
/Rshow {currentpoint stroke M dup stringwidth pop neg vshift R
	Blacktext {gsave 0 setgray show grestore} {show} ifelse} def
/Cshow {currentpoint stroke M dup stringwidth pop -2 div vshift R 
	Blacktext {gsave 0 setgray show grestore} {show} ifelse} def
/UP {dup vpt_ mul /vpt exch def hpt_ mul /hpt exch def
  /hpt2 hpt 2 mul def /vpt2 vpt 2 mul def} def
/DL {Color {setrgbcolor Solid {pop []} if 0 setdash}
 {pop pop pop 0 setgray Solid {pop []} if 0 setdash} ifelse} def
/BL {stroke userlinewidth 2 mul setlinewidth
	Rounded {1 setlinejoin 1 setlinecap} if} def
/AL {stroke userlinewidth 2 div setlinewidth
	Rounded {1 setlinejoin 1 setlinecap} if} def
/UL {dup gnulinewidth mul /userlinewidth exch def
	dup 1 lt {pop 1} if 10 mul /udl exch def} def
/PL {stroke userlinewidth setlinewidth
	Rounded {1 setlinejoin 1 setlinecap} if} def
3.8 setmiterlimit
% Default Line colors
/LCw {1 1 1} def
/LCb {0 0 0} def
/LCa {0 0 0} def
/LC0 {1 0 0} def
/LC1 {0 1 0} def
/LC2 {0 0 1} def
/LC3 {1 0 1} def
/LC4 {0 1 1} def
/LC5 {1 1 0} def
/LC6 {0 0 0} def
/LC7 {1 0.3 0} def
/LC8 {0.5 0.5 0.5} def
% Default Line Types
/LTw {PL [] 1 setgray} def
/LTb {BL [] LCb DL} def
/LTa {AL [1 udl mul 2 udl mul] 0 setdash LCa setrgbcolor} def
/LT0 {PL [] LC0 DL} def
/LT1 {PL [4 dl1 2 dl2] LC1 DL} def
/LT2 {PL [2 dl1 3 dl2] LC2 DL} def
/LT3 {PL [1 dl1 1.5 dl2] LC3 DL} def
/LT4 {PL [6 dl1 2 dl2 1 dl1 2 dl2] LC4 DL} def
/LT5 {PL [3 dl1 3 dl2 1 dl1 3 dl2] LC5 DL} def
/LT6 {PL [2 dl1 2 dl2 2 dl1 6 dl2] LC6 DL} def
/LT7 {PL [1 dl1 2 dl2 6 dl1 2 dl2 1 dl1 2 dl2] LC7 DL} def
/LT8 {PL [2 dl1 2 dl2 2 dl1 2 dl2 2 dl1 2 dl2 2 dl1 4 dl2] LC8 DL} def
/Pnt {stroke [] 0 setdash gsave 1 setlinecap M 0 0 V stroke grestore} def
/Dia {stroke [] 0 setdash 2 copy vpt add M
  hpt neg vpt neg V hpt vpt neg V
  hpt vpt V hpt neg vpt V closepath stroke
  Pnt} def
/Pls {stroke [] 0 setdash vpt sub M 0 vpt2 V
  currentpoint stroke M
  hpt neg vpt neg R hpt2 0 V stroke
 } def
/Box {stroke [] 0 setdash 2 copy exch hpt sub exch vpt add M
  0 vpt2 neg V hpt2 0 V 0 vpt2 V
  hpt2 neg 0 V closepath stroke
  Pnt} def
/Crs {stroke [] 0 setdash exch hpt sub exch vpt add M
  hpt2 vpt2 neg V currentpoint stroke M
  hpt2 neg 0 R hpt2 vpt2 V stroke} def
/TriU {stroke [] 0 setdash 2 copy vpt 1.12 mul add M
  hpt neg vpt -1.62 mul V
  hpt 2 mul 0 V
  hpt neg vpt 1.62 mul V closepath stroke
  Pnt} def
/Star {2 copy Pls Crs} def
/BoxF {stroke [] 0 setdash exch hpt sub exch vpt add M
  0 vpt2 neg V hpt2 0 V 0 vpt2 V
  hpt2 neg 0 V closepath fill} def
/TriUF {stroke [] 0 setdash vpt 1.12 mul add M
  hpt neg vpt -1.62 mul V
  hpt 2 mul 0 V
  hpt neg vpt 1.62 mul V closepath fill} def
/TriD {stroke [] 0 setdash 2 copy vpt 1.12 mul sub M
  hpt neg vpt 1.62 mul V
  hpt 2 mul 0 V
  hpt neg vpt -1.62 mul V closepath stroke
  Pnt} def
/TriDF {stroke [] 0 setdash vpt 1.12 mul sub M
  hpt neg vpt 1.62 mul V
  hpt 2 mul 0 V
  hpt neg vpt -1.62 mul V closepath fill} def
/DiaF {stroke [] 0 setdash vpt add M
  hpt neg vpt neg V hpt vpt neg V
  hpt vpt V hpt neg vpt V closepath fill} def
/Pent {stroke [] 0 setdash 2 copy gsave
  translate 0 hpt M 4 {72 rotate 0 hpt L} repeat
  closepath stroke grestore Pnt} def
/PentF {stroke [] 0 setdash gsave
  translate 0 hpt M 4 {72 rotate 0 hpt L} repeat
  closepath fill grestore} def
/Circle {stroke [] 0 setdash 2 copy
  hpt 0 360 arc stroke Pnt} def
/CircleF {stroke [] 0 setdash hpt 0 360 arc fill} def
/C0 {BL [] 0 setdash 2 copy moveto vpt 90 450 arc} bind def
/C1 {BL [] 0 setdash 2 copy moveto
	2 copy vpt 0 90 arc closepath fill
	vpt 0 360 arc closepath} bind def
/C2 {BL [] 0 setdash 2 copy moveto
	2 copy vpt 90 180 arc closepath fill
	vpt 0 360 arc closepath} bind def
/C3 {BL [] 0 setdash 2 copy moveto
	2 copy vpt 0 180 arc closepath fill
	vpt 0 360 arc closepath} bind def
/C4 {BL [] 0 setdash 2 copy moveto
	2 copy vpt 180 270 arc closepath fill
	vpt 0 360 arc closepath} bind def
/C5 {BL [] 0 setdash 2 copy moveto
	2 copy vpt 0 90 arc
	2 copy moveto
	2 copy vpt 180 270 arc closepath fill
	vpt 0 360 arc} bind def
/C6 {BL [] 0 setdash 2 copy moveto
	2 copy vpt 90 270 arc closepath fill
	vpt 0 360 arc closepath} bind def
/C7 {BL [] 0 setdash 2 copy moveto
	2 copy vpt 0 270 arc closepath fill
	vpt 0 360 arc closepath} bind def
/C8 {BL [] 0 setdash 2 copy moveto
	2 copy vpt 270 360 arc closepath fill
	vpt 0 360 arc closepath} bind def
/C9 {BL [] 0 setdash 2 copy moveto
	2 copy vpt 270 450 arc closepath fill
	vpt 0 360 arc closepath} bind def
/C10 {BL [] 0 setdash 2 copy 2 copy moveto vpt 270 360 arc closepath fill
	2 copy moveto
	2 copy vpt 90 180 arc closepath fill
	vpt 0 360 arc closepath} bind def
/C11 {BL [] 0 setdash 2 copy moveto
	2 copy vpt 0 180 arc closepath fill
	2 copy moveto
	2 copy vpt 270 360 arc closepath fill
	vpt 0 360 arc closepath} bind def
/C12 {BL [] 0 setdash 2 copy moveto
	2 copy vpt 180 360 arc closepath fill
	vpt 0 360 arc closepath} bind def
/C13 {BL [] 0 setdash 2 copy moveto
	2 copy vpt 0 90 arc closepath fill
	2 copy moveto
	2 copy vpt 180 360 arc closepath fill
	vpt 0 360 arc closepath} bind def
/C14 {BL [] 0 setdash 2 copy moveto
	2 copy vpt 90 360 arc closepath fill
	vpt 0 360 arc} bind def
/C15 {BL [] 0 setdash 2 copy vpt 0 360 arc closepath fill
	vpt 0 360 arc closepath} bind def
/Rec {newpath 4 2 roll moveto 1 index 0 rlineto 0 exch rlineto
	neg 0 rlineto closepath} bind def
/Square {dup Rec} bind def
/Bsquare {vpt sub exch vpt sub exch vpt2 Square} bind def
/S0 {BL [] 0 setdash 2 copy moveto 0 vpt rlineto BL Bsquare} bind def
/S1 {BL [] 0 setdash 2 copy vpt Square fill Bsquare} bind def
/S2 {BL [] 0 setdash 2 copy exch vpt sub exch vpt Square fill Bsquare} bind def
/S3 {BL [] 0 setdash 2 copy exch vpt sub exch vpt2 vpt Rec fill Bsquare} bind def
/S4 {BL [] 0 setdash 2 copy exch vpt sub exch vpt sub vpt Square fill Bsquare} bind def
/S5 {BL [] 0 setdash 2 copy 2 copy vpt Square fill
	exch vpt sub exch vpt sub vpt Square fill Bsquare} bind def
/S6 {BL [] 0 setdash 2 copy exch vpt sub exch vpt sub vpt vpt2 Rec fill Bsquare} bind def
/S7 {BL [] 0 setdash 2 copy exch vpt sub exch vpt sub vpt vpt2 Rec fill
	2 copy vpt Square fill Bsquare} bind def
/S8 {BL [] 0 setdash 2 copy vpt sub vpt Square fill Bsquare} bind def
/S9 {BL [] 0 setdash 2 copy vpt sub vpt vpt2 Rec fill Bsquare} bind def
/S10 {BL [] 0 setdash 2 copy vpt sub vpt Square fill 2 copy exch vpt sub exch vpt Square fill
	Bsquare} bind def
/S11 {BL [] 0 setdash 2 copy vpt sub vpt Square fill 2 copy exch vpt sub exch vpt2 vpt Rec fill
	Bsquare} bind def
/S12 {BL [] 0 setdash 2 copy exch vpt sub exch vpt sub vpt2 vpt Rec fill Bsquare} bind def
/S13 {BL [] 0 setdash 2 copy exch vpt sub exch vpt sub vpt2 vpt Rec fill
	2 copy vpt Square fill Bsquare} bind def
/S14 {BL [] 0 setdash 2 copy exch vpt sub exch vpt sub vpt2 vpt Rec fill
	2 copy exch vpt sub exch vpt Square fill Bsquare} bind def
/S15 {BL [] 0 setdash 2 copy Bsquare fill Bsquare} bind def
/D0 {gsave translate 45 rotate 0 0 S0 stroke grestore} bind def
/D1 {gsave translate 45 rotate 0 0 S1 stroke grestore} bind def
/D2 {gsave translate 45 rotate 0 0 S2 stroke grestore} bind def
/D3 {gsave translate 45 rotate 0 0 S3 stroke grestore} bind def
/D4 {gsave translate 45 rotate 0 0 S4 stroke grestore} bind def
/D5 {gsave translate 45 rotate 0 0 S5 stroke grestore} bind def
/D6 {gsave translate 45 rotate 0 0 S6 stroke grestore} bind def
/D7 {gsave translate 45 rotate 0 0 S7 stroke grestore} bind def
/D8 {gsave translate 45 rotate 0 0 S8 stroke grestore} bind def
/D9 {gsave translate 45 rotate 0 0 S9 stroke grestore} bind def
/D10 {gsave translate 45 rotate 0 0 S10 stroke grestore} bind def
/D11 {gsave translate 45 rotate 0 0 S11 stroke grestore} bind def
/D12 {gsave translate 45 rotate 0 0 S12 stroke grestore} bind def
/D13 {gsave translate 45 rotate 0 0 S13 stroke grestore} bind def
/D14 {gsave translate 45 rotate 0 0 S14 stroke grestore} bind def
/D15 {gsave translate 45 rotate 0 0 S15 stroke grestore} bind def
/DiaE {stroke [] 0 setdash vpt add M
  hpt neg vpt neg V hpt vpt neg V
  hpt vpt V hpt neg vpt V closepath stroke} def
/BoxE {stroke [] 0 setdash exch hpt sub exch vpt add M
  0 vpt2 neg V hpt2 0 V 0 vpt2 V
  hpt2 neg 0 V closepath stroke} def
/TriUE {stroke [] 0 setdash vpt 1.12 mul add M
  hpt neg vpt -1.62 mul V
  hpt 2 mul 0 V
  hpt neg vpt 1.62 mul V closepath stroke} def
/TriDE {stroke [] 0 setdash vpt 1.12 mul sub M
  hpt neg vpt 1.62 mul V
  hpt 2 mul 0 V
  hpt neg vpt -1.62 mul V closepath stroke} def
/PentE {stroke [] 0 setdash gsave
  translate 0 hpt M 4 {72 rotate 0 hpt L} repeat
  closepath stroke grestore} def
/CircE {stroke [] 0 setdash 
  hpt 0 360 arc stroke} def
/Opaque {gsave closepath 1 setgray fill grestore 0 setgray closepath} def
/DiaW {stroke [] 0 setdash vpt add M
  hpt neg vpt neg V hpt vpt neg V
  hpt vpt V hpt neg vpt V Opaque stroke} def
/BoxW {stroke [] 0 setdash exch hpt sub exch vpt add M
  0 vpt2 neg V hpt2 0 V 0 vpt2 V
  hpt2 neg 0 V Opaque stroke} def
/TriUW {stroke [] 0 setdash vpt 1.12 mul add M
  hpt neg vpt -1.62 mul V
  hpt 2 mul 0 V
  hpt neg vpt 1.62 mul V Opaque stroke} def
/TriDW {stroke [] 0 setdash vpt 1.12 mul sub M
  hpt neg vpt 1.62 mul V
  hpt 2 mul 0 V
  hpt neg vpt -1.62 mul V Opaque stroke} def
/PentW {stroke [] 0 setdash gsave
  translate 0 hpt M 4 {72 rotate 0 hpt L} repeat
  Opaque stroke grestore} def
/CircW {stroke [] 0 setdash 
  hpt 0 360 arc Opaque stroke} def
/BoxFill {gsave Rec 1 setgray fill grestore} def
/Density {
  /Fillden exch def
  currentrgbcolor
  /ColB exch def /ColG exch def /ColR exch def
  /ColR ColR Fillden mul Fillden sub 1 add def
  /ColG ColG Fillden mul Fillden sub 1 add def
  /ColB ColB Fillden mul Fillden sub 1 add def
  ColR ColG ColB setrgbcolor} def
/BoxColFill {gsave Rec PolyFill} def
/PolyFill {gsave Density fill grestore grestore} def
/h {rlineto rlineto rlineto gsave closepath fill grestore} bind def
%
% PostScript Level 1 Pattern Fill routine for rectangles
% Usage: x y w h s a XX PatternFill
%	x,y = lower left corner of box to be filled
%	w,h = width and height of box
%	  a = angle in degrees between lines and x-axis
%	 XX = 0/1 for no/yes cross-hatch
%
/PatternFill {gsave /PFa [ 9 2 roll ] def
  PFa 0 get PFa 2 get 2 div add PFa 1 get PFa 3 get 2 div add translate
  PFa 2 get -2 div PFa 3 get -2 div PFa 2 get PFa 3 get Rec
  TransparentPatterns {} {gsave 1 setgray fill grestore} ifelse
  clip
  currentlinewidth 0.5 mul setlinewidth
  /PFs PFa 2 get dup mul PFa 3 get dup mul add sqrt def
  0 0 M PFa 5 get rotate PFs -2 div dup translate
  0 1 PFs PFa 4 get div 1 add floor cvi
	{PFa 4 get mul 0 M 0 PFs V} for
  0 PFa 6 get ne {
	0 1 PFs PFa 4 get div 1 add floor cvi
	{PFa 4 get mul 0 2 1 roll M PFs 0 V} for
 } if
  stroke grestore} def
%
/languagelevel where
 {pop languagelevel} {1} ifelse
 2 lt
	{/InterpretLevel1 true def}
	{/InterpretLevel1 Level1 def}
 ifelse
%
% PostScript level 2 pattern fill definitions
%
/Level2PatternFill {
/Tile8x8 {/PaintType 2 /PatternType 1 /TilingType 1 /BBox [0 0 8 8] /XStep 8 /YStep 8}
	bind def
/KeepColor {currentrgbcolor [/Pattern /DeviceRGB] setcolorspace} bind def
<< Tile8x8
 /PaintProc {0.5 setlinewidth pop 0 0 M 8 8 L 0 8 M 8 0 L stroke} 
>> matrix makepattern
/Pat1 exch def
<< Tile8x8
 /PaintProc {0.5 setlinewidth pop 0 0 M 8 8 L 0 8 M 8 0 L stroke
	0 4 M 4 8 L 8 4 L 4 0 L 0 4 L stroke}
>> matrix makepattern
/Pat2 exch def
<< Tile8x8
 /PaintProc {0.5 setlinewidth pop 0 0 M 0 8 L
	8 8 L 8 0 L 0 0 L fill}
>> matrix makepattern
/Pat3 exch def
<< Tile8x8
 /PaintProc {0.5 setlinewidth pop -4 8 M 8 -4 L
	0 12 M 12 0 L stroke}
>> matrix makepattern
/Pat4 exch def
<< Tile8x8
 /PaintProc {0.5 setlinewidth pop -4 0 M 8 12 L
	0 -4 M 12 8 L stroke}
>> matrix makepattern
/Pat5 exch def
<< Tile8x8
 /PaintProc {0.5 setlinewidth pop -2 8 M 4 -4 L
	0 12 M 8 -4 L 4 12 M 10 0 L stroke}
>> matrix makepattern
/Pat6 exch def
<< Tile8x8
 /PaintProc {0.5 setlinewidth pop -2 0 M 4 12 L
	0 -4 M 8 12 L 4 -4 M 10 8 L stroke}
>> matrix makepattern
/Pat7 exch def
<< Tile8x8
 /PaintProc {0.5 setlinewidth pop 8 -2 M -4 4 L
	12 0 M -4 8 L 12 4 M 0 10 L stroke}
>> matrix makepattern
/Pat8 exch def
<< Tile8x8
 /PaintProc {0.5 setlinewidth pop 0 -2 M 12 4 L
	-4 0 M 12 8 L -4 4 M 8 10 L stroke}
>> matrix makepattern
/Pat9 exch def
/Pattern1 {PatternBgnd KeepColor Pat1 setpattern} bind def
/Pattern2 {PatternBgnd KeepColor Pat2 setpattern} bind def
/Pattern3 {PatternBgnd KeepColor Pat3 setpattern} bind def
/Pattern4 {PatternBgnd KeepColor Landscape {Pat5} {Pat4} ifelse setpattern} bind def
/Pattern5 {PatternBgnd KeepColor Landscape {Pat4} {Pat5} ifelse setpattern} bind def
/Pattern6 {PatternBgnd KeepColor Landscape {Pat9} {Pat6} ifelse setpattern} bind def
/Pattern7 {PatternBgnd KeepColor Landscape {Pat8} {Pat7} ifelse setpattern} bind def
} def
%
%
%End of PostScript Level 2 code
%
/PatternBgnd {
  TransparentPatterns {} {gsave 1 setgray fill grestore} ifelse
} def
%
% Substitute for Level 2 pattern fill codes with
% grayscale if Level 2 support is not selected.
%
/Level1PatternFill {
/Pattern1 {0.250 Density} bind def
/Pattern2 {0.500 Density} bind def
/Pattern3 {0.750 Density} bind def
/Pattern4 {0.125 Density} bind def
/Pattern5 {0.375 Density} bind def
/Pattern6 {0.625 Density} bind def
/Pattern7 {0.875 Density} bind def
} def
%
% Now test for support of Level 2 code
%
Level1 {Level1PatternFill} {Level2PatternFill} ifelse
%
/Symbol-Oblique /Symbol findfont [1 0 .167 1 0 0] makefont
dup length dict begin {1 index /FID eq {pop pop} {def} ifelse} forall
currentdict end definefont pop
Level1 SuppressPDFMark or 
{} {
/SDict 10 dict def
systemdict /pdfmark known not {
  userdict /pdfmark systemdict /cleartomark get put
} if
SDict begin [
  /Title (../GNU/Mega168cal.tex)
  /Subject (gnuplot plot)
  /Creator (gnuplot 4.6 patchlevel 4)
  /Author (kub)
%  /Producer (gnuplot)
%  /Keywords ()
  /CreationDate (Tue May  5 17:14:41 2015)
  /DOCINFO pdfmark
end
} ifelse
end
%%EndProlog
%%Page: 1 1
gnudict begin
gsave
doclip
50 50 translate
0.050 0.050 scale
0 setgray
newpath
1.000 UL
LTb
LCb setrgbcolor
1.000 UL
LTa
LCa setrgbcolor
814 704 M
5989 0 V
stroke
LTb
LCb setrgbcolor
814 704 M
63 0 V
5926 0 R
-63 0 V
stroke
LTb
1.000 UL
LTa
LCa setrgbcolor
814 1111 M
5989 0 V
stroke
LTb
LCb setrgbcolor
814 1111 M
63 0 V
5926 0 R
-63 0 V
stroke
LTb
1.000 UL
LTa
LCa setrgbcolor
814 1518 M
5989 0 V
stroke
LTb
LCb setrgbcolor
814 1518 M
63 0 V
5926 0 R
-63 0 V
stroke
LTb
1.000 UL
LTa
LCa setrgbcolor
814 1925 M
5989 0 V
stroke
LTb
LCb setrgbcolor
814 1925 M
63 0 V
5926 0 R
-63 0 V
stroke
LTb
1.000 UL
LTa
LCa setrgbcolor
814 2332 M
5989 0 V
stroke
LTb
LCb setrgbcolor
814 2332 M
63 0 V
5926 0 R
-63 0 V
stroke
LTb
1.000 UL
LTa
LCa setrgbcolor
814 2740 M
5989 0 V
stroke
LTb
LCb setrgbcolor
814 2740 M
63 0 V
5926 0 R
-63 0 V
stroke
LTb
1.000 UL
LTa
LCa setrgbcolor
814 3147 M
5989 0 V
stroke
LTb
LCb setrgbcolor
814 3147 M
63 0 V
5926 0 R
-63 0 V
stroke
LTb
1.000 UL
LTa
LCa setrgbcolor
814 3554 M
5989 0 V
stroke
LTb
LCb setrgbcolor
814 3554 M
63 0 V
5926 0 R
-63 0 V
stroke
LTb
1.000 UL
LTa
LCa setrgbcolor
814 3961 M
5989 0 V
stroke
LTb
LCb setrgbcolor
814 3961 M
63 0 V
5926 0 R
-63 0 V
stroke
LTb
1.000 UL
LTa
LCa setrgbcolor
814 4368 M
132 0 V
1578 0 R
4279 0 V
stroke
LTb
LCb setrgbcolor
814 4368 M
63 0 V
5926 0 R
-63 0 V
stroke
LTb
1.000 UL
LTa
LCa setrgbcolor
814 4775 M
5989 0 V
stroke
LTb
LCb setrgbcolor
814 4775 M
63 0 V
5926 0 R
-63 0 V
stroke
LTb
1.000 UL
LTa
LCa setrgbcolor
814 704 M
0 4071 V
stroke
LTb
LCb setrgbcolor
814 704 M
0 63 V
0 4008 R
0 -63 V
stroke
LTb
1014 704 M
0 31 V
0 4040 R
0 -31 V
1279 704 M
0 31 V
0 4040 R
0 -31 V
1415 704 M
0 31 V
0 4040 R
0 -31 V
stroke
LTa
LCa setrgbcolor
1479 704 M
0 3348 V
0 660 R
0 63 V
stroke
LTb
LCb setrgbcolor
1479 704 M
0 63 V
0 4008 R
0 -63 V
stroke
LTb
1680 704 M
0 31 V
0 4040 R
0 -31 V
1945 704 M
0 31 V
0 4040 R
0 -31 V
2080 704 M
0 31 V
0 4040 R
0 -31 V
stroke
LTa
LCa setrgbcolor
2145 704 M
0 3348 V
0 660 R
0 63 V
stroke
LTb
LCb setrgbcolor
2145 704 M
0 63 V
0 4008 R
0 -63 V
stroke
LTb
2345 704 M
0 31 V
0 4040 R
0 -31 V
2610 704 M
0 31 V
0 4040 R
0 -31 V
2746 704 M
0 31 V
0 4040 R
0 -31 V
stroke
LTa
LCa setrgbcolor
2810 704 M
0 4071 V
stroke
LTb
LCb setrgbcolor
2810 704 M
0 63 V
0 4008 R
0 -63 V
stroke
LTb
3011 704 M
0 31 V
0 4040 R
0 -31 V
3275 704 M
0 31 V
0 4040 R
0 -31 V
3411 704 M
0 31 V
0 4040 R
0 -31 V
stroke
LTa
LCa setrgbcolor
3476 704 M
0 4071 V
stroke
LTb
LCb setrgbcolor
3476 704 M
0 63 V
0 4008 R
0 -63 V
stroke
LTb
3676 704 M
0 31 V
0 4040 R
0 -31 V
3941 704 M
0 31 V
0 4040 R
0 -31 V
4077 704 M
0 31 V
0 4040 R
0 -31 V
stroke
LTa
LCa setrgbcolor
4141 704 M
0 4071 V
stroke
LTb
LCb setrgbcolor
4141 704 M
0 63 V
0 4008 R
0 -63 V
stroke
LTb
4342 704 M
0 31 V
0 4040 R
0 -31 V
4606 704 M
0 31 V
0 4040 R
0 -31 V
4742 704 M
0 31 V
0 4040 R
0 -31 V
stroke
LTa
LCa setrgbcolor
4807 704 M
0 4071 V
stroke
LTb
LCb setrgbcolor
4807 704 M
0 63 V
0 4008 R
0 -63 V
stroke
LTb
5007 704 M
0 31 V
0 4040 R
0 -31 V
5272 704 M
0 31 V
0 4040 R
0 -31 V
5408 704 M
0 31 V
0 4040 R
0 -31 V
stroke
LTa
LCa setrgbcolor
5472 704 M
0 4071 V
stroke
LTb
LCb setrgbcolor
5472 704 M
0 63 V
0 4008 R
0 -63 V
stroke
LTb
5672 704 M
0 31 V
0 4040 R
0 -31 V
5937 704 M
0 31 V
0 4040 R
0 -31 V
6073 704 M
0 31 V
0 4040 R
0 -31 V
stroke
LTa
LCa setrgbcolor
6138 704 M
0 4071 V
stroke
LTb
LCb setrgbcolor
6138 704 M
0 63 V
0 4008 R
0 -63 V
stroke
LTb
6338 704 M
0 31 V
0 4040 R
0 -31 V
6603 704 M
0 31 V
0 4040 R
0 -31 V
6739 704 M
0 31 V
0 4040 R
0 -31 V
stroke
LTa
LCa setrgbcolor
6803 704 M
0 4071 V
stroke
LTb
LCb setrgbcolor
6803 704 M
0 63 V
0 4008 R
0 -63 V
stroke
LTb
1.000 UL
LTb
814 4775 N
814 704 L
5989 0 V
0 4071 V
-5989 0 V
Z stroke
2.000 UP
1.000 UL
LTb
2.000 UP
3.000 UL
LT0
LC0 setrgbcolor
LCb setrgbcolor
LT0
LC0 setrgbcolor
1738 4602 M
654 0 V
1168 1518 M
1317 804 L
174 -69 V
224 963 V
160 -387 V
175 320 V
96 -113 V
335 191 V
260 -222 V
70 -22 V
176 75 V
168 -318 V
153 -170 V
171 402 V
345 -180 V
201 -36 V
131 126 V
210 154 V
189 -78 V
270 78 V
205 263 V
221 200 V
91 1020 V
29 -1038 V
77 86 V
69 130 V
50 -250 V
-2 515 V
95 -289 V
239 764 V
227 38 V
226 1353 V
228 -95 V
211 -320 V
1168 1518 Pls
1317 804 Pls
1491 735 Pls
1715 1698 Pls
1875 1311 Pls
2050 1631 Pls
2146 1518 Pls
2481 1709 Pls
2741 1487 Pls
2811 1465 Pls
2987 1540 Pls
3155 1222 Pls
3308 1052 Pls
3479 1454 Pls
3824 1274 Pls
4025 1238 Pls
4156 1364 Pls
4366 1518 Pls
4555 1440 Pls
4825 1518 Pls
5030 1781 Pls
5251 1981 Pls
5342 3001 Pls
5371 1963 Pls
5448 2049 Pls
5517 2179 Pls
5567 1929 Pls
5565 2444 Pls
5660 2155 Pls
5899 2919 Pls
6126 2957 Pls
6352 4310 Pls
6580 4215 Pls
6791 3895 Pls
2065 4602 Pls
2.000 UP
3.000 UL
LT1
LC1 setrgbcolor
LCb setrgbcolor
LT1
LC1 setrgbcolor
1738 4382 M
654 0 V
1168 2716 M
1317 1518 L
174 -391 V
224 751 V
160 -463 V
175 329 V
96 -145 V
335 97 V
260 -224 V
70 -35 V
176 59 V
168 -299 V
153 -152 V
171 449 V
345 -220 V
201 -11 V
131 62 V
210 174 V
189 -29 V
270 48 V
205 245 V
221 288 V
91 1097 V
29 -1069 V
77 -30 V
69 130 V
50 43 V
-2 429 V
95 35 V
239 354 V
227 184 V
226 1493 V
228 -212 V
211 -482 V
1168 2716 Crs
1317 1518 Crs
1491 1127 Crs
1715 1878 Crs
1875 1415 Crs
2050 1744 Crs
2146 1599 Crs
2481 1696 Crs
2741 1472 Crs
2811 1437 Crs
2987 1496 Crs
3155 1197 Crs
3308 1045 Crs
3479 1494 Crs
3824 1274 Crs
4025 1263 Crs
4156 1325 Crs
4366 1499 Crs
4555 1470 Crs
4825 1518 Crs
5030 1763 Crs
5251 2051 Crs
5342 3148 Crs
5371 2079 Crs
5448 2049 Crs
5517 2179 Crs
5567 2222 Crs
5565 2651 Crs
5660 2686 Crs
5899 3040 Crs
6126 3224 Crs
6352 4717 Crs
6580 4505 Crs
6791 4023 Crs
2065 4382 Crs
2.000 UP
3.000 UL
LT2
LC2 setrgbcolor
LCb setrgbcolor
LT2
LC2 setrgbcolor
1738 4162 M
654 0 V
1168 2716 M
149 -484 V
174 -714 V
224 541 V
160 -541 V
175 113 V
96 -32 V
335 97 V
260 -219 V
70 -32 V
176 29 V
168 -240 V
153 -211 V
171 431 V
345 -192 V
201 -12 V
131 75 V
210 156 V
189 -50 V
270 87 V
205 226 V
221 272 V
91 889 V
29 -1046 V
77 106 V
69 6 V
50 -72 V
-2 456 V
95 -73 V
239 721 V
227 -96 V
226 1597 V
228 -210 V
211 -526 V
1168 2716 Star
1317 2232 Star
1491 1518 Star
1715 2059 Star
1875 1518 Star
2050 1631 Star
2146 1599 Star
2481 1696 Star
2741 1477 Star
2811 1445 Star
2987 1474 Star
3155 1234 Star
3308 1023 Star
3479 1454 Star
3824 1262 Star
4025 1250 Star
4156 1325 Star
4366 1481 Star
4555 1431 Star
4825 1518 Star
5030 1744 Star
5251 2016 Star
5342 2905 Star
5371 1859 Star
5448 1965 Star
5517 1971 Star
5567 1899 Star
5565 2355 Star
5660 2282 Star
5899 3003 Star
6126 2907 Star
6352 4504 Star
6580 4294 Star
6791 3768 Star
2065 4162 Star
1.000 UL
LTb
LCb setrgbcolor
814 4775 N
814 704 L
5989 0 V
0 4071 V
-5989 0 V
Z stroke
2.000 UP
1.000 UL
LTb
stroke
grestore
end
showpage
%%Trailer
