%!PS-Adobe-2.0 EPSF-2.0
%%Title: ../GNU/Mega328Pall.tex
%%Creator: gnuplot 4.6 patchlevel 4
%%CreationDate: Tue May  5 17:11:32 2015
%%DocumentFonts: 
%%BoundingBox: 50 50 410 302
%%EndComments
%%BeginProlog
/gnudict 256 dict def
gnudict begin
%
% The following true/false flags may be edited by hand if desired.
% The unit line width and grayscale image gamma correction may also be changed.
%
/Color true def
/Blacktext true def
/Solid true def
/Dashlength 1 def
/Landscape false def
/Level1 false def
/Rounded false def
/ClipToBoundingBox false def
/SuppressPDFMark false def
/TransparentPatterns false def
/gnulinewidth 5.000 def
/userlinewidth gnulinewidth def
/Gamma 1.0 def
/BackgroundColor {-1.000 -1.000 -1.000} def
%
/vshift -73 def
/dl1 {
  10.0 Dashlength mul mul
  Rounded { currentlinewidth 0.75 mul sub dup 0 le { pop 0.01 } if } if
} def
/dl2 {
  10.0 Dashlength mul mul
  Rounded { currentlinewidth 0.75 mul add } if
} def
/hpt_ 31.5 def
/vpt_ 31.5 def
/hpt hpt_ def
/vpt vpt_ def
/doclip {
  ClipToBoundingBox {
    newpath 50 50 moveto 410 50 lineto 410 302 lineto 50 302 lineto closepath
    clip
  } if
} def
%
% Gnuplot Prolog Version 4.6 (September 2012)
%
%/SuppressPDFMark true def
%
/M {moveto} bind def
/L {lineto} bind def
/R {rmoveto} bind def
/V {rlineto} bind def
/N {newpath moveto} bind def
/Z {closepath} bind def
/C {setrgbcolor} bind def
/f {rlineto fill} bind def
/g {setgray} bind def
/Gshow {show} def   % May be redefined later in the file to support UTF-8
/vpt2 vpt 2 mul def
/hpt2 hpt 2 mul def
/Lshow {currentpoint stroke M 0 vshift R 
	Blacktext {gsave 0 setgray show grestore} {show} ifelse} def
/Rshow {currentpoint stroke M dup stringwidth pop neg vshift R
	Blacktext {gsave 0 setgray show grestore} {show} ifelse} def
/Cshow {currentpoint stroke M dup stringwidth pop -2 div vshift R 
	Blacktext {gsave 0 setgray show grestore} {show} ifelse} def
/UP {dup vpt_ mul /vpt exch def hpt_ mul /hpt exch def
  /hpt2 hpt 2 mul def /vpt2 vpt 2 mul def} def
/DL {Color {setrgbcolor Solid {pop []} if 0 setdash}
 {pop pop pop 0 setgray Solid {pop []} if 0 setdash} ifelse} def
/BL {stroke userlinewidth 2 mul setlinewidth
	Rounded {1 setlinejoin 1 setlinecap} if} def
/AL {stroke userlinewidth 2 div setlinewidth
	Rounded {1 setlinejoin 1 setlinecap} if} def
/UL {dup gnulinewidth mul /userlinewidth exch def
	dup 1 lt {pop 1} if 10 mul /udl exch def} def
/PL {stroke userlinewidth setlinewidth
	Rounded {1 setlinejoin 1 setlinecap} if} def
3.8 setmiterlimit
% Default Line colors
/LCw {1 1 1} def
/LCb {0 0 0} def
/LCa {0 0 0} def
/LC0 {1 0 0} def
/LC1 {0 1 0} def
/LC2 {0 0 1} def
/LC3 {1 0 1} def
/LC4 {0 1 1} def
/LC5 {1 1 0} def
/LC6 {0 0 0} def
/LC7 {1 0.3 0} def
/LC8 {0.5 0.5 0.5} def
% Default Line Types
/LTw {PL [] 1 setgray} def
/LTb {BL [] LCb DL} def
/LTa {AL [1 udl mul 2 udl mul] 0 setdash LCa setrgbcolor} def
/LT0 {PL [] LC0 DL} def
/LT1 {PL [4 dl1 2 dl2] LC1 DL} def
/LT2 {PL [2 dl1 3 dl2] LC2 DL} def
/LT3 {PL [1 dl1 1.5 dl2] LC3 DL} def
/LT4 {PL [6 dl1 2 dl2 1 dl1 2 dl2] LC4 DL} def
/LT5 {PL [3 dl1 3 dl2 1 dl1 3 dl2] LC5 DL} def
/LT6 {PL [2 dl1 2 dl2 2 dl1 6 dl2] LC6 DL} def
/LT7 {PL [1 dl1 2 dl2 6 dl1 2 dl2 1 dl1 2 dl2] LC7 DL} def
/LT8 {PL [2 dl1 2 dl2 2 dl1 2 dl2 2 dl1 2 dl2 2 dl1 4 dl2] LC8 DL} def
/Pnt {stroke [] 0 setdash gsave 1 setlinecap M 0 0 V stroke grestore} def
/Dia {stroke [] 0 setdash 2 copy vpt add M
  hpt neg vpt neg V hpt vpt neg V
  hpt vpt V hpt neg vpt V closepath stroke
  Pnt} def
/Pls {stroke [] 0 setdash vpt sub M 0 vpt2 V
  currentpoint stroke M
  hpt neg vpt neg R hpt2 0 V stroke
 } def
/Box {stroke [] 0 setdash 2 copy exch hpt sub exch vpt add M
  0 vpt2 neg V hpt2 0 V 0 vpt2 V
  hpt2 neg 0 V closepath stroke
  Pnt} def
/Crs {stroke [] 0 setdash exch hpt sub exch vpt add M
  hpt2 vpt2 neg V currentpoint stroke M
  hpt2 neg 0 R hpt2 vpt2 V stroke} def
/TriU {stroke [] 0 setdash 2 copy vpt 1.12 mul add M
  hpt neg vpt -1.62 mul V
  hpt 2 mul 0 V
  hpt neg vpt 1.62 mul V closepath stroke
  Pnt} def
/Star {2 copy Pls Crs} def
/BoxF {stroke [] 0 setdash exch hpt sub exch vpt add M
  0 vpt2 neg V hpt2 0 V 0 vpt2 V
  hpt2 neg 0 V closepath fill} def
/TriUF {stroke [] 0 setdash vpt 1.12 mul add M
  hpt neg vpt -1.62 mul V
  hpt 2 mul 0 V
  hpt neg vpt 1.62 mul V closepath fill} def
/TriD {stroke [] 0 setdash 2 copy vpt 1.12 mul sub M
  hpt neg vpt 1.62 mul V
  hpt 2 mul 0 V
  hpt neg vpt -1.62 mul V closepath stroke
  Pnt} def
/TriDF {stroke [] 0 setdash vpt 1.12 mul sub M
  hpt neg vpt 1.62 mul V
  hpt 2 mul 0 V
  hpt neg vpt -1.62 mul V closepath fill} def
/DiaF {stroke [] 0 setdash vpt add M
  hpt neg vpt neg V hpt vpt neg V
  hpt vpt V hpt neg vpt V closepath fill} def
/Pent {stroke [] 0 setdash 2 copy gsave
  translate 0 hpt M 4 {72 rotate 0 hpt L} repeat
  closepath stroke grestore Pnt} def
/PentF {stroke [] 0 setdash gsave
  translate 0 hpt M 4 {72 rotate 0 hpt L} repeat
  closepath fill grestore} def
/Circle {stroke [] 0 setdash 2 copy
  hpt 0 360 arc stroke Pnt} def
/CircleF {stroke [] 0 setdash hpt 0 360 arc fill} def
/C0 {BL [] 0 setdash 2 copy moveto vpt 90 450 arc} bind def
/C1 {BL [] 0 setdash 2 copy moveto
	2 copy vpt 0 90 arc closepath fill
	vpt 0 360 arc closepath} bind def
/C2 {BL [] 0 setdash 2 copy moveto
	2 copy vpt 90 180 arc closepath fill
	vpt 0 360 arc closepath} bind def
/C3 {BL [] 0 setdash 2 copy moveto
	2 copy vpt 0 180 arc closepath fill
	vpt 0 360 arc closepath} bind def
/C4 {BL [] 0 setdash 2 copy moveto
	2 copy vpt 180 270 arc closepath fill
	vpt 0 360 arc closepath} bind def
/C5 {BL [] 0 setdash 2 copy moveto
	2 copy vpt 0 90 arc
	2 copy moveto
	2 copy vpt 180 270 arc closepath fill
	vpt 0 360 arc} bind def
/C6 {BL [] 0 setdash 2 copy moveto
	2 copy vpt 90 270 arc closepath fill
	vpt 0 360 arc closepath} bind def
/C7 {BL [] 0 setdash 2 copy moveto
	2 copy vpt 0 270 arc closepath fill
	vpt 0 360 arc closepath} bind def
/C8 {BL [] 0 setdash 2 copy moveto
	2 copy vpt 270 360 arc closepath fill
	vpt 0 360 arc closepath} bind def
/C9 {BL [] 0 setdash 2 copy moveto
	2 copy vpt 270 450 arc closepath fill
	vpt 0 360 arc closepath} bind def
/C10 {BL [] 0 setdash 2 copy 2 copy moveto vpt 270 360 arc closepath fill
	2 copy moveto
	2 copy vpt 90 180 arc closepath fill
	vpt 0 360 arc closepath} bind def
/C11 {BL [] 0 setdash 2 copy moveto
	2 copy vpt 0 180 arc closepath fill
	2 copy moveto
	2 copy vpt 270 360 arc closepath fill
	vpt 0 360 arc closepath} bind def
/C12 {BL [] 0 setdash 2 copy moveto
	2 copy vpt 180 360 arc closepath fill
	vpt 0 360 arc closepath} bind def
/C13 {BL [] 0 setdash 2 copy moveto
	2 copy vpt 0 90 arc closepath fill
	2 copy moveto
	2 copy vpt 180 360 arc closepath fill
	vpt 0 360 arc closepath} bind def
/C14 {BL [] 0 setdash 2 copy moveto
	2 copy vpt 90 360 arc closepath fill
	vpt 0 360 arc} bind def
/C15 {BL [] 0 setdash 2 copy vpt 0 360 arc closepath fill
	vpt 0 360 arc closepath} bind def
/Rec {newpath 4 2 roll moveto 1 index 0 rlineto 0 exch rlineto
	neg 0 rlineto closepath} bind def
/Square {dup Rec} bind def
/Bsquare {vpt sub exch vpt sub exch vpt2 Square} bind def
/S0 {BL [] 0 setdash 2 copy moveto 0 vpt rlineto BL Bsquare} bind def
/S1 {BL [] 0 setdash 2 copy vpt Square fill Bsquare} bind def
/S2 {BL [] 0 setdash 2 copy exch vpt sub exch vpt Square fill Bsquare} bind def
/S3 {BL [] 0 setdash 2 copy exch vpt sub exch vpt2 vpt Rec fill Bsquare} bind def
/S4 {BL [] 0 setdash 2 copy exch vpt sub exch vpt sub vpt Square fill Bsquare} bind def
/S5 {BL [] 0 setdash 2 copy 2 copy vpt Square fill
	exch vpt sub exch vpt sub vpt Square fill Bsquare} bind def
/S6 {BL [] 0 setdash 2 copy exch vpt sub exch vpt sub vpt vpt2 Rec fill Bsquare} bind def
/S7 {BL [] 0 setdash 2 copy exch vpt sub exch vpt sub vpt vpt2 Rec fill
	2 copy vpt Square fill Bsquare} bind def
/S8 {BL [] 0 setdash 2 copy vpt sub vpt Square fill Bsquare} bind def
/S9 {BL [] 0 setdash 2 copy vpt sub vpt vpt2 Rec fill Bsquare} bind def
/S10 {BL [] 0 setdash 2 copy vpt sub vpt Square fill 2 copy exch vpt sub exch vpt Square fill
	Bsquare} bind def
/S11 {BL [] 0 setdash 2 copy vpt sub vpt Square fill 2 copy exch vpt sub exch vpt2 vpt Rec fill
	Bsquare} bind def
/S12 {BL [] 0 setdash 2 copy exch vpt sub exch vpt sub vpt2 vpt Rec fill Bsquare} bind def
/S13 {BL [] 0 setdash 2 copy exch vpt sub exch vpt sub vpt2 vpt Rec fill
	2 copy vpt Square fill Bsquare} bind def
/S14 {BL [] 0 setdash 2 copy exch vpt sub exch vpt sub vpt2 vpt Rec fill
	2 copy exch vpt sub exch vpt Square fill Bsquare} bind def
/S15 {BL [] 0 setdash 2 copy Bsquare fill Bsquare} bind def
/D0 {gsave translate 45 rotate 0 0 S0 stroke grestore} bind def
/D1 {gsave translate 45 rotate 0 0 S1 stroke grestore} bind def
/D2 {gsave translate 45 rotate 0 0 S2 stroke grestore} bind def
/D3 {gsave translate 45 rotate 0 0 S3 stroke grestore} bind def
/D4 {gsave translate 45 rotate 0 0 S4 stroke grestore} bind def
/D5 {gsave translate 45 rotate 0 0 S5 stroke grestore} bind def
/D6 {gsave translate 45 rotate 0 0 S6 stroke grestore} bind def
/D7 {gsave translate 45 rotate 0 0 S7 stroke grestore} bind def
/D8 {gsave translate 45 rotate 0 0 S8 stroke grestore} bind def
/D9 {gsave translate 45 rotate 0 0 S9 stroke grestore} bind def
/D10 {gsave translate 45 rotate 0 0 S10 stroke grestore} bind def
/D11 {gsave translate 45 rotate 0 0 S11 stroke grestore} bind def
/D12 {gsave translate 45 rotate 0 0 S12 stroke grestore} bind def
/D13 {gsave translate 45 rotate 0 0 S13 stroke grestore} bind def
/D14 {gsave translate 45 rotate 0 0 S14 stroke grestore} bind def
/D15 {gsave translate 45 rotate 0 0 S15 stroke grestore} bind def
/DiaE {stroke [] 0 setdash vpt add M
  hpt neg vpt neg V hpt vpt neg V
  hpt vpt V hpt neg vpt V closepath stroke} def
/BoxE {stroke [] 0 setdash exch hpt sub exch vpt add M
  0 vpt2 neg V hpt2 0 V 0 vpt2 V
  hpt2 neg 0 V closepath stroke} def
/TriUE {stroke [] 0 setdash vpt 1.12 mul add M
  hpt neg vpt -1.62 mul V
  hpt 2 mul 0 V
  hpt neg vpt 1.62 mul V closepath stroke} def
/TriDE {stroke [] 0 setdash vpt 1.12 mul sub M
  hpt neg vpt 1.62 mul V
  hpt 2 mul 0 V
  hpt neg vpt -1.62 mul V closepath stroke} def
/PentE {stroke [] 0 setdash gsave
  translate 0 hpt M 4 {72 rotate 0 hpt L} repeat
  closepath stroke grestore} def
/CircE {stroke [] 0 setdash 
  hpt 0 360 arc stroke} def
/Opaque {gsave closepath 1 setgray fill grestore 0 setgray closepath} def
/DiaW {stroke [] 0 setdash vpt add M
  hpt neg vpt neg V hpt vpt neg V
  hpt vpt V hpt neg vpt V Opaque stroke} def
/BoxW {stroke [] 0 setdash exch hpt sub exch vpt add M
  0 vpt2 neg V hpt2 0 V 0 vpt2 V
  hpt2 neg 0 V Opaque stroke} def
/TriUW {stroke [] 0 setdash vpt 1.12 mul add M
  hpt neg vpt -1.62 mul V
  hpt 2 mul 0 V
  hpt neg vpt 1.62 mul V Opaque stroke} def
/TriDW {stroke [] 0 setdash vpt 1.12 mul sub M
  hpt neg vpt 1.62 mul V
  hpt 2 mul 0 V
  hpt neg vpt -1.62 mul V Opaque stroke} def
/PentW {stroke [] 0 setdash gsave
  translate 0 hpt M 4 {72 rotate 0 hpt L} repeat
  Opaque stroke grestore} def
/CircW {stroke [] 0 setdash 
  hpt 0 360 arc Opaque stroke} def
/BoxFill {gsave Rec 1 setgray fill grestore} def
/Density {
  /Fillden exch def
  currentrgbcolor
  /ColB exch def /ColG exch def /ColR exch def
  /ColR ColR Fillden mul Fillden sub 1 add def
  /ColG ColG Fillden mul Fillden sub 1 add def
  /ColB ColB Fillden mul Fillden sub 1 add def
  ColR ColG ColB setrgbcolor} def
/BoxColFill {gsave Rec PolyFill} def
/PolyFill {gsave Density fill grestore grestore} def
/h {rlineto rlineto rlineto gsave closepath fill grestore} bind def
%
% PostScript Level 1 Pattern Fill routine for rectangles
% Usage: x y w h s a XX PatternFill
%	x,y = lower left corner of box to be filled
%	w,h = width and height of box
%	  a = angle in degrees between lines and x-axis
%	 XX = 0/1 for no/yes cross-hatch
%
/PatternFill {gsave /PFa [ 9 2 roll ] def
  PFa 0 get PFa 2 get 2 div add PFa 1 get PFa 3 get 2 div add translate
  PFa 2 get -2 div PFa 3 get -2 div PFa 2 get PFa 3 get Rec
  TransparentPatterns {} {gsave 1 setgray fill grestore} ifelse
  clip
  currentlinewidth 0.5 mul setlinewidth
  /PFs PFa 2 get dup mul PFa 3 get dup mul add sqrt def
  0 0 M PFa 5 get rotate PFs -2 div dup translate
  0 1 PFs PFa 4 get div 1 add floor cvi
	{PFa 4 get mul 0 M 0 PFs V} for
  0 PFa 6 get ne {
	0 1 PFs PFa 4 get div 1 add floor cvi
	{PFa 4 get mul 0 2 1 roll M PFs 0 V} for
 } if
  stroke grestore} def
%
/languagelevel where
 {pop languagelevel} {1} ifelse
 2 lt
	{/InterpretLevel1 true def}
	{/InterpretLevel1 Level1 def}
 ifelse
%
% PostScript level 2 pattern fill definitions
%
/Level2PatternFill {
/Tile8x8 {/PaintType 2 /PatternType 1 /TilingType 1 /BBox [0 0 8 8] /XStep 8 /YStep 8}
	bind def
/KeepColor {currentrgbcolor [/Pattern /DeviceRGB] setcolorspace} bind def
<< Tile8x8
 /PaintProc {0.5 setlinewidth pop 0 0 M 8 8 L 0 8 M 8 0 L stroke} 
>> matrix makepattern
/Pat1 exch def
<< Tile8x8
 /PaintProc {0.5 setlinewidth pop 0 0 M 8 8 L 0 8 M 8 0 L stroke
	0 4 M 4 8 L 8 4 L 4 0 L 0 4 L stroke}
>> matrix makepattern
/Pat2 exch def
<< Tile8x8
 /PaintProc {0.5 setlinewidth pop 0 0 M 0 8 L
	8 8 L 8 0 L 0 0 L fill}
>> matrix makepattern
/Pat3 exch def
<< Tile8x8
 /PaintProc {0.5 setlinewidth pop -4 8 M 8 -4 L
	0 12 M 12 0 L stroke}
>> matrix makepattern
/Pat4 exch def
<< Tile8x8
 /PaintProc {0.5 setlinewidth pop -4 0 M 8 12 L
	0 -4 M 12 8 L stroke}
>> matrix makepattern
/Pat5 exch def
<< Tile8x8
 /PaintProc {0.5 setlinewidth pop -2 8 M 4 -4 L
	0 12 M 8 -4 L 4 12 M 10 0 L stroke}
>> matrix makepattern
/Pat6 exch def
<< Tile8x8
 /PaintProc {0.5 setlinewidth pop -2 0 M 4 12 L
	0 -4 M 8 12 L 4 -4 M 10 8 L stroke}
>> matrix makepattern
/Pat7 exch def
<< Tile8x8
 /PaintProc {0.5 setlinewidth pop 8 -2 M -4 4 L
	12 0 M -4 8 L 12 4 M 0 10 L stroke}
>> matrix makepattern
/Pat8 exch def
<< Tile8x8
 /PaintProc {0.5 setlinewidth pop 0 -2 M 12 4 L
	-4 0 M 12 8 L -4 4 M 8 10 L stroke}
>> matrix makepattern
/Pat9 exch def
/Pattern1 {PatternBgnd KeepColor Pat1 setpattern} bind def
/Pattern2 {PatternBgnd KeepColor Pat2 setpattern} bind def
/Pattern3 {PatternBgnd KeepColor Pat3 setpattern} bind def
/Pattern4 {PatternBgnd KeepColor Landscape {Pat5} {Pat4} ifelse setpattern} bind def
/Pattern5 {PatternBgnd KeepColor Landscape {Pat4} {Pat5} ifelse setpattern} bind def
/Pattern6 {PatternBgnd KeepColor Landscape {Pat9} {Pat6} ifelse setpattern} bind def
/Pattern7 {PatternBgnd KeepColor Landscape {Pat8} {Pat7} ifelse setpattern} bind def
} def
%
%
%End of PostScript Level 2 code
%
/PatternBgnd {
  TransparentPatterns {} {gsave 1 setgray fill grestore} ifelse
} def
%
% Substitute for Level 2 pattern fill codes with
% grayscale if Level 2 support is not selected.
%
/Level1PatternFill {
/Pattern1 {0.250 Density} bind def
/Pattern2 {0.500 Density} bind def
/Pattern3 {0.750 Density} bind def
/Pattern4 {0.125 Density} bind def
/Pattern5 {0.375 Density} bind def
/Pattern6 {0.625 Density} bind def
/Pattern7 {0.875 Density} bind def
} def
%
% Now test for support of Level 2 code
%
Level1 {Level1PatternFill} {Level2PatternFill} ifelse
%
/Symbol-Oblique /Symbol findfont [1 0 .167 1 0 0] makefont
dup length dict begin {1 index /FID eq {pop pop} {def} ifelse} forall
currentdict end definefont pop
Level1 SuppressPDFMark or 
{} {
/SDict 10 dict def
systemdict /pdfmark known not {
  userdict /pdfmark systemdict /cleartomark get put
} if
SDict begin [
  /Title (../GNU/Mega328Pall.tex)
  /Subject (gnuplot plot)
  /Creator (gnuplot 4.6 patchlevel 4)
  /Author (kub)
%  /Producer (gnuplot)
%  /Keywords ()
  /CreationDate (Tue May  5 17:11:32 2015)
  /DOCINFO pdfmark
end
} ifelse
end
%%EndProlog
%%Page: 1 1
gnudict begin
gsave
doclip
50 50 translate
0.050 0.050 scale
0 setgray
newpath
1.000 UL
LTb
LCb setrgbcolor
1.000 UL
LTa
LCa setrgbcolor
946 704 M
5857 0 V
stroke
LTb
LCb setrgbcolor
946 704 M
63 0 V
5794 0 R
-63 0 V
stroke
LTb
1.000 UL
LTa
LCa setrgbcolor
946 1156 M
5857 0 V
stroke
LTb
LCb setrgbcolor
946 1156 M
63 0 V
5794 0 R
-63 0 V
stroke
LTb
1.000 UL
LTa
LCa setrgbcolor
946 1609 M
5857 0 V
stroke
LTb
LCb setrgbcolor
946 1609 M
63 0 V
5794 0 R
-63 0 V
stroke
LTb
1.000 UL
LTa
LCa setrgbcolor
946 2061 M
5857 0 V
stroke
LTb
LCb setrgbcolor
946 2061 M
63 0 V
5794 0 R
-63 0 V
stroke
LTb
1.000 UL
LTa
LCa setrgbcolor
946 2513 M
5857 0 V
stroke
LTb
LCb setrgbcolor
946 2513 M
63 0 V
5794 0 R
-63 0 V
stroke
LTb
1.000 UL
LTa
LCa setrgbcolor
946 2966 M
5857 0 V
stroke
LTb
LCb setrgbcolor
946 2966 M
63 0 V
5794 0 R
-63 0 V
stroke
LTb
1.000 UL
LTa
LCa setrgbcolor
946 3418 M
1412 0 V
1842 0 R
2603 0 V
stroke
LTb
LCb setrgbcolor
946 3418 M
63 0 V
5794 0 R
-63 0 V
stroke
LTb
1.000 UL
LTa
LCa setrgbcolor
946 3870 M
5857 0 V
stroke
LTb
LCb setrgbcolor
946 3870 M
63 0 V
5794 0 R
-63 0 V
stroke
LTb
1.000 UL
LTa
LCa setrgbcolor
946 4323 M
5857 0 V
stroke
LTb
LCb setrgbcolor
946 4323 M
63 0 V
5794 0 R
-63 0 V
stroke
LTb
1.000 UL
LTa
LCa setrgbcolor
946 4775 M
5857 0 V
stroke
LTb
LCb setrgbcolor
946 4775 M
63 0 V
5794 0 R
-63 0 V
stroke
LTb
1.000 UL
LTa
LCa setrgbcolor
946 704 M
0 4071 V
stroke
LTb
LCb setrgbcolor
946 704 M
0 63 V
0 4008 R
0 -63 V
stroke
LTb
1142 704 M
0 31 V
0 4040 R
0 -31 V
1401 704 M
0 31 V
0 4040 R
0 -31 V
1534 704 M
0 31 V
0 4040 R
0 -31 V
stroke
LTa
LCa setrgbcolor
1597 704 M
0 4071 V
stroke
LTb
LCb setrgbcolor
1597 704 M
0 63 V
0 4008 R
0 -63 V
stroke
LTb
1793 704 M
0 31 V
0 4040 R
0 -31 V
2052 704 M
0 31 V
0 4040 R
0 -31 V
2184 704 M
0 31 V
0 4040 R
0 -31 V
stroke
LTa
LCa setrgbcolor
2248 704 M
0 4071 V
stroke
LTb
LCb setrgbcolor
2248 704 M
0 63 V
0 4008 R
0 -63 V
stroke
LTb
2443 704 M
0 31 V
0 4040 R
0 -31 V
2702 704 M
0 31 V
0 4040 R
0 -31 V
2835 704 M
0 31 V
0 4040 R
0 -31 V
stroke
LTa
LCa setrgbcolor
2898 704 M
0 2280 V
0 660 R
0 1131 V
stroke
LTb
LCb setrgbcolor
2898 704 M
0 63 V
0 4008 R
0 -63 V
stroke
LTb
3094 704 M
0 31 V
0 4040 R
0 -31 V
3353 704 M
0 31 V
0 4040 R
0 -31 V
3486 704 M
0 31 V
0 4040 R
0 -31 V
stroke
LTa
LCa setrgbcolor
3549 704 M
0 2280 V
0 660 R
0 1131 V
stroke
LTb
LCb setrgbcolor
3549 704 M
0 63 V
0 4008 R
0 -63 V
stroke
LTb
3745 704 M
0 31 V
0 4040 R
0 -31 V
4004 704 M
0 31 V
0 4040 R
0 -31 V
4137 704 M
0 31 V
0 4040 R
0 -31 V
stroke
LTa
LCa setrgbcolor
4200 704 M
0 4071 V
stroke
LTb
LCb setrgbcolor
4200 704 M
0 63 V
0 4008 R
0 -63 V
stroke
LTb
4396 704 M
0 31 V
0 4040 R
0 -31 V
4655 704 M
0 31 V
0 4040 R
0 -31 V
4788 704 M
0 31 V
0 4040 R
0 -31 V
stroke
LTa
LCa setrgbcolor
4851 704 M
0 4071 V
stroke
LTb
LCb setrgbcolor
4851 704 M
0 63 V
0 4008 R
0 -63 V
stroke
LTb
5047 704 M
0 31 V
0 4040 R
0 -31 V
5306 704 M
0 31 V
0 4040 R
0 -31 V
5438 704 M
0 31 V
0 4040 R
0 -31 V
stroke
LTa
LCa setrgbcolor
5501 704 M
0 4071 V
stroke
LTb
LCb setrgbcolor
5501 704 M
0 63 V
0 4008 R
0 -63 V
stroke
LTb
5697 704 M
0 31 V
0 4040 R
0 -31 V
5956 704 M
0 31 V
0 4040 R
0 -31 V
6089 704 M
0 31 V
0 4040 R
0 -31 V
stroke
LTa
LCa setrgbcolor
6152 704 M
0 4071 V
stroke
LTb
LCb setrgbcolor
6152 704 M
0 63 V
0 4008 R
0 -63 V
stroke
LTb
6348 704 M
0 31 V
0 4040 R
0 -31 V
6607 704 M
0 31 V
0 4040 R
0 -31 V
6740 704 M
0 31 V
0 4040 R
0 -31 V
stroke
LTa
LCa setrgbcolor
6803 704 M
0 4071 V
stroke
LTb
LCb setrgbcolor
6803 704 M
0 63 V
0 4008 R
0 -63 V
stroke
LTb
1.000 UL
LTb
946 4775 N
946 704 L
5857 0 V
0 4071 V
-5857 0 V
Z stroke
2.000 UP
1.000 UL
LTb
2.000 UP
3.000 UL
LT0
LC0 setrgbcolor
LCb setrgbcolor
LT0
LC0 setrgbcolor
3414 3534 M
654 0 V
1292 4509 M
1438 3307 L
170 -141 V
219 -52 V
157 -370 V
171 146 V
94 -16 V
328 49 V
254 -128 V
68 -15 V
172 53 V
164 -121 V
150 -162 V
168 240 V
336 -46 V
197 -4 V
129 31 V
204 54 V
186 -26 V
263 33 V
201 141 V
217 -164 V
88 823 V
28 -560 V
76 -58 V
68 -17 V
48 103 V
-2 141 V
94 -20 V
233 463 V
222 -82 V
221 678 V
223 45 V
206 -420 V
1292 4509 Pls
1438 3307 Pls
1608 3166 Pls
1827 3114 Pls
1984 2744 Pls
2155 2890 Pls
2249 2874 Pls
2577 2923 Pls
2831 2795 Pls
2899 2780 Pls
3071 2833 Pls
3235 2712 Pls
3385 2550 Pls
3553 2790 Pls
3889 2744 Pls
4086 2740 Pls
4215 2771 Pls
4419 2825 Pls
4605 2799 Pls
4868 2832 Pls
5069 2973 Pls
5286 2809 Pls
5374 3632 Pls
5402 3072 Pls
5478 3014 Pls
5546 2997 Pls
5594 3100 Pls
5592 3241 Pls
5686 3221 Pls
5919 3684 Pls
6141 3602 Pls
6362 4280 Pls
6585 4325 Pls
6791 3905 Pls
3741 3534 Pls
2.000 UP
3.000 UL
LT1
LC1 setrgbcolor
LCb setrgbcolor
LT1
LC1 setrgbcolor
3414 3314 M
654 0 V
1292 1183 M
1438 926 L
1608 774 L
219 338 V
1984 960 L
171 140 V
94 -6 V
328 121 V
254 -76 V
68 -24 V
172 72 V
164 -115 V
3385 931 L
168 215 V
336 -38 V
197 2 V
129 32 V
204 40 V
186 -18 V
263 10 V
201 169 V
217 1442 V
88 -364 V
28 -579 V
76 94 V
68 17 V
48 23 V
-2 132 V
94 -7 V
233 350 V
222 -105 V
221 878 V
223 -153 V
206 -105 V
1292 1183 Crs
1438 926 Crs
1608 774 Crs
1827 1112 Crs
1984 960 Crs
2155 1100 Crs
2249 1094 Crs
2577 1215 Crs
2831 1139 Crs
2899 1115 Crs
3071 1187 Crs
3235 1072 Crs
3385 931 Crs
3553 1146 Crs
3889 1108 Crs
4086 1110 Crs
4215 1142 Crs
4419 1182 Crs
4605 1164 Crs
4868 1174 Crs
5069 1343 Crs
5286 2785 Crs
5374 2421 Crs
5402 1842 Crs
5478 1936 Crs
5546 1953 Crs
5594 1976 Crs
5592 2108 Crs
5686 2101 Crs
5919 2451 Crs
6141 2346 Crs
6362 3224 Crs
6585 3071 Crs
6791 2966 Crs
3741 3314 Crs
2.000 UP
3.000 UL
LT2
LC2 setrgbcolor
LCb setrgbcolor
LT2
LC2 setrgbcolor
3414 3094 M
654 0 V
-2776 85 R
146 -666 V
170 -652 V
219 452 V
157 -87 V
171 -27 V
94 -1 V
328 68 V
254 -80 V
68 -23 V
172 43 V
164 -98 V
150 -149 V
168 233 V
336 -38 V
197 4 V
129 33 V
204 42 V
186 -22 V
263 26 V
201 57 V
217 637 V
88 -48 V
28 -588 V
76 59 V
68 -15 V
48 158 V
-2 186 V
94 -99 V
233 435 V
222 5 V
221 631 V
223 4 V
206 -195 V
1292 3179 Star
1438 2513 Star
1608 1861 Star
1827 2313 Star
1984 2226 Star
2155 2199 Star
2249 2198 Star
2577 2266 Star
2831 2186 Star
2899 2163 Star
3071 2206 Star
3235 2108 Star
3385 1959 Star
3553 2192 Star
3889 2154 Star
4086 2158 Star
4215 2191 Star
4419 2233 Star
4605 2211 Star
4868 2237 Star
5069 2294 Star
5286 2931 Star
5374 2883 Star
5402 2295 Star
5478 2354 Star
5546 2339 Star
5594 2497 Star
5592 2683 Star
5686 2584 Star
5919 3019 Star
6141 3024 Star
6362 3655 Star
6585 3659 Star
6791 3464 Star
3741 3094 Star
1.000 UL
LTb
LCb setrgbcolor
946 4775 N
946 704 L
5857 0 V
0 4071 V
-5857 0 V
Z stroke
2.000 UP
1.000 UL
LTb
stroke
grestore
end
showpage
%%Trailer
