\relax 
\providecommand\hyper@newdestlabel[2]{}
\@writefile{toc}{\contentsline {chapter}{\numberline {6}\IeC {\CYRG }\IeC {\cyre }\IeC {\cyrn }\IeC {\cyre }\IeC {\cyrr }\IeC {\cyra }\IeC {\cyrt }\IeC {\cyro }\IeC {\cyrr } \IeC {\cyrs }\IeC {\cyri }\IeC {\cyrg }\IeC {\cyrn }\IeC {\cyra }\IeC {\cyrl }\IeC {\cyro }\IeC {\cyrv }}{116}{chapter.6}}
\@writefile{lof}{\addvspace {10\p@ }}
\@writefile{lot}{\addvspace {10\p@ }}
\newlabel{sec:generation}{{6}{116}{Генератор сигналов}{chapter.6}{}}
\@writefile{toc}{\contentsline {section}{\numberline {6.1}\IeC {\CYRG }\IeC {\cyre }\IeC {\cyrn }\IeC {\cyre }\IeC {\cyrr }\IeC {\cyra }\IeC {\cyrt }\IeC {\cyro }\IeC {\cyrr } \IeC {\cyrch }\IeC {\cyra }\IeC {\cyrs }\IeC {\cyrt }\IeC {\cyro }\IeC {\cyrt }\IeC {\cyrery }}{116}{section.6.1}}
\@writefile{toc}{\contentsline {section}{\numberline {6.2}\IeC {\CYRSH }\IeC {\cyri }\IeC {\cyrr }\IeC {\cyro }\IeC {\cyrt }\IeC {\cyrn }\IeC {\cyro }-\IeC {\cyri }\IeC {\cyrm }\IeC {\cyrp }\IeC {\cyru }\IeC {\cyrl }\IeC {\cyrsftsn }\IeC {\cyrs }\IeC {\cyrn }\IeC {\cyrery }\IeC {\cyrishrt } \IeC {\cyrg }\IeC {\cyre }\IeC {\cyrn }\IeC {\cyre }\IeC {\cyrr }\IeC {\cyra }\IeC {\cyrt }\IeC {\cyro }\IeC {\cyrr }}{116}{section.6.2}}
\@setckpt{60-generators}{
\setcounter{page}{117}
\setcounter{equation}{0}
\setcounter{enumi}{12}
\setcounter{enumii}{0}
\setcounter{enumiii}{0}
\setcounter{enumiv}{0}
\setcounter{footnote}{0}
\setcounter{mpfootnote}{0}
\setcounter{part}{0}
\setcounter{chapter}{6}
\setcounter{section}{2}
\setcounter{subsection}{0}
\setcounter{subsubsection}{0}
\setcounter{paragraph}{0}
\setcounter{subparagraph}{0}
\setcounter{figure}{0}
\setcounter{table}{0}
\setcounter{ContinuedFloat}{0}
\setcounter{subfigure}{2}
\setcounter{subtable}{0}
\setcounter{Item}{55}
\setcounter{Hfootnote}{0}
\setcounter{bookmark@seq@number}{60}
\setcounter{float@type}{4}
\setcounter{section@level}{1}
}
