\BOOKMARK [0][-]{chapter.1}{\376\377\004\045\004\060\004\100\004\060\004\072\004\102\004\065\004\100\004\070\004\101\004\102\004\070\004\072\004\070}{}% 1
\BOOKMARK [0][-]{chapter.2}{\376\377\004\020\004\077\004\077\004\060\004\100\004\060\004\102\004\075\004\113\004\065\000\040\004\101\004\100\004\065\004\064\004\101\004\102\004\062\004\060}{}% 2
\BOOKMARK [1][-]{section.2.1}{\376\377\004\041\004\105\004\065\004\074\004\060\000\040\004\042\004\065\004\101\004\102\004\065\004\100\004\060}{chapter.2}% 3
\BOOKMARK [1][-]{section.2.2}{\376\377\004\043\004\073\004\103\004\107\004\110\004\065\004\075\004\070\004\117\000\040\004\070\000\040\004\100\004\060\004\101\004\110\004\070\004\100\004\065\004\075\004\070\004\117\000\040\004\072\000\040\004\077\004\100\004\070\004\061\004\076\004\100\004\103}{chapter.2}% 4
\BOOKMARK [2][-]{subsection.2.2.1}{\376\377\004\027\004\060\004\111\004\070\004\102\004\060\000\040\004\077\004\076\004\100\004\102\004\076\004\062\000\040\000A\000T\000m\000e\000g\000a}{section.2.2}% 5
\BOOKMARK [2][-]{subsection.2.2.2}{\376\377\004\030\004\067\004\074\004\065\004\100\004\065\004\075\004\070\004\065\000\040\004\101\004\102\004\060\004\061\004\070\004\073\004\070\004\102\004\100\004\076\004\075\004\076\004\062\000\040\004\101\000\040\004\075\004\060\004\077\004\100\004\117\004\066\004\065\004\075\004\070\004\065\004\074\000\040\004\061\004\076\004\073\004\065\004\065\000\040\0004\000\040\000V}{section.2.2}% 6
\BOOKMARK [2][-]{subsection.2.2.3}{\376\377\004\023\004\065\004\075\004\065\004\100\004\060\004\102\004\076\004\100\000\040\004\107\004\060\004\101\004\102\004\076\004\102\004\113}{section.2.2}% 7
\BOOKMARK [2][-]{subsection.2.2.4}{\376\377\004\030\004\067\004\074\004\065\004\100\004\065\004\075\004\070\004\065\000\040\004\107\004\060\004\101\004\102\004\076\004\102\004\113}{section.2.2}% 8
\BOOKMARK [2][-]{subsection.2.2.5}{\376\377\004\030\004\101\004\077\004\076\004\073\004\114\004\067\004\076\004\062\004\060\004\075\004\070\004\065\000\040\004\077\004\076\004\062\004\076\004\100\004\076\004\102\004\075\004\076\004\063\004\076\000\040\004\115\004\075\004\072\004\076\004\064\004\065\004\100\004\060}{section.2.2}% 9
\BOOKMARK [2][-]{subsection.2.2.6}{\376\377\004\037\004\076\004\064\004\072\004\073\004\116\004\107\004\065\004\075\004\070\004\065\000\040\004\063\004\100\004\060\004\104\004\070\004\107\004\065\004\101\004\072\004\076\004\063\004\076\000\040\004\064\004\070\004\101\004\077\004\073\004\065\004\117}{section.2.2}% 10
\BOOKMARK [1][-]{section.2.3}{\376\377\004\043\004\072\004\060\004\067\004\060\004\075\004\070\004\117\000\040\004\077\004\076\000\040\004\101\004\061\004\076\004\100\004\072\004\065\000\040\004\042\004\065\004\101\004\102\004\065\004\100\004\060\000\040}{chapter.2}% 11
\BOOKMARK [1][-]{section.2.4}{\376\377\004\024\004\076\004\100\004\060\004\061\004\076\004\102\004\072\004\070\000\040\004\064\004\073\004\117\000\040\004\062\004\065\004\100\004\101\004\070\004\071\000\040\004\042\004\065\004\101\004\102\004\065\004\100\004\060\000\040\000M\000a\000r\000k\000u\000s\000\040\000F\000.}{chapter.2}% 12
\BOOKMARK [1][-]{section.2.5}{\376\377\004\032\004\070\004\102\004\060\004\071\004\101\004\072\004\070\004\065\000\040\004\072\004\073\004\076\004\075\004\113\000\040\004\101\000\040\004\101\004\070\004\074\004\062\004\076\004\073\004\114\004\075\004\113\004\074\000\040\004\064\004\070\004\101\004\077\004\073\004\065\004\065\004\074}{chapter.2}% 13
\BOOKMARK [1][-]{section.2.6}{\376\377\004\032\004\070\004\102\004\060\004\071\004\101\004\072\004\070\004\065\000\040\004\072\004\073\004\076\004\075\004\113\000\040\004\101\000\040\004\063\004\100\004\060\004\104\004\070\004\107\004\065\004\101\004\072\004\070\004\074\000\040\004\064\004\070\004\101\004\077\004\073\004\065\004\065\004\074}{chapter.2}% 14
\BOOKMARK [1][-]{section.2.7}{\376\377\004\040\004\060\004\101\004\110\004\070\004\100\004\065\004\075\004\075\004\060\004\117\000\040\004\101\004\105\004\065\004\074\004\060\000\040\004\101\000\040\000A\000T\000m\000e\000g\000a\0006\0004\0004\000\040\004\070\004\073\004\070\000\040\000A\000T\000m\000e\000g\000a\0001\0002\0008\0004}{chapter.2}% 15
\BOOKMARK [1][-]{section.2.8}{\376\377\004\041\004\105\004\065\004\074\004\060\000\040\004\101\000\040\004\070\004\101\004\077\004\076\004\073\004\114\004\067\004\076\004\062\004\060\004\075\004\070\004\065\004\074\000\040\000A\000T\000m\000e\000g\000a\0001\0002\0008\0000\000\040\004\070\004\073\004\070\000\040\000A\000r\000d\000u\000i\000n\000o\000\040\000M\000e\000g\000a}{chapter.2}% 16
\BOOKMARK [1][-]{section.2.9}{\376\377\004\037\004\100\004\076\004\063\004\100\004\060\004\074\004\074\004\070\004\100\004\076\004\062\004\060\004\075\004\070\004\065\000\040\004\074\004\070\004\072\004\100\004\076\004\072\004\076\004\075\004\102\004\100\004\076\004\073\004\073\004\065\004\100\004\060}{chapter.2}% 17
\BOOKMARK [2][-]{subsection.2.9.1}{\376\377\004\030\004\101\004\077\004\076\004\073\004\114\004\067\004\076\004\062\004\060\004\075\004\070\004\065\000\040\000M\000a\000k\000e\000f\000i\000l\000e\000\040\004\062\000\040\004\036\004\041\000\040\000L\000i\000n\000u\000x}{section.2.9}% 18
\BOOKMARK [2][-]{subsection.2.9.2}{\376\377\004\030\004\101\004\077\004\076\004\073\004\114\004\067\004\076\004\062\004\060\004\075\004\070\004\065\000\040\004\077\004\100\004\076\004\063\004\100\004\060\004\074\004\074\004\113\000\040\000W\000i\000n\000A\000V\000R\000\040\004\062\000\040\004\036\004\041\000\040\000W\000i\000n\000d\000o\000w\000s}{section.2.9}% 19
\BOOKMARK [1][-]{section.2.10}{\376\377\004\037\004\076\004\070\004\101\004\072\000\040\004\075\004\065\004\070\004\101\004\077\004\100\004\060\004\062\004\075\004\076\004\101\004\102\004\065\004\071\000\040}{chapter.2}% 20
\BOOKMARK [0][-]{chapter.3}{\376\377\004\030\004\075\004\101\004\102\004\100\004\103\004\072\004\106\004\070\004\117\000\040\004\077\004\076\004\073\004\114\004\067\004\076\004\062\004\060\004\102\004\065\004\073\004\117}{}% 21
\BOOKMARK [1][-]{section.3.1}{\376\377\004\037\004\100\004\076\004\062\004\065\004\064\004\065\004\075\004\070\004\065\000\040\004\070\004\067\004\074\004\065\004\100\004\065\004\075\004\070\004\071\000\040}{chapter.3}% 22
\BOOKMARK [1][-]{section.3.2}{\376\377\004\034\004\065\004\075\004\116\000\040\004\064\004\076\004\077\004\076\004\073\004\075\004\070\004\102\004\065\004\073\004\114\004\075\004\113\004\105\000\040\004\104\004\103\004\075\004\072\004\106\004\070\004\071\000\040\004\064\004\073\004\117\000\040\000A\000T\000m\000e\000g\000a\0003\0002\0008}{chapter.3}% 23
\BOOKMARK [1][-]{section.3.3}{\376\377\004\041\004\060\004\074\004\076\004\077\004\100\004\076\004\062\004\065\004\100\004\072\004\060\000\040\004\070\000\040\004\072\004\060\004\073\004\070\004\061\004\100\004\076\004\062\004\072\004\060}{chapter.3}% 24
\BOOKMARK [1][-]{section.3.4}{\376\377\004\041\004\077\004\065\004\106\004\070\004\060\004\073\004\114\004\075\004\113\004\065\000\040\004\062\004\076\004\067\004\074\004\076\004\066\004\075\004\076\004\101\004\102\004\070\000\040\004\070\004\101\004\077\004\076\004\073\004\114\004\067\004\076\004\062\004\060\004\075\004\070\004\117}{chapter.3}% 25
\BOOKMARK [1][-]{section.3.5}{\376\377\004\037\004\100\004\076\004\061\004\073\004\065\004\074\004\113\000\040\004\077\004\100\004\070\000\040\004\076\004\077\004\100\004\065\004\064\004\065\004\073\004\065\004\075\004\070\004\070\000\040\004\115\004\073\004\065\004\074\004\065\004\075\004\102\004\076\004\062}{chapter.3}% 26
\BOOKMARK [1][-]{section.3.6}{\376\377\004\030\004\067\004\074\004\065\004\100\004\065\004\075\004\070\004\065\000\040\004\102\004\100\004\060\004\075\004\067\004\070\004\101\004\102\004\076\004\100\004\076\004\062\000\040\000N\000-\000P\000-\000N\000\040\004\070\000\040\000P\000-\000N\000-\000P}{chapter.3}% 27
\BOOKMARK [1][-]{section.3.7}{\376\377\004\030\004\067\004\074\004\065\004\100\004\065\004\075\004\070\004\065\000\040\000J\000F\000E\000T\000\040\004\070\000\040\004\102\004\100\004\060\004\075\004\067\004\070\004\101\004\102\004\076\004\100\004\076\004\062\000\040\000D\000-\000M\000O\000S}{chapter.3}% 28
\BOOKMARK [1][-]{section.3.8}{\376\377\004\030\004\067\004\074\004\065\004\100\004\065\004\075\004\070\004\065\000\040\000E\000-\000M\000O\000S\000\040\004\102\004\100\004\060\004\075\004\067\004\070\004\101\004\102\004\076\004\100\004\076\004\062}{chapter.3}% 29
\BOOKMARK [0][-]{chapter.4}{\376\377\004\032\004\076\004\075\004\104\004\070\004\063\004\103\004\100\004\070\004\100\004\076\004\062\004\060\004\075\004\070\004\065\000\040\004\042\004\065\004\101\004\102\004\065\004\100\004\060}{}% 30
\BOOKMARK [0][-]{chapter.5}{\376\377\004\036\004\077\004\070\004\101\004\060\004\075\004\070\004\065\000\040\004\077\004\100\004\076\004\106\004\065\004\064\004\103\004\100\000\040\004\070\004\067\004\074\004\065\004\100\004\065\004\075\004\070\004\117}{}% 31
\BOOKMARK [1][-]{section.5.1}{\376\377\004\030\004\067\004\074\004\065\004\100\004\065\004\075\004\070\004\065\000\040\004\077\004\076\004\073\004\103\004\077\004\100\004\076\004\062\004\076\004\064\004\075\004\070\004\072\004\076\004\062\004\113\004\105\000\040\004\115\004\073\004\065\004\074\004\065\004\075\004\102\004\076\004\062}{chapter.5}% 32
\BOOKMARK [2][-]{subsection.5.1.1}{\376\377\004\030\004\067\004\074\004\065\004\100\004\065\004\075\004\070\004\065\000\040\000P\000-\000N\000-\000P\000\040\004\102\004\100\004\060\004\075\004\067\004\070\004\101\004\102\004\076\004\100\004\060\000\040\004\070\004\073\004\070\000\040\000P\000-\000C\000h\000a\000n\000n\000e\000l\000-\000M\000O\000S\000F\000E\000T}{section.5.1}% 33
\BOOKMARK [2][-]{subsection.5.1.2}{\376\377\004\030\004\067\004\074\004\065\004\100\004\065\004\075\004\070\004\065\000\040\000N\000-\000P\000-\000N\000\040\004\102\004\100\004\060\004\075\004\067\004\070\004\101\004\102\004\076\004\100\004\060\000\040\004\070\004\073\004\070\000\040\000N\000-\000C\000h\000a\000n\000n\000e\000l\000-\000M\000O\000S\000F\000E\000T}{section.5.1}% 34
\BOOKMARK [2][-]{subsection.5.1.3}{\376\377\004\043\004\077\004\100\004\076\004\111\004\065\004\075\004\075\004\060\004\117\000\040\004\061\004\073\004\076\004\072\000-\004\101\004\105\004\065\004\074\004\060\000\040\004\102\004\065\004\101\004\102\004\070\004\100\004\076\004\062\004\060\004\075\004\070\004\117\000\040\004\102\004\100\004\060\004\075\004\067\004\070\004\101\004\102\004\076\004\100\004\076\004\062}{section.5.1}% 35
\BOOKMARK [2][-]{subsection.5.1.4}{\376\377\004\030\004\067\004\074\004\065\004\100\004\065\004\075\004\070\004\065\000\040\004\064\004\070\004\076\004\064\004\076\004\062}{section.5.1}% 36
\BOOKMARK [2][-]{subsection.5.1.5}{\376\377\004\040\004\065\004\067\004\103\004\073\004\114\004\102\004\060\004\102\004\113\000\040\004\100\004\060\004\067\004\073\004\070\004\107\004\075\004\113\004\105\000\040\004\070\004\067\004\074\004\065\004\100\004\065\004\075\004\070\004\071}{section.5.1}% 37
\BOOKMARK [1][-]{section.5.2}{\376\377\004\030\004\067\004\074\004\065\004\100\004\065\004\075\004\070\004\065\000\040\004\100\004\065\004\067\004\070\004\101\004\102\004\076\004\100\004\076\004\062}{chapter.5}% 38
\BOOKMARK [2][-]{subsection.5.2.1}{\376\377\004\030\004\067\004\074\004\065\004\100\004\065\004\075\004\070\004\065\000\040\004\100\004\065\004\067\004\070\004\101\004\102\004\076\004\100\004\060\000\040\004\101\000\040\004\100\004\065\004\067\004\070\004\101\004\102\004\076\004\100\004\060\004\074\004\070\000\040\0006\0008\0000\000\040\004\036\004\074}{section.5.2}% 39
\BOOKMARK [2][-]{subsection.5.2.2}{\376\377\004\030\004\067\004\074\004\065\004\100\004\065\004\075\004\070\004\065\000\040\004\100\004\065\004\067\004\070\004\101\004\102\004\076\004\100\004\060\000\040\004\101\000\040\004\100\004\065\004\067\004\070\004\101\004\102\004\076\004\100\004\060\004\074\004\070\000\040\0004\0007\0000\000\040\004\072\004\036\004\074}{section.5.2}% 40
\BOOKMARK [2][-]{subsection.5.2.3}{\376\377\004\040\004\065\004\067\004\103\004\073\004\114\004\102\004\060\004\102\004\113\000\040\004\070\004\067\004\074\004\065\004\100\004\065\004\075\004\070\004\071\000\040\004\100\004\065\004\067\004\070\004\101\004\102\004\076\004\100\004\060}{section.5.2}% 41
\BOOKMARK [1][-]{section.5.3}{\376\377\004\030\004\067\004\074\004\065\004\100\004\065\004\075\004\070\004\065\000\040\004\072\004\076\004\075\004\064\004\065\004\075\004\101\004\060\004\102\004\076\004\100\004\076\004\062}{chapter.5}% 42
\BOOKMARK [2][-]{subsection.5.3.1}{\376\377\004\040\004\060\004\067\004\100\004\117\004\064\004\072\004\060\000\040\004\072\004\076\004\075\004\064\004\065\004\075\004\101\004\060\004\102\004\076\004\100\004\060}{section.5.3}% 43
\BOOKMARK [2][-]{subsection.5.3.2}{\376\377\004\030\004\067\004\074\004\065\004\100\004\065\004\075\004\070\004\065\000\040\004\072\004\076\004\075\004\064\004\065\004\075\004\101\004\060\004\102\004\076\004\100\004\076\004\062\000\040\004\061\004\076\004\073\004\114\004\110\004\076\004\071\000\040\004\121\004\074\004\072\004\076\004\101\004\102\004\070\000\040}{section.5.3}% 44
\BOOKMARK [2][-]{subsection.5.3.3}{\376\377\004\030\004\067\004\074\004\065\004\100\004\065\004\075\004\070\004\065\000\040\004\072\004\076\004\075\004\064\004\065\004\075\004\101\004\060\004\102\004\076\004\100\004\076\004\062\000\040\004\074\004\060\004\073\004\076\004\071\000\040\004\121\004\074\004\072\004\076\004\101\004\102\004\070}{section.5.3}% 45
\BOOKMARK [2][-]{subsection.5.3.4}{\376\377\004\030\004\067\004\074\004\065\004\100\004\065\004\075\004\070\004\065\000\040\004\115\004\072\004\062\004\070\004\062\004\060\004\073\004\065\004\075\004\102\004\075\004\076\004\063\004\076\000\040\004\101\004\076\004\077\004\100\004\076\004\102\004\070\004\062\004\073\004\065\004\075\004\070\004\117\000\040\000E\000S\000R}{section.5.3}% 46
\BOOKMARK [2][-]{subsection.5.3.5}{\376\377\004\030\004\067\004\074\004\065\004\100\004\065\004\075\004\070\004\065\000\040\000E\000S\000R\000,\000\040\004\077\004\065\004\100\004\062\004\113\004\071\000\040\004\074\004\065\004\102\004\076\004\064}{section.5.3}% 47
\BOOKMARK [2][-]{subsection.5.3.6}{\376\377\004\030\004\067\004\074\004\065\004\100\004\065\004\075\004\070\004\065\000\040\000E\000S\000R\000,\000\040\004\062\004\102\004\076\004\100\004\076\004\071\000\040\004\074\004\065\004\102\004\076\004\064}{section.5.3}% 48
\BOOKMARK [2][-]{subsection.5.3.7}{\376\377\004\037\004\076\004\102\004\065\004\100\004\117\000\040\004\075\004\060\004\077\004\100\004\117\004\066\004\065\004\075\004\070\004\117\000\040\004\077\004\076\004\101\004\073\004\065\000\040\004\070\004\074\004\077\004\103\004\073\004\114\004\101\004\060\000\040\004\067\004\060\004\100\004\117\004\064\004\072\004\070\000,\000\040\000V\000l\000o\000s\000s}{section.5.3}% 49
\BOOKMARK [2][-]{subsection.5.3.8}{\376\377\004\036\004\102\004\064\004\065\004\073\004\114\004\075\004\076\004\065\000\040\004\070\004\067\004\074\004\065\004\100\004\065\004\075\004\070\004\065\000\040\004\121\004\074\004\072\004\076\004\101\004\102\004\070\000\040\004\070\000\040\000E\000S\000R}{section.5.3}% 50
\BOOKMARK [2][-]{subsection.5.3.9}{\376\377\004\040\004\065\004\067\004\103\004\073\004\114\004\102\004\060\004\102\004\113\000\040\004\070\004\067\004\074\004\065\004\100\004\065\004\075\004\070\004\117\000\040\004\121\004\074\004\072\004\076\004\101\004\102\004\070\000\040\004\072\004\076\004\075\004\064\004\065\004\075\004\101\004\060\004\102\004\076\004\100\004\076\004\062}{section.5.3}% 51
\BOOKMARK [2][-]{subsection.5.3.10}{\376\377\004\020\004\062\004\102\004\076\004\074\004\060\004\102\004\070\004\107\004\065\004\101\004\072\004\060\004\117\000\040\004\072\004\060\004\073\004\070\004\061\004\100\004\076\004\062\004\072\004\060\000\040\004\077\004\100\004\070\000\040\004\070\004\067\004\074\004\065\004\100\004\065\004\075\004\070\004\070\000\040\004\072\004\076\004\075\004\064\004\065\004\075\004\101\004\060\004\102\004\076\004\100\004\076\004\062}{section.5.3}% 52
\BOOKMARK [1][-]{section.5.4}{\376\377\004\030\004\067\004\074\004\065\004\100\004\065\004\075\004\070\004\065\000\040\004\070\004\075\004\064\004\103\004\072\004\102\004\070\004\062\004\075\004\076\004\101\004\102\004\065\004\071\000\040}{chapter.5}% 53
\BOOKMARK [2][-]{subsection.5.4.1}{\376\377\004\040\004\065\004\067\004\103\004\073\004\114\004\102\004\060\004\102\004\113\000\040\004\070\004\067\004\074\004\065\004\100\004\065\004\075\004\070\004\071\000\040\004\070\004\075\004\064\004\103\004\072\004\102\004\070\004\062\004\075\004\076\004\101\004\102\004\070}{section.5.4}% 54
\BOOKMARK [1][-]{section.5.5}{\376\377\004\044\004\103\004\075\004\072\004\106\004\070\004\117\000\040\004\101\004\060\004\074\004\076\004\077\004\100\004\076\004\062\004\065\004\100\004\072\004\070}{chapter.5}% 55
\BOOKMARK [2][-]{subsection.5.5.1}{\376\377\004\035\004\065\004\072\004\076\004\102\004\076\004\100\004\113\004\065\000\040\004\100\004\065\004\067\004\103\004\073\004\114\004\102\004\060\004\102\004\113\000\040\004\104\004\103\004\075\004\072\004\106\004\070\004\070\000\040\004\101\004\060\004\074\004\076\004\077\004\100\004\076\004\062\004\065\004\100\004\072\004\070}{section.5.5}% 56
\BOOKMARK [1][-]{section.5.6}{\376\377\004\030\004\067\004\074\004\065\004\100\004\065\004\075\004\070\004\065\000\040\004\107\004\060\004\101\004\102\004\076\004\102\004\113}{chapter.5}% 57
\BOOKMARK [0][-]{chapter.6}{\376\377\004\023\004\065\004\075\004\065\004\100\004\060\004\102\004\076\004\100\000\040\004\101\004\070\004\063\004\075\004\060\004\073\004\076\004\062}{}% 58
\BOOKMARK [1][-]{section.6.1}{\376\377\004\023\004\065\004\075\004\065\004\100\004\060\004\102\004\076\004\100\000\040\004\107\004\060\004\101\004\102\004\076\004\102\004\113}{chapter.6}% 59
\BOOKMARK [1][-]{section.6.2}{\376\377\004\050\004\070\004\100\004\076\004\102\004\075\004\076\000-\004\070\004\074\004\077\004\103\004\073\004\114\004\101\004\075\004\113\004\071\000\040\004\063\004\065\004\075\004\065\004\100\004\060\004\102\004\076\004\100}{chapter.6}% 60
\BOOKMARK [0][-]{chapter.7}{\376\377\004\030\004\067\004\062\004\065\004\101\004\102\004\075\004\113\004\065\000\040\004\076\004\110\004\070\004\061\004\072\004\070\000\040\004\070\000\040\004\077\004\100\004\076\004\061\004\073\004\065\004\074\004\113}{}% 61
\BOOKMARK [0][-]{chapter.8}{\376\377\004\041\004\077\004\065\004\106\004\070\004\060\004\073\004\114\004\075\004\113\004\065\000\040\004\074\004\076\004\064\004\103\004\073\004\070\000\040\004\077\004\100\004\076\004\063\004\100\004\060\004\074\004\074\004\075\004\076\004\063\004\076\000\040\004\076\004\061\004\065\004\101\004\077\004\065\004\107\004\065\004\075\004\070\004\117}{}% 62
\BOOKMARK [0][-]{chapter.9}{\376\377\004\041\004\077\004\070\004\101\004\076\004\072\000\040\004\102\004\065\004\072\004\103\004\111\004\070\004\105\000\040\004\064\004\065\004\073\000\040\004\070\000\040\004\075\004\076\004\062\004\113\004\065\000\040\004\070\004\064\004\065\004\070}{}% 63
