\relax 
\providecommand\hyper@newdestlabel[2]{}
\@writefile{toc}{\contentsline {section}{\numberline {5.6}Frequenzmessung}{111}{section.5.6}}
\newlabel{sec:frequency}{{5.6}{111}{Frequenzmessung}{section.5.6}{}}
\@writefile{lof}{\contentsline {figure}{\numberline {5.73}{\ignorespaces Relativer Fehler f\IeC {\"u}r Frequenzmessung \relax }}{112}{figure.caption.116}}
\newlabel{fig:freq-ppm}{{5.73}{112}{Relativer Fehler für Frequenzmessung \relax }{figure.caption.116}{}}
\@writefile{lof}{\contentsline {figure}{\numberline {5.74}{\ignorespaces Sekundenpuls Erzeugung mit GPS-Empf\IeC {\"a}ngern \relax }}{112}{figure.caption.117}}
\newlabel{fig:GPS-1PPS}{{5.74}{112}{Sekundenpuls Erzeugung mit GPS-Empfängern \relax }{figure.caption.117}{}}
\@setckpt{56-frequency}{
\setcounter{page}{113}
\setcounter{equation}{0}
\setcounter{enumi}{12}
\setcounter{enumii}{0}
\setcounter{enumiii}{0}
\setcounter{enumiv}{0}
\setcounter{footnote}{0}
\setcounter{mpfootnote}{0}
\setcounter{part}{0}
\setcounter{chapter}{5}
\setcounter{section}{6}
\setcounter{subsection}{0}
\setcounter{subsubsection}{0}
\setcounter{paragraph}{0}
\setcounter{subparagraph}{0}
\setcounter{figure}{74}
\setcounter{table}{7}
\setcounter{ContinuedFloat}{0}
\setcounter{subfigure}{2}
\setcounter{subtable}{0}
\setcounter{Item}{55}
\setcounter{Hfootnote}{0}
\setcounter{bookmark@seq@number}{57}
\setcounter{float@type}{4}
\setcounter{section@level}{1}
}
