\relax 
\providecommand\hyper@newdestlabel[2]{}
\@writefile{toc}{\contentsline {chapter}{\numberline {6}Signal-Erzeugung}{113}{chapter.6}}
\@writefile{lof}{\addvspace {10\p@ }}
\@writefile{lot}{\addvspace {10\p@ }}
\newlabel{sec:generation}{{6}{113}{Signal-Erzeugung}{chapter.6}{}}
\@writefile{toc}{\contentsline {section}{\numberline {6.1}Frequenz-Erzeugung}{113}{section.6.1}}
\@writefile{toc}{\contentsline {section}{\numberline {6.2}Pulsweiten-Erzeugung}{113}{section.6.2}}
\@setckpt{60-generators}{
\setcounter{page}{114}
\setcounter{equation}{0}
\setcounter{enumi}{12}
\setcounter{enumii}{0}
\setcounter{enumiii}{0}
\setcounter{enumiv}{0}
\setcounter{footnote}{0}
\setcounter{mpfootnote}{0}
\setcounter{part}{0}
\setcounter{chapter}{6}
\setcounter{section}{2}
\setcounter{subsection}{0}
\setcounter{subsubsection}{0}
\setcounter{paragraph}{0}
\setcounter{subparagraph}{0}
\setcounter{figure}{0}
\setcounter{table}{0}
\setcounter{ContinuedFloat}{0}
\setcounter{subfigure}{2}
\setcounter{subtable}{0}
\setcounter{Item}{55}
\setcounter{Hfootnote}{0}
\setcounter{bookmark@seq@number}{60}
\setcounter{float@type}{4}
\setcounter{section@level}{1}
}
