\relax 
\providecommand\hyper@newdestlabel[2]{}
\@writefile{toc}{\contentsline {chapter}{\numberline {7}Bekannte Fehler und ungel\IeC {\"o}ste Probleme}{114}{chapter.7}}
\@writefile{lof}{\addvspace {10\p@ }}
\@writefile{lot}{\addvspace {10\p@ }}
\@setckpt{70-errors}{
\setcounter{page}{116}
\setcounter{equation}{0}
\setcounter{enumi}{10}
\setcounter{enumii}{0}
\setcounter{enumiii}{0}
\setcounter{enumiv}{0}
\setcounter{footnote}{0}
\setcounter{mpfootnote}{0}
\setcounter{part}{0}
\setcounter{chapter}{7}
\setcounter{section}{0}
\setcounter{subsection}{0}
\setcounter{subsubsection}{0}
\setcounter{paragraph}{0}
\setcounter{subparagraph}{0}
\setcounter{figure}{0}
\setcounter{table}{0}
\setcounter{ContinuedFloat}{0}
\setcounter{subfigure}{2}
\setcounter{subtable}{0}
\setcounter{Item}{65}
\setcounter{Hfootnote}{0}
\setcounter{bookmark@seq@number}{61}
\setcounter{float@type}{4}
\setcounter{section@level}{1}
}
