\relax 
\providecommand\hyper@newdestlabel[2]{}
\@writefile{toc}{\contentsline {chapter}{\numberline {3}Instructions for use}{35}{chapter.3}}
\@writefile{lof}{\addvspace {10\p@ }}
\@writefile{lot}{\addvspace {10\p@ }}
\newlabel{sec:manual}{{3}{35}{Instructions for use}{chapter.3}{}}
\@writefile{toc}{\contentsline {section}{\numberline {3.1}The measurement operation}{35}{section.3.1}}
\@writefile{toc}{\contentsline {section}{\numberline {3.2}Optional menu functions for the ATmega328}{36}{section.3.2}}
\@writefile{toc}{\contentsline {section}{\numberline {3.3}Selftest and Calibration}{38}{section.3.3}}
\@writefile{toc}{\contentsline {section}{\numberline {3.4}special using hints}{39}{section.3.4}}
\@writefile{toc}{\contentsline {section}{\numberline {3.5}Compoments with problems}{40}{section.3.5}}
\@writefile{toc}{\contentsline {section}{\numberline {3.6}Measurement of PNP and NPN transistors}{40}{section.3.6}}
\@writefile{toc}{\contentsline {section}{\numberline {3.7}Measurement of JFET and D-MOS transistors}{41}{section.3.7}}
\@writefile{toc}{\contentsline {section}{\numberline {3.8}Measurement of E-MOS transistors}{41}{section.3.8}}
\@setckpt{30-manual}{
\setcounter{page}{42}
\setcounter{equation}{0}
\setcounter{enumi}{2}
\setcounter{enumii}{0}
\setcounter{enumiii}{0}
\setcounter{enumiv}{0}
\setcounter{footnote}{0}
\setcounter{mpfootnote}{0}
\setcounter{part}{0}
\setcounter{chapter}{3}
\setcounter{section}{8}
\setcounter{subsection}{0}
\setcounter{subsubsection}{0}
\setcounter{paragraph}{0}
\setcounter{subparagraph}{0}
\setcounter{figure}{0}
\setcounter{table}{0}
\setcounter{ContinuedFloat}{0}
\setcounter{subfigure}{2}
\setcounter{subtable}{0}
\setcounter{Item}{38}
\setcounter{Hfootnote}{0}
\setcounter{bookmark@seq@number}{29}
\setcounter{float@type}{4}
\setcounter{section@level}{1}
}
