\relax 
\providecommand\hyper@newdestlabel[2]{}
\@writefile{toc}{\contentsline {section}{\numberline {5.6}Measurement of frequency}{110}{section.5.6}}
\newlabel{sec:frequency}{{5.6}{110}{Measurement of frequency}{section.5.6}{}}
\@writefile{lof}{\contentsline {figure}{\numberline {5.73}{\ignorespaces Relativ erros of frequency measurement\relax }}{110}{figure.caption.116}}
\newlabel{fig:freq-ppm}{{5.73}{110}{Relativ erros of frequency measurement\relax }{figure.caption.116}{}}
\@writefile{lof}{\contentsline {figure}{\numberline {5.74}{\ignorespaces Generation of a 1PPS signal with GPS receiver \relax }}{111}{figure.caption.117}}
\newlabel{fig:GPS-1PPS}{{5.74}{111}{Generation of a 1PPS signal with GPS receiver \relax }{figure.caption.117}{}}
\@setckpt{56-frequency}{
\setcounter{page}{112}
\setcounter{equation}{0}
\setcounter{enumi}{12}
\setcounter{enumii}{0}
\setcounter{enumiii}{0}
\setcounter{enumiv}{0}
\setcounter{footnote}{0}
\setcounter{mpfootnote}{0}
\setcounter{part}{0}
\setcounter{chapter}{5}
\setcounter{section}{6}
\setcounter{subsection}{0}
\setcounter{subsubsection}{0}
\setcounter{paragraph}{0}
\setcounter{subparagraph}{0}
\setcounter{figure}{74}
\setcounter{table}{7}
\setcounter{ContinuedFloat}{0}
\setcounter{subfigure}{2}
\setcounter{subtable}{0}
\setcounter{Item}{55}
\setcounter{Hfootnote}{0}
\setcounter{bookmark@seq@number}{57}
\setcounter{float@type}{4}
\setcounter{section@level}{1}
}
