%!PS-Adobe-2.0
%%Creator: dvips(k) 5.993 Copyright 2013 Radical Eye Software
%%Title: job-001.dvi
%%CreationDate: Mon Apr  6 22:22:42 2015
%%Pages: 1
%%PageOrder: Ascend
%%BoundingBox: 156 2685 561 3229
%%EndComments
%DVIPSWebPage: (www.radicaleye.com)
%DVIPSCommandLine: dvips job-001.dvi -o job-001.dvips.ps
%DVIPSParameters: dpi=600
%DVIPSSource:  TeX output 2015.04.06:2222
%%BeginProcSet: tex.pro 0 0
%!
/TeXDict 300 dict def TeXDict begin/N{def}def/B{bind def}N/S{exch}N/X{S
N}B/A{dup}B/TR{translate}N/isls false N/vsize 11 72 mul N/hsize 8.5 72
mul N/landplus90{false}def/@rigin{isls{[0 landplus90{1 -1}{-1 1}ifelse 0
0 0]concat}if 72 Resolution div 72 VResolution div neg scale isls{
landplus90{VResolution 72 div vsize mul 0 exch}{Resolution -72 div hsize
mul 0}ifelse TR}if Resolution VResolution vsize -72 div 1 add mul TR[
matrix currentmatrix{A A round sub abs 0.00001 lt{round}if}forall round
exch round exch]setmatrix}N/@landscape{/isls true N}B/@manualfeed{
statusdict/manualfeed true put}B/@copies{/#copies X}B/FMat[1 0 0 -1 0 0]
N/FBB[0 0 0 0]N/nn 0 N/IEn 0 N/ctr 0 N/df-tail{/nn 8 dict N nn begin
/FontType 3 N/FontMatrix fntrx N/FontBBox FBB N string/base X array
/BitMaps X/BuildChar{CharBuilder}N/Encoding IEn N end A{/foo setfont}2
array copy cvx N load 0 nn put/ctr 0 N[}B/sf 0 N/df{/sf 1 N/fntrx FMat N
df-tail}B/dfs{div/sf X/fntrx[sf 0 0 sf neg 0 0]N df-tail}B/E{pop nn A
definefont setfont}B/Cw{Cd A length 5 sub get}B/Ch{Cd A length 4 sub get
}B/Cx{128 Cd A length 3 sub get sub}B/Cy{Cd A length 2 sub get 127 sub}
B/Cdx{Cd A length 1 sub get}B/Ci{Cd A type/stringtype ne{ctr get/ctr ctr
1 add N}if}B/CharBuilder{save 3 1 roll S A/base get 2 index get S
/BitMaps get S get/Cd X pop/ctr 0 N Cdx 0 Cx Cy Ch sub Cx Cw add Cy
setcachedevice Cw Ch true[1 0 0 -1 -.1 Cx sub Cy .1 sub]{Ci}imagemask
restore}B/D{/cc X A type/stringtype ne{]}if nn/base get cc ctr put nn
/BitMaps get S ctr S sf 1 ne{A A length 1 sub A 2 index S get sf div put
}if put/ctr ctr 1 add N}B/I{cc 1 add D}B/bop{userdict/bop-hook known{
bop-hook}if/SI save N @rigin 0 0 moveto/V matrix currentmatrix A 1 get A
mul exch 0 get A mul add .99 lt{/QV}{/RV}ifelse load def pop pop}N/eop{
SI restore userdict/eop-hook known{eop-hook}if showpage}N/@start{
userdict/start-hook known{start-hook}if pop/VResolution X/Resolution X
1000 div/DVImag X/IEn 256 array N 2 string 0 1 255{IEn S A 360 add 36 4
index cvrs cvn put}for pop 65781.76 div/vsize X 65781.76 div/hsize X}N
/dir 0 def/dyy{/dir 0 def}B/dyt{/dir 1 def}B/dty{/dir 2 def}B/dtt{/dir 3
def}B/p{dir 2 eq{-90 rotate show 90 rotate}{dir 3 eq{-90 rotate show 90
rotate}{show}ifelse}ifelse}N/RMat[1 0 0 -1 0 0]N/BDot 260 string N/Rx 0
N/Ry 0 N/V{}B/RV/v{/Ry X/Rx X V}B statusdict begin/product where{pop
false[(Display)(NeXT)(LaserWriter 16/600)]{A length product length le{A
length product exch 0 exch getinterval eq{pop true exit}if}{pop}ifelse}
forall}{false}ifelse end{{gsave TR -.1 .1 TR 1 1 scale Rx Ry false RMat{
BDot}imagemask grestore}}{{gsave TR -.1 .1 TR Rx Ry scale 1 1 false RMat
{BDot}imagemask grestore}}ifelse B/QV{gsave newpath transform round exch
round exch itransform moveto Rx 0 rlineto 0 Ry neg rlineto Rx neg 0
rlineto fill grestore}B/a{moveto}B/delta 0 N/tail{A/delta X 0 rmoveto}B
/M{S p delta add tail}B/b{S p tail}B/c{-4 M}B/d{-3 M}B/e{-2 M}B/f{-1 M}
B/g{0 M}B/h{1 M}B/i{2 M}B/j{3 M}B/k{4 M}B/w{0 rmoveto}B/l{p -4 w}B/m{p
-3 w}B/n{p -2 w}B/o{p -1 w}B/q{p 1 w}B/r{p 2 w}B/s{p 3 w}B/t{p 4 w}B/x{
0 S rmoveto}B/y{3 2 roll p a}B/bos{/SS save N}B/eos{SS restore}B end

%%EndProcSet
%%BeginProcSet: special.pro 0 0
%!
TeXDict begin/SDict 200 dict N SDict begin/@SpecialDefaults{/hs 612 N
/vs 792 N/ho 0 N/vo 0 N/hsc 1 N/vsc 1 N/ang 0 N/CLIP 0 N/rwiSeen false N
/rhiSeen false N/letter{}N/note{}N/a4{}N/legal{}N}B/@scaleunit 100 N
/@hscale{@scaleunit div/hsc X}B/@vscale{@scaleunit div/vsc X}B/@hsize{
/hs X/CLIP 1 N}B/@vsize{/vs X/CLIP 1 N}B/@clip{/CLIP 2 N}B/@hoffset{/ho
X}B/@voffset{/vo X}B/@angle{/ang X}B/@rwi{10 div/rwi X/rwiSeen true N}B
/@rhi{10 div/rhi X/rhiSeen true N}B/@llx{/llx X}B/@lly{/lly X}B/@urx{
/urx X}B/@ury{/ury X}B/magscale true def end/@MacSetUp{userdict/md known
{userdict/md get type/dicttype eq{userdict begin md length 10 add md
maxlength ge{/md md dup length 20 add dict copy def}if end md begin
/letter{}N/note{}N/legal{}N/od{txpose 1 0 mtx defaultmatrix dtransform S
atan/pa X newpath clippath mark{transform{itransform moveto}}{transform{
itransform lineto}}{6 -2 roll transform 6 -2 roll transform 6 -2 roll
transform{itransform 6 2 roll itransform 6 2 roll itransform 6 2 roll
curveto}}{{closepath}}pathforall newpath counttomark array astore/gc xdf
pop ct 39 0 put 10 fz 0 fs 2 F/|______Courier fnt invertflag{PaintBlack}
if}N/txpose{pxs pys scale ppr aload pop por{noflips{pop S neg S TR pop 1
-1 scale}if xflip yflip and{pop S neg S TR 180 rotate 1 -1 scale ppr 3
get ppr 1 get neg sub neg ppr 2 get ppr 0 get neg sub neg TR}if xflip
yflip not and{pop S neg S TR pop 180 rotate ppr 3 get ppr 1 get neg sub
neg 0 TR}if yflip xflip not and{ppr 1 get neg ppr 0 get neg TR}if}{
noflips{TR pop pop 270 rotate 1 -1 scale}if xflip yflip and{TR pop pop
90 rotate 1 -1 scale ppr 3 get ppr 1 get neg sub neg ppr 2 get ppr 0 get
neg sub neg TR}if xflip yflip not and{TR pop pop 90 rotate ppr 3 get ppr
1 get neg sub neg 0 TR}if yflip xflip not and{TR pop pop 270 rotate ppr
2 get ppr 0 get neg sub neg 0 S TR}if}ifelse scaleby96{ppr aload pop 4
-1 roll add 2 div 3 1 roll add 2 div 2 copy TR .96 dup scale neg S neg S
TR}if}N/cp{pop pop showpage pm restore}N end}if}if}N/normalscale{
Resolution 72 div VResolution 72 div neg scale magscale{DVImag dup scale
}if 0 setgray}N/psfts{S 65781.76 div N}N/startTexFig{/psf$SavedState
save N userdict maxlength dict begin/magscale true def normalscale
currentpoint TR/psf$ury psfts/psf$urx psfts/psf$lly psfts/psf$llx psfts
/psf$y psfts/psf$x psfts currentpoint/psf$cy X/psf$cx X/psf$sx psf$x
psf$urx psf$llx sub div N/psf$sy psf$y psf$ury psf$lly sub div N psf$sx
psf$sy scale psf$cx psf$sx div psf$llx sub psf$cy psf$sy div psf$ury sub
TR/showpage{}N/erasepage{}N/setpagedevice{pop}N/copypage{}N/p 3 def
@MacSetUp}N/doclip{psf$llx psf$lly psf$urx psf$ury currentpoint 6 2 roll
newpath 4 copy 4 2 roll moveto 6 -1 roll S lineto S lineto S lineto
closepath clip newpath moveto}N/endTexFig{end psf$SavedState restore}N
/@beginspecial{SDict begin/SpecialSave save N gsave normalscale
currentpoint TR @SpecialDefaults count/ocount X/dcount countdictstack N}
N/@setspecial{CLIP 1 eq{newpath 0 0 moveto hs 0 rlineto 0 vs rlineto hs
neg 0 rlineto closepath clip}if ho vo TR hsc vsc scale ang rotate
rwiSeen{rwi urx llx sub div rhiSeen{rhi ury lly sub div}{dup}ifelse
scale llx neg lly neg TR}{rhiSeen{rhi ury lly sub div dup scale llx neg
lly neg TR}if}ifelse CLIP 2 eq{newpath llx lly moveto urx lly lineto urx
ury lineto llx ury lineto closepath clip}if/showpage{}N/erasepage{}N
/setpagedevice{pop}N/copypage{}N newpath}N/@endspecial{count ocount sub{
pop}repeat countdictstack dcount sub{end}repeat grestore SpecialSave
restore end}N/@defspecial{SDict begin}N/@fedspecial{end}B/li{lineto}B
/rl{rlineto}B/rc{rcurveto}B/np{/SaveX currentpoint/SaveY X N 1
setlinecap newpath}N/st{stroke SaveX SaveY moveto}N/fil{fill SaveX SaveY
moveto}N/ellipse{/endangle X/startangle X/yrad X/xrad X/savematrix
matrix currentmatrix N TR xrad yrad scale 0 0 1 startangle endangle arc
savematrix setmatrix}N end

%%EndProcSet
%%BeginProcSet: color.pro 0 0
%!
TeXDict begin/setcmykcolor where{pop}{/setcmykcolor{dup 10 eq{pop
setrgbcolor}{1 sub 4 1 roll 3{3 index add neg dup 0 lt{pop 0}if 3 1 roll
}repeat setrgbcolor pop}ifelse}B}ifelse/TeXcolorcmyk{setcmykcolor}def
/TeXcolorrgb{setrgbcolor}def/TeXcolorgrey{setgray}def/TeXcolorgray{
setgray}def/TeXcolorhsb{sethsbcolor}def/currentcmykcolor where{pop}{
/currentcmykcolor{currentrgbcolor 10}B}ifelse/DC{exch dup userdict exch
known{pop pop}{X}ifelse}B/GreenYellow{0.15 0 0.69 0 setcmykcolor}DC
/Yellow{0 0 1 0 setcmykcolor}DC/Goldenrod{0 0.10 0.84 0 setcmykcolor}DC
/Dandelion{0 0.29 0.84 0 setcmykcolor}DC/Apricot{0 0.32 0.52 0
setcmykcolor}DC/Peach{0 0.50 0.70 0 setcmykcolor}DC/Melon{0 0.46 0.50 0
setcmykcolor}DC/YellowOrange{0 0.42 1 0 setcmykcolor}DC/Orange{0 0.61
0.87 0 setcmykcolor}DC/BurntOrange{0 0.51 1 0 setcmykcolor}DC
/Bittersweet{0 0.75 1 0.24 setcmykcolor}DC/RedOrange{0 0.77 0.87 0
setcmykcolor}DC/Mahogany{0 0.85 0.87 0.35 setcmykcolor}DC/Maroon{0 0.87
0.68 0.32 setcmykcolor}DC/BrickRed{0 0.89 0.94 0.28 setcmykcolor}DC/Red{
0 1 1 0 setcmykcolor}DC/OrangeRed{0 1 0.50 0 setcmykcolor}DC/RubineRed{
0 1 0.13 0 setcmykcolor}DC/WildStrawberry{0 0.96 0.39 0 setcmykcolor}DC
/Salmon{0 0.53 0.38 0 setcmykcolor}DC/CarnationPink{0 0.63 0 0
setcmykcolor}DC/Magenta{0 1 0 0 setcmykcolor}DC/VioletRed{0 0.81 0 0
setcmykcolor}DC/Rhodamine{0 0.82 0 0 setcmykcolor}DC/Mulberry{0.34 0.90
0 0.02 setcmykcolor}DC/RedViolet{0.07 0.90 0 0.34 setcmykcolor}DC
/Fuchsia{0.47 0.91 0 0.08 setcmykcolor}DC/Lavender{0 0.48 0 0
setcmykcolor}DC/Thistle{0.12 0.59 0 0 setcmykcolor}DC/Orchid{0.32 0.64 0
0 setcmykcolor}DC/DarkOrchid{0.40 0.80 0.20 0 setcmykcolor}DC/Purple{
0.45 0.86 0 0 setcmykcolor}DC/Plum{0.50 1 0 0 setcmykcolor}DC/Violet{
0.79 0.88 0 0 setcmykcolor}DC/RoyalPurple{0.75 0.90 0 0 setcmykcolor}DC
/BlueViolet{0.86 0.91 0 0.04 setcmykcolor}DC/Periwinkle{0.57 0.55 0 0
setcmykcolor}DC/CadetBlue{0.62 0.57 0.23 0 setcmykcolor}DC
/CornflowerBlue{0.65 0.13 0 0 setcmykcolor}DC/MidnightBlue{0.98 0.13 0
0.43 setcmykcolor}DC/NavyBlue{0.94 0.54 0 0 setcmykcolor}DC/RoyalBlue{1
0.50 0 0 setcmykcolor}DC/Blue{1 1 0 0 setcmykcolor}DC/Cerulean{0.94 0.11
0 0 setcmykcolor}DC/Cyan{1 0 0 0 setcmykcolor}DC/ProcessBlue{0.96 0 0 0
setcmykcolor}DC/SkyBlue{0.62 0 0.12 0 setcmykcolor}DC/Turquoise{0.85 0
0.20 0 setcmykcolor}DC/TealBlue{0.86 0 0.34 0.02 setcmykcolor}DC
/Aquamarine{0.82 0 0.30 0 setcmykcolor}DC/BlueGreen{0.85 0 0.33 0
setcmykcolor}DC/Emerald{1 0 0.50 0 setcmykcolor}DC/JungleGreen{0.99 0
0.52 0 setcmykcolor}DC/SeaGreen{0.69 0 0.50 0 setcmykcolor}DC/Green{1 0
1 0 setcmykcolor}DC/ForestGreen{0.91 0 0.88 0.12 setcmykcolor}DC
/PineGreen{0.92 0 0.59 0.25 setcmykcolor}DC/LimeGreen{0.50 0 1 0
setcmykcolor}DC/YellowGreen{0.44 0 0.74 0 setcmykcolor}DC/SpringGreen{
0.26 0 0.76 0 setcmykcolor}DC/OliveGreen{0.64 0 0.95 0.40 setcmykcolor}
DC/RawSienna{0 0.72 1 0.45 setcmykcolor}DC/Sepia{0 0.83 1 0.70
setcmykcolor}DC/Brown{0 0.81 1 0.60 setcmykcolor}DC/Tan{0.14 0.42 0.56 0
setcmykcolor}DC/Gray{0 0 0 0.50 setcmykcolor}DC/Black{0 0 0 1
setcmykcolor}DC/White{0 0 0 0 setcmykcolor}DC end

%%EndProcSet
TeXDict begin 156819571 221710428 1000 600 600 (job-001.dvi)
@start end
%%EndProlog
%%BeginSetup
%%Feature: *Resolution 600dpi
TeXDict begin
 end
%%EndSetup
%%Page: 1 1
TeXDict begin 1 0 bop Black Black 706 5106 a @beginspecial
0 @llx 0 @lly 405 @urx 543 @ury 4050 @rwi @setspecial
%%BeginDocument: job-001.fig2dev.ps
%!PS-Adobe-3.0 EPSF-3.0
%%Title: job-001.fig
%%Creator: fig2dev Version 3.2 Patchlevel 5e
%%CreationDate: Mon Apr  6 22:22:42 2015
%%BoundingBox: 156 2685 561 3229
%Magnification: 1.0000
%%EndComments
%%BeginProlog
/$F2psDict 200 dict def
$F2psDict begin
$F2psDict /mtrx matrix put
/col-1 {0 setgray} bind def
/col0 {0.000 0.000 0.000 srgb} bind def
/col1 {0.000 0.000 1.000 srgb} bind def
/col2 {0.000 1.000 0.000 srgb} bind def
/col3 {0.000 1.000 1.000 srgb} bind def
/col4 {1.000 0.000 0.000 srgb} bind def
/col5 {1.000 0.000 1.000 srgb} bind def
/col6 {1.000 1.000 0.000 srgb} bind def
/col7 {1.000 1.000 1.000 srgb} bind def
/col8 {0.000 0.000 0.560 srgb} bind def
/col9 {0.000 0.000 0.690 srgb} bind def
/col10 {0.000 0.000 0.820 srgb} bind def
/col11 {0.530 0.810 1.000 srgb} bind def
/col12 {0.000 0.560 0.000 srgb} bind def
/col13 {0.000 0.690 0.000 srgb} bind def
/col14 {0.000 0.820 0.000 srgb} bind def
/col15 {0.000 0.560 0.560 srgb} bind def
/col16 {0.000 0.690 0.690 srgb} bind def
/col17 {0.000 0.820 0.820 srgb} bind def
/col18 {0.560 0.000 0.000 srgb} bind def
/col19 {0.690 0.000 0.000 srgb} bind def
/col20 {0.820 0.000 0.000 srgb} bind def
/col21 {0.560 0.000 0.560 srgb} bind def
/col22 {0.690 0.000 0.690 srgb} bind def
/col23 {0.820 0.000 0.820 srgb} bind def
/col24 {0.500 0.190 0.000 srgb} bind def
/col25 {0.630 0.250 0.000 srgb} bind def
/col26 {0.750 0.380 0.000 srgb} bind def
/col27 {1.000 0.500 0.500 srgb} bind def
/col28 {1.000 0.630 0.630 srgb} bind def
/col29 {1.000 0.750 0.750 srgb} bind def
/col30 {1.000 0.880 0.880 srgb} bind def
/col31 {1.000 0.840 0.000 srgb} bind def
/col32 {0.255 0.271 0.255 srgb} bind def
/col33 {0.753 0.753 0.753 srgb} bind def
/col34 {0.776 0.718 0.592 srgb} bind def
/col35 {0.937 0.973 1.000 srgb} bind def
/col36 {0.502 0.502 0.502 srgb} bind def
/col37 {0.878 0.878 0.878 srgb} bind def
/col38 {0.557 0.561 0.557 srgb} bind def
/col39 {0.667 0.667 0.667 srgb} bind def
/col40 {0.333 0.333 0.333 srgb} bind def
/col41 {0.251 0.251 0.251 srgb} bind def
/col42 {0.863 0.796 0.651 srgb} bind def
/col43 {0.780 0.765 0.780 srgb} bind def
/col44 {0.337 0.318 0.318 srgb} bind def
/col45 {0.557 0.557 0.557 srgb} bind def
/col46 {0.843 0.843 0.843 srgb} bind def
/col47 {0.522 0.502 0.490 srgb} bind def
/col48 {0.824 0.824 0.824 srgb} bind def
/col49 {0.227 0.227 0.227 srgb} bind def
/col50 {0.271 0.451 0.667 srgb} bind def
/col51 {0.682 0.682 0.682 srgb} bind def
/col52 {0.482 0.475 0.647 srgb} bind def
/col53 {0.267 0.267 0.267 srgb} bind def
/col54 {0.451 0.459 0.549 srgb} bind def
/col55 {0.969 0.969 0.969 srgb} bind def
/col56 {0.388 0.365 0.808 srgb} bind def
/col57 {0.745 0.745 0.745 srgb} bind def
/col58 {0.318 0.318 0.318 srgb} bind def
/col59 {0.906 0.890 0.906 srgb} bind def
/col60 {0.000 0.000 0.286 srgb} bind def
/col61 {0.475 0.475 0.475 srgb} bind def
/col62 {0.188 0.204 0.188 srgb} bind def
/col63 {0.255 0.255 0.255 srgb} bind def
/col64 {0.780 0.714 0.588 srgb} bind def
/col65 {0.761 0.761 0.761 srgb} bind def
/col66 {0.431 0.431 0.431 srgb} bind def
/col67 {0.443 0.443 0.443 srgb} bind def
/col68 {0.200 0.200 0.200 srgb} bind def
/col69 {0.580 0.576 0.584 srgb} bind def
/col70 {0.455 0.439 0.459 srgb} bind def
/col71 {0.702 0.702 0.702 srgb} bind def
/col72 {0.765 0.765 0.765 srgb} bind def
/col73 {0.427 0.427 0.427 srgb} bind def
/col74 {0.271 0.271 0.271 srgb} bind def
/col75 {0.612 0.000 0.000 srgb} bind def
/col76 {0.549 0.549 0.549 srgb} bind def
/col77 {0.259 0.259 0.259 srgb} bind def
/col78 {0.549 0.549 0.549 srgb} bind def
/col79 {0.259 0.259 0.259 srgb} bind def
/col80 {0.549 0.549 0.549 srgb} bind def
/col81 {0.259 0.259 0.259 srgb} bind def
/col82 {0.549 0.549 0.549 srgb} bind def
/col83 {0.259 0.259 0.259 srgb} bind def
/col84 {0.549 0.549 0.549 srgb} bind def
/col85 {0.259 0.259 0.259 srgb} bind def
/col86 {0.549 0.549 0.549 srgb} bind def
/col87 {0.259 0.259 0.259 srgb} bind def

end

/cp {closepath} bind def
/ef {eofill} bind def
/gr {grestore} bind def
/gs {gsave} bind def
/sa {save} bind def
/rs {restore} bind def
/l {lineto} bind def
/m {moveto} bind def
/rm {rmoveto} bind def
/n {newpath} bind def
/s {stroke} bind def
/sh {show} bind def
/slc {setlinecap} bind def
/slj {setlinejoin} bind def
/slw {setlinewidth} bind def
/srgb {setrgbcolor} bind def
/rot {rotate} bind def
/sc {scale} bind def
/sd {setdash} bind def
/ff {findfont} bind def
/sf {setfont} bind def
/scf {scalefont} bind def
/sw {stringwidth} bind def
/tr {translate} bind def
/tnt {dup dup currentrgbcolor
  4 -2 roll dup 1 exch sub 3 -1 roll mul add
  4 -2 roll dup 1 exch sub 3 -1 roll mul add
  4 -2 roll dup 1 exch sub 3 -1 roll mul add srgb}
  bind def
/shd {dup dup currentrgbcolor 4 -2 roll mul 4 -2 roll mul
  4 -2 roll mul srgb} bind def
 /DrawEllipse {
	/endangle exch def
	/startangle exch def
	/yrad exch def
	/xrad exch def
	/y exch def
	/x exch def
	/savematrix mtrx currentmatrix def
	x y tr xrad yrad sc 0 0 1 startangle endangle arc
	closepath
	savematrix setmatrix
	} def

/$F2psBegin {$F2psDict begin /$F2psEnteredState save def} def
/$F2psEnd {$F2psEnteredState restore end} def

/pageheader {
save
newpath 0 543 moveto 0 0 lineto 405 0 lineto 405 543 lineto closepath clip newpath
-24.8 554.3 translate
1 -1 scale
$F2psBegin
10 setmiterlimit
0 slj 0 slc
 0.06299 0.06299 sc
} bind def
/pagefooter {
$F2psEnd
restore
} bind def
%%EndProlog
pageheader
%
% Fig objects follow
%
% 
% here starts figure with depth 50
% Polyline
0 slj
0 slc
7.500 slw
n 720 4590 m
 900 4590 l gs col0 s gr 
% Polyline
n 2025 4590 m
 1800 4590 l gs col0 s gr 
% Polyline
n 2925 4590 m
 2700 4590 l gs col0 s gr 
% Polyline
gs  clippath
1023 4620 m 1140 4620 l 1140 4560 l 1023 4560 l 1023 4560 l 1113 4590 l 1023 4620 l cp
eoclip
n 900 4590 m 1080 4590 l
 1125 4590 l gs col0 s gr gr

% arrowhead
n 1023 4620 m 1113 4590 l 1023 4560 l 993 4590 l 1023 4620 l 
 cp gs 0.00 setgray ef gr  col0 s
% Polyline
n 4275 4590 m
 4500 4590 l gs col0 s gr 
% Polyline
n 5625 4590 m
 5400 4590 l gs col0 s gr 
% Polyline
n 6480 4590 m
 6300 4590 l gs col0 s gr 
% Polyline
gs  clippath
4623 4620 m 4740 4620 l 4740 4560 l 4623 4560 l 4623 4560 l 4713 4590 l 4623 4620 l cp
eoclip
n 4500 4590 m 4680 4590 l
 4725 4590 l gs col0 s gr gr

% arrowhead
n 4623 4620 m 4713 4590 l 4623 4560 l 4593 4590 l 4623 4620 l 
 cp gs 0.00 setgray ef gr  col0 s
% Polyline
n 4500 5040 m
 4500 5490 l gs col0 s gr 
% Polyline
n 6300 5490 m
 4500 5490 l gs col0 s gr 
% Polyline
n 900 5040 m
 900 5490 l gs col0 s gr 
% Polyline
n 900 5490 m
 2700 5490 l gs col0 s gr 
% Polyline
n 2925 5490 m
 2700 5490 l gs col0 s gr 
% Polyline
n 4275 5490 m
 4500 5490 l gs col0 s gr 
% Polyline
n 720 3600 m
 6120 3600 l gs col0 s gr 
% Polyline
n 1980 3600 m
 1980 3510 l gs col0 s gr 
% Polyline
n 2880 3600 m
 2880 3510 l gs col0 s gr 
% Polyline
n 4680 3600 m
 4680 3510 l gs col0 s gr 
% Polyline
n 5580 3600 m
 5580 3510 l gs col0 s gr 
% Polyline
n 3690 5490 m
 3825 5490 l gs col0 s gr 
% Polyline
n 720 1575 m
 900 1575 l gs col0 s gr 
% Polyline
n 2025 1575 m
 1800 1575 l gs col0 s gr 
% Polyline
n 2925 1575 m
 2700 1575 l gs col0 s gr 
% Polyline
gs  clippath
1023 1605 m 1140 1605 l 1140 1545 l 1023 1545 l 1023 1545 l 1113 1575 l 1023 1605 l cp
eoclip
n 900 1575 m 1080 1575 l
 1125 1575 l gs col0 s gr gr

% arrowhead
n 1023 1605 m 1113 1575 l 1023 1545 l 993 1575 l 1023 1605 l 
 cp gs 0.00 setgray ef gr  col0 s
% Polyline
n 4275 1575 m
 4500 1575 l gs col0 s gr 
% Polyline
n 5625 1575 m
 5400 1575 l gs col0 s gr 
% Polyline
n 6480 1575 m
 6300 1575 l gs col0 s gr 
% Polyline
gs  clippath
4623 1605 m 4740 1605 l 4740 1545 l 4623 1545 l 4623 1545 l 4713 1575 l 4623 1605 l cp
eoclip
n 4500 1575 m 4680 1575 l
 4725 1575 l gs col0 s gr gr

% arrowhead
n 4623 1605 m 4713 1575 l 4623 1545 l 4593 1575 l 4623 1605 l 
 cp gs 0.00 setgray ef gr  col0 s
% Polyline
n 4500 2025 m
 4500 2475 l gs col0 s gr 
% Polyline
n 6300 2475 m
 4500 2475 l gs col0 s gr 
% Polyline
n 900 2025 m
 900 2475 l gs col0 s gr 
% Polyline
n 900 2475 m
 2700 2475 l gs col0 s gr 
% Polyline
n 2925 2475 m
 2700 2475 l gs col0 s gr 
% Polyline
n 4275 2475 m
 4500 2475 l gs col0 s gr 
% Polyline
n 720 585 m
 6120 585 l gs col0 s gr 
% Polyline
n 1980 585 m
 1980 495 l gs col0 s gr 
% Polyline
n 2880 585 m
 2880 495 l gs col0 s gr 
% Polyline
n 4680 585 m
 4680 495 l gs col0 s gr 
% Polyline
n 5580 585 m
 5580 495 l gs col0 s gr 
% Polyline
n 3690 2475 m
 3825 2475 l gs col0 s gr 
% Polyline
n 720 7515 m
 900 7515 l gs col0 s gr 
% Polyline
n 2025 7515 m
 1800 7515 l gs col0 s gr 
% Polyline
n 2925 7515 m
 2700 7515 l gs col0 s gr 
% Polyline
gs  clippath
1023 7545 m 1140 7545 l 1140 7485 l 1023 7485 l 1023 7485 l 1113 7515 l 1023 7545 l cp
eoclip
n 900 7515 m 1080 7515 l
 1125 7515 l gs col0 s gr gr

% arrowhead
n 1023 7545 m 1113 7515 l 1023 7485 l 993 7515 l 1023 7545 l 
 cp gs 0.00 setgray ef gr  col0 s
% Polyline
n 4275 7515 m
 4500 7515 l gs col0 s gr 
% Polyline
n 5625 7515 m
 5400 7515 l gs col0 s gr 
% Polyline
n 6480 7515 m
 6300 7515 l gs col0 s gr 
% Polyline
gs  clippath
4623 7545 m 4740 7545 l 4740 7485 l 4623 7485 l 4623 7485 l 4713 7515 l 4623 7545 l cp
eoclip
n 4500 7515 m 4680 7515 l
 4725 7515 l gs col0 s gr gr

% arrowhead
n 4623 7545 m 4713 7515 l 4623 7485 l 4593 7515 l 4623 7545 l 
 cp gs 0.00 setgray ef gr  col0 s
% Polyline
n 4500 7965 m
 4500 8415 l gs col0 s gr 
% Polyline
n 6300 8415 m
 4500 8415 l gs col0 s gr 
% Polyline
n 900 7965 m
 900 8415 l gs col0 s gr 
% Polyline
n 900 8415 m
 2700 8415 l gs col0 s gr 
% Polyline
n 2925 8415 m
 2700 8415 l gs col0 s gr 
% Polyline
n 4275 8415 m
 4500 8415 l gs col0 s gr 
% Polyline
n 720 6525 m
 6120 6525 l gs col0 s gr 
% Polyline
n 1980 6525 m
 1980 6435 l gs col0 s gr 
% Polyline
n 2880 6525 m
 2880 6435 l gs col0 s gr 
% Polyline
n 4680 6525 m
 4680 6435 l gs col0 s gr 
% Polyline
n 5580 6525 m
 5580 6435 l gs col0 s gr 
% Polyline
n 3690 8415 m
 3825 8415 l gs col0 s gr 
% Polyline
n 1080 6525 m 1080 6435 l 6480 6435 l
 6480 6525 l gs col0 s gr 
% Polyline
n 1080 3600 m 1080 3510 l 6480 3510 l
 6480 3600 l gs col0 s gr 
% Polyline
n 1080 585 m 1080 495 l 6480 495 l
 6480 585 l gs col0 s gr 
/Times-Bold ff 150.00 scf sf
945 4950 m
gs 1 -1 sc (PC0) col4 sh gr
/Times-Roman ff 120.00 scf sf
1845 4950 m
gs 1 -1 sc (PB0) col0 sh gr
/Times-Roman ff 120.00 scf sf
1035 4725 m
gs 1 -1 sc (ADCMUX) col0 sh gr
/Times-Roman ff 120.00 scf sf
4545 4950 m
gs 1 -1 sc (PC2) col0 sh gr
/Times-Roman ff 120.00 scf sf
4635 4725 m
gs 1 -1 sc (ADCMUX) col0 sh gr
/Times-Roman ff 120.00 scf sf
6345 4950 m
gs 1 -1 sc (PB5) col0 sh gr
/Times-Bold ff 150.00 scf sf
5445 4950 m
gs 1 -1 sc (PB4) col4 sh gr
/Times-Roman ff 120.00 scf sf
2745 4950 m
gs 1 -1 sc (PB1) col0 sh gr
/Times-Bold ff 150.00 scf sf
630 3825 m
gs 1 -1 sc  90.0 rot (19) dup sw pop 2 div neg 0 rm  col4 sh gr
/Times-Roman ff 120.00 scf sf
990 3825 m
gs 1 -1 sc  90.0 rot (22) dup sw pop 2 div neg 0 rm  col0 sh gr
/Times-Roman ff 120.00 scf sf
1530 3825 m
gs 1 -1 sc  90.0 rot (19) dup sw pop 2 div neg 0 rm  col0 sh gr
/Times-Roman ff 120.00 scf sf
1890 3825 m
gs 1 -1 sc  90.0 rot (22) dup sw pop 2 div neg 0 rm  col0 sh gr
/Times-Roman ff 120.00 scf sf
2430 3825 m
gs 1 -1 sc  90.0 rot (19) dup sw pop 2 div neg 0 rm  col0 sh gr
/Times-Roman ff 120.00 scf sf
2790 3825 m
gs 1 -1 sc  90.0 rot (22) dup sw pop 2 div neg 0 rm  col0 sh gr
/Times-Roman ff 120.00 scf sf
4230 3825 m
gs 1 -1 sc  90.0 rot (19) dup sw pop 2 div neg 0 rm  col0 sh gr
/Times-Roman ff 120.00 scf sf
4590 3825 m
gs 1 -1 sc  90.0 rot (22) dup sw pop 2 div neg 0 rm  col0 sh gr
/Times-Roman ff 135.00 scf sf
5130 3825 m
gs 1 -1 sc  90.0 rot (19) dup sw pop 2 div neg 0 rm  col0 sh gr
/Times-Bold ff 150.00 scf sf
5490 3825 m
gs 1 -1 sc  90.0 rot (22) dup sw pop 2 div neg 0 rm  col4 sh gr
/Times-Roman ff 120.00 scf sf
6030 3825 m
gs 1 -1 sc  90.0 rot (19) dup sw pop 2 div neg 0 rm  col0 sh gr
/Times-Roman ff 120.00 scf sf
6390 3825 m
gs 1 -1 sc  90.0 rot (22) dup sw pop 2 div neg 0 rm  col0 sh gr
/Times-Roman ff 120.00 scf sf
1710 5265 m
gs 1 -1 sc  90.0 rot (680) dup sw pop 2 div neg 0 rm  col0 sh gr
/Times-Roman ff 120.00 scf sf
2610 5265 m
gs 1 -1 sc  90.0 rot (470k) dup sw pop 2 div neg 0 rm  col0 sh gr
/Times-Roman ff 150.00 scf sf
3150 5400 m
gs 1 -1 sc (TP1) dup sw pop 2 div neg 0 rm  col0 sh gr
/Times-Roman ff 150.00 scf sf
4050 5400 m
gs 1 -1 sc (TP3) dup sw pop 2 div neg 0 rm  col0 sh gr
/Times-Bold ff 150.00 scf sf
5310 5265 m
gs 1 -1 sc  90.0 rot (680) dup sw pop 2 div neg 0 rm  col4 sh gr
/Times-Roman ff 120.00 scf sf
6210 5265 m
gs 1 -1 sc  90.0 rot (470k) dup sw pop 2 div neg 0 rm  col0 sh gr
/Helvetica ff 90.00 scf sf
3510 3960 m
gs 1 -1 sc (GND) dup sw pop 2 div neg 0 rm  col0 sh gr
/Times-Bold ff 180.00 scf sf
3510 5310 m
gs 1 -1 sc (Cx) dup sw pop 2 div neg 0 rm  col0 sh gr
/Times-Bold ff 150.00 scf sf
945 1935 m
gs 1 -1 sc (PC0) col4 sh gr
/Times-Bold ff 150.00 scf sf
1845 1935 m
gs 1 -1 sc (PB0) col4 sh gr
/Times-Roman ff 120.00 scf sf
1035 1710 m
gs 1 -1 sc (ADCMUX) col0 sh gr
/Times-Bold ff 150.00 scf sf
4545 1935 m
gs 1 -1 sc (PC2) col4 sh gr
/Times-Roman ff 120.00 scf sf
4635 1710 m
gs 1 -1 sc (ADCMUX) col0 sh gr
/Times-Roman ff 120.00 scf sf
6345 1935 m
gs 1 -1 sc (PB5) col0 sh gr
/Times-Bold ff 150.00 scf sf
5445 1935 m
gs 1 -1 sc (PB4) col4 sh gr
/Times-Roman ff 120.00 scf sf
2745 1935 m
gs 1 -1 sc (PB1) col0 sh gr
/Times-Bold ff 150.00 scf sf
630 810 m
gs 1 -1 sc  90.0 rot (19) dup sw pop 2 div neg 0 rm  col4 sh gr
/Times-Roman ff 120.00 scf sf
990 810 m
gs 1 -1 sc  90.0 rot (22) dup sw pop 2 div neg 0 rm  col0 sh gr
/Times-Roman ff 120.00 scf sf
1890 810 m
gs 1 -1 sc  90.0 rot (22) dup sw pop 2 div neg 0 rm  col0 sh gr
/Times-Roman ff 120.00 scf sf
2430 810 m
gs 1 -1 sc  90.0 rot (19) dup sw pop 2 div neg 0 rm  col0 sh gr
/Times-Roman ff 120.00 scf sf
2790 810 m
gs 1 -1 sc  90.0 rot (22) dup sw pop 2 div neg 0 rm  col0 sh gr
/Times-Bold ff 150.00 scf sf
4230 810 m
gs 1 -1 sc  90.0 rot (19) dup sw pop 2 div neg 0 rm  col4 sh gr
/Times-Roman ff 120.00 scf sf
4590 810 m
gs 1 -1 sc  90.0 rot (22) dup sw pop 2 div neg 0 rm  col0 sh gr
/Times-Bold ff 150.00 scf sf
5130 810 m
gs 1 -1 sc  90.0 rot (19) dup sw pop 2 div neg 0 rm  col4 sh gr
/Times-Roman ff 120.00 scf sf
5490 810 m
gs 1 -1 sc  90.0 rot (22) dup sw pop 2 div neg 0 rm  col0 sh gr
/Times-Roman ff 120.00 scf sf
6030 810 m
gs 1 -1 sc  90.0 rot (19) dup sw pop 2 div neg 0 rm  col0 sh gr
/Times-Roman ff 120.00 scf sf
6390 810 m
gs 1 -1 sc  90.0 rot (22) dup sw pop 2 div neg 0 rm  col0 sh gr
/Times-Bold ff 150.00 scf sf
1710 2250 m
gs 1 -1 sc  90.0 rot (680) dup sw pop 2 div neg 0 rm  col4 sh gr
/Times-Roman ff 120.00 scf sf
2610 2250 m
gs 1 -1 sc  90.0 rot (470k) dup sw pop 2 div neg 0 rm  col0 sh gr
/Times-Roman ff 150.00 scf sf
3150 2385 m
gs 1 -1 sc (TP1) dup sw pop 2 div neg 0 rm  col0 sh gr
/Times-Roman ff 150.00 scf sf
4050 2385 m
gs 1 -1 sc (TP3) dup sw pop 2 div neg 0 rm  col0 sh gr
/Times-Bold ff 150.00 scf sf
5310 2250 m
gs 1 -1 sc  90.0 rot (680) dup sw pop 2 div neg 0 rm  col4 sh gr
/Times-Roman ff 120.00 scf sf
6210 2250 m
gs 1 -1 sc  90.0 rot (470k) dup sw pop 2 div neg 0 rm  col0 sh gr
/Helvetica ff 90.00 scf sf
3510 945 m
gs 1 -1 sc (GND) dup sw pop 2 div neg 0 rm  col0 sh gr
/Times-Bold ff 180.00 scf sf
3510 2295 m
gs 1 -1 sc (Cx) dup sw pop 2 div neg 0 rm  col0 sh gr
/Times-Bold ff 150.00 scf sf
945 7875 m
gs 1 -1 sc (PC0) col0 sh gr
/Times-Roman ff 120.00 scf sf
1845 7875 m
gs 1 -1 sc (PB0) col0 sh gr
/Times-Roman ff 120.00 scf sf
1035 7650 m
gs 1 -1 sc (ADCMUX) col0 sh gr
/Times-Bold ff 150.00 scf sf
4545 7875 m
gs 1 -1 sc (PC2) col1 sh gr
/Times-Roman ff 120.00 scf sf
4635 7650 m
gs 1 -1 sc (ADCMUX) col1 sh gr
/Times-Roman ff 120.00 scf sf
6345 7875 m
gs 1 -1 sc (PB5) col0 sh gr
/Times-Roman ff 135.00 scf sf
5445 7875 m
gs 1 -1 sc (PB4) col0 sh gr
/Times-Roman ff 120.00 scf sf
2745 7875 m
gs 1 -1 sc (PB1) col0 sh gr
/Times-Roman ff 120.00 scf sf
990 6750 m
gs 1 -1 sc  90.0 rot (22) dup sw pop 2 div neg 0 rm  col0 sh gr
/Times-Roman ff 120.00 scf sf
1530 6750 m
gs 1 -1 sc  90.0 rot (19) dup sw pop 2 div neg 0 rm  col0 sh gr
/Times-Roman ff 120.00 scf sf
1890 6750 m
gs 1 -1 sc  90.0 rot (22) dup sw pop 2 div neg 0 rm  col0 sh gr
/Times-Roman ff 120.00 scf sf
2430 6750 m
gs 1 -1 sc  90.0 rot (19) dup sw pop 2 div neg 0 rm  col0 sh gr
/Times-Roman ff 120.00 scf sf
2790 6750 m
gs 1 -1 sc  90.0 rot (22) dup sw pop 2 div neg 0 rm  col0 sh gr
/Times-Roman ff 120.00 scf sf
4230 6750 m
gs 1 -1 sc  90.0 rot (19) dup sw pop 2 div neg 0 rm  col0 sh gr
/Times-Roman ff 120.00 scf sf
4590 6750 m
gs 1 -1 sc  90.0 rot (22) dup sw pop 2 div neg 0 rm  col0 sh gr
/Times-Roman ff 120.00 scf sf
5130 6750 m
gs 1 -1 sc  90.0 rot (19) dup sw pop 2 div neg 0 rm  col0 sh gr
/Times-Roman ff 120.00 scf sf
5490 6750 m
gs 1 -1 sc  90.0 rot (22) dup sw pop 2 div neg 0 rm  col0 sh gr
/Times-Roman ff 120.00 scf sf
6030 6750 m
gs 1 -1 sc  90.0 rot (19) dup sw pop 2 div neg 0 rm  col0 sh gr
/Times-Roman ff 120.00 scf sf
6390 6750 m
gs 1 -1 sc  90.0 rot (22) dup sw pop 2 div neg 0 rm  col0 sh gr
/Times-Roman ff 120.00 scf sf
1710 8190 m
gs 1 -1 sc  90.0 rot (680) dup sw pop 2 div neg 0 rm  col0 sh gr
/Times-Roman ff 120.00 scf sf
2610 8190 m
gs 1 -1 sc  90.0 rot (470k) dup sw pop 2 div neg 0 rm  col0 sh gr
/Times-Roman ff 150.00 scf sf
3150 8325 m
gs 1 -1 sc (TP1) dup sw pop 2 div neg 0 rm  col0 sh gr
/Times-Roman ff 150.00 scf sf
4050 8325 m
gs 1 -1 sc (TP3) dup sw pop 2 div neg 0 rm  col0 sh gr
/Times-Roman ff 120.00 scf sf
5310 8190 m
gs 1 -1 sc  90.0 rot (680) dup sw pop 2 div neg 0 rm  col0 sh gr
/Times-Roman ff 120.00 scf sf
6210 8190 m
gs 1 -1 sc  90.0 rot (470k) dup sw pop 2 div neg 0 rm  col0 sh gr
/Helvetica ff 90.00 scf sf
3510 6885 m
gs 1 -1 sc (GND) dup sw pop 2 div neg 0 rm  col0 sh gr
/Times-Bold ff 180.00 scf sf
3510 8235 m
gs 1 -1 sc (Cx) dup sw pop 2 div neg 0 rm  col0 sh gr
/Times-Roman ff 180.00 scf sf
2475 5850 m
gs 1 -1 sc (10ms Charge Phase of capacitor) dup sw pop 2 div neg 0 rm  col0 sh gr
/Times-Roman ff 180.00 scf sf
2520 2790 m
gs 1 -1 sc (Quick Discharge of capacitor) dup sw pop 2 div neg 0 rm  col0 sh gr
/Times-Bold ff 150.00 scf sf
630 6750 m
gs 1 -1 sc  90.0 rot (19) dup sw pop 2 div neg 0 rm  col0 sh gr
/Times-Roman ff 180.00 scf sf
2520 8730 m
gs 1 -1 sc (Voltage Measurement Phase of capacitor) dup sw pop 2 div neg 0 rm  col0 sh gr
/Times-Roman ff 150.00 scf sf
4230 1260 m
gs 1 -1 sc (<1.3V) dup sw pop neg 0 rm  col0 sh gr
/Times-Roman ff 150.00 scf sf
1980 2250 m
gs 1 -1 sc  90.0 rot (R1) dup sw pop 2 div neg 0 rm  col4 sh gr
/Times-Roman ff 150.00 scf sf
2880 2250 m
gs 1 -1 sc  90.0 rot (R2) dup sw pop 2 div neg 0 rm  col0 sh gr
/Times-Roman ff 150.00 scf sf
5580 2250 m
gs 1 -1 sc  90.0 rot (R5) dup sw pop 2 div neg 0 rm  col4 sh gr
/Times-Roman ff 150.00 scf sf
6480 2250 m
gs 1 -1 sc  90.0 rot (R6) dup sw pop 2 div neg 0 rm  col0 sh gr
/Times-Roman ff 150.00 scf sf
1980 5265 m
gs 1 -1 sc  90.0 rot (R1) dup sw pop 2 div neg 0 rm  col0 sh gr
/Times-Roman ff 150.00 scf sf
2880 5265 m
gs 1 -1 sc  90.0 rot (R2) dup sw pop 2 div neg 0 rm  col0 sh gr
/Times-Roman ff 150.00 scf sf
5580 5265 m
gs 1 -1 sc  90.0 rot (R5) dup sw pop 2 div neg 0 rm  col4 sh gr
/Times-Roman ff 150.00 scf sf
6480 5265 m
gs 1 -1 sc  90.0 rot (R6) dup sw pop 2 div neg 0 rm  col0 sh gr
/Times-Roman ff 150.00 scf sf
1980 8190 m
gs 1 -1 sc  90.0 rot (R1) dup sw pop 2 div neg 0 rm  col0 sh gr
/Times-Roman ff 150.00 scf sf
2880 8190 m
gs 1 -1 sc  90.0 rot (R2) dup sw pop 2 div neg 0 rm  col0 sh gr
/Times-Roman ff 150.00 scf sf
5580 8190 m
gs 1 -1 sc  90.0 rot (R5) dup sw pop 2 div neg 0 rm  col0 sh gr
/Times-Roman ff 150.00 scf sf
6480 8190 m
gs 1 -1 sc  90.0 rot (R6) dup sw pop 2 div neg 0 rm  col0 sh gr
/Times-Bold ff 150.00 scf sf
1530 810 m
gs 1 -1 sc  90.0 rot (19) dup sw pop 2 div neg 0 rm  col4 sh gr
% here ends figure;
% 
% here starts figure with depth 0
% Polyline
1 slj
0 slc
7.500 slw
n 2365 4590 m 2115 4455 l 2115 4725 l
 2365 4590 l  cp gs col0 s gr 
% Polyline
0 slj
n 2365 4590 m
 2430 4590 l gs col0 s gr 
% Polyline
n 2228 4556 m 2198 4556 l 2198 4626 l
 2168 4626 l gs col0 s gr 
% Polyline
n 2207 4556 m 2177 4556 l 2177 4626 l
 2147 4626 l gs col0 s gr 
% Polyline
n 2115 4590 m
 2025 4590 l gs col0 s gr 
% Polyline
1 slj
n 3265 4590 m 3015 4455 l 3015 4725 l
 3265 4590 l  cp gs col0 s gr 
% Polyline
0 slj
n 3265 4590 m
 3330 4590 l gs col0 s gr 
% Polyline
n 3128 4556 m 3098 4556 l 3098 4626 l
 3068 4626 l gs col0 s gr 
% Polyline
n 3107 4556 m 3077 4556 l 3077 4626 l
 3047 4626 l gs col0 s gr 
% Polyline
n 3015 4590 m
 2925 4590 l gs col0 s gr 
% Ellipse
n 898 4588 20 20 0 360 DrawEllipse gs 0.00 setgray ef gr gs col0 s gr

% Ellipse
n 1801 4588 20 20 0 360 DrawEllipse gs 0.00 setgray ef gr gs col0 s gr

% Ellipse
n 2698 4586 20 20 0 360 DrawEllipse gs 0.00 setgray ef gr gs col0 s gr

% Ellipse
n 1800 5490 20 20 0 360 DrawEllipse gs 0.00 setgray ef gr gs col0 s gr

% Ellipse
n 2700 5490 20 20 0 360 DrawEllipse gs 0.00 setgray ef gr gs col0 s gr

% Polyline
n 1800 5400 m
 1800 5490 l gs col0 s gr 
% Polyline
n 1755 5130 m 1845 5130 l 1845 5400 l 1755 5400 l
 cp gs col0 s gr 
% Polyline
n 1800 5040 m
 1800 5130 l gs col0 s gr 
% Polyline
n 2700 5400 m
 2700 5490 l gs col0 s gr 
% Polyline
n 2655 5130 m 2745 5130 l 2745 5400 l 2655 5400 l
 cp gs col0 s gr 
% Polyline
n 2700 5040 m
 2700 5130 l gs col0 s gr 
% Polyline
n 2745 4770 m 2700 4815 l
 2655 4770 l gs col0 s gr 
% Polyline
n 2745 4815 m 2700 4860 l
 2655 4815 l gs col0 s gr 
% Polyline
n 2700 4860 m
 2700 5040 l gs col0 s gr 
% Polyline
n 2700 4590 m
 2700 4815 l gs col0 s gr 
% Polyline
n 945 4770 m 900 4815 l
 855 4770 l gs col0 s gr 
% Polyline
n 945 4815 m 900 4860 l
 855 4815 l gs col0 s gr 
% Polyline
n 900 4860 m
 900 5040 l gs col0 s gr 
% Polyline
n 900 4590 m
 900 4815 l gs col0 s gr 
% Polyline
n 1845 4770 m 1800 4815 l
 1755 4770 l gs col0 s gr 
% Polyline
n 1845 4815 m 1800 4860 l
 1755 4815 l gs col0 s gr 
% Polyline
n 1800 4860 m
 1800 5040 l gs col0 s gr 
% Polyline
n 1800 4590 m
 1800 4815 l gs col0 s gr 
% Polyline
n 5580 3960 m
 5580 4050 l gs col0 s gr 
% Polyline
n 5535 3690 m 5625 3690 l 5625 3960 l 5535 3960 l
 cp gs col0 s gr 
% Polyline
n 5580 3600 m
 5580 3690 l gs col0 s gr 
% Polyline
n 6480 3960 m
 6480 4050 l gs col0 s gr 
% Polyline
n 6435 3690 m 6525 3690 l 6525 3960 l 6435 3960 l
 cp gs col0 s gr 
% Polyline
n 6480 3600 m
 6480 3690 l gs col0 s gr 
% Polyline
n 5220 3960 m
 5220 4050 l gs col0 s gr 
% Polyline
n 5175 3690 m 5265 3690 l 5265 3960 l 5175 3960 l
 cp gs col0 s gr 
% Polyline
n 5220 3600 m
 5220 3690 l gs col0 s gr 
% Polyline
n 6120 3960 m
 6120 4050 l gs col0 s gr 
% Polyline
n 6075 3690 m 6165 3690 l 6165 3960 l 6075 3960 l
 cp gs col0 s gr 
% Polyline
n 6120 3600 m
 6120 3690 l gs col0 s gr 
% Polyline
1 slj
n 5965 4590 m 5715 4455 l 5715 4725 l
 5965 4590 l  cp gs col0 s gr 
% Polyline
0 slj
n 5965 4590 m
 6030 4590 l gs col0 s gr 
% Polyline
n 5828 4556 m 5798 4556 l 5798 4626 l
 5768 4626 l gs col0 s gr 
% Polyline
n 5807 4556 m 5777 4556 l 5777 4626 l
 5747 4626 l gs col0 s gr 
% Polyline
n 5715 4590 m
 5625 4590 l gs col0 s gr 
% Polyline
1 slj
n 3935 4590 m 4185 4725 l 4185 4455 l
 3935 4590 l  cp gs col0 s gr 
% Polyline
0 slj
n 3935 4590 m
 3870 4590 l gs col0 s gr 
% Polyline
n 4072 4624 m 4102 4624 l 4102 4554 l
 4132 4554 l gs col0 s gr 
% Polyline
n 4093 4624 m 4123 4624 l 4123 4554 l
 4153 4554 l gs col0 s gr 
% Polyline
n 4185 4590 m
 4275 4590 l gs col0 s gr 
% Ellipse
n 4498 4588 20 20 0 360 DrawEllipse gs 0.00 setgray ef gr gs col0 s gr

% Ellipse
n 5401 4588 20 20 0 360 DrawEllipse gs 0.00 setgray ef gr gs col0 s gr

% Ellipse
n 6298 4586 20 20 0 360 DrawEllipse gs 0.00 setgray ef gr gs col0 s gr

% Ellipse
n 4500 5490 20 20 0 360 DrawEllipse gs 0.00 setgray ef gr gs col0 s gr

% Ellipse
n 5400 5490 20 20 0 360 DrawEllipse gs 0.00 setgray ef gr gs col0 s gr

% Polyline
n 5400 5400 m
 5400 5490 l gs col0 s gr 
% Polyline
n 5355 5130 m 5445 5130 l 5445 5400 l 5355 5400 l
 cp gs col0 s gr 
% Polyline
n 5400 5040 m
 5400 5130 l gs col0 s gr 
% Polyline
n 6300 5400 m
 6300 5490 l gs col0 s gr 
% Polyline
n 6255 5130 m 6345 5130 l 6345 5400 l 6255 5400 l
 cp gs col0 s gr 
% Polyline
n 6300 5040 m
 6300 5130 l gs col0 s gr 
% Ellipse
n 4500 5490 20 20 0 360 DrawEllipse gs 0.00 setgray ef gr gs col0 s gr

% Polyline
n 6345 4770 m 6300 4815 l
 6255 4770 l gs col0 s gr 
% Polyline
n 6345 4815 m 6300 4860 l
 6255 4815 l gs col0 s gr 
% Polyline
n 6300 4860 m
 6300 5040 l gs col0 s gr 
% Polyline
n 6300 4590 m
 6300 4815 l gs col0 s gr 
% Polyline
n 4545 4770 m 4500 4815 l
 4455 4770 l gs col0 s gr 
% Polyline
n 4545 4815 m 4500 4860 l
 4455 4815 l gs col0 s gr 
% Polyline
n 4500 4860 m
 4500 5040 l gs col0 s gr 
% Polyline
n 4500 4590 m
 4500 4815 l gs col0 s gr 
% Polyline
n 5445 4770 m 5400 4815 l
 5355 4770 l gs col0 s gr 
% Polyline
n 5445 4815 m 5400 4860 l
 5355 4815 l gs col0 s gr 
% Polyline
n 5400 4860 m
 5400 5040 l gs col0 s gr 
% Polyline
n 5400 4590 m
 5400 4815 l gs col0 s gr 
% Polyline
n 3195 5445 m 3150 5490 l
 3195 5535 l gs col0 s gr 
% Polyline
n 3150 5445 m 3105 5490 l
 3150 5535 l gs col0 s gr 
% Polyline
n 3105 5490 m
 2925 5490 l gs col0 s gr 
% Polyline
n 3375 5490 m
 3150 5490 l gs col0 s gr 
% Ellipse
n 1620 3600 20 20 0 360 DrawEllipse gs 0.00 setgray ef gr gs col0 s gr

% Ellipse
n 2520 3600 20 20 0 360 DrawEllipse gs 0.00 setgray ef gr gs col0 s gr

% Ellipse
n 3510 3600 20 20 0 360 DrawEllipse gs 0.00 setgray ef gr gs col0 s gr

% Ellipse
n 4320 3600 20 20 0 360 DrawEllipse gs 0.00 setgray ef gr gs col0 s gr

% Ellipse
n 5220 3600 20 20 0 360 DrawEllipse gs 0.00 setgray ef gr gs col0 s gr

% Ellipse
n 2880 3510 20 20 0 360 DrawEllipse gs 0.00 setgray ef gr gs col0 s gr

% Ellipse
n 1980 3510 20 20 0 360 DrawEllipse gs 0.00 setgray ef gr gs col0 s gr

% Ellipse
n 4680 3510 20 20 0 360 DrawEllipse gs 0.00 setgray ef gr gs col0 s gr

% Ellipse
n 5580 3510 20 20 0 360 DrawEllipse gs 0.00 setgray ef gr gs col0 s gr

% Polyline
1 slj
n 470 4590 m 720 4725 l 720 4455 l
 470 4590 l  cp gs col0 s gr 
% Polyline
0 slj
n 470 4590 m
 405 4590 l gs col0 s gr 
% Polyline
n 607 4624 m 637 4624 l 637 4554 l
 667 4554 l gs col0 s gr 
% Polyline
n 628 4624 m 658 4624 l 658 4554 l
 688 4554 l gs col0 s gr 
% Polyline
n 720 4590 m
 810 4590 l gs col0 s gr 
% Polyline
1 slj
n 6730 4590 m 6480 4455 l 6480 4725 l
 6730 4590 l  cp gs col0 s gr 
% Polyline
0 slj
n 6730 4590 m
 6795 4590 l gs col0 s gr 
% Polyline
n 6593 4556 m 6563 4556 l 6563 4626 l
 6533 4626 l gs col0 s gr 
% Polyline
n 6572 4556 m 6542 4556 l 6542 4626 l
 6512 4626 l gs col0 s gr 
% Polyline
n 6480 4590 m
 6390 4590 l gs col0 s gr 
% Polyline
n 3555 5490 m
 3690 5490 l gs col0 s gr 
% Polyline
n 3510 5490 m
 3375 5490 l gs col0 s gr 
% Polyline
n 3555 5400 m
 3555 5580 l gs col0 s gr 
% Polyline
n 3510 5400 m
 3510 5580 l gs col0 s gr 
% Polyline
1 slj
n 2365 1575 m 2115 1440 l 2115 1710 l
 2365 1575 l  cp gs col0 s gr 
% Polyline
0 slj
n 2365 1575 m
 2430 1575 l gs col0 s gr 
% Polyline
n 2228 1541 m 2198 1541 l 2198 1611 l
 2168 1611 l gs col0 s gr 
% Polyline
n 2207 1541 m 2177 1541 l 2177 1611 l
 2147 1611 l gs col0 s gr 
% Polyline
n 2115 1575 m
 2025 1575 l gs col0 s gr 
% Polyline
1 slj
n 3265 1575 m 3015 1440 l 3015 1710 l
 3265 1575 l  cp gs col0 s gr 
% Polyline
0 slj
n 3265 1575 m
 3330 1575 l gs col0 s gr 
% Polyline
n 3128 1541 m 3098 1541 l 3098 1611 l
 3068 1611 l gs col0 s gr 
% Polyline
n 3107 1541 m 3077 1541 l 3077 1611 l
 3047 1611 l gs col0 s gr 
% Polyline
n 3015 1575 m
 2925 1575 l gs col0 s gr 
% Ellipse
n 898 1573 20 20 0 360 DrawEllipse gs 0.00 setgray ef gr gs col0 s gr

% Ellipse
n 1801 1573 20 20 0 360 DrawEllipse gs 0.00 setgray ef gr gs col0 s gr

% Ellipse
n 2698 1571 20 20 0 360 DrawEllipse gs 0.00 setgray ef gr gs col0 s gr

% Ellipse
n 1800 2475 20 20 0 360 DrawEllipse gs 0.00 setgray ef gr gs col0 s gr

% Ellipse
n 2700 2475 20 20 0 360 DrawEllipse gs 0.00 setgray ef gr gs col0 s gr

% Polyline
n 1800 2385 m
 1800 2475 l gs col0 s gr 
% Polyline
n 1755 2115 m 1845 2115 l 1845 2385 l 1755 2385 l
 cp gs col0 s gr 
% Polyline
n 1800 2025 m
 1800 2115 l gs col0 s gr 
% Polyline
n 2700 2385 m
 2700 2475 l gs col0 s gr 
% Polyline
n 2655 2115 m 2745 2115 l 2745 2385 l 2655 2385 l
 cp gs col0 s gr 
% Polyline
n 2700 2025 m
 2700 2115 l gs col0 s gr 
% Polyline
n 2745 1755 m 2700 1800 l
 2655 1755 l gs col0 s gr 
% Polyline
n 2745 1800 m 2700 1845 l
 2655 1800 l gs col0 s gr 
% Polyline
n 2700 1845 m
 2700 2025 l gs col0 s gr 
% Polyline
n 2700 1575 m
 2700 1800 l gs col0 s gr 
% Polyline
n 945 1755 m 900 1800 l
 855 1755 l gs col0 s gr 
% Polyline
n 945 1800 m 900 1845 l
 855 1800 l gs col0 s gr 
% Polyline
n 900 1845 m
 900 2025 l gs col0 s gr 
% Polyline
n 900 1575 m
 900 1800 l gs col0 s gr 
% Polyline
n 1845 1755 m 1800 1800 l
 1755 1755 l gs col0 s gr 
% Polyline
n 1845 1800 m 1800 1845 l
 1755 1800 l gs col0 s gr 
% Polyline
n 1800 1845 m
 1800 2025 l gs col0 s gr 
% Polyline
n 1800 1575 m
 1800 1800 l gs col0 s gr 
% Polyline
n 5580 945 m
 5580 1035 l gs col0 s gr 
% Polyline
n 5535 675 m 5625 675 l 5625 945 l 5535 945 l
 cp gs col0 s gr 
% Polyline
n 5580 585 m
 5580 675 l gs col0 s gr 
% Polyline
n 6480 945 m
 6480 1035 l gs col0 s gr 
% Polyline
n 6435 675 m 6525 675 l 6525 945 l 6435 945 l
 cp gs col0 s gr 
% Polyline
n 6480 585 m
 6480 675 l gs col0 s gr 
% Polyline
n 5220 945 m
 5220 1035 l gs col0 s gr 
% Polyline
n 5175 675 m 5265 675 l 5265 945 l 5175 945 l
 cp gs col0 s gr 
% Polyline
n 5220 585 m
 5220 675 l gs col0 s gr 
% Polyline
n 6120 945 m
 6120 1035 l gs col0 s gr 
% Polyline
n 6075 675 m 6165 675 l 6165 945 l 6075 945 l
 cp gs col0 s gr 
% Polyline
n 6120 585 m
 6120 675 l gs col0 s gr 
% Polyline
1 slj
n 5965 1575 m 5715 1440 l 5715 1710 l
 5965 1575 l  cp gs col0 s gr 
% Polyline
0 slj
n 5965 1575 m
 6030 1575 l gs col0 s gr 
% Polyline
n 5828 1541 m 5798 1541 l 5798 1611 l
 5768 1611 l gs col0 s gr 
% Polyline
n 5807 1541 m 5777 1541 l 5777 1611 l
 5747 1611 l gs col0 s gr 
% Polyline
n 5715 1575 m
 5625 1575 l gs col0 s gr 
% Polyline
1 slj
n 3935 1575 m 4185 1710 l 4185 1440 l
 3935 1575 l  cp gs col0 s gr 
% Polyline
0 slj
n 3935 1575 m
 3870 1575 l gs col0 s gr 
% Polyline
n 4072 1609 m 4102 1609 l 4102 1539 l
 4132 1539 l gs col0 s gr 
% Polyline
n 4093 1609 m 4123 1609 l 4123 1539 l
 4153 1539 l gs col0 s gr 
% Polyline
n 4185 1575 m
 4275 1575 l gs col0 s gr 
% Ellipse
n 4498 1573 20 20 0 360 DrawEllipse gs 0.00 setgray ef gr gs col0 s gr

% Ellipse
n 5401 1573 20 20 0 360 DrawEllipse gs 0.00 setgray ef gr gs col0 s gr

% Ellipse
n 6298 1571 20 20 0 360 DrawEllipse gs 0.00 setgray ef gr gs col0 s gr

% Ellipse
n 4500 2475 20 20 0 360 DrawEllipse gs 0.00 setgray ef gr gs col0 s gr

% Ellipse
n 5400 2475 20 20 0 360 DrawEllipse gs 0.00 setgray ef gr gs col0 s gr

% Polyline
n 5400 2385 m
 5400 2475 l gs col0 s gr 
% Polyline
n 5355 2115 m 5445 2115 l 5445 2385 l 5355 2385 l
 cp gs col0 s gr 
% Polyline
n 5400 2025 m
 5400 2115 l gs col0 s gr 
% Polyline
n 6300 2385 m
 6300 2475 l gs col0 s gr 
% Polyline
n 6255 2115 m 6345 2115 l 6345 2385 l 6255 2385 l
 cp gs col0 s gr 
% Polyline
n 6300 2025 m
 6300 2115 l gs col0 s gr 
% Ellipse
n 4500 2475 20 20 0 360 DrawEllipse gs 0.00 setgray ef gr gs col0 s gr

% Polyline
n 6345 1755 m 6300 1800 l
 6255 1755 l gs col0 s gr 
% Polyline
n 6345 1800 m 6300 1845 l
 6255 1800 l gs col0 s gr 
% Polyline
n 6300 1845 m
 6300 2025 l gs col0 s gr 
% Polyline
n 6300 1575 m
 6300 1800 l gs col0 s gr 
% Polyline
n 4545 1755 m 4500 1800 l
 4455 1755 l gs col0 s gr 
% Polyline
n 4545 1800 m 4500 1845 l
 4455 1800 l gs col0 s gr 
% Polyline
n 4500 1845 m
 4500 2025 l gs col0 s gr 
% Polyline
n 4500 1575 m
 4500 1800 l gs col0 s gr 
% Polyline
n 5445 1755 m 5400 1800 l
 5355 1755 l gs col0 s gr 
% Polyline
n 5445 1800 m 5400 1845 l
 5355 1800 l gs col0 s gr 
% Polyline
n 5400 1845 m
 5400 2025 l gs col0 s gr 
% Polyline
n 5400 1575 m
 5400 1800 l gs col0 s gr 
% Polyline
n 3195 2430 m 3150 2475 l
 3195 2520 l gs col0 s gr 
% Polyline
n 3150 2430 m 3105 2475 l
 3150 2520 l gs col0 s gr 
% Polyline
n 3105 2475 m
 2925 2475 l gs col0 s gr 
% Polyline
n 3375 2475 m
 3150 2475 l gs col0 s gr 
% Ellipse
n 1620 585 20 20 0 360 DrawEllipse gs 0.00 setgray ef gr gs col0 s gr

% Ellipse
n 2520 585 20 20 0 360 DrawEllipse gs 0.00 setgray ef gr gs col0 s gr

% Ellipse
n 3510 585 20 20 0 360 DrawEllipse gs 0.00 setgray ef gr gs col0 s gr

% Ellipse
n 4320 585 20 20 0 360 DrawEllipse gs 0.00 setgray ef gr gs col0 s gr

% Ellipse
n 5220 585 20 20 0 360 DrawEllipse gs 0.00 setgray ef gr gs col0 s gr

% Ellipse
n 2880 495 20 20 0 360 DrawEllipse gs 0.00 setgray ef gr gs col0 s gr

% Ellipse
n 1980 495 20 20 0 360 DrawEllipse gs 0.00 setgray ef gr gs col0 s gr

% Ellipse
n 4680 495 20 20 0 360 DrawEllipse gs 0.00 setgray ef gr gs col0 s gr

% Ellipse
n 5580 495 20 20 0 360 DrawEllipse gs 0.00 setgray ef gr gs col0 s gr

% Polyline
1 slj
n 470 1575 m 720 1710 l 720 1440 l
 470 1575 l  cp gs col0 s gr 
% Polyline
0 slj
n 470 1575 m
 405 1575 l gs col0 s gr 
% Polyline
n 607 1609 m 637 1609 l 637 1539 l
 667 1539 l gs col0 s gr 
% Polyline
n 628 1609 m 658 1609 l 658 1539 l
 688 1539 l gs col0 s gr 
% Polyline
n 720 1575 m
 810 1575 l gs col0 s gr 
% Polyline
1 slj
n 6730 1575 m 6480 1440 l 6480 1710 l
 6730 1575 l  cp gs col0 s gr 
% Polyline
0 slj
n 6730 1575 m
 6795 1575 l gs col0 s gr 
% Polyline
n 6593 1541 m 6563 1541 l 6563 1611 l
 6533 1611 l gs col0 s gr 
% Polyline
n 6572 1541 m 6542 1541 l 6542 1611 l
 6512 1611 l gs col0 s gr 
% Polyline
n 6480 1575 m
 6390 1575 l gs col0 s gr 
% Polyline
n 3555 2475 m
 3690 2475 l gs col0 s gr 
% Polyline
n 3510 2475 m
 3375 2475 l gs col0 s gr 
% Polyline
n 3555 2385 m
 3555 2565 l gs col0 s gr 
% Polyline
n 3510 2385 m
 3510 2565 l gs col0 s gr 
% Polyline
1 slj
n 2365 7515 m 2115 7380 l 2115 7650 l
 2365 7515 l  cp gs col0 s gr 
% Polyline
0 slj
n 2365 7515 m
 2430 7515 l gs col0 s gr 
% Polyline
n 2228 7481 m 2198 7481 l 2198 7551 l
 2168 7551 l gs col0 s gr 
% Polyline
n 2207 7481 m 2177 7481 l 2177 7551 l
 2147 7551 l gs col0 s gr 
% Polyline
n 2115 7515 m
 2025 7515 l gs col0 s gr 
% Polyline
1 slj
n 3265 7515 m 3015 7380 l 3015 7650 l
 3265 7515 l  cp gs col0 s gr 
% Polyline
0 slj
n 3265 7515 m
 3330 7515 l gs col0 s gr 
% Polyline
n 3128 7481 m 3098 7481 l 3098 7551 l
 3068 7551 l gs col0 s gr 
% Polyline
n 3107 7481 m 3077 7481 l 3077 7551 l
 3047 7551 l gs col0 s gr 
% Polyline
n 3015 7515 m
 2925 7515 l gs col0 s gr 
% Ellipse
n 898 7513 20 20 0 360 DrawEllipse gs 0.00 setgray ef gr gs col0 s gr

% Ellipse
n 1801 7513 20 20 0 360 DrawEllipse gs 0.00 setgray ef gr gs col0 s gr

% Ellipse
n 2698 7511 20 20 0 360 DrawEllipse gs 0.00 setgray ef gr gs col0 s gr

% Ellipse
n 1800 8415 20 20 0 360 DrawEllipse gs 0.00 setgray ef gr gs col0 s gr

% Ellipse
n 2700 8415 20 20 0 360 DrawEllipse gs 0.00 setgray ef gr gs col0 s gr

% Polyline
n 1800 8325 m
 1800 8415 l gs col0 s gr 
% Polyline
n 1755 8055 m 1845 8055 l 1845 8325 l 1755 8325 l
 cp gs col0 s gr 
% Polyline
n 1800 7965 m
 1800 8055 l gs col0 s gr 
% Polyline
n 2700 8325 m
 2700 8415 l gs col0 s gr 
% Polyline
n 2655 8055 m 2745 8055 l 2745 8325 l 2655 8325 l
 cp gs col0 s gr 
% Polyline
n 2700 7965 m
 2700 8055 l gs col0 s gr 
% Polyline
n 2745 7695 m 2700 7740 l
 2655 7695 l gs col0 s gr 
% Polyline
n 2745 7740 m 2700 7785 l
 2655 7740 l gs col0 s gr 
% Polyline
n 2700 7785 m
 2700 7965 l gs col0 s gr 
% Polyline
n 2700 7515 m
 2700 7740 l gs col0 s gr 
% Polyline
n 945 7695 m 900 7740 l
 855 7695 l gs col0 s gr 
% Polyline
n 945 7740 m 900 7785 l
 855 7740 l gs col0 s gr 
% Polyline
n 900 7785 m
 900 7965 l gs col0 s gr 
% Polyline
n 900 7515 m
 900 7740 l gs col0 s gr 
% Polyline
n 1845 7695 m 1800 7740 l
 1755 7695 l gs col0 s gr 
% Polyline
n 1845 7740 m 1800 7785 l
 1755 7740 l gs col0 s gr 
% Polyline
n 1800 7785 m
 1800 7965 l gs col0 s gr 
% Polyline
n 1800 7515 m
 1800 7740 l gs col0 s gr 
% Polyline
n 5580 6885 m
 5580 6975 l gs col0 s gr 
% Polyline
n 5535 6615 m 5625 6615 l 5625 6885 l 5535 6885 l
 cp gs col0 s gr 
% Polyline
n 5580 6525 m
 5580 6615 l gs col0 s gr 
% Polyline
n 6480 6885 m
 6480 6975 l gs col0 s gr 
% Polyline
n 6435 6615 m 6525 6615 l 6525 6885 l 6435 6885 l
 cp gs col0 s gr 
% Polyline
n 6480 6525 m
 6480 6615 l gs col0 s gr 
% Polyline
n 5220 6885 m
 5220 6975 l gs col0 s gr 
% Polyline
n 5175 6615 m 5265 6615 l 5265 6885 l 5175 6885 l
 cp gs col0 s gr 
% Polyline
n 5220 6525 m
 5220 6615 l gs col0 s gr 
% Polyline
n 6120 6885 m
 6120 6975 l gs col0 s gr 
% Polyline
n 6075 6615 m 6165 6615 l 6165 6885 l 6075 6885 l
 cp gs col0 s gr 
% Polyline
n 6120 6525 m
 6120 6615 l gs col0 s gr 
% Polyline
1 slj
n 5965 7515 m 5715 7380 l 5715 7650 l
 5965 7515 l  cp gs col0 s gr 
% Polyline
0 slj
n 5965 7515 m
 6030 7515 l gs col0 s gr 
% Polyline
n 5828 7481 m 5798 7481 l 5798 7551 l
 5768 7551 l gs col0 s gr 
% Polyline
n 5807 7481 m 5777 7481 l 5777 7551 l
 5747 7551 l gs col0 s gr 
% Polyline
n 5715 7515 m
 5625 7515 l gs col0 s gr 
% Polyline
1 slj
n 3935 7515 m 4185 7650 l 4185 7380 l
 3935 7515 l  cp gs col0 s gr 
% Polyline
0 slj
n 3935 7515 m
 3870 7515 l gs col0 s gr 
% Polyline
n 4072 7549 m 4102 7549 l 4102 7479 l
 4132 7479 l gs col0 s gr 
% Polyline
n 4093 7549 m 4123 7549 l 4123 7479 l
 4153 7479 l gs col0 s gr 
% Polyline
n 4185 7515 m
 4275 7515 l gs col0 s gr 
% Ellipse
n 4498 7513 20 20 0 360 DrawEllipse gs 0.00 setgray ef gr gs col0 s gr

% Ellipse
n 5401 7513 20 20 0 360 DrawEllipse gs 0.00 setgray ef gr gs col0 s gr

% Ellipse
n 6298 7511 20 20 0 360 DrawEllipse gs 0.00 setgray ef gr gs col0 s gr

% Ellipse
n 4500 8415 20 20 0 360 DrawEllipse gs 0.00 setgray ef gr gs col0 s gr

% Ellipse
n 5400 8415 20 20 0 360 DrawEllipse gs 0.00 setgray ef gr gs col0 s gr

% Polyline
n 5400 8325 m
 5400 8415 l gs col0 s gr 
% Polyline
n 5355 8055 m 5445 8055 l 5445 8325 l 5355 8325 l
 cp gs col0 s gr 
% Polyline
n 5400 7965 m
 5400 8055 l gs col0 s gr 
% Polyline
n 6300 8325 m
 6300 8415 l gs col0 s gr 
% Polyline
n 6255 8055 m 6345 8055 l 6345 8325 l 6255 8325 l
 cp gs col0 s gr 
% Polyline
n 6300 7965 m
 6300 8055 l gs col0 s gr 
% Ellipse
n 4500 8415 20 20 0 360 DrawEllipse gs 0.00 setgray ef gr gs col0 s gr

% Polyline
n 6345 7695 m 6300 7740 l
 6255 7695 l gs col0 s gr 
% Polyline
n 6345 7740 m 6300 7785 l
 6255 7740 l gs col0 s gr 
% Polyline
n 6300 7785 m
 6300 7965 l gs col0 s gr 
% Polyline
n 6300 7515 m
 6300 7740 l gs col0 s gr 
% Polyline
n 4545 7695 m 4500 7740 l
 4455 7695 l gs col0 s gr 
% Polyline
n 4545 7740 m 4500 7785 l
 4455 7740 l gs col0 s gr 
% Polyline
n 4500 7785 m
 4500 7965 l gs col0 s gr 
% Polyline
n 4500 7515 m
 4500 7740 l gs col0 s gr 
% Polyline
n 5445 7695 m 5400 7740 l
 5355 7695 l gs col0 s gr 
% Polyline
n 5445 7740 m 5400 7785 l
 5355 7740 l gs col0 s gr 
% Polyline
n 5400 7785 m
 5400 7965 l gs col0 s gr 
% Polyline
n 5400 7515 m
 5400 7740 l gs col0 s gr 
% Polyline
n 3195 8370 m 3150 8415 l
 3195 8460 l gs col0 s gr 
% Polyline
n 3150 8370 m 3105 8415 l
 3150 8460 l gs col0 s gr 
% Polyline
n 3105 8415 m
 2925 8415 l gs col0 s gr 
% Polyline
n 3375 8415 m
 3150 8415 l gs col0 s gr 
% Ellipse
n 5085 7830 135 135 0 360 DrawEllipse gs col0 s gr

% Polyline
n 5040 7775 m 5085 7875 l
 5130 7775 l gs col0 s gr 
% Ellipse
n 1620 6525 20 20 0 360 DrawEllipse gs 0.00 setgray ef gr gs col0 s gr

% Ellipse
n 2520 6525 20 20 0 360 DrawEllipse gs 0.00 setgray ef gr gs col0 s gr

% Ellipse
n 3510 6525 20 20 0 360 DrawEllipse gs 0.00 setgray ef gr gs col0 s gr

% Ellipse
n 4320 6525 20 20 0 360 DrawEllipse gs 0.00 setgray ef gr gs col0 s gr

% Ellipse
n 5220 6525 20 20 0 360 DrawEllipse gs 0.00 setgray ef gr gs col0 s gr

% Ellipse
n 2880 6435 20 20 0 360 DrawEllipse gs 0.00 setgray ef gr gs col0 s gr

% Ellipse
n 1980 6435 20 20 0 360 DrawEllipse gs 0.00 setgray ef gr gs col0 s gr

% Ellipse
n 4680 6435 20 20 0 360 DrawEllipse gs 0.00 setgray ef gr gs col0 s gr

% Ellipse
n 5580 6435 20 20 0 360 DrawEllipse gs 0.00 setgray ef gr gs col0 s gr

% Polyline
1 slj
n 470 7515 m 720 7650 l 720 7380 l
 470 7515 l  cp gs col0 s gr 
% Polyline
0 slj
n 470 7515 m
 405 7515 l gs col0 s gr 
% Polyline
n 607 7549 m 637 7549 l 637 7479 l
 667 7479 l gs col0 s gr 
% Polyline
n 628 7549 m 658 7549 l 658 7479 l
 688 7479 l gs col0 s gr 
% Polyline
n 720 7515 m
 810 7515 l gs col0 s gr 
% Polyline
1 slj
n 6730 7515 m 6480 7380 l 6480 7650 l
 6730 7515 l  cp gs col0 s gr 
% Polyline
0 slj
n 6730 7515 m
 6795 7515 l gs col0 s gr 
% Polyline
n 6593 7481 m 6563 7481 l 6563 7551 l
 6533 7551 l gs col0 s gr 
% Polyline
n 6572 7481 m 6542 7481 l 6542 7551 l
 6512 7551 l gs col0 s gr 
% Polyline
n 6480 7515 m
 6390 7515 l gs col0 s gr 
% Polyline
n 3555 8415 m
 3690 8415 l gs col0 s gr 
% Polyline
n 3510 8415 m
 3375 8415 l gs col0 s gr 
% Polyline
n 3555 8325 m
 3555 8505 l gs col0 s gr 
% Polyline
n 3510 8325 m
 3510 8505 l gs col0 s gr 
% Ellipse
n 5040 1890 135 135 0 360 DrawEllipse gs col0 s gr

% Polyline
n 4995 1835 m 5040 1935 l
 5085 1835 l gs col0 s gr 
% Ellipse
n 900 4185 30 30 0 360 DrawEllipse gs col0 s gr

% Ellipse
n 1080 4275 30 30 0 360 DrawEllipse gs col0 s gr

% Ellipse
n 720 4275 30 30 0 360 DrawEllipse gs col0 s gr

% Ellipse
n 1800 4185 30 30 0 360 DrawEllipse gs col0 s gr

% Ellipse
n 1980 4275 30 30 0 360 DrawEllipse gs col0 s gr

% Ellipse
n 1620 4275 30 30 0 360 DrawEllipse gs col0 s gr

% Ellipse
n 1800 4455 30 30 0 360 DrawEllipse gs col0 s gr

% Ellipse
n 2700 4185 30 30 0 360 DrawEllipse gs col0 s gr

% Ellipse
n 2880 4275 30 30 0 360 DrawEllipse gs col0 s gr

% Ellipse
n 2520 4275 30 30 0 360 DrawEllipse gs col0 s gr

% Ellipse
n 2700 4455 30 30 0 360 DrawEllipse gs col0 s gr

% Ellipse
n 4500 4185 30 30 0 360 DrawEllipse gs col0 s gr

% Ellipse
n 4680 4275 30 30 0 360 DrawEllipse gs col0 s gr

% Ellipse
n 4320 4275 30 30 0 360 DrawEllipse gs col0 s gr

% Ellipse
n 5400 4185 30 30 0 360 DrawEllipse gs col0 s gr

% Ellipse
n 5580 4275 30 30 0 360 DrawEllipse gs col0 s gr

% Ellipse
n 5220 4275 30 30 0 360 DrawEllipse gs col0 s gr

% Ellipse
n 5400 4455 30 30 0 360 DrawEllipse gs col0 s gr

% Ellipse
n 6300 4185 30 30 0 360 DrawEllipse gs col0 s gr

% Ellipse
n 6480 4275 30 30 0 360 DrawEllipse gs col0 s gr

% Ellipse
n 6120 4275 30 30 0 360 DrawEllipse gs col0 s gr

% Ellipse
n 6300 4455 30 30 0 360 DrawEllipse gs col0 s gr

% Ellipse
gs
900 4455 tr
-135.000 rot
n 0 0 30 30 0 360 DrawEllipse 135.000 rot
gs col0 s gr
gr

% Ellipse
n 4500 4455 30 30 0 360 DrawEllipse gs col0 s gr

% Ellipse
n 900 1170 30 30 0 360 DrawEllipse gs col0 s gr

% Ellipse
n 1080 1260 30 30 0 360 DrawEllipse gs col0 s gr

% Ellipse
n 720 1260 30 30 0 360 DrawEllipse gs col0 s gr

% Ellipse
n 1800 1170 30 30 0 360 DrawEllipse gs col0 s gr

% Ellipse
n 1980 1260 30 30 0 360 DrawEllipse gs col0 s gr

% Ellipse
n 1620 1260 30 30 0 360 DrawEllipse gs col0 s gr

% Ellipse
n 2700 1170 30 30 0 360 DrawEllipse gs col0 s gr

% Ellipse
n 2880 1260 30 30 0 360 DrawEllipse gs col0 s gr

% Ellipse
n 2520 1260 30 30 0 360 DrawEllipse gs col0 s gr

% Ellipse
n 2700 1440 30 30 0 360 DrawEllipse gs col0 s gr

% Ellipse
n 4500 1170 30 30 0 360 DrawEllipse gs col0 s gr

% Ellipse
n 4680 1260 30 30 0 360 DrawEllipse gs col0 s gr

% Ellipse
n 4320 1260 30 30 0 360 DrawEllipse gs col0 s gr

% Ellipse
n 5400 1170 30 30 0 360 DrawEllipse gs col0 s gr

% Ellipse
n 5580 1260 30 30 0 360 DrawEllipse gs col0 s gr

% Ellipse
n 5220 1260 30 30 0 360 DrawEllipse gs col0 s gr

% Ellipse
n 5400 1440 30 30 0 360 DrawEllipse gs col0 s gr

% Ellipse
n 6300 1170 30 30 0 360 DrawEllipse gs col0 s gr

% Ellipse
n 6480 1260 30 30 0 360 DrawEllipse gs col0 s gr

% Ellipse
n 6120 1260 30 30 0 360 DrawEllipse gs col0 s gr

% Ellipse
n 6300 1440 30 30 0 360 DrawEllipse gs col0 s gr

% Ellipse
gs
900 1440 tr
-135.000 rot
n 0 0 30 30 0 360 DrawEllipse 135.000 rot
gs col0 s gr
gr

% Ellipse
n 4500 1440 30 30 0 360 DrawEllipse gs col0 s gr

% Ellipse
n 900 7110 30 30 0 360 DrawEllipse gs col0 s gr

% Ellipse
n 1080 7200 30 30 0 360 DrawEllipse gs col0 s gr

% Ellipse
n 720 7200 30 30 0 360 DrawEllipse gs col0 s gr

% Ellipse
n 1800 7110 30 30 0 360 DrawEllipse gs col0 s gr

% Ellipse
n 1980 7200 30 30 0 360 DrawEllipse gs col0 s gr

% Ellipse
n 1620 7200 30 30 0 360 DrawEllipse gs col0 s gr

% Ellipse
n 1800 7380 30 30 0 360 DrawEllipse gs col0 s gr

% Ellipse
n 2700 7110 30 30 0 360 DrawEllipse gs col0 s gr

% Ellipse
n 2880 7200 30 30 0 360 DrawEllipse gs col0 s gr

% Ellipse
n 2520 7200 30 30 0 360 DrawEllipse gs col0 s gr

% Ellipse
n 2700 7380 30 30 0 360 DrawEllipse gs col0 s gr

% Ellipse
n 4500 7110 30 30 0 360 DrawEllipse gs col0 s gr

% Ellipse
n 4680 7200 30 30 0 360 DrawEllipse gs col0 s gr

% Ellipse
n 4320 7200 30 30 0 360 DrawEllipse gs col0 s gr

% Ellipse
n 5400 7110 30 30 0 360 DrawEllipse gs col0 s gr

% Ellipse
n 5580 7200 30 30 0 360 DrawEllipse gs col0 s gr

% Ellipse
n 5400 7380 30 30 0 360 DrawEllipse gs col0 s gr

% Ellipse
n 6300 7110 30 30 0 360 DrawEllipse gs col0 s gr

% Ellipse
n 6480 7200 30 30 0 360 DrawEllipse gs col0 s gr

% Ellipse
n 6120 7200 30 30 0 360 DrawEllipse gs col0 s gr

% Ellipse
n 6300 7380 30 30 0 360 DrawEllipse gs col0 s gr

% Ellipse
gs
900 7380 tr
-135.000 rot
n 0 0 30 30 0 360 DrawEllipse 135.000 rot
gs col0 s gr
gr

% Ellipse
n 5220 7200 30 30 0 360 DrawEllipse gs col0 s gr

% Ellipse
n 4500 7380 30 30 0 360 DrawEllipse gs col0 s gr

% Ellipse
n 1800 1440 30 30 0 360 DrawEllipse gs col0 s gr

% Polyline
n 900 4155 m
 900 4050 l gs col0 s gr 
% Polyline
n 1080 4245 m
 1080 4050 l gs col0 s gr 
% Polyline
n 720 4245 m
 720 4050 l gs col0 s gr 
% Polyline
n 900 4485 m
 900 4590 l gs col0 s gr 
% Polyline
n 1800 4155 m
 1800 4050 l gs col0 s gr 
% Polyline
n 1980 4245 m
 1980 4050 l gs col0 s gr 
% Polyline
n 1620 4245 m
 1620 4050 l gs col0 s gr 
% Polyline
n 1800 4485 m
 1800 4590 l gs col0 s gr 
% Polyline
n 2700 4155 m
 2700 4050 l gs col0 s gr 
% Polyline
n 2880 4245 m
 2880 4050 l gs col0 s gr 
% Polyline
n 2520 4245 m
 2520 4050 l gs col0 s gr 
% Polyline
n 2700 4485 m
 2700 4590 l gs col0 s gr 
% Polyline
n 4500 4155 m
 4500 4050 l gs col0 s gr 
% Polyline
n 4680 4245 m
 4680 4050 l gs col0 s gr 
% Polyline
n 4320 4245 m
 4320 4050 l gs col0 s gr 
% Polyline
n 4500 4485 m
 4500 4590 l gs col0 s gr 
% Polyline
n 5400 4155 m
 5400 4050 l gs col0 s gr 
% Polyline
n 5580 4245 m
 5580 4050 l gs col0 s gr 
% Polyline
n 5220 4245 m
 5220 4050 l gs col0 s gr 
% Polyline
n 5400 4485 m
 5400 4590 l gs col0 s gr 
% Polyline
n 6300 4155 m
 6300 4050 l gs col0 s gr 
% Polyline
n 6480 4245 m
 6480 4050 l gs col0 s gr 
% Polyline
n 6120 4245 m
 6120 4050 l gs col0 s gr 
% Polyline
n 6300 4485 m
 6300 4590 l gs col0 s gr 
% Polyline
gs  clippath
818 4347 m 745 4273 l 713 4305 l 787 4378 l 787 4378 l 750 4310 l 818 4347 l cp
eoclip
n 880 4440 m
 740 4300 l gs col0 s gr gr

% arrowhead
n 818 4347 m 750 4310 l 787 4378 l 818 4347 l  cp gs 0.00 setgray ef gr  col0 s
% Polyline
gs  clippath
1821 4307 m 1821 4203 l 1776 4203 l 1776 4307 l 1776 4307 l 1799 4232 l 1821 4307 l cp
eoclip
n 1799 4416 m
 1799 4218 l gs col0 s gr gr

% arrowhead
n 1821 4307 m 1799 4232 l 1776 4307 l 1821 4307 l  cp gs 0.00 setgray ef gr  col0 s
% Polyline
gs  clippath
2721 4313 m 2721 4209 l 2676 4209 l 2676 4313 l 2676 4313 l 2699 4238 l 2721 4313 l cp
eoclip
n 2699 4422 m
 2699 4224 l gs col0 s gr gr

% arrowhead
n 2721 4313 m 2699 4238 l 2676 4313 l 2721 4313 l  cp gs 0.00 setgray ef gr  col0 s
% Polyline
gs  clippath
6322 4312 m 6322 4208 l 6277 4208 l 6277 4312 l 6277 4312 l 6300 4237 l 6322 4312 l cp
eoclip
n 6300 4421 m
 6300 4223 l gs col0 s gr gr

% arrowhead
n 6322 4312 m 6300 4237 l 6277 4312 l 6322 4312 l  cp gs 0.00 setgray ef gr  col0 s
% Polyline
n 3510 3600 m
 3510 3825 l gs col0 s gr 
% Polyline
1 slc
30.000 slw
n 3600 3825 m
 3420 3825 l gs col0 s gr 
% Polyline
0 slc
7.500 slw
n 4005 5445 m 4050 5490 l
 4005 5535 l gs col0 s gr 
% Polyline
n 4050 5445 m 4095 5490 l
 4050 5535 l gs col0 s gr 
% Polyline
n 4095 5490 m
 4275 5490 l gs col0 s gr 
% Polyline
n 3825 5490 m
 4050 5490 l gs col0 s gr 
% Polyline
n 4680 3960 m
 4680 4050 l gs col0 s gr 
% Polyline
n 4635 3690 m 4725 3690 l 4725 3960 l 4635 3960 l
 cp gs col0 s gr 
% Polyline
n 4680 3600 m
 4680 3690 l gs col0 s gr 
% Polyline
n 720 3960 m
 720 4050 l gs col0 s gr 
% Polyline
n 675 3690 m 765 3690 l 765 3960 l 675 3960 l
 cp gs col0 s gr 
% Polyline
n 720 3600 m
 720 3690 l gs col0 s gr 
% Polyline
n 1080 3960 m
 1080 4050 l gs col0 s gr 
% Polyline
n 1035 3690 m 1125 3690 l 1125 3960 l 1035 3960 l
 cp gs col0 s gr 
% Polyline
n 1080 3600 m
 1080 3690 l gs col0 s gr 
% Polyline
n 1620 3960 m
 1620 4050 l gs col0 s gr 
% Polyline
n 1575 3690 m 1665 3690 l 1665 3960 l 1575 3960 l
 cp gs col0 s gr 
% Polyline
n 1620 3600 m
 1620 3690 l gs col0 s gr 
% Polyline
n 1980 3960 m
 1980 4050 l gs col0 s gr 
% Polyline
n 1935 3690 m 2025 3690 l 2025 3960 l 1935 3960 l
 cp gs col0 s gr 
% Polyline
n 1980 3600 m
 1980 3690 l gs col0 s gr 
% Polyline
n 2520 3960 m
 2520 4050 l gs col0 s gr 
% Polyline
n 2475 3690 m 2565 3690 l 2565 3960 l 2475 3960 l
 cp gs col0 s gr 
% Polyline
n 2520 3600 m
 2520 3690 l gs col0 s gr 
% Polyline
n 2880 3960 m
 2880 4050 l gs col0 s gr 
% Polyline
n 2835 3690 m 2925 3690 l 2925 3960 l 2835 3960 l
 cp gs col0 s gr 
% Polyline
n 2880 3600 m
 2880 3690 l gs col0 s gr 
% Polyline
n 4320 3960 m
 4320 4050 l gs col0 s gr 
% Polyline
n 4275 3690 m 4365 3690 l 4365 3960 l 4275 3960 l
 cp gs col0 s gr 
% Polyline
n 4320 3600 m
 4320 3690 l gs col0 s gr 
% Polyline
n 900 1140 m
 900 1035 l gs col0 s gr 
% Polyline
n 1080 1230 m
 1080 1035 l gs col0 s gr 
% Polyline
n 720 1230 m
 720 1035 l gs col0 s gr 
% Polyline
n 900 1470 m
 900 1575 l gs col0 s gr 
% Polyline
n 1800 1140 m
 1800 1035 l gs col0 s gr 
% Polyline
n 1980 1230 m
 1980 1035 l gs col0 s gr 
% Polyline
n 1620 1230 m
 1620 1035 l gs col0 s gr 
% Polyline
n 1800 1470 m
 1800 1575 l gs col0 s gr 
% Polyline
n 2700 1140 m
 2700 1035 l gs col0 s gr 
% Polyline
n 2880 1230 m
 2880 1035 l gs col0 s gr 
% Polyline
n 2520 1230 m
 2520 1035 l gs col0 s gr 
% Polyline
n 2700 1470 m
 2700 1575 l gs col0 s gr 
% Polyline
n 4500 1140 m
 4500 1035 l gs col0 s gr 
% Polyline
n 4680 1230 m
 4680 1035 l gs col0 s gr 
% Polyline
n 4320 1230 m
 4320 1035 l gs col0 s gr 
% Polyline
n 4500 1470 m
 4500 1575 l gs col0 s gr 
% Polyline
n 5400 1140 m
 5400 1035 l gs col0 s gr 
% Polyline
n 5580 1230 m
 5580 1035 l gs col0 s gr 
% Polyline
n 5220 1230 m
 5220 1035 l gs col0 s gr 
% Polyline
n 5400 1470 m
 5400 1575 l gs col0 s gr 
% Polyline
n 6300 1140 m
 6300 1035 l gs col0 s gr 
% Polyline
n 6480 1230 m
 6480 1035 l gs col0 s gr 
% Polyline
n 6120 1230 m
 6120 1035 l gs col0 s gr 
% Polyline
n 6300 1470 m
 6300 1575 l gs col0 s gr 
% Polyline
gs  clippath
818 1332 m 745 1258 l 713 1290 l 787 1363 l 787 1363 l 750 1295 l 818 1332 l cp
eoclip
n 880 1425 m
 740 1285 l gs col0 s gr gr

% arrowhead
n 818 1332 m 750 1295 l 787 1363 l 818 1332 l  cp gs 0.00 setgray ef gr  col0 s
% Polyline
gs  clippath
2721 1298 m 2721 1194 l 2676 1194 l 2676 1298 l 2676 1298 l 2699 1223 l 2721 1298 l cp
eoclip
n 2699 1407 m
 2699 1209 l gs col0 s gr gr

% arrowhead
n 2721 1298 m 2699 1223 l 2676 1298 l 2721 1298 l  cp gs 0.00 setgray ef gr  col0 s
% Polyline
gs  clippath
6322 1297 m 6322 1193 l 6277 1193 l 6277 1297 l 6277 1297 l 6300 1222 l 6322 1297 l cp
eoclip
n 6300 1406 m
 6300 1208 l gs col0 s gr gr

% arrowhead
n 6322 1297 m 6300 1222 l 6277 1297 l 6322 1297 l  cp gs 0.00 setgray ef gr  col0 s
% Polyline
n 3510 585 m
 3510 810 l gs col0 s gr 
% Polyline
1 slc
30.000 slw
n 3600 810 m
 3420 810 l gs col0 s gr 
% Polyline
0 slc
7.500 slw
n 4005 2430 m 4050 2475 l
 4005 2520 l gs col0 s gr 
% Polyline
n 4050 2430 m 4095 2475 l
 4050 2520 l gs col0 s gr 
% Polyline
n 4095 2475 m
 4275 2475 l gs col0 s gr 
% Polyline
n 3825 2475 m
 4050 2475 l gs col0 s gr 
% Polyline
n 4680 945 m
 4680 1035 l gs col0 s gr 
% Polyline
n 4635 675 m 4725 675 l 4725 945 l 4635 945 l
 cp gs col0 s gr 
% Polyline
n 4680 585 m
 4680 675 l gs col0 s gr 
% Polyline
n 720 945 m
 720 1035 l gs col0 s gr 
% Polyline
n 675 675 m 765 675 l 765 945 l 675 945 l
 cp gs col0 s gr 
% Polyline
n 720 585 m
 720 675 l gs col0 s gr 
% Polyline
n 1080 945 m
 1080 1035 l gs col0 s gr 
% Polyline
n 1035 675 m 1125 675 l 1125 945 l 1035 945 l
 cp gs col0 s gr 
% Polyline
n 1080 585 m
 1080 675 l gs col0 s gr 
% Polyline
n 1620 945 m
 1620 1035 l gs col0 s gr 
% Polyline
n 1575 675 m 1665 675 l 1665 945 l 1575 945 l
 cp gs col0 s gr 
% Polyline
n 1620 585 m
 1620 675 l gs col0 s gr 
% Polyline
n 1980 945 m
 1980 1035 l gs col0 s gr 
% Polyline
n 1935 675 m 2025 675 l 2025 945 l 1935 945 l
 cp gs col0 s gr 
% Polyline
n 1980 585 m
 1980 675 l gs col0 s gr 
% Polyline
n 2520 945 m
 2520 1035 l gs col0 s gr 
% Polyline
n 2475 675 m 2565 675 l 2565 945 l 2475 945 l
 cp gs col0 s gr 
% Polyline
n 2520 585 m
 2520 675 l gs col0 s gr 
% Polyline
n 2880 945 m
 2880 1035 l gs col0 s gr 
% Polyline
n 2835 675 m 2925 675 l 2925 945 l 2835 945 l
 cp gs col0 s gr 
% Polyline
n 2880 585 m
 2880 675 l gs col0 s gr 
% Polyline
n 4320 945 m
 4320 1035 l gs col0 s gr 
% Polyline
n 4275 675 m 4365 675 l 4365 945 l 4275 945 l
 cp gs col0 s gr 
% Polyline
n 4320 585 m
 4320 675 l gs col0 s gr 
% Polyline
gs  clippath
4420 1329 m 4347 1255 l 4315 1287 l 4389 1360 l 4389 1360 l 4352 1292 l 4420 1329 l cp
eoclip
n 4482 1422 m
 4342 1282 l gs col0 s gr gr

% arrowhead
n 4420 1329 m 4352 1292 l 4389 1360 l 4420 1329 l  cp gs 0.00 setgray ef gr  col0 s
% Polyline
gs  clippath
5320 1329 m 5247 1255 l 5215 1287 l 5289 1360 l 5289 1360 l 5252 1292 l 5320 1329 l cp
eoclip
n 5382 1422 m
 5242 1282 l gs col0 s gr gr

% arrowhead
n 5320 1329 m 5252 1292 l 5289 1360 l 5320 1329 l  cp gs 0.00 setgray ef gr  col0 s
% Polyline
n 900 7080 m
 900 6975 l gs col0 s gr 
% Polyline
n 1080 7170 m
 1080 6975 l gs col0 s gr 
% Polyline
n 720 7170 m
 720 6975 l gs col0 s gr 
% Polyline
n 900 7410 m
 900 7515 l gs col0 s gr 
% Polyline
n 1800 7080 m
 1800 6975 l gs col0 s gr 
% Polyline
n 1980 7170 m
 1980 6975 l gs col0 s gr 
% Polyline
n 1620 7170 m
 1620 6975 l gs col0 s gr 
% Polyline
n 1800 7410 m
 1800 7515 l gs col0 s gr 
% Polyline
n 2700 7080 m
 2700 6975 l gs col0 s gr 
% Polyline
n 2880 7170 m
 2880 6975 l gs col0 s gr 
% Polyline
n 2520 7170 m
 2520 6975 l gs col0 s gr 
% Polyline
n 2700 7410 m
 2700 7515 l gs col0 s gr 
% Polyline
n 4500 7080 m
 4500 6975 l gs col0 s gr 
% Polyline
n 4680 7170 m
 4680 6975 l gs col0 s gr 
% Polyline
n 4320 7170 m
 4320 6975 l gs col0 s gr 
% Polyline
n 4500 7410 m
 4500 7515 l gs col0 s gr 
% Polyline
n 5400 7080 m
 5400 6975 l gs col0 s gr 
% Polyline
n 5580 7170 m
 5580 6975 l gs col0 s gr 
% Polyline
n 5220 7170 m
 5220 6975 l gs col0 s gr 
% Polyline
n 5400 7410 m
 5400 7515 l gs col0 s gr 
% Polyline
n 6300 7080 m
 6300 6975 l gs col0 s gr 
% Polyline
n 6480 7170 m
 6480 6975 l gs col0 s gr 
% Polyline
n 6120 7170 m
 6120 6975 l gs col0 s gr 
% Polyline
n 6300 7410 m
 6300 7515 l gs col0 s gr 
% Polyline
gs  clippath
818 7272 m 745 7198 l 713 7230 l 787 7303 l 787 7303 l 750 7235 l 818 7272 l cp
eoclip
n 880 7365 m
 740 7225 l gs col0 s gr gr

% arrowhead
n 818 7272 m 750 7235 l 787 7303 l 818 7272 l  cp gs 0.00 setgray ef gr  col0 s
% Polyline
gs  clippath
1821 7232 m 1821 7128 l 1776 7128 l 1776 7232 l 1776 7232 l 1799 7157 l 1821 7232 l cp
eoclip
n 1799 7341 m
 1799 7143 l gs col0 s gr gr

% arrowhead
n 1821 7232 m 1799 7157 l 1776 7232 l 1821 7232 l  cp gs 0.00 setgray ef gr  col0 s
% Polyline
gs  clippath
2721 7238 m 2721 7134 l 2676 7134 l 2676 7238 l 2676 7238 l 2699 7163 l 2721 7238 l cp
eoclip
n 2699 7347 m
 2699 7149 l gs col0 s gr gr

% arrowhead
n 2721 7238 m 2699 7163 l 2676 7238 l 2721 7238 l  cp gs 0.00 setgray ef gr  col0 s
% Polyline
n 3510 6525 m
 3510 6750 l gs col0 s gr 
% Polyline
1 slc
30.000 slw
n 3600 6750 m
 3420 6750 l gs col0 s gr 
% Polyline
0 slc
7.500 slw
n 4005 8370 m 4050 8415 l
 4005 8460 l gs col0 s gr 
% Polyline
n 4050 8370 m 4095 8415 l
 4050 8460 l gs col0 s gr 
% Polyline
n 4095 8415 m
 4275 8415 l gs col0 s gr 
% Polyline
n 3825 8415 m
 4050 8415 l gs col0 s gr 
% Polyline
n 4680 6885 m
 4680 6975 l gs col0 s gr 
% Polyline
n 4635 6615 m 4725 6615 l 4725 6885 l 4635 6885 l
 cp gs col0 s gr 
% Polyline
n 4680 6525 m
 4680 6615 l gs col0 s gr 
% Polyline
n 720 6885 m
 720 6975 l gs col0 s gr 
% Polyline
n 675 6615 m 765 6615 l 765 6885 l 675 6885 l
 cp gs col0 s gr 
% Polyline
n 720 6525 m
 720 6615 l gs col0 s gr 
% Polyline
n 1080 6885 m
 1080 6975 l gs col0 s gr 
% Polyline
n 1035 6615 m 1125 6615 l 1125 6885 l 1035 6885 l
 cp gs col0 s gr 
% Polyline
n 1080 6525 m
 1080 6615 l gs col0 s gr 
% Polyline
n 1620 6885 m
 1620 6975 l gs col0 s gr 
% Polyline
n 1575 6615 m 1665 6615 l 1665 6885 l 1575 6885 l
 cp gs col0 s gr 
% Polyline
n 1620 6525 m
 1620 6615 l gs col0 s gr 
% Polyline
n 1980 6885 m
 1980 6975 l gs col0 s gr 
% Polyline
n 1935 6615 m 2025 6615 l 2025 6885 l 1935 6885 l
 cp gs col0 s gr 
% Polyline
n 1980 6525 m
 1980 6615 l gs col0 s gr 
% Polyline
n 2520 6885 m
 2520 6975 l gs col0 s gr 
% Polyline
n 2475 6615 m 2565 6615 l 2565 6885 l 2475 6885 l
 cp gs col0 s gr 
% Polyline
n 2520 6525 m
 2520 6615 l gs col0 s gr 
% Polyline
n 2880 6885 m
 2880 6975 l gs col0 s gr 
% Polyline
n 2835 6615 m 2925 6615 l 2925 6885 l 2835 6885 l
 cp gs col0 s gr 
% Polyline
n 2880 6525 m
 2880 6615 l gs col0 s gr 
% Polyline
n 4320 6885 m
 4320 6975 l gs col0 s gr 
% Polyline
n 4275 6615 m 4365 6615 l 4365 6885 l 4275 6885 l
 cp gs col0 s gr 
% Polyline
n 4320 6525 m
 4320 6615 l gs col0 s gr 
% Polyline
gs  clippath
4702 6316 m 4702 6195 l 4657 6195 l 4657 6316 l 4657 6316 l 4680 6226 l 4702 6316 l cp
eoclip
n 4680 6435 m
 4680 6210 l gs col0 s gr gr

% arrowhead
n 4702 6316 m 4680 6226 l 4657 6316 l 4702 6316 l  cp gs 0.00 setgray ef gr  col0 s
% Polyline
gs  clippath
4702 3391 m 4702 3270 l 4657 3270 l 4657 3391 l 4657 3391 l 4680 3301 l 4702 3391 l cp
eoclip
n 4680 3510 m
 4680 3285 l gs col0 s gr gr

% arrowhead
n 4702 3391 m 4680 3301 l 4657 3391 l 4702 3391 l  cp gs 0.00 setgray ef gr  col0 s
% Polyline
gs  clippath
4702 376 m 4702 255 l 4657 255 l 4657 376 l 4657 376 l 4680 286 l 4702 376 l cp
eoclip
n 4680 495 m
 4680 270 l gs col0 s gr gr

% arrowhead
n 4702 376 m 4680 286 l 4657 376 l 4702 376 l  cp gs 0.00 setgray ef gr  col0 s
% Polyline
gs  clippath
5514 4370 m 5588 4297 l 5556 4265 l 5483 4339 l 5483 4339 l 5552 4302 l 5514 4370 l cp
eoclip
n 5422 4432 m
 5562 4292 l gs col0 s gr gr

% arrowhead
n 5514 4370 m 5552 4302 l 5483 4339 l 5514 4370 l  cp gs 0.00 setgray ef gr  col0 s
% Polyline
gs  clippath
4522 4313 m 4522 4209 l 4477 4209 l 4477 4313 l 4477 4313 l 4500 4238 l 4522 4313 l cp
eoclip
n 4500 4422 m
 4500 4224 l gs col0 s gr gr

% arrowhead
n 4522 4313 m 4500 4238 l 4477 4313 l 4522 4313 l  cp gs 0.00 setgray ef gr  col0 s
% Polyline
gs  clippath
6322 7237 m 6322 7133 l 6277 7133 l 6277 7237 l 6277 7237 l 6300 7162 l 6322 7237 l cp
eoclip
n 6300 7346 m
 6300 7148 l gs col0 s gr gr

% arrowhead
n 6322 7237 m 6300 7162 l 6277 7237 l 6322 7237 l  cp gs 0.00 setgray ef gr  col0 s
% Polyline
gs  clippath
5422 7237 m 5422 7133 l 5377 7133 l 5377 7237 l 5377 7237 l 5400 7162 l 5422 7237 l cp
eoclip
n 5400 7346 m
 5400 7148 l gs col0 s gr gr

% arrowhead
n 5422 7237 m 5400 7162 l 5377 7237 l 5422 7237 l  cp gs 0.00 setgray ef gr  col0 s
% Polyline
gs  clippath
4522 7237 m 4522 7133 l 4477 7133 l 4477 7237 l 4477 7237 l 4500 7162 l 4522 7237 l cp
eoclip
n 4500 7346 m
 4500 7148 l gs col0 s gr gr

% arrowhead
n 4522 7237 m 4500 7162 l 4477 7237 l 4522 7237 l  cp gs 0.00 setgray ef gr  col0 s
% Polyline
gs  clippath
4522 1304 m 4522 1200 l 4477 1200 l 4477 1304 l 4477 1304 l 4500 1229 l 4522 1304 l cp
eoclip
n 4500 1413 m
 4500 1215 l gs col51 s gr gr

% arrowhead
n 4522 1304 m 4500 1229 l 4477 1304 l 4522 1304 l  cp gs col51 1.00 shd ef gr  col51 s
% Polyline
gs  clippath
1720 1329 m 1647 1255 l 1615 1287 l 1689 1360 l 1689 1360 l 1652 1292 l 1720 1329 l cp
eoclip
n 1782 1422 m
 1642 1282 l gs col0 s gr gr

% arrowhead
n 1720 1329 m 1652 1292 l 1689 1360 l 1720 1329 l  cp gs 0.00 setgray ef gr  col0 s
/Helvetica ff 90.00 scf sf
4680 6165 m
gs 1 -1 sc (VCC) dup sw pop 2 div neg 0 rm  col0 sh gr
/Helvetica ff 90.00 scf sf
4680 3285 m
gs 1 -1 sc (VCC) dup sw pop 2 div neg 0 rm  col0 sh gr
/Helvetica ff 90.00 scf sf
4680 270 m
gs 1 -1 sc (VCC) dup sw pop 2 div neg 0 rm  col0 sh gr
% here ends figure;
pagefooter
showpage
%%Trailer
%EOF

%%EndDocument
 @endspecial Black Black eop end
%%Trailer

userdict /end-hook known{end-hook}if
%%EOF
