%!PS-Adobe-2.0
%%Creator: dvips(k) 5.993 Copyright 2013 Radical Eye Software
%%Title: job-001.dvi
%%CreationDate: Mon Apr  6 22:22:55 2015
%%Pages: 1
%%PageOrder: Ascend
%%BoundingBox: 156 2546 561 3229
%%EndComments
%DVIPSWebPage: (www.radicaleye.com)
%DVIPSCommandLine: dvips job-001.dvi -o job-001.dvips.ps
%DVIPSParameters: dpi=600
%DVIPSSource:  TeX output 2015.04.06:2222
%%BeginProcSet: tex.pro 0 0
%!
/TeXDict 300 dict def TeXDict begin/N{def}def/B{bind def}N/S{exch}N/X{S
N}B/A{dup}B/TR{translate}N/isls false N/vsize 11 72 mul N/hsize 8.5 72
mul N/landplus90{false}def/@rigin{isls{[0 landplus90{1 -1}{-1 1}ifelse 0
0 0]concat}if 72 Resolution div 72 VResolution div neg scale isls{
landplus90{VResolution 72 div vsize mul 0 exch}{Resolution -72 div hsize
mul 0}ifelse TR}if Resolution VResolution vsize -72 div 1 add mul TR[
matrix currentmatrix{A A round sub abs 0.00001 lt{round}if}forall round
exch round exch]setmatrix}N/@landscape{/isls true N}B/@manualfeed{
statusdict/manualfeed true put}B/@copies{/#copies X}B/FMat[1 0 0 -1 0 0]
N/FBB[0 0 0 0]N/nn 0 N/IEn 0 N/ctr 0 N/df-tail{/nn 8 dict N nn begin
/FontType 3 N/FontMatrix fntrx N/FontBBox FBB N string/base X array
/BitMaps X/BuildChar{CharBuilder}N/Encoding IEn N end A{/foo setfont}2
array copy cvx N load 0 nn put/ctr 0 N[}B/sf 0 N/df{/sf 1 N/fntrx FMat N
df-tail}B/dfs{div/sf X/fntrx[sf 0 0 sf neg 0 0]N df-tail}B/E{pop nn A
definefont setfont}B/Cw{Cd A length 5 sub get}B/Ch{Cd A length 4 sub get
}B/Cx{128 Cd A length 3 sub get sub}B/Cy{Cd A length 2 sub get 127 sub}
B/Cdx{Cd A length 1 sub get}B/Ci{Cd A type/stringtype ne{ctr get/ctr ctr
1 add N}if}B/CharBuilder{save 3 1 roll S A/base get 2 index get S
/BitMaps get S get/Cd X pop/ctr 0 N Cdx 0 Cx Cy Ch sub Cx Cw add Cy
setcachedevice Cw Ch true[1 0 0 -1 -.1 Cx sub Cy .1 sub]{Ci}imagemask
restore}B/D{/cc X A type/stringtype ne{]}if nn/base get cc ctr put nn
/BitMaps get S ctr S sf 1 ne{A A length 1 sub A 2 index S get sf div put
}if put/ctr ctr 1 add N}B/I{cc 1 add D}B/bop{userdict/bop-hook known{
bop-hook}if/SI save N @rigin 0 0 moveto/V matrix currentmatrix A 1 get A
mul exch 0 get A mul add .99 lt{/QV}{/RV}ifelse load def pop pop}N/eop{
SI restore userdict/eop-hook known{eop-hook}if showpage}N/@start{
userdict/start-hook known{start-hook}if pop/VResolution X/Resolution X
1000 div/DVImag X/IEn 256 array N 2 string 0 1 255{IEn S A 360 add 36 4
index cvrs cvn put}for pop 65781.76 div/vsize X 65781.76 div/hsize X}N
/dir 0 def/dyy{/dir 0 def}B/dyt{/dir 1 def}B/dty{/dir 2 def}B/dtt{/dir 3
def}B/p{dir 2 eq{-90 rotate show 90 rotate}{dir 3 eq{-90 rotate show 90
rotate}{show}ifelse}ifelse}N/RMat[1 0 0 -1 0 0]N/BDot 260 string N/Rx 0
N/Ry 0 N/V{}B/RV/v{/Ry X/Rx X V}B statusdict begin/product where{pop
false[(Display)(NeXT)(LaserWriter 16/600)]{A length product length le{A
length product exch 0 exch getinterval eq{pop true exit}if}{pop}ifelse}
forall}{false}ifelse end{{gsave TR -.1 .1 TR 1 1 scale Rx Ry false RMat{
BDot}imagemask grestore}}{{gsave TR -.1 .1 TR Rx Ry scale 1 1 false RMat
{BDot}imagemask grestore}}ifelse B/QV{gsave newpath transform round exch
round exch itransform moveto Rx 0 rlineto 0 Ry neg rlineto Rx neg 0
rlineto fill grestore}B/a{moveto}B/delta 0 N/tail{A/delta X 0 rmoveto}B
/M{S p delta add tail}B/b{S p tail}B/c{-4 M}B/d{-3 M}B/e{-2 M}B/f{-1 M}
B/g{0 M}B/h{1 M}B/i{2 M}B/j{3 M}B/k{4 M}B/w{0 rmoveto}B/l{p -4 w}B/m{p
-3 w}B/n{p -2 w}B/o{p -1 w}B/q{p 1 w}B/r{p 2 w}B/s{p 3 w}B/t{p 4 w}B/x{
0 S rmoveto}B/y{3 2 roll p a}B/bos{/SS save N}B/eos{SS restore}B end

%%EndProcSet
%%BeginProcSet: special.pro 0 0
%!
TeXDict begin/SDict 200 dict N SDict begin/@SpecialDefaults{/hs 612 N
/vs 792 N/ho 0 N/vo 0 N/hsc 1 N/vsc 1 N/ang 0 N/CLIP 0 N/rwiSeen false N
/rhiSeen false N/letter{}N/note{}N/a4{}N/legal{}N}B/@scaleunit 100 N
/@hscale{@scaleunit div/hsc X}B/@vscale{@scaleunit div/vsc X}B/@hsize{
/hs X/CLIP 1 N}B/@vsize{/vs X/CLIP 1 N}B/@clip{/CLIP 2 N}B/@hoffset{/ho
X}B/@voffset{/vo X}B/@angle{/ang X}B/@rwi{10 div/rwi X/rwiSeen true N}B
/@rhi{10 div/rhi X/rhiSeen true N}B/@llx{/llx X}B/@lly{/lly X}B/@urx{
/urx X}B/@ury{/ury X}B/magscale true def end/@MacSetUp{userdict/md known
{userdict/md get type/dicttype eq{userdict begin md length 10 add md
maxlength ge{/md md dup length 20 add dict copy def}if end md begin
/letter{}N/note{}N/legal{}N/od{txpose 1 0 mtx defaultmatrix dtransform S
atan/pa X newpath clippath mark{transform{itransform moveto}}{transform{
itransform lineto}}{6 -2 roll transform 6 -2 roll transform 6 -2 roll
transform{itransform 6 2 roll itransform 6 2 roll itransform 6 2 roll
curveto}}{{closepath}}pathforall newpath counttomark array astore/gc xdf
pop ct 39 0 put 10 fz 0 fs 2 F/|______Courier fnt invertflag{PaintBlack}
if}N/txpose{pxs pys scale ppr aload pop por{noflips{pop S neg S TR pop 1
-1 scale}if xflip yflip and{pop S neg S TR 180 rotate 1 -1 scale ppr 3
get ppr 1 get neg sub neg ppr 2 get ppr 0 get neg sub neg TR}if xflip
yflip not and{pop S neg S TR pop 180 rotate ppr 3 get ppr 1 get neg sub
neg 0 TR}if yflip xflip not and{ppr 1 get neg ppr 0 get neg TR}if}{
noflips{TR pop pop 270 rotate 1 -1 scale}if xflip yflip and{TR pop pop
90 rotate 1 -1 scale ppr 3 get ppr 1 get neg sub neg ppr 2 get ppr 0 get
neg sub neg TR}if xflip yflip not and{TR pop pop 90 rotate ppr 3 get ppr
1 get neg sub neg 0 TR}if yflip xflip not and{TR pop pop 270 rotate ppr
2 get ppr 0 get neg sub neg 0 S TR}if}ifelse scaleby96{ppr aload pop 4
-1 roll add 2 div 3 1 roll add 2 div 2 copy TR .96 dup scale neg S neg S
TR}if}N/cp{pop pop showpage pm restore}N end}if}if}N/normalscale{
Resolution 72 div VResolution 72 div neg scale magscale{DVImag dup scale
}if 0 setgray}N/psfts{S 65781.76 div N}N/startTexFig{/psf$SavedState
save N userdict maxlength dict begin/magscale true def normalscale
currentpoint TR/psf$ury psfts/psf$urx psfts/psf$lly psfts/psf$llx psfts
/psf$y psfts/psf$x psfts currentpoint/psf$cy X/psf$cx X/psf$sx psf$x
psf$urx psf$llx sub div N/psf$sy psf$y psf$ury psf$lly sub div N psf$sx
psf$sy scale psf$cx psf$sx div psf$llx sub psf$cy psf$sy div psf$ury sub
TR/showpage{}N/erasepage{}N/setpagedevice{pop}N/copypage{}N/p 3 def
@MacSetUp}N/doclip{psf$llx psf$lly psf$urx psf$ury currentpoint 6 2 roll
newpath 4 copy 4 2 roll moveto 6 -1 roll S lineto S lineto S lineto
closepath clip newpath moveto}N/endTexFig{end psf$SavedState restore}N
/@beginspecial{SDict begin/SpecialSave save N gsave normalscale
currentpoint TR @SpecialDefaults count/ocount X/dcount countdictstack N}
N/@setspecial{CLIP 1 eq{newpath 0 0 moveto hs 0 rlineto 0 vs rlineto hs
neg 0 rlineto closepath clip}if ho vo TR hsc vsc scale ang rotate
rwiSeen{rwi urx llx sub div rhiSeen{rhi ury lly sub div}{dup}ifelse
scale llx neg lly neg TR}{rhiSeen{rhi ury lly sub div dup scale llx neg
lly neg TR}if}ifelse CLIP 2 eq{newpath llx lly moveto urx lly lineto urx
ury lineto llx ury lineto closepath clip}if/showpage{}N/erasepage{}N
/setpagedevice{pop}N/copypage{}N newpath}N/@endspecial{count ocount sub{
pop}repeat countdictstack dcount sub{end}repeat grestore SpecialSave
restore end}N/@defspecial{SDict begin}N/@fedspecial{end}B/li{lineto}B
/rl{rlineto}B/rc{rcurveto}B/np{/SaveX currentpoint/SaveY X N 1
setlinecap newpath}N/st{stroke SaveX SaveY moveto}N/fil{fill SaveX SaveY
moveto}N/ellipse{/endangle X/startangle X/yrad X/xrad X/savematrix
matrix currentmatrix N TR xrad yrad scale 0 0 1 startangle endangle arc
savematrix setmatrix}N end

%%EndProcSet
%%BeginProcSet: color.pro 0 0
%!
TeXDict begin/setcmykcolor where{pop}{/setcmykcolor{dup 10 eq{pop
setrgbcolor}{1 sub 4 1 roll 3{3 index add neg dup 0 lt{pop 0}if 3 1 roll
}repeat setrgbcolor pop}ifelse}B}ifelse/TeXcolorcmyk{setcmykcolor}def
/TeXcolorrgb{setrgbcolor}def/TeXcolorgrey{setgray}def/TeXcolorgray{
setgray}def/TeXcolorhsb{sethsbcolor}def/currentcmykcolor where{pop}{
/currentcmykcolor{currentrgbcolor 10}B}ifelse/DC{exch dup userdict exch
known{pop pop}{X}ifelse}B/GreenYellow{0.15 0 0.69 0 setcmykcolor}DC
/Yellow{0 0 1 0 setcmykcolor}DC/Goldenrod{0 0.10 0.84 0 setcmykcolor}DC
/Dandelion{0 0.29 0.84 0 setcmykcolor}DC/Apricot{0 0.32 0.52 0
setcmykcolor}DC/Peach{0 0.50 0.70 0 setcmykcolor}DC/Melon{0 0.46 0.50 0
setcmykcolor}DC/YellowOrange{0 0.42 1 0 setcmykcolor}DC/Orange{0 0.61
0.87 0 setcmykcolor}DC/BurntOrange{0 0.51 1 0 setcmykcolor}DC
/Bittersweet{0 0.75 1 0.24 setcmykcolor}DC/RedOrange{0 0.77 0.87 0
setcmykcolor}DC/Mahogany{0 0.85 0.87 0.35 setcmykcolor}DC/Maroon{0 0.87
0.68 0.32 setcmykcolor}DC/BrickRed{0 0.89 0.94 0.28 setcmykcolor}DC/Red{
0 1 1 0 setcmykcolor}DC/OrangeRed{0 1 0.50 0 setcmykcolor}DC/RubineRed{
0 1 0.13 0 setcmykcolor}DC/WildStrawberry{0 0.96 0.39 0 setcmykcolor}DC
/Salmon{0 0.53 0.38 0 setcmykcolor}DC/CarnationPink{0 0.63 0 0
setcmykcolor}DC/Magenta{0 1 0 0 setcmykcolor}DC/VioletRed{0 0.81 0 0
setcmykcolor}DC/Rhodamine{0 0.82 0 0 setcmykcolor}DC/Mulberry{0.34 0.90
0 0.02 setcmykcolor}DC/RedViolet{0.07 0.90 0 0.34 setcmykcolor}DC
/Fuchsia{0.47 0.91 0 0.08 setcmykcolor}DC/Lavender{0 0.48 0 0
setcmykcolor}DC/Thistle{0.12 0.59 0 0 setcmykcolor}DC/Orchid{0.32 0.64 0
0 setcmykcolor}DC/DarkOrchid{0.40 0.80 0.20 0 setcmykcolor}DC/Purple{
0.45 0.86 0 0 setcmykcolor}DC/Plum{0.50 1 0 0 setcmykcolor}DC/Violet{
0.79 0.88 0 0 setcmykcolor}DC/RoyalPurple{0.75 0.90 0 0 setcmykcolor}DC
/BlueViolet{0.86 0.91 0 0.04 setcmykcolor}DC/Periwinkle{0.57 0.55 0 0
setcmykcolor}DC/CadetBlue{0.62 0.57 0.23 0 setcmykcolor}DC
/CornflowerBlue{0.65 0.13 0 0 setcmykcolor}DC/MidnightBlue{0.98 0.13 0
0.43 setcmykcolor}DC/NavyBlue{0.94 0.54 0 0 setcmykcolor}DC/RoyalBlue{1
0.50 0 0 setcmykcolor}DC/Blue{1 1 0 0 setcmykcolor}DC/Cerulean{0.94 0.11
0 0 setcmykcolor}DC/Cyan{1 0 0 0 setcmykcolor}DC/ProcessBlue{0.96 0 0 0
setcmykcolor}DC/SkyBlue{0.62 0 0.12 0 setcmykcolor}DC/Turquoise{0.85 0
0.20 0 setcmykcolor}DC/TealBlue{0.86 0 0.34 0.02 setcmykcolor}DC
/Aquamarine{0.82 0 0.30 0 setcmykcolor}DC/BlueGreen{0.85 0 0.33 0
setcmykcolor}DC/Emerald{1 0 0.50 0 setcmykcolor}DC/JungleGreen{0.99 0
0.52 0 setcmykcolor}DC/SeaGreen{0.69 0 0.50 0 setcmykcolor}DC/Green{1 0
1 0 setcmykcolor}DC/ForestGreen{0.91 0 0.88 0.12 setcmykcolor}DC
/PineGreen{0.92 0 0.59 0.25 setcmykcolor}DC/LimeGreen{0.50 0 1 0
setcmykcolor}DC/YellowGreen{0.44 0 0.74 0 setcmykcolor}DC/SpringGreen{
0.26 0 0.76 0 setcmykcolor}DC/OliveGreen{0.64 0 0.95 0.40 setcmykcolor}
DC/RawSienna{0 0.72 1 0.45 setcmykcolor}DC/Sepia{0 0.83 1 0.70
setcmykcolor}DC/Brown{0 0.81 1 0.60 setcmykcolor}DC/Tan{0.14 0.42 0.56 0
setcmykcolor}DC/Gray{0 0 0 0.50 setcmykcolor}DC/Black{0 0 0 1
setcmykcolor}DC/White{0 0 0 0 setcmykcolor}DC end

%%EndProcSet
TeXDict begin 156819571 221710428 1000 600 600 (job-001.dvi)
@start end
%%EndProlog
%%BeginSetup
%%Feature: *Resolution 600dpi
TeXDict begin
 end
%%EndSetup
%%Page: 1 1
TeXDict begin 1 0 bop Black Black 706 6263 a @beginspecial
0 @llx 0 @lly 405 @urx 682 @ury 4050 @rwi @setspecial
%%BeginDocument: job-001.fig2dev.ps
%!PS-Adobe-3.0 EPSF-3.0
%%Title: job-001.fig
%%Creator: fig2dev Version 3.2 Patchlevel 5e
%%CreationDate: Mon Apr  6 22:22:55 2015
%%BoundingBox: 156 2546 561 3229
%Magnification: 1.0000
%%EndComments
%%BeginProlog
/$F2psDict 200 dict def
$F2psDict begin
$F2psDict /mtrx matrix put
/col-1 {0 setgray} bind def
/col0 {0.000 0.000 0.000 srgb} bind def
/col1 {0.000 0.000 1.000 srgb} bind def
/col2 {0.000 1.000 0.000 srgb} bind def
/col3 {0.000 1.000 1.000 srgb} bind def
/col4 {1.000 0.000 0.000 srgb} bind def
/col5 {1.000 0.000 1.000 srgb} bind def
/col6 {1.000 1.000 0.000 srgb} bind def
/col7 {1.000 1.000 1.000 srgb} bind def
/col8 {0.000 0.000 0.560 srgb} bind def
/col9 {0.000 0.000 0.690 srgb} bind def
/col10 {0.000 0.000 0.820 srgb} bind def
/col11 {0.530 0.810 1.000 srgb} bind def
/col12 {0.000 0.560 0.000 srgb} bind def
/col13 {0.000 0.690 0.000 srgb} bind def
/col14 {0.000 0.820 0.000 srgb} bind def
/col15 {0.000 0.560 0.560 srgb} bind def
/col16 {0.000 0.690 0.690 srgb} bind def
/col17 {0.000 0.820 0.820 srgb} bind def
/col18 {0.560 0.000 0.000 srgb} bind def
/col19 {0.690 0.000 0.000 srgb} bind def
/col20 {0.820 0.000 0.000 srgb} bind def
/col21 {0.560 0.000 0.560 srgb} bind def
/col22 {0.690 0.000 0.690 srgb} bind def
/col23 {0.820 0.000 0.820 srgb} bind def
/col24 {0.500 0.190 0.000 srgb} bind def
/col25 {0.630 0.250 0.000 srgb} bind def
/col26 {0.750 0.380 0.000 srgb} bind def
/col27 {1.000 0.500 0.500 srgb} bind def
/col28 {1.000 0.630 0.630 srgb} bind def
/col29 {1.000 0.750 0.750 srgb} bind def
/col30 {1.000 0.880 0.880 srgb} bind def
/col31 {1.000 0.840 0.000 srgb} bind def
/col32 {0.255 0.271 0.255 srgb} bind def
/col33 {0.753 0.753 0.753 srgb} bind def
/col34 {0.776 0.718 0.592 srgb} bind def
/col35 {0.937 0.973 1.000 srgb} bind def
/col36 {0.502 0.502 0.502 srgb} bind def
/col37 {0.878 0.878 0.878 srgb} bind def
/col38 {0.557 0.561 0.557 srgb} bind def
/col39 {0.667 0.667 0.667 srgb} bind def
/col40 {0.333 0.333 0.333 srgb} bind def
/col41 {0.251 0.251 0.251 srgb} bind def
/col42 {0.863 0.796 0.651 srgb} bind def
/col43 {0.780 0.765 0.780 srgb} bind def
/col44 {0.337 0.318 0.318 srgb} bind def
/col45 {0.557 0.557 0.557 srgb} bind def
/col46 {0.843 0.843 0.843 srgb} bind def
/col47 {0.522 0.502 0.490 srgb} bind def
/col48 {0.824 0.824 0.824 srgb} bind def
/col49 {0.227 0.227 0.227 srgb} bind def
/col50 {0.271 0.451 0.667 srgb} bind def
/col51 {0.682 0.682 0.682 srgb} bind def
/col52 {0.482 0.475 0.647 srgb} bind def
/col53 {0.267 0.267 0.267 srgb} bind def
/col54 {0.451 0.459 0.549 srgb} bind def
/col55 {0.969 0.969 0.969 srgb} bind def
/col56 {0.388 0.365 0.808 srgb} bind def
/col57 {0.745 0.745 0.745 srgb} bind def
/col58 {0.318 0.318 0.318 srgb} bind def
/col59 {0.906 0.890 0.906 srgb} bind def
/col60 {0.000 0.000 0.286 srgb} bind def
/col61 {0.475 0.475 0.475 srgb} bind def
/col62 {0.188 0.204 0.188 srgb} bind def
/col63 {0.255 0.255 0.255 srgb} bind def
/col64 {0.780 0.714 0.588 srgb} bind def
/col65 {0.761 0.761 0.761 srgb} bind def
/col66 {0.431 0.431 0.431 srgb} bind def
/col67 {0.443 0.443 0.443 srgb} bind def
/col68 {0.200 0.200 0.200 srgb} bind def
/col69 {0.580 0.576 0.584 srgb} bind def
/col70 {0.455 0.439 0.459 srgb} bind def
/col71 {0.702 0.702 0.702 srgb} bind def
/col72 {0.765 0.765 0.765 srgb} bind def
/col73 {0.427 0.427 0.427 srgb} bind def
/col74 {0.271 0.271 0.271 srgb} bind def
/col75 {0.612 0.000 0.000 srgb} bind def
/col76 {0.549 0.549 0.549 srgb} bind def
/col77 {0.259 0.259 0.259 srgb} bind def
/col78 {0.549 0.549 0.549 srgb} bind def
/col79 {0.259 0.259 0.259 srgb} bind def
/col80 {0.549 0.549 0.549 srgb} bind def
/col81 {0.259 0.259 0.259 srgb} bind def
/col82 {0.549 0.549 0.549 srgb} bind def
/col83 {0.259 0.259 0.259 srgb} bind def
/col84 {0.549 0.549 0.549 srgb} bind def
/col85 {0.259 0.259 0.259 srgb} bind def
/col86 {0.549 0.549 0.549 srgb} bind def
/col87 {0.259 0.259 0.259 srgb} bind def

end

/cp {closepath} bind def
/ef {eofill} bind def
/gr {grestore} bind def
/gs {gsave} bind def
/sa {save} bind def
/rs {restore} bind def
/l {lineto} bind def
/m {moveto} bind def
/rm {rmoveto} bind def
/n {newpath} bind def
/s {stroke} bind def
/sh {show} bind def
/slc {setlinecap} bind def
/slj {setlinejoin} bind def
/slw {setlinewidth} bind def
/srgb {setrgbcolor} bind def
/rot {rotate} bind def
/sc {scale} bind def
/sd {setdash} bind def
/ff {findfont} bind def
/sf {setfont} bind def
/scf {scalefont} bind def
/sw {stringwidth} bind def
/tr {translate} bind def
/tnt {dup dup currentrgbcolor
  4 -2 roll dup 1 exch sub 3 -1 roll mul add
  4 -2 roll dup 1 exch sub 3 -1 roll mul add
  4 -2 roll dup 1 exch sub 3 -1 roll mul add srgb}
  bind def
/shd {dup dup currentrgbcolor 4 -2 roll mul 4 -2 roll mul
  4 -2 roll mul srgb} bind def
 /DrawEllipse {
	/endangle exch def
	/startangle exch def
	/yrad exch def
	/xrad exch def
	/y exch def
	/x exch def
	/savematrix mtrx currentmatrix def
	x y tr xrad yrad sc 0 0 1 startangle endangle arc
	closepath
	savematrix setmatrix
	} def

/$F2psBegin {$F2psDict begin /$F2psEnteredState save def} def
/$F2psEnd {$F2psEnteredState restore end} def

/pageheader {
save
newpath 0 682 moveto 0 0 lineto 405 0 lineto 405 682 lineto closepath clip newpath
-27.6 698.8 translate
1 -1 scale
$F2psBegin
10 setmiterlimit
0 slj 0 slc
 0.06299 0.06299 sc
} bind def
/pagefooter {
$F2psEnd
restore
} bind def
%%EndProlog
pageheader
%
% Fig objects follow
%
% 
% here starts figure with depth 50
% Polyline
0 slj
0 slc
7.500 slw
n 765 4365 m
 945 4365 l gs col0 s gr 
% Polyline
n 2070 4365 m
 1845 4365 l gs col0 s gr 
% Polyline
n 2970 4365 m
 2745 4365 l gs col0 s gr 
% Polyline
gs  clippath
1068 4395 m 1185 4395 l 1185 4335 l 1068 4335 l 1068 4335 l 1158 4365 l 1068 4395 l cp
eoclip
n 945 4365 m 1125 4365 l
 1170 4365 l gs col0 s gr gr

% arrowhead
n 1068 4395 m 1158 4365 l 1068 4335 l 1038 4365 l 1068 4395 l 
 cp gs 0.00 setgray ef gr  col0 s
% Polyline
n 4320 4365 m
 4545 4365 l gs col0 s gr 
% Polyline
n 5670 4365 m
 5445 4365 l gs col0 s gr 
% Polyline
n 6525 4365 m
 6345 4365 l gs col0 s gr 
% Polyline
gs  clippath
4668 4395 m 4785 4395 l 4785 4335 l 4668 4335 l 4668 4335 l 4758 4365 l 4668 4395 l cp
eoclip
n 4545 4365 m 4725 4365 l
 4770 4365 l gs col0 s gr gr

% arrowhead
n 4668 4395 m 4758 4365 l 4668 4335 l 4638 4365 l 4668 4395 l 
 cp gs 0.00 setgray ef gr  col0 s
% Polyline
n 4545 4815 m
 4545 5265 l gs col0 s gr 
% Polyline
n 6345 5265 m
 4545 5265 l gs col0 s gr 
% Polyline
n 945 4815 m
 945 5265 l gs col0 s gr 
% Polyline
n 945 5265 m
 2745 5265 l gs col0 s gr 
% Polyline
n 2970 5265 m
 2745 5265 l gs col0 s gr 
% Polyline
n 765 3375 m
 6165 3375 l gs col0 s gr 
% Polyline
n 2025 3375 m
 2025 3285 l gs col0 s gr 
% Polyline
n 2925 3375 m
 2925 3285 l gs col0 s gr 
% Polyline
n 4725 3375 m
 4725 3285 l gs col0 s gr 
% Polyline
n 5625 3375 m
 5625 3285 l gs col0 s gr 
% Polyline
n 1125 3375 m 1125 3285 l 6525 3285 l
 6525 3375 l gs col0 s gr 
% Polyline
n 765 9765 m
 945 9765 l gs col0 s gr 
% Polyline
n 2070 9765 m
 1845 9765 l gs col0 s gr 
% Polyline
n 2970 9765 m
 2745 9765 l gs col0 s gr 
% Polyline
gs  clippath
1068 9795 m 1185 9795 l 1185 9735 l 1068 9735 l 1068 9735 l 1158 9765 l 1068 9795 l cp
eoclip
n 945 9765 m 1125 9765 l
 1170 9765 l gs col0 s gr gr

% arrowhead
n 1068 9795 m 1158 9765 l 1068 9735 l 1038 9765 l 1068 9795 l 
 cp gs 0.00 setgray ef gr  col0 s
% Polyline
n 4320 9765 m
 4545 9765 l gs col0 s gr 
% Polyline
n 5670 9765 m
 5445 9765 l gs col0 s gr 
% Polyline
n 6525 9765 m
 6345 9765 l gs col0 s gr 
% Polyline
gs  clippath
4668 9795 m 4785 9795 l 4785 9735 l 4668 9735 l 4668 9735 l 4758 9765 l 4668 9795 l cp
eoclip
n 4545 9765 m 4725 9765 l
 4770 9765 l gs col0 s gr gr

% arrowhead
n 4668 9795 m 4758 9765 l 4668 9735 l 4638 9765 l 4668 9795 l 
 cp gs 0.00 setgray ef gr  col0 s
% Polyline
n 4545 10215 m
 4545 10665 l gs col0 s gr 
% Polyline
n 6345 10665 m
 4545 10665 l gs col0 s gr 
% Polyline
n 945 10215 m
 945 10665 l gs col0 s gr 
% Polyline
n 945 10665 m
 2745 10665 l gs col0 s gr 
% Polyline
n 2970 10665 m
 2745 10665 l gs col0 s gr 
% Polyline
n 765 8775 m
 6165 8775 l gs col0 s gr 
% Polyline
n 2025 8775 m
 2025 8685 l gs col0 s gr 
% Polyline
n 2925 8775 m
 2925 8685 l gs col0 s gr 
% Polyline
n 4725 8775 m
 4725 8685 l gs col0 s gr 
% Polyline
n 5625 8775 m
 5625 8685 l gs col0 s gr 
% Polyline
n 1125 8775 m 1125 8685 l 6525 8685 l
 6525 8775 l gs col0 s gr 
% Polyline
n 765 1665 m
 945 1665 l gs col0 s gr 
% Polyline
n 2070 1665 m
 1845 1665 l gs col0 s gr 
% Polyline
n 2970 1665 m
 2745 1665 l gs col0 s gr 
% Polyline
gs  clippath
1068 1695 m 1185 1695 l 1185 1635 l 1068 1635 l 1068 1635 l 1158 1665 l 1068 1695 l cp
eoclip
n 945 1665 m 1125 1665 l
 1170 1665 l gs col0 s gr gr

% arrowhead
n 1068 1695 m 1158 1665 l 1068 1635 l 1038 1665 l 1068 1695 l 
 cp gs 0.00 setgray ef gr  col0 s
% Polyline
n 4320 1665 m
 4545 1665 l gs col0 s gr 
% Polyline
n 5670 1665 m
 5445 1665 l gs col0 s gr 
% Polyline
n 6525 1665 m
 6345 1665 l gs col0 s gr 
% Polyline
gs  clippath
4668 1695 m 4785 1695 l 4785 1635 l 4668 1635 l 4668 1635 l 4758 1665 l 4668 1695 l cp
eoclip
n 4545 1665 m 4725 1665 l
 4770 1665 l gs col0 s gr gr

% arrowhead
n 4668 1695 m 4758 1665 l 4668 1635 l 4638 1665 l 4668 1695 l 
 cp gs 0.00 setgray ef gr  col0 s
% Polyline
n 4545 2115 m
 4545 2565 l gs col0 s gr 
% Polyline
n 6345 2565 m
 4545 2565 l gs col0 s gr 
% Polyline
n 945 2115 m
 945 2565 l gs col0 s gr 
% Polyline
n 945 2565 m
 2745 2565 l gs col0 s gr 
% Polyline
n 2970 2565 m
 2745 2565 l gs col0 s gr 
% Polyline
n 4365 2565 m
 4545 2565 l gs col0 s gr 
% Polyline
n 765 675 m
 6165 675 l gs col0 s gr 
% Polyline
n 2025 675 m
 2025 585 l gs col0 s gr 
% Polyline
n 2925 675 m
 2925 585 l gs col0 s gr 
% Polyline
n 4725 675 m
 4725 585 l gs col0 s gr 
% Polyline
n 5625 675 m
 5625 585 l gs col0 s gr 
% Polyline
n 1125 675 m 1125 585 l 6525 585 l
 6525 675 l gs col0 s gr 
% Polyline
n 765 7065 m
 945 7065 l gs col0 s gr 
% Polyline
n 2070 7065 m
 1845 7065 l gs col0 s gr 
% Polyline
n 2970 7065 m
 2745 7065 l gs col0 s gr 
% Polyline
gs  clippath
1068 7095 m 1185 7095 l 1185 7035 l 1068 7035 l 1068 7035 l 1158 7065 l 1068 7095 l cp
eoclip
n 945 7065 m 1125 7065 l
 1170 7065 l gs col0 s gr gr

% arrowhead
n 1068 7095 m 1158 7065 l 1068 7035 l 1038 7065 l 1068 7095 l 
 cp gs 0.00 setgray ef gr  col0 s
% Polyline
n 4320 7065 m
 4545 7065 l gs col0 s gr 
% Polyline
n 5670 7065 m
 5445 7065 l gs col0 s gr 
% Polyline
n 6525 7065 m
 6345 7065 l gs col0 s gr 
% Polyline
gs  clippath
4668 7095 m 4785 7095 l 4785 7035 l 4668 7035 l 4668 7035 l 4758 7065 l 4668 7095 l cp
eoclip
n 4545 7065 m 4725 7065 l
 4770 7065 l gs col0 s gr gr

% arrowhead
n 4668 7095 m 4758 7065 l 4668 7035 l 4638 7065 l 4668 7095 l 
 cp gs 0.00 setgray ef gr  col0 s
% Polyline
n 4545 7515 m
 4545 7965 l gs col0 s gr 
% Polyline
n 6345 7965 m
 4545 7965 l gs col0 s gr 
% Polyline
n 945 7515 m
 945 7965 l gs col0 s gr 
% Polyline
n 945 7965 m
 2745 7965 l gs col0 s gr 
% Polyline
n 2970 7965 m
 2745 7965 l gs col0 s gr 
% Polyline
n 4365 7965 m
 4545 7965 l gs col0 s gr 
% Polyline
n 765 6075 m
 6165 6075 l gs col0 s gr 
% Polyline
n 2025 6075 m
 2025 5985 l gs col0 s gr 
% Polyline
n 2925 6075 m
 2925 5985 l gs col0 s gr 
% Polyline
n 4725 6075 m
 4725 5985 l gs col0 s gr 
% Polyline
n 5625 6075 m
 5625 5985 l gs col0 s gr 
% Polyline
n 1125 6075 m 1125 5985 l 6525 5985 l
 6525 6075 l gs col0 s gr 
/Times-Bold ff 150.00 scf sf
990 4725 m
gs 1 -1 sc (PC0) col4 sh gr
/Times-Roman ff 120.00 scf sf
1890 4725 m
gs 1 -1 sc (PB0) col0 sh gr
/Times-Roman ff 120.00 scf sf
1080 4500 m
gs 1 -1 sc (ADCMUX) col0 sh gr
/Times-Roman ff 120.00 scf sf
4590 4725 m
gs 1 -1 sc (PC2) col0 sh gr
/Times-Roman ff 120.00 scf sf
4680 4500 m
gs 1 -1 sc (ADCMUX) col0 sh gr
/Times-Roman ff 120.00 scf sf
6390 4725 m
gs 1 -1 sc (PB5) col0 sh gr
/Times-Bold ff 150.00 scf sf
5490 4725 m
gs 1 -1 sc (PB4) col4 sh gr
/Times-Roman ff 120.00 scf sf
2790 4725 m
gs 1 -1 sc (PB1) col0 sh gr
/Times-Roman ff 120.00 scf sf
1035 3600 m
gs 1 -1 sc  90.0 rot (22) dup sw pop 2 div neg 0 rm  col0 sh gr
/Times-Roman ff 120.00 scf sf
1575 3600 m
gs 1 -1 sc  90.0 rot (19) dup sw pop 2 div neg 0 rm  col0 sh gr
/Times-Roman ff 120.00 scf sf
1935 3600 m
gs 1 -1 sc  90.0 rot (22) dup sw pop 2 div neg 0 rm  col0 sh gr
/Times-Roman ff 120.00 scf sf
2475 3600 m
gs 1 -1 sc  90.0 rot (19) dup sw pop 2 div neg 0 rm  col0 sh gr
/Times-Roman ff 120.00 scf sf
2835 3600 m
gs 1 -1 sc  90.0 rot (22) dup sw pop 2 div neg 0 rm  col0 sh gr
/Times-Roman ff 120.00 scf sf
4275 3600 m
gs 1 -1 sc  90.0 rot (19) dup sw pop 2 div neg 0 rm  col0 sh gr
/Times-Roman ff 120.00 scf sf
4635 3600 m
gs 1 -1 sc  90.0 rot (22) dup sw pop 2 div neg 0 rm  col0 sh gr
/Times-Roman ff 120.00 scf sf
5175 3600 m
gs 1 -1 sc  90.0 rot (19) dup sw pop 2 div neg 0 rm  col0 sh gr
/Times-Bold ff 150.00 scf sf
5535 3600 m
gs 1 -1 sc  90.0 rot (22) dup sw pop 2 div neg 0 rm  col4 sh gr
/Times-Roman ff 120.00 scf sf
6075 3600 m
gs 1 -1 sc  90.0 rot (19) dup sw pop 2 div neg 0 rm  col0 sh gr
/Times-Roman ff 120.00 scf sf
6435 3600 m
gs 1 -1 sc  90.0 rot (22) dup sw pop 2 div neg 0 rm  col0 sh gr
/Times-Roman ff 120.00 scf sf
1755 5040 m
gs 1 -1 sc  90.0 rot (680) dup sw pop 2 div neg 0 rm  col0 sh gr
/Times-Roman ff 120.00 scf sf
2655 5040 m
gs 1 -1 sc  90.0 rot (470k) dup sw pop 2 div neg 0 rm  col0 sh gr
/Times-Roman ff 150.00 scf sf
3195 5175 m
gs 1 -1 sc (TP1) dup sw pop 2 div neg 0 rm  col0 sh gr
/Times-Bold ff 150.00 scf sf
5355 5040 m
gs 1 -1 sc  90.0 rot (680) dup sw pop 2 div neg 0 rm  col4 sh gr
/Times-Roman ff 120.00 scf sf
6255 5040 m
gs 1 -1 sc  90.0 rot (470k) dup sw pop 2 div neg 0 rm  col0 sh gr
/Helvetica ff 90.00 scf sf
3555 3735 m
gs 1 -1 sc (GND) dup sw pop 2 div neg 0 rm  col0 sh gr
/Times-Bold ff 180.00 scf sf
3555 5085 m
gs 1 -1 sc (Cx) dup sw pop 2 div neg 0 rm  col0 sh gr
/Times-Roman ff 150.00 scf sf
2025 5040 m
gs 1 -1 sc  90.0 rot (R1) dup sw pop 2 div neg 0 rm  col0 sh gr
/Times-Roman ff 150.00 scf sf
2925 5040 m
gs 1 -1 sc  90.0 rot (R2) dup sw pop 2 div neg 0 rm  col0 sh gr
/Times-Roman ff 150.00 scf sf
5625 5040 m
gs 1 -1 sc  90.0 rot (R5) dup sw pop 2 div neg 0 rm  col4 sh gr
/Times-Roman ff 150.00 scf sf
6525 5040 m
gs 1 -1 sc  90.0 rot (R6) dup sw pop 2 div neg 0 rm  col0 sh gr
/Times-Roman ff 150.00 scf sf
4320 5175 m
gs 1 -1 sc (TP3) dup sw pop 2 div neg 0 rm  col0 sh gr
/Times-Bold ff 180.00 scf sf
3915 5130 m
gs 1 -1 sc (ESR) dup sw pop 2 div neg 0 rm  col0 sh gr
/Times-Bold ff 150.00 scf sf
675 3600 m
gs 1 -1 sc  90.0 rot (19) dup sw pop 2 div neg 0 rm  col4 sh gr
/Times-Bold ff 150.00 scf sf
1890 10125 m
gs 1 -1 sc (PB0) col4 sh gr
/Times-Roman ff 120.00 scf sf
1080 9900 m
gs 1 -1 sc (ADCMUX) col0 sh gr
/Times-Bold ff 150.00 scf sf
4590 10125 m
gs 1 -1 sc (PC2) col4 sh gr
/Times-Roman ff 120.00 scf sf
4680 9900 m
gs 1 -1 sc (ADCMUX) col0 sh gr
/Times-Roman ff 120.00 scf sf
6390 10125 m
gs 1 -1 sc (PB5) col0 sh gr
/Times-Roman ff 120.00 scf sf
5490 10125 m
gs 1 -1 sc (PB4) col0 sh gr
/Times-Roman ff 120.00 scf sf
2790 10125 m
gs 1 -1 sc (PB1) col0 sh gr
/Times-Roman ff 120.00 scf sf
1035 9000 m
gs 1 -1 sc  90.0 rot (22) dup sw pop 2 div neg 0 rm  col0 sh gr
/Times-Roman ff 120.00 scf sf
1575 9000 m
gs 1 -1 sc  90.0 rot (19) dup sw pop 2 div neg 0 rm  col0 sh gr
/Times-Roman ff 120.00 scf sf
2475 9000 m
gs 1 -1 sc  90.0 rot (19) dup sw pop 2 div neg 0 rm  col0 sh gr
/Times-Roman ff 120.00 scf sf
2835 9000 m
gs 1 -1 sc  90.0 rot (22) dup sw pop 2 div neg 0 rm  col0 sh gr
/Times-Roman ff 120.00 scf sf
4635 9000 m
gs 1 -1 sc  90.0 rot (22) dup sw pop 2 div neg 0 rm  col0 sh gr
/Times-Roman ff 120.00 scf sf
5175 9000 m
gs 1 -1 sc  90.0 rot (19) dup sw pop 2 div neg 0 rm  col0 sh gr
/Times-Roman ff 120.00 scf sf
6075 9000 m
gs 1 -1 sc  90.0 rot (19) dup sw pop 2 div neg 0 rm  col0 sh gr
/Times-Roman ff 120.00 scf sf
6435 9000 m
gs 1 -1 sc  90.0 rot (22) dup sw pop 2 div neg 0 rm  col0 sh gr
/Times-Roman ff 120.00 scf sf
2655 10440 m
gs 1 -1 sc  90.0 rot (470k) dup sw pop 2 div neg 0 rm  col0 sh gr
/Times-Roman ff 150.00 scf sf
3195 10575 m
gs 1 -1 sc (TP1) dup sw pop 2 div neg 0 rm  col0 sh gr
/Times-Roman ff 120.00 scf sf
6255 10440 m
gs 1 -1 sc  90.0 rot (470k) dup sw pop 2 div neg 0 rm  col0 sh gr
/Helvetica ff 90.00 scf sf
3555 9135 m
gs 1 -1 sc (GND) dup sw pop 2 div neg 0 rm  col0 sh gr
/Times-Bold ff 180.00 scf sf
3555 10485 m
gs 1 -1 sc (Cx) dup sw pop 2 div neg 0 rm  col0 sh gr
/Times-Bold ff 150.00 scf sf
2025 10440 m
gs 1 -1 sc  90.0 rot (R1) dup sw pop 2 div neg 0 rm  col4 sh gr
/Times-Roman ff 150.00 scf sf
2925 10440 m
gs 1 -1 sc  90.0 rot (R2) dup sw pop 2 div neg 0 rm  col0 sh gr
/Times-Roman ff 150.00 scf sf
5625 10440 m
gs 1 -1 sc  90.0 rot (R5) dup sw pop 2 div neg 0 rm  col0 sh gr
/Times-Roman ff 150.00 scf sf
6525 10440 m
gs 1 -1 sc  90.0 rot (R6) dup sw pop 2 div neg 0 rm  col0 sh gr
/Times-Roman ff 150.00 scf sf
4320 10575 m
gs 1 -1 sc (TP3) dup sw pop 2 div neg 0 rm  col0 sh gr
/Times-Bold ff 180.00 scf sf
3915 10530 m
gs 1 -1 sc (ESR) dup sw pop 2 div neg 0 rm  col0 sh gr
/Times-Roman ff 180.00 scf sf
3150 5625 m
gs 1 -1 sc (Forward voltage measurement with probe current) dup sw pop 2 div neg 0 rm  col0 sh gr
/Times-Roman ff 180.00 scf sf
3150 11025 m
gs 1 -1 sc (Reverse voltage measurement with probe current) dup sw pop 2 div neg 0 rm  col0 sh gr
/Times-Roman ff 120.00 scf sf
675 9000 m
gs 1 -1 sc  90.0 rot (19) dup sw pop 2 div neg 0 rm  col0 sh gr
/Times-Bold ff 150.00 scf sf
4275 9000 m
gs 1 -1 sc  90.0 rot (19) dup sw pop 2 div neg 0 rm  col4 sh gr
/Times-Bold ff 150.00 scf sf
1935 9000 m
gs 1 -1 sc  90.0 rot (22) dup sw pop 2 div neg 0 rm  col4 sh gr
/Times-Roman ff 120.00 scf sf
5535 9000 m
gs 1 -1 sc  90.0 rot (22) dup sw pop 2 div neg 0 rm  col0 sh gr
/Times-Bold ff 150.00 scf sf
990 10125 m
gs 1 -1 sc (PC0) col0 sh gr
/Times-Bold ff 150.00 scf sf
1755 10440 m
gs 1 -1 sc  90.0 rot (680) dup sw pop 2 div neg 0 rm  col4 sh gr
/Times-Roman ff 120.00 scf sf
5355 10440 m
gs 1 -1 sc  90.0 rot (680) dup sw pop 2 div neg 0 rm  col0 sh gr
/Times-Bold ff 150.00 scf sf
990 2025 m
gs 1 -1 sc (PC0) col4 sh gr
/Times-Bold ff 150.00 scf sf
1890 2025 m
gs 1 -1 sc (PB0) col4 sh gr
/Times-Roman ff 120.00 scf sf
1080 1800 m
gs 1 -1 sc (ADCMUX) col0 sh gr
/Times-Roman ff 120.00 scf sf
4590 2025 m
gs 1 -1 sc (PC2) col0 sh gr
/Times-Roman ff 120.00 scf sf
4680 1800 m
gs 1 -1 sc (ADCMUX) col0 sh gr
/Times-Roman ff 120.00 scf sf
6390 2025 m
gs 1 -1 sc (PB5) col0 sh gr
/Times-Roman ff 120.00 scf sf
5490 2025 m
gs 1 -1 sc (PB4) col0 sh gr
/Times-Roman ff 120.00 scf sf
2790 2025 m
gs 1 -1 sc (PB1) col0 sh gr
/Times-Roman ff 120.00 scf sf
1035 900 m
gs 1 -1 sc  90.0 rot (22) dup sw pop 2 div neg 0 rm  col0 sh gr
/Times-Roman ff 120.00 scf sf
1575 900 m
gs 1 -1 sc  90.0 rot (19) dup sw pop 2 div neg 0 rm  col0 sh gr
/Times-Roman ff 120.00 scf sf
2475 900 m
gs 1 -1 sc  90.0 rot (19) dup sw pop 2 div neg 0 rm  col0 sh gr
/Times-Roman ff 120.00 scf sf
2835 900 m
gs 1 -1 sc  90.0 rot (22) dup sw pop 2 div neg 0 rm  col0 sh gr
/Times-Roman ff 120.00 scf sf
4635 900 m
gs 1 -1 sc  90.0 rot (22) dup sw pop 2 div neg 0 rm  col0 sh gr
/Times-Roman ff 135.00 scf sf
5175 900 m
gs 1 -1 sc  90.0 rot (19) dup sw pop 2 div neg 0 rm  col0 sh gr
/Times-Roman ff 120.00 scf sf
6075 900 m
gs 1 -1 sc  90.0 rot (19) dup sw pop 2 div neg 0 rm  col0 sh gr
/Times-Roman ff 120.00 scf sf
6435 900 m
gs 1 -1 sc  90.0 rot (22) dup sw pop 2 div neg 0 rm  col0 sh gr
/Times-Bold ff 150.00 scf sf
1755 2340 m
gs 1 -1 sc  90.0 rot (680) dup sw pop 2 div neg 0 rm  col4 sh gr
/Times-Roman ff 120.00 scf sf
2655 2340 m
gs 1 -1 sc  90.0 rot (470k) dup sw pop 2 div neg 0 rm  col0 sh gr
/Times-Roman ff 150.00 scf sf
3195 2475 m
gs 1 -1 sc (TP1) dup sw pop 2 div neg 0 rm  col0 sh gr
/Times-Roman ff 135.00 scf sf
5355 2340 m
gs 1 -1 sc  90.0 rot (680) dup sw pop 2 div neg 0 rm  col0 sh gr
/Times-Roman ff 120.00 scf sf
6255 2340 m
gs 1 -1 sc  90.0 rot (470k) dup sw pop 2 div neg 0 rm  col0 sh gr
/Helvetica ff 90.00 scf sf
3555 1035 m
gs 1 -1 sc (GND) dup sw pop 2 div neg 0 rm  col0 sh gr
/Times-Bold ff 180.00 scf sf
3555 2385 m
gs 1 -1 sc (Cx) dup sw pop 2 div neg 0 rm  col0 sh gr
/Times-Roman ff 150.00 scf sf
2025 2340 m
gs 1 -1 sc  90.0 rot (R1) dup sw pop 2 div neg 0 rm  col4 sh gr
/Times-Roman ff 150.00 scf sf
2925 2340 m
gs 1 -1 sc  90.0 rot (R2) dup sw pop 2 div neg 0 rm  col0 sh gr
/Times-Roman ff 135.00 scf sf
5625 2340 m
gs 1 -1 sc  90.0 rot (R5) dup sw pop 2 div neg 0 rm  col0 sh gr
/Times-Roman ff 150.00 scf sf
6525 2340 m
gs 1 -1 sc  90.0 rot (R6) dup sw pop 2 div neg 0 rm  col0 sh gr
/Times-Roman ff 150.00 scf sf
4275 2475 m
gs 1 -1 sc (TP3) dup sw pop 2 div neg 0 rm  col0 sh gr
/Times-Bold ff 180.00 scf sf
3915 2430 m
gs 1 -1 sc (ESR) dup sw pop 2 div neg 0 rm  col0 sh gr
/Times-Roman ff 180.00 scf sf
3330 2880 m
gs 1 -1 sc (Forward reference measurement) dup sw pop 2 div neg 0 rm  col0 sh gr
/Times-Bold ff 150.00 scf sf
1935 900 m
gs 1 -1 sc  90.0 rot (22) dup sw pop 2 div neg 0 rm  col4 sh gr
/Times-Bold ff 150.00 scf sf
675 900 m
gs 1 -1 sc  90.0 rot (19) dup sw pop 2 div neg 0 rm  col4 sh gr
/Times-Roman ff 120.00 scf sf
4275 900 m
gs 1 -1 sc  90.0 rot (19) dup sw pop 2 div neg 0 rm  col0 sh gr
/Times-Roman ff 120.00 scf sf
5535 900 m
gs 1 -1 sc  90.0 rot (22) dup sw pop 2 div neg 0 rm  col0 sh gr
/Times-Roman ff 120.00 scf sf
990 7425 m
gs 1 -1 sc (PC0) col0 sh gr
/Times-Roman ff 120.00 scf sf
1890 7425 m
gs 1 -1 sc (PB0) col0 sh gr
/Times-Roman ff 120.00 scf sf
1080 7200 m
gs 1 -1 sc (ADCMUX) col0 sh gr
/Times-Bold ff 150.00 scf sf
4590 7425 m
gs 1 -1 sc (PC2) col4 sh gr
/Times-Roman ff 120.00 scf sf
4680 7200 m
gs 1 -1 sc (ADCMUX) col0 sh gr
/Times-Roman ff 120.00 scf sf
6390 7425 m
gs 1 -1 sc (PB5) col0 sh gr
/Times-Bold ff 150.00 scf sf
5490 7425 m
gs 1 -1 sc (PB4) col4 sh gr
/Times-Roman ff 120.00 scf sf
2790 7425 m
gs 1 -1 sc (PB1) col0 sh gr
/Times-Roman ff 120.00 scf sf
1035 6300 m
gs 1 -1 sc  90.0 rot (22) dup sw pop 2 div neg 0 rm  col0 sh gr
/Times-Roman ff 120.00 scf sf
1575 6300 m
gs 1 -1 sc  90.0 rot (19) dup sw pop 2 div neg 0 rm  col0 sh gr
/Times-Roman ff 120.00 scf sf
1935 6300 m
gs 1 -1 sc  90.0 rot (22) dup sw pop 2 div neg 0 rm  col0 sh gr
/Times-Roman ff 120.00 scf sf
2475 6300 m
gs 1 -1 sc  90.0 rot (19) dup sw pop 2 div neg 0 rm  col0 sh gr
/Times-Roman ff 120.00 scf sf
2835 6300 m
gs 1 -1 sc  90.0 rot (22) dup sw pop 2 div neg 0 rm  col0 sh gr
/Times-Roman ff 120.00 scf sf
4635 6300 m
gs 1 -1 sc  90.0 rot (22) dup sw pop 2 div neg 0 rm  col0 sh gr
/Times-Roman ff 135.00 scf sf
5175 6300 m
gs 1 -1 sc  90.0 rot (19) dup sw pop 2 div neg 0 rm  col0 sh gr
/Times-Bold ff 150.00 scf sf
5535 6300 m
gs 1 -1 sc  90.0 rot (22) dup sw pop 2 div neg 0 rm  col4 sh gr
/Times-Roman ff 120.00 scf sf
6075 6300 m
gs 1 -1 sc  90.0 rot (19) dup sw pop 2 div neg 0 rm  col0 sh gr
/Times-Roman ff 120.00 scf sf
6435 6300 m
gs 1 -1 sc  90.0 rot (22) dup sw pop 2 div neg 0 rm  col0 sh gr
/Times-Roman ff 120.00 scf sf
1755 7740 m
gs 1 -1 sc  90.0 rot (680) dup sw pop 2 div neg 0 rm  col0 sh gr
/Times-Roman ff 120.00 scf sf
2655 7740 m
gs 1 -1 sc  90.0 rot (470k) dup sw pop 2 div neg 0 rm  col0 sh gr
/Times-Roman ff 150.00 scf sf
3195 7875 m
gs 1 -1 sc (TP1) dup sw pop 2 div neg 0 rm  col0 sh gr
/Times-Bold ff 150.00 scf sf
5355 7740 m
gs 1 -1 sc  90.0 rot (680) dup sw pop 2 div neg 0 rm  col4 sh gr
/Times-Roman ff 120.00 scf sf
6255 7740 m
gs 1 -1 sc  90.0 rot (470k) dup sw pop 2 div neg 0 rm  col0 sh gr
/Helvetica ff 90.00 scf sf
3555 6435 m
gs 1 -1 sc (GND) dup sw pop 2 div neg 0 rm  col0 sh gr
/Times-Bold ff 180.00 scf sf
3555 7785 m
gs 1 -1 sc (Cx) dup sw pop 2 div neg 0 rm  col0 sh gr
/Times-Roman ff 150.00 scf sf
2025 7740 m
gs 1 -1 sc  90.0 rot (R1) dup sw pop 2 div neg 0 rm  col0 sh gr
/Times-Roman ff 150.00 scf sf
2925 7740 m
gs 1 -1 sc  90.0 rot (R2) dup sw pop 2 div neg 0 rm  col0 sh gr
/Times-Roman ff 150.00 scf sf
5625 7740 m
gs 1 -1 sc  90.0 rot (R5) dup sw pop 2 div neg 0 rm  col4 sh gr
/Times-Roman ff 150.00 scf sf
6525 7740 m
gs 1 -1 sc  90.0 rot (R6) dup sw pop 2 div neg 0 rm  col0 sh gr
/Times-Roman ff 150.00 scf sf
4275 7875 m
gs 1 -1 sc (TP3) dup sw pop 2 div neg 0 rm  col0 sh gr
/Times-Bold ff 180.00 scf sf
3915 7830 m
gs 1 -1 sc (ESR) dup sw pop 2 div neg 0 rm  col0 sh gr
/Times-Roman ff 180.00 scf sf
3375 8280 m
gs 1 -1 sc (Reverse reference measurement) dup sw pop 2 div neg 0 rm  col0 sh gr
/Times-Roman ff 120.00 scf sf
675 6300 m
gs 1 -1 sc  90.0 rot (19) dup sw pop 2 div neg 0 rm  col0 sh gr
/Times-Bold ff 150.00 scf sf
4275 6300 m
gs 1 -1 sc  90.0 rot (19) dup sw pop 2 div neg 0 rm  col4 sh gr
% here ends figure;
% 
% here starts figure with depth 0
% Polyline
1 slj
0 slc
7.500 slw
n 2410 4365 m 2160 4230 l 2160 4500 l
 2410 4365 l  cp gs col0 s gr 
% Polyline
0 slj
n 2410 4365 m
 2475 4365 l gs col0 s gr 
% Polyline
n 2273 4331 m 2243 4331 l 2243 4401 l
 2213 4401 l gs col0 s gr 
% Polyline
n 2252 4331 m 2222 4331 l 2222 4401 l
 2192 4401 l gs col0 s gr 
% Polyline
n 2160 4365 m
 2070 4365 l gs col0 s gr 
% Polyline
1 slj
n 3310 4365 m 3060 4230 l 3060 4500 l
 3310 4365 l  cp gs col0 s gr 
% Polyline
0 slj
n 3310 4365 m
 3375 4365 l gs col0 s gr 
% Polyline
n 3173 4331 m 3143 4331 l 3143 4401 l
 3113 4401 l gs col0 s gr 
% Polyline
n 3152 4331 m 3122 4331 l 3122 4401 l
 3092 4401 l gs col0 s gr 
% Polyline
n 3060 4365 m
 2970 4365 l gs col0 s gr 
% Ellipse
n 943 4363 20 20 0 360 DrawEllipse gs 0.00 setgray ef gr gs col0 s gr

% Ellipse
n 1846 4363 20 20 0 360 DrawEllipse gs 0.00 setgray ef gr gs col0 s gr

% Ellipse
n 2743 4361 20 20 0 360 DrawEllipse gs 0.00 setgray ef gr gs col0 s gr

% Ellipse
n 1845 5265 20 20 0 360 DrawEllipse gs 0.00 setgray ef gr gs col0 s gr

% Ellipse
n 2745 5265 20 20 0 360 DrawEllipse gs 0.00 setgray ef gr gs col0 s gr

% Polyline
n 1845 5175 m
 1845 5265 l gs col0 s gr 
% Polyline
n 1800 4905 m 1890 4905 l 1890 5175 l 1800 5175 l
 cp gs col0 s gr 
% Polyline
n 1845 4815 m
 1845 4905 l gs col0 s gr 
% Polyline
n 2745 5175 m
 2745 5265 l gs col0 s gr 
% Polyline
n 2700 4905 m 2790 4905 l 2790 5175 l 2700 5175 l
 cp gs col0 s gr 
% Polyline
n 2745 4815 m
 2745 4905 l gs col0 s gr 
% Polyline
n 2790 4545 m 2745 4590 l
 2700 4545 l gs col0 s gr 
% Polyline
n 2790 4590 m 2745 4635 l
 2700 4590 l gs col0 s gr 
% Polyline
n 2745 4635 m
 2745 4815 l gs col0 s gr 
% Polyline
n 2745 4365 m
 2745 4590 l gs col0 s gr 
% Polyline
n 990 4545 m 945 4590 l
 900 4545 l gs col0 s gr 
% Polyline
n 990 4590 m 945 4635 l
 900 4590 l gs col0 s gr 
% Polyline
n 945 4635 m
 945 4815 l gs col0 s gr 
% Polyline
n 945 4365 m
 945 4590 l gs col0 s gr 
% Polyline
n 1890 4545 m 1845 4590 l
 1800 4545 l gs col0 s gr 
% Polyline
n 1890 4590 m 1845 4635 l
 1800 4590 l gs col0 s gr 
% Polyline
n 1845 4635 m
 1845 4815 l gs col0 s gr 
% Polyline
n 1845 4365 m
 1845 4590 l gs col0 s gr 
% Polyline
n 6525 3735 m
 6525 3825 l gs col0 s gr 
% Polyline
n 6480 3465 m 6570 3465 l 6570 3735 l 6480 3735 l
 cp gs col0 s gr 
% Polyline
n 6525 3375 m
 6525 3465 l gs col0 s gr 
% Polyline
n 5265 3735 m
 5265 3825 l gs col0 s gr 
% Polyline
n 5220 3465 m 5310 3465 l 5310 3735 l 5220 3735 l
 cp gs col0 s gr 
% Polyline
n 5265 3375 m
 5265 3465 l gs col0 s gr 
% Polyline
n 6165 3735 m
 6165 3825 l gs col0 s gr 
% Polyline
n 6120 3465 m 6210 3465 l 6210 3735 l 6120 3735 l
 cp gs col0 s gr 
% Polyline
n 6165 3375 m
 6165 3465 l gs col0 s gr 
% Polyline
1 slj
n 6010 4365 m 5760 4230 l 5760 4500 l
 6010 4365 l  cp gs col0 s gr 
% Polyline
0 slj
n 6010 4365 m
 6075 4365 l gs col0 s gr 
% Polyline
n 5873 4331 m 5843 4331 l 5843 4401 l
 5813 4401 l gs col0 s gr 
% Polyline
n 5852 4331 m 5822 4331 l 5822 4401 l
 5792 4401 l gs col0 s gr 
% Polyline
n 5760 4365 m
 5670 4365 l gs col0 s gr 
% Polyline
1 slj
n 3980 4365 m 4230 4500 l 4230 4230 l
 3980 4365 l  cp gs col0 s gr 
% Polyline
0 slj
n 3980 4365 m
 3915 4365 l gs col0 s gr 
% Polyline
n 4117 4399 m 4147 4399 l 4147 4329 l
 4177 4329 l gs col0 s gr 
% Polyline
n 4138 4399 m 4168 4399 l 4168 4329 l
 4198 4329 l gs col0 s gr 
% Polyline
n 4230 4365 m
 4320 4365 l gs col0 s gr 
% Ellipse
n 4543 4363 20 20 0 360 DrawEllipse gs 0.00 setgray ef gr gs col0 s gr

% Ellipse
n 5446 4363 20 20 0 360 DrawEllipse gs 0.00 setgray ef gr gs col0 s gr

% Ellipse
n 6343 4361 20 20 0 360 DrawEllipse gs 0.00 setgray ef gr gs col0 s gr

% Ellipse
n 4545 5265 20 20 0 360 DrawEllipse gs 0.00 setgray ef gr gs col0 s gr

% Ellipse
n 5445 5265 20 20 0 360 DrawEllipse gs 0.00 setgray ef gr gs col0 s gr

% Polyline
n 5445 5175 m
 5445 5265 l gs col0 s gr 
% Polyline
n 5400 4905 m 5490 4905 l 5490 5175 l 5400 5175 l
 cp gs col0 s gr 
% Polyline
n 5445 4815 m
 5445 4905 l gs col0 s gr 
% Polyline
n 6345 5175 m
 6345 5265 l gs col0 s gr 
% Polyline
n 6300 4905 m 6390 4905 l 6390 5175 l 6300 5175 l
 cp gs col0 s gr 
% Polyline
n 6345 4815 m
 6345 4905 l gs col0 s gr 
% Ellipse
n 4545 5265 20 20 0 360 DrawEllipse gs 0.00 setgray ef gr gs col0 s gr

% Polyline
n 6390 4545 m 6345 4590 l
 6300 4545 l gs col0 s gr 
% Polyline
n 6390 4590 m 6345 4635 l
 6300 4590 l gs col0 s gr 
% Polyline
n 6345 4635 m
 6345 4815 l gs col0 s gr 
% Polyline
n 6345 4365 m
 6345 4590 l gs col0 s gr 
% Polyline
n 4590 4545 m 4545 4590 l
 4500 4545 l gs col0 s gr 
% Polyline
n 4590 4590 m 4545 4635 l
 4500 4590 l gs col0 s gr 
% Polyline
n 4545 4635 m
 4545 4815 l gs col0 s gr 
% Polyline
n 4545 4365 m
 4545 4590 l gs col0 s gr 
% Polyline
n 5490 4545 m 5445 4590 l
 5400 4545 l gs col0 s gr 
% Polyline
n 5490 4590 m 5445 4635 l
 5400 4590 l gs col0 s gr 
% Polyline
n 5445 4635 m
 5445 4815 l gs col0 s gr 
% Polyline
n 5445 4365 m
 5445 4590 l gs col0 s gr 
% Ellipse
n 5130 4680 135 135 0 360 DrawEllipse gs col0 s gr

% Polyline
n 5085 4625 m 5130 4725 l
 5175 4625 l gs col0 s gr 
% Ellipse
n 1665 3375 20 20 0 360 DrawEllipse gs 0.00 setgray ef gr gs col0 s gr

% Ellipse
n 2565 3375 20 20 0 360 DrawEllipse gs 0.00 setgray ef gr gs col0 s gr

% Ellipse
n 3555 3375 20 20 0 360 DrawEllipse gs 0.00 setgray ef gr gs col0 s gr

% Ellipse
n 4365 3375 20 20 0 360 DrawEllipse gs 0.00 setgray ef gr gs col0 s gr

% Ellipse
n 5265 3375 20 20 0 360 DrawEllipse gs 0.00 setgray ef gr gs col0 s gr

% Ellipse
n 2925 3285 20 20 0 360 DrawEllipse gs 0.00 setgray ef gr gs col0 s gr

% Ellipse
n 2025 3285 20 20 0 360 DrawEllipse gs 0.00 setgray ef gr gs col0 s gr

% Ellipse
n 4725 3285 20 20 0 360 DrawEllipse gs 0.00 setgray ef gr gs col0 s gr

% Ellipse
n 5625 3285 20 20 0 360 DrawEllipse gs 0.00 setgray ef gr gs col0 s gr

% Polyline
1 slj
n 515 4365 m 765 4500 l 765 4230 l
 515 4365 l  cp gs col0 s gr 
% Polyline
0 slj
n 515 4365 m
 450 4365 l gs col0 s gr 
% Polyline
n 652 4399 m 682 4399 l 682 4329 l
 712 4329 l gs col0 s gr 
% Polyline
n 673 4399 m 703 4399 l 703 4329 l
 733 4329 l gs col0 s gr 
% Polyline
n 765 4365 m
 855 4365 l gs col0 s gr 
% Polyline
1 slj
n 6775 4365 m 6525 4230 l 6525 4500 l
 6775 4365 l  cp gs col0 s gr 
% Polyline
0 slj
n 6775 4365 m
 6840 4365 l gs col0 s gr 
% Polyline
n 6638 4331 m 6608 4331 l 6608 4401 l
 6578 4401 l gs col0 s gr 
% Polyline
n 6617 4331 m 6587 4331 l 6587 4401 l
 6557 4401 l gs col0 s gr 
% Polyline
n 6525 4365 m
 6435 4365 l gs col0 s gr 
% Polyline
n 3240 5220 m 3195 5265 l
 3240 5310 l gs col0 s gr 
% Polyline
n 3195 5220 m 3150 5265 l
 3195 5310 l gs col0 s gr 
% Polyline
n 3150 5265 m
 2970 5265 l gs col0 s gr 
% Polyline
n 3420 5265 m
 3195 5265 l gs col0 s gr 
% Polyline
n 3600 5265 m
 3735 5265 l gs col0 s gr 
% Polyline
n 3555 5265 m
 3420 5265 l gs col0 s gr 
% Polyline
n 3600 5175 m
 3600 5355 l gs col0 s gr 
% Polyline
n 3555 5175 m
 3555 5355 l gs col0 s gr 
% Polyline
n 4050 5265 m
 4140 5265 l gs col0 s gr 
% Polyline
n 3780 5310 m 3780 5220 l 4050 5220 l 4050 5310 l
 cp gs col0 s gr 
% Polyline
n 3690 5265 m
 3780 5265 l gs col0 s gr 
% Polyline
n 4275 5220 m 4320 5265 l
 4275 5310 l gs col0 s gr 
% Polyline
n 4320 5220 m 4365 5265 l
 4320 5310 l gs col0 s gr 
% Polyline
n 4365 5265 m
 4545 5265 l gs col0 s gr 
% Polyline
n 4095 5265 m
 4320 5265 l gs col0 s gr 
% Polyline
n 5625 3735 m
 5625 3825 l gs col0 s gr 
% Polyline
n 5580 3465 m 5670 3465 l 5670 3735 l 5580 3735 l
 cp gs col0 s gr 
% Polyline
n 5625 3375 m
 5625 3465 l gs col0 s gr 
% Polyline
1 slj
n 2410 9765 m 2160 9630 l 2160 9900 l
 2410 9765 l  cp gs col0 s gr 
% Polyline
0 slj
n 2410 9765 m
 2475 9765 l gs col0 s gr 
% Polyline
n 2273 9731 m 2243 9731 l 2243 9801 l
 2213 9801 l gs col0 s gr 
% Polyline
n 2252 9731 m 2222 9731 l 2222 9801 l
 2192 9801 l gs col0 s gr 
% Polyline
n 2160 9765 m
 2070 9765 l gs col0 s gr 
% Polyline
1 slj
n 3310 9765 m 3060 9630 l 3060 9900 l
 3310 9765 l  cp gs col0 s gr 
% Polyline
0 slj
n 3310 9765 m
 3375 9765 l gs col0 s gr 
% Polyline
n 3173 9731 m 3143 9731 l 3143 9801 l
 3113 9801 l gs col0 s gr 
% Polyline
n 3152 9731 m 3122 9731 l 3122 9801 l
 3092 9801 l gs col0 s gr 
% Polyline
n 3060 9765 m
 2970 9765 l gs col0 s gr 
% Ellipse
n 943 9763 20 20 0 360 DrawEllipse gs 0.00 setgray ef gr gs col0 s gr

% Ellipse
n 1846 9763 20 20 0 360 DrawEllipse gs 0.00 setgray ef gr gs col0 s gr

% Ellipse
n 2743 9761 20 20 0 360 DrawEllipse gs 0.00 setgray ef gr gs col0 s gr

% Ellipse
n 1845 10665 20 20 0 360 DrawEllipse gs 0.00 setgray ef gr gs col0 s gr

% Ellipse
n 2745 10665 20 20 0 360 DrawEllipse gs 0.00 setgray ef gr gs col0 s gr

% Polyline
n 1845 10575 m
 1845 10665 l gs col0 s gr 
% Polyline
n 1800 10305 m 1890 10305 l 1890 10575 l 1800 10575 l
 cp gs col0 s gr 
% Polyline
n 1845 10215 m
 1845 10305 l gs col0 s gr 
% Polyline
n 2745 10575 m
 2745 10665 l gs col0 s gr 
% Polyline
n 2700 10305 m 2790 10305 l 2790 10575 l 2700 10575 l
 cp gs col0 s gr 
% Polyline
n 2745 10215 m
 2745 10305 l gs col0 s gr 
% Polyline
n 2790 9945 m 2745 9990 l
 2700 9945 l gs col0 s gr 
% Polyline
n 2790 9990 m 2745 10035 l
 2700 9990 l gs col0 s gr 
% Polyline
n 2745 10035 m
 2745 10215 l gs col0 s gr 
% Polyline
n 2745 9765 m
 2745 9990 l gs col0 s gr 
% Polyline
n 990 9945 m 945 9990 l
 900 9945 l gs col0 s gr 
% Polyline
n 990 9990 m 945 10035 l
 900 9990 l gs col0 s gr 
% Polyline
n 945 10035 m
 945 10215 l gs col0 s gr 
% Polyline
n 945 9765 m
 945 9990 l gs col0 s gr 
% Polyline
n 6525 9135 m
 6525 9225 l gs col0 s gr 
% Polyline
n 6480 8865 m 6570 8865 l 6570 9135 l 6480 9135 l
 cp gs col0 s gr 
% Polyline
n 6525 8775 m
 6525 8865 l gs col0 s gr 
% Polyline
n 5265 9135 m
 5265 9225 l gs col0 s gr 
% Polyline
n 5220 8865 m 5310 8865 l 5310 9135 l 5220 9135 l
 cp gs col0 s gr 
% Polyline
n 5265 8775 m
 5265 8865 l gs col0 s gr 
% Polyline
n 6165 9135 m
 6165 9225 l gs col0 s gr 
% Polyline
n 6120 8865 m 6210 8865 l 6210 9135 l 6120 9135 l
 cp gs col0 s gr 
% Polyline
n 6165 8775 m
 6165 8865 l gs col0 s gr 
% Polyline
1 slj
n 6010 9765 m 5760 9630 l 5760 9900 l
 6010 9765 l  cp gs col0 s gr 
% Polyline
0 slj
n 6010 9765 m
 6075 9765 l gs col0 s gr 
% Polyline
n 5873 9731 m 5843 9731 l 5843 9801 l
 5813 9801 l gs col0 s gr 
% Polyline
n 5852 9731 m 5822 9731 l 5822 9801 l
 5792 9801 l gs col0 s gr 
% Polyline
n 5760 9765 m
 5670 9765 l gs col0 s gr 
% Polyline
1 slj
n 3980 9765 m 4230 9900 l 4230 9630 l
 3980 9765 l  cp gs col0 s gr 
% Polyline
0 slj
n 3980 9765 m
 3915 9765 l gs col0 s gr 
% Polyline
n 4117 9799 m 4147 9799 l 4147 9729 l
 4177 9729 l gs col0 s gr 
% Polyline
n 4138 9799 m 4168 9799 l 4168 9729 l
 4198 9729 l gs col0 s gr 
% Polyline
n 4230 9765 m
 4320 9765 l gs col0 s gr 
% Ellipse
n 4543 9763 20 20 0 360 DrawEllipse gs 0.00 setgray ef gr gs col0 s gr

% Ellipse
n 5446 9763 20 20 0 360 DrawEllipse gs 0.00 setgray ef gr gs col0 s gr

% Ellipse
n 6343 9761 20 20 0 360 DrawEllipse gs 0.00 setgray ef gr gs col0 s gr

% Ellipse
n 4545 10665 20 20 0 360 DrawEllipse gs 0.00 setgray ef gr gs col0 s gr

% Ellipse
n 5445 10665 20 20 0 360 DrawEllipse gs 0.00 setgray ef gr gs col0 s gr

% Polyline
n 5445 10575 m
 5445 10665 l gs col0 s gr 
% Polyline
n 5400 10305 m 5490 10305 l 5490 10575 l 5400 10575 l
 cp gs col0 s gr 
% Polyline
n 5445 10215 m
 5445 10305 l gs col0 s gr 
% Polyline
n 6345 10575 m
 6345 10665 l gs col0 s gr 
% Polyline
n 6300 10305 m 6390 10305 l 6390 10575 l 6300 10575 l
 cp gs col0 s gr 
% Polyline
n 6345 10215 m
 6345 10305 l gs col0 s gr 
% Ellipse
n 4545 10665 20 20 0 360 DrawEllipse gs 0.00 setgray ef gr gs col0 s gr

% Polyline
n 6390 9945 m 6345 9990 l
 6300 9945 l gs col0 s gr 
% Polyline
n 6390 9990 m 6345 10035 l
 6300 9990 l gs col0 s gr 
% Polyline
n 6345 10035 m
 6345 10215 l gs col0 s gr 
% Polyline
n 6345 9765 m
 6345 9990 l gs col0 s gr 
% Polyline
n 4590 9945 m 4545 9990 l
 4500 9945 l gs col0 s gr 
% Polyline
n 4590 9990 m 4545 10035 l
 4500 9990 l gs col0 s gr 
% Polyline
n 4545 10035 m
 4545 10215 l gs col0 s gr 
% Polyline
n 4545 9765 m
 4545 9990 l gs col0 s gr 
% Polyline
n 5490 9945 m 5445 9990 l
 5400 9945 l gs col0 s gr 
% Polyline
n 5490 9990 m 5445 10035 l
 5400 9990 l gs col0 s gr 
% Polyline
n 5445 10035 m
 5445 10215 l gs col0 s gr 
% Polyline
n 5445 9765 m
 5445 9990 l gs col0 s gr 
% Ellipse
n 1665 8775 20 20 0 360 DrawEllipse gs 0.00 setgray ef gr gs col0 s gr

% Ellipse
n 2565 8775 20 20 0 360 DrawEllipse gs 0.00 setgray ef gr gs col0 s gr

% Ellipse
n 3555 8775 20 20 0 360 DrawEllipse gs 0.00 setgray ef gr gs col0 s gr

% Ellipse
n 4365 8775 20 20 0 360 DrawEllipse gs 0.00 setgray ef gr gs col0 s gr

% Ellipse
n 5265 8775 20 20 0 360 DrawEllipse gs 0.00 setgray ef gr gs col0 s gr

% Ellipse
n 2925 8685 20 20 0 360 DrawEllipse gs 0.00 setgray ef gr gs col0 s gr

% Ellipse
n 2025 8685 20 20 0 360 DrawEllipse gs 0.00 setgray ef gr gs col0 s gr

% Ellipse
n 4725 8685 20 20 0 360 DrawEllipse gs 0.00 setgray ef gr gs col0 s gr

% Ellipse
n 5625 8685 20 20 0 360 DrawEllipse gs 0.00 setgray ef gr gs col0 s gr

% Polyline
1 slj
n 515 9765 m 765 9900 l 765 9630 l
 515 9765 l  cp gs col0 s gr 
% Polyline
0 slj
n 515 9765 m
 450 9765 l gs col0 s gr 
% Polyline
n 652 9799 m 682 9799 l 682 9729 l
 712 9729 l gs col0 s gr 
% Polyline
n 673 9799 m 703 9799 l 703 9729 l
 733 9729 l gs col0 s gr 
% Polyline
n 765 9765 m
 855 9765 l gs col0 s gr 
% Polyline
1 slj
n 6775 9765 m 6525 9630 l 6525 9900 l
 6775 9765 l  cp gs col0 s gr 
% Polyline
0 slj
n 6775 9765 m
 6840 9765 l gs col0 s gr 
% Polyline
n 6638 9731 m 6608 9731 l 6608 9801 l
 6578 9801 l gs col0 s gr 
% Polyline
n 6617 9731 m 6587 9731 l 6587 9801 l
 6557 9801 l gs col0 s gr 
% Polyline
n 6525 9765 m
 6435 9765 l gs col0 s gr 
% Polyline
n 3240 10620 m 3195 10665 l
 3240 10710 l gs col0 s gr 
% Polyline
n 3195 10620 m 3150 10665 l
 3195 10710 l gs col0 s gr 
% Polyline
n 3150 10665 m
 2970 10665 l gs col0 s gr 
% Polyline
n 3420 10665 m
 3195 10665 l gs col0 s gr 
% Polyline
n 3600 10665 m
 3735 10665 l gs col0 s gr 
% Polyline
n 3555 10665 m
 3420 10665 l gs col0 s gr 
% Polyline
n 3600 10575 m
 3600 10755 l gs col0 s gr 
% Polyline
n 3555 10575 m
 3555 10755 l gs col0 s gr 
% Polyline
n 4050 10665 m
 4140 10665 l gs col0 s gr 
% Polyline
n 3780 10710 m 3780 10620 l 4050 10620 l 4050 10710 l
 cp gs col0 s gr 
% Polyline
n 3690 10665 m
 3780 10665 l gs col0 s gr 
% Polyline
n 4275 10620 m 4320 10665 l
 4275 10710 l gs col0 s gr 
% Polyline
n 4320 10620 m 4365 10665 l
 4320 10710 l gs col0 s gr 
% Polyline
n 4365 10665 m
 4545 10665 l gs col0 s gr 
% Polyline
n 4095 10665 m
 4320 10665 l gs col0 s gr 
% Polyline
n 5625 9135 m
 5625 9225 l gs col0 s gr 
% Polyline
n 5580 8865 m 5670 8865 l 5670 9135 l 5580 9135 l
 cp gs col0 s gr 
% Polyline
n 5625 8775 m
 5625 8865 l gs col0 s gr 
% Ellipse
n 1530 10080 135 135 0 360 DrawEllipse gs col0 s gr

% Polyline
n 1485 10025 m 1530 10125 l
 1575 10025 l gs col0 s gr 
% Polyline
n 1890 9945 m 1845 9990 l
 1800 9945 l gs col0 s gr 
% Polyline
n 1890 9990 m 1845 10035 l
 1800 9990 l gs col0 s gr 
% Polyline
n 1845 10035 m
 1845 10215 l gs col0 s gr 
% Polyline
n 1845 9765 m
 1845 9990 l gs col0 s gr 
% Polyline
1 slj
n 2410 1665 m 2160 1530 l 2160 1800 l
 2410 1665 l  cp gs col0 s gr 
% Polyline
0 slj
n 2410 1665 m
 2475 1665 l gs col0 s gr 
% Polyline
n 2273 1631 m 2243 1631 l 2243 1701 l
 2213 1701 l gs col0 s gr 
% Polyline
n 2252 1631 m 2222 1631 l 2222 1701 l
 2192 1701 l gs col0 s gr 
% Polyline
n 2160 1665 m
 2070 1665 l gs col0 s gr 
% Polyline
1 slj
n 3310 1665 m 3060 1530 l 3060 1800 l
 3310 1665 l  cp gs col0 s gr 
% Polyline
0 slj
n 3310 1665 m
 3375 1665 l gs col0 s gr 
% Polyline
n 3173 1631 m 3143 1631 l 3143 1701 l
 3113 1701 l gs col0 s gr 
% Polyline
n 3152 1631 m 3122 1631 l 3122 1701 l
 3092 1701 l gs col0 s gr 
% Polyline
n 3060 1665 m
 2970 1665 l gs col0 s gr 
% Ellipse
n 943 1663 20 20 0 360 DrawEllipse gs 0.00 setgray ef gr gs col0 s gr

% Ellipse
n 1846 1663 20 20 0 360 DrawEllipse gs 0.00 setgray ef gr gs col0 s gr

% Ellipse
n 2743 1661 20 20 0 360 DrawEllipse gs 0.00 setgray ef gr gs col0 s gr

% Ellipse
n 1845 2565 20 20 0 360 DrawEllipse gs 0.00 setgray ef gr gs col0 s gr

% Ellipse
n 2745 2565 20 20 0 360 DrawEllipse gs 0.00 setgray ef gr gs col0 s gr

% Polyline
n 1845 2475 m
 1845 2565 l gs col0 s gr 
% Polyline
n 1800 2205 m 1890 2205 l 1890 2475 l 1800 2475 l
 cp gs col0 s gr 
% Polyline
n 1845 2115 m
 1845 2205 l gs col0 s gr 
% Polyline
n 2745 2475 m
 2745 2565 l gs col0 s gr 
% Polyline
n 2700 2205 m 2790 2205 l 2790 2475 l 2700 2475 l
 cp gs col0 s gr 
% Polyline
n 2745 2115 m
 2745 2205 l gs col0 s gr 
% Polyline
n 2790 1845 m 2745 1890 l
 2700 1845 l gs col0 s gr 
% Polyline
n 2790 1890 m 2745 1935 l
 2700 1890 l gs col0 s gr 
% Polyline
n 2745 1935 m
 2745 2115 l gs col0 s gr 
% Polyline
n 2745 1665 m
 2745 1890 l gs col0 s gr 
% Polyline
n 990 1845 m 945 1890 l
 900 1845 l gs col0 s gr 
% Polyline
n 990 1890 m 945 1935 l
 900 1890 l gs col0 s gr 
% Polyline
n 945 1935 m
 945 2115 l gs col0 s gr 
% Polyline
n 945 1665 m
 945 1890 l gs col0 s gr 
% Polyline
n 1890 1845 m 1845 1890 l
 1800 1845 l gs col0 s gr 
% Polyline
n 1890 1890 m 1845 1935 l
 1800 1890 l gs col0 s gr 
% Polyline
n 1845 1935 m
 1845 2115 l gs col0 s gr 
% Polyline
n 1845 1665 m
 1845 1890 l gs col0 s gr 
% Polyline
n 5625 1035 m
 5625 1125 l gs col0 s gr 
% Polyline
n 5580 765 m 5670 765 l 5670 1035 l 5580 1035 l
 cp gs col0 s gr 
% Polyline
n 5625 675 m
 5625 765 l gs col0 s gr 
% Polyline
n 6525 1035 m
 6525 1125 l gs col0 s gr 
% Polyline
n 6480 765 m 6570 765 l 6570 1035 l 6480 1035 l
 cp gs col0 s gr 
% Polyline
n 6525 675 m
 6525 765 l gs col0 s gr 
% Polyline
n 5265 1035 m
 5265 1125 l gs col0 s gr 
% Polyline
n 5220 765 m 5310 765 l 5310 1035 l 5220 1035 l
 cp gs col0 s gr 
% Polyline
n 5265 675 m
 5265 765 l gs col0 s gr 
% Polyline
n 6165 1035 m
 6165 1125 l gs col0 s gr 
% Polyline
n 6120 765 m 6210 765 l 6210 1035 l 6120 1035 l
 cp gs col0 s gr 
% Polyline
n 6165 675 m
 6165 765 l gs col0 s gr 
% Polyline
1 slj
n 6010 1665 m 5760 1530 l 5760 1800 l
 6010 1665 l  cp gs col0 s gr 
% Polyline
0 slj
n 6010 1665 m
 6075 1665 l gs col0 s gr 
% Polyline
n 5873 1631 m 5843 1631 l 5843 1701 l
 5813 1701 l gs col0 s gr 
% Polyline
n 5852 1631 m 5822 1631 l 5822 1701 l
 5792 1701 l gs col0 s gr 
% Polyline
n 5760 1665 m
 5670 1665 l gs col0 s gr 
% Polyline
1 slj
n 3980 1665 m 4230 1800 l 4230 1530 l
 3980 1665 l  cp gs col0 s gr 
% Polyline
0 slj
n 3980 1665 m
 3915 1665 l gs col0 s gr 
% Polyline
n 4117 1699 m 4147 1699 l 4147 1629 l
 4177 1629 l gs col0 s gr 
% Polyline
n 4138 1699 m 4168 1699 l 4168 1629 l
 4198 1629 l gs col0 s gr 
% Polyline
n 4230 1665 m
 4320 1665 l gs col0 s gr 
% Ellipse
n 4543 1663 20 20 0 360 DrawEllipse gs 0.00 setgray ef gr gs col0 s gr

% Ellipse
n 5446 1663 20 20 0 360 DrawEllipse gs 0.00 setgray ef gr gs col0 s gr

% Ellipse
n 6343 1661 20 20 0 360 DrawEllipse gs 0.00 setgray ef gr gs col0 s gr

% Ellipse
n 4545 2565 20 20 0 360 DrawEllipse gs 0.00 setgray ef gr gs col0 s gr

% Ellipse
n 5445 2565 20 20 0 360 DrawEllipse gs 0.00 setgray ef gr gs col0 s gr

% Polyline
n 5445 2475 m
 5445 2565 l gs col0 s gr 
% Polyline
n 5400 2205 m 5490 2205 l 5490 2475 l 5400 2475 l
 cp gs col0 s gr 
% Polyline
n 5445 2115 m
 5445 2205 l gs col0 s gr 
% Polyline
n 6345 2475 m
 6345 2565 l gs col0 s gr 
% Polyline
n 6300 2205 m 6390 2205 l 6390 2475 l 6300 2475 l
 cp gs col0 s gr 
% Polyline
n 6345 2115 m
 6345 2205 l gs col0 s gr 
% Ellipse
n 4545 2565 20 20 0 360 DrawEllipse gs 0.00 setgray ef gr gs col0 s gr

% Polyline
n 6390 1845 m 6345 1890 l
 6300 1845 l gs col0 s gr 
% Polyline
n 6390 1890 m 6345 1935 l
 6300 1890 l gs col0 s gr 
% Polyline
n 6345 1935 m
 6345 2115 l gs col0 s gr 
% Polyline
n 6345 1665 m
 6345 1890 l gs col0 s gr 
% Polyline
n 5490 1845 m 5445 1890 l
 5400 1845 l gs col0 s gr 
% Polyline
n 5490 1890 m 5445 1935 l
 5400 1890 l gs col0 s gr 
% Polyline
n 5445 1935 m
 5445 2115 l gs col0 s gr 
% Polyline
n 5445 1665 m
 5445 1890 l gs col0 s gr 
% Ellipse
n 1665 675 20 20 0 360 DrawEllipse gs 0.00 setgray ef gr gs col0 s gr

% Ellipse
n 2565 675 20 20 0 360 DrawEllipse gs 0.00 setgray ef gr gs col0 s gr

% Ellipse
n 3555 675 20 20 0 360 DrawEllipse gs 0.00 setgray ef gr gs col0 s gr

% Ellipse
n 4365 675 20 20 0 360 DrawEllipse gs 0.00 setgray ef gr gs col0 s gr

% Ellipse
n 5265 675 20 20 0 360 DrawEllipse gs 0.00 setgray ef gr gs col0 s gr

% Ellipse
n 2925 585 20 20 0 360 DrawEllipse gs 0.00 setgray ef gr gs col0 s gr

% Ellipse
n 2025 585 20 20 0 360 DrawEllipse gs 0.00 setgray ef gr gs col0 s gr

% Ellipse
n 4725 585 20 20 0 360 DrawEllipse gs 0.00 setgray ef gr gs col0 s gr

% Ellipse
n 5625 585 20 20 0 360 DrawEllipse gs 0.00 setgray ef gr gs col0 s gr

% Polyline
1 slj
n 515 1665 m 765 1800 l 765 1530 l
 515 1665 l  cp gs col0 s gr 
% Polyline
0 slj
n 515 1665 m
 450 1665 l gs col0 s gr 
% Polyline
n 652 1699 m 682 1699 l 682 1629 l
 712 1629 l gs col0 s gr 
% Polyline
n 673 1699 m 703 1699 l 703 1629 l
 733 1629 l gs col0 s gr 
% Polyline
n 765 1665 m
 855 1665 l gs col0 s gr 
% Polyline
1 slj
n 6775 1665 m 6525 1530 l 6525 1800 l
 6775 1665 l  cp gs col0 s gr 
% Polyline
0 slj
n 6775 1665 m
 6840 1665 l gs col0 s gr 
% Polyline
n 6638 1631 m 6608 1631 l 6608 1701 l
 6578 1701 l gs col0 s gr 
% Polyline
n 6617 1631 m 6587 1631 l 6587 1701 l
 6557 1701 l gs col0 s gr 
% Polyline
n 6525 1665 m
 6435 1665 l gs col0 s gr 
% Polyline
n 3600 2565 m
 3735 2565 l gs col0 s gr 
% Polyline
n 3555 2565 m
 3420 2565 l gs col0 s gr 
% Polyline
n 3600 2475 m
 3600 2655 l gs col0 s gr 
% Polyline
n 3555 2475 m
 3555 2655 l gs col0 s gr 
% Polyline
n 4050 2565 m
 4140 2565 l gs col0 s gr 
% Polyline
n 3780 2610 m 3780 2520 l 4050 2520 l 4050 2610 l
 cp gs col0 s gr 
% Polyline
n 3690 2565 m
 3780 2565 l gs col0 s gr 
% Polyline
n 4320 2520 m 4365 2565 l
 4320 2610 l gs col0 s gr 
% Polyline
n 4275 2520 m 4320 2565 l
 4275 2610 l gs col0 s gr 
% Polyline
n 4095 2565 m
 4320 2565 l gs col0 s gr 
% Polyline
n 4590 1845 m 4545 1890 l
 4500 1845 l gs col0 s gr 
% Polyline
n 4590 1890 m 4545 1935 l
 4500 1890 l gs col0 s gr 
% Polyline
n 4545 1935 m
 4545 2115 l gs col0 s gr 
% Polyline
n 4545 1665 m
 4545 1890 l gs col0 s gr 
% Polyline
n 3240 2520 m 3195 2565 l
 3240 2610 l gs col0 s gr 
% Polyline
n 3195 2520 m 3150 2565 l
 3195 2610 l gs col0 s gr 
% Polyline
n 3150 2565 m
 2970 2565 l gs col0 s gr 
% Polyline
n 3420 2565 m
 3195 2565 l gs col0 s gr 
% Ellipse
n 1530 1980 135 135 0 360 DrawEllipse gs col0 s gr

% Polyline
n 1485 1925 m 1530 2025 l
 1575 1925 l gs col0 s gr 
% Polyline
1 slj
n 2410 7065 m 2160 6930 l 2160 7200 l
 2410 7065 l  cp gs col0 s gr 
% Polyline
0 slj
n 2410 7065 m
 2475 7065 l gs col0 s gr 
% Polyline
n 2273 7031 m 2243 7031 l 2243 7101 l
 2213 7101 l gs col0 s gr 
% Polyline
n 2252 7031 m 2222 7031 l 2222 7101 l
 2192 7101 l gs col0 s gr 
% Polyline
n 2160 7065 m
 2070 7065 l gs col0 s gr 
% Polyline
1 slj
n 3310 7065 m 3060 6930 l 3060 7200 l
 3310 7065 l  cp gs col0 s gr 
% Polyline
0 slj
n 3310 7065 m
 3375 7065 l gs col0 s gr 
% Polyline
n 3173 7031 m 3143 7031 l 3143 7101 l
 3113 7101 l gs col0 s gr 
% Polyline
n 3152 7031 m 3122 7031 l 3122 7101 l
 3092 7101 l gs col0 s gr 
% Polyline
n 3060 7065 m
 2970 7065 l gs col0 s gr 
% Ellipse
n 943 7063 20 20 0 360 DrawEllipse gs 0.00 setgray ef gr gs col0 s gr

% Ellipse
n 1846 7063 20 20 0 360 DrawEllipse gs 0.00 setgray ef gr gs col0 s gr

% Ellipse
n 2743 7061 20 20 0 360 DrawEllipse gs 0.00 setgray ef gr gs col0 s gr

% Ellipse
n 1845 7965 20 20 0 360 DrawEllipse gs 0.00 setgray ef gr gs col0 s gr

% Ellipse
n 2745 7965 20 20 0 360 DrawEllipse gs 0.00 setgray ef gr gs col0 s gr

% Polyline
n 1845 7875 m
 1845 7965 l gs col0 s gr 
% Polyline
n 1800 7605 m 1890 7605 l 1890 7875 l 1800 7875 l
 cp gs col0 s gr 
% Polyline
n 1845 7515 m
 1845 7605 l gs col0 s gr 
% Polyline
n 2745 7875 m
 2745 7965 l gs col0 s gr 
% Polyline
n 2700 7605 m 2790 7605 l 2790 7875 l 2700 7875 l
 cp gs col0 s gr 
% Polyline
n 2745 7515 m
 2745 7605 l gs col0 s gr 
% Polyline
n 2790 7245 m 2745 7290 l
 2700 7245 l gs col0 s gr 
% Polyline
n 2790 7290 m 2745 7335 l
 2700 7290 l gs col0 s gr 
% Polyline
n 2745 7335 m
 2745 7515 l gs col0 s gr 
% Polyline
n 2745 7065 m
 2745 7290 l gs col0 s gr 
% Polyline
n 990 7245 m 945 7290 l
 900 7245 l gs col0 s gr 
% Polyline
n 990 7290 m 945 7335 l
 900 7290 l gs col0 s gr 
% Polyline
n 945 7335 m
 945 7515 l gs col0 s gr 
% Polyline
n 945 7065 m
 945 7290 l gs col0 s gr 
% Polyline
n 1890 7245 m 1845 7290 l
 1800 7245 l gs col0 s gr 
% Polyline
n 1890 7290 m 1845 7335 l
 1800 7290 l gs col0 s gr 
% Polyline
n 1845 7335 m
 1845 7515 l gs col0 s gr 
% Polyline
n 1845 7065 m
 1845 7290 l gs col0 s gr 
% Polyline
n 5625 6435 m
 5625 6525 l gs col0 s gr 
% Polyline
n 5580 6165 m 5670 6165 l 5670 6435 l 5580 6435 l
 cp gs col0 s gr 
% Polyline
n 5625 6075 m
 5625 6165 l gs col0 s gr 
% Polyline
n 6525 6435 m
 6525 6525 l gs col0 s gr 
% Polyline
n 6480 6165 m 6570 6165 l 6570 6435 l 6480 6435 l
 cp gs col0 s gr 
% Polyline
n 6525 6075 m
 6525 6165 l gs col0 s gr 
% Polyline
n 5265 6435 m
 5265 6525 l gs col0 s gr 
% Polyline
n 5220 6165 m 5310 6165 l 5310 6435 l 5220 6435 l
 cp gs col0 s gr 
% Polyline
n 5265 6075 m
 5265 6165 l gs col0 s gr 
% Polyline
n 6165 6435 m
 6165 6525 l gs col0 s gr 
% Polyline
n 6120 6165 m 6210 6165 l 6210 6435 l 6120 6435 l
 cp gs col0 s gr 
% Polyline
n 6165 6075 m
 6165 6165 l gs col0 s gr 
% Polyline
1 slj
n 6010 7065 m 5760 6930 l 5760 7200 l
 6010 7065 l  cp gs col0 s gr 
% Polyline
0 slj
n 6010 7065 m
 6075 7065 l gs col0 s gr 
% Polyline
n 5873 7031 m 5843 7031 l 5843 7101 l
 5813 7101 l gs col0 s gr 
% Polyline
n 5852 7031 m 5822 7031 l 5822 7101 l
 5792 7101 l gs col0 s gr 
% Polyline
n 5760 7065 m
 5670 7065 l gs col0 s gr 
% Polyline
1 slj
n 3980 7065 m 4230 7200 l 4230 6930 l
 3980 7065 l  cp gs col0 s gr 
% Polyline
0 slj
n 3980 7065 m
 3915 7065 l gs col0 s gr 
% Polyline
n 4117 7099 m 4147 7099 l 4147 7029 l
 4177 7029 l gs col0 s gr 
% Polyline
n 4138 7099 m 4168 7099 l 4168 7029 l
 4198 7029 l gs col0 s gr 
% Polyline
n 4230 7065 m
 4320 7065 l gs col0 s gr 
% Ellipse
n 4543 7063 20 20 0 360 DrawEllipse gs 0.00 setgray ef gr gs col0 s gr

% Ellipse
n 5446 7063 20 20 0 360 DrawEllipse gs 0.00 setgray ef gr gs col0 s gr

% Ellipse
n 6343 7061 20 20 0 360 DrawEllipse gs 0.00 setgray ef gr gs col0 s gr

% Ellipse
n 4545 7965 20 20 0 360 DrawEllipse gs 0.00 setgray ef gr gs col0 s gr

% Ellipse
n 5445 7965 20 20 0 360 DrawEllipse gs 0.00 setgray ef gr gs col0 s gr

% Polyline
n 5445 7875 m
 5445 7965 l gs col0 s gr 
% Polyline
n 5400 7605 m 5490 7605 l 5490 7875 l 5400 7875 l
 cp gs col0 s gr 
% Polyline
n 5445 7515 m
 5445 7605 l gs col0 s gr 
% Polyline
n 6345 7875 m
 6345 7965 l gs col0 s gr 
% Polyline
n 6300 7605 m 6390 7605 l 6390 7875 l 6300 7875 l
 cp gs col0 s gr 
% Polyline
n 6345 7515 m
 6345 7605 l gs col0 s gr 
% Ellipse
n 4545 7965 20 20 0 360 DrawEllipse gs 0.00 setgray ef gr gs col0 s gr

% Polyline
n 6390 7245 m 6345 7290 l
 6300 7245 l gs col0 s gr 
% Polyline
n 6390 7290 m 6345 7335 l
 6300 7290 l gs col0 s gr 
% Polyline
n 6345 7335 m
 6345 7515 l gs col0 s gr 
% Polyline
n 6345 7065 m
 6345 7290 l gs col0 s gr 
% Polyline
n 5490 7245 m 5445 7290 l
 5400 7245 l gs col0 s gr 
% Polyline
n 5490 7290 m 5445 7335 l
 5400 7290 l gs col0 s gr 
% Polyline
n 5445 7335 m
 5445 7515 l gs col0 s gr 
% Polyline
n 5445 7065 m
 5445 7290 l gs col0 s gr 
% Polyline
n 3240 7920 m 3195 7965 l
 3240 8010 l gs col0 s gr 
% Polyline
n 3195 7920 m 3150 7965 l
 3195 8010 l gs col0 s gr 
% Polyline
n 3150 7965 m
 2970 7965 l gs col0 s gr 
% Polyline
n 3420 7965 m
 3195 7965 l gs col0 s gr 
% Ellipse
n 1665 6075 20 20 0 360 DrawEllipse gs 0.00 setgray ef gr gs col0 s gr

% Ellipse
n 2565 6075 20 20 0 360 DrawEllipse gs 0.00 setgray ef gr gs col0 s gr

% Ellipse
n 3555 6075 20 20 0 360 DrawEllipse gs 0.00 setgray ef gr gs col0 s gr

% Ellipse
n 4365 6075 20 20 0 360 DrawEllipse gs 0.00 setgray ef gr gs col0 s gr

% Ellipse
n 5265 6075 20 20 0 360 DrawEllipse gs 0.00 setgray ef gr gs col0 s gr

% Ellipse
n 2925 5985 20 20 0 360 DrawEllipse gs 0.00 setgray ef gr gs col0 s gr

% Ellipse
n 2025 5985 20 20 0 360 DrawEllipse gs 0.00 setgray ef gr gs col0 s gr

% Ellipse
n 4725 5985 20 20 0 360 DrawEllipse gs 0.00 setgray ef gr gs col0 s gr

% Ellipse
n 5625 5985 20 20 0 360 DrawEllipse gs 0.00 setgray ef gr gs col0 s gr

% Polyline
1 slj
n 515 7065 m 765 7200 l 765 6930 l
 515 7065 l  cp gs col0 s gr 
% Polyline
0 slj
n 515 7065 m
 450 7065 l gs col0 s gr 
% Polyline
n 652 7099 m 682 7099 l 682 7029 l
 712 7029 l gs col0 s gr 
% Polyline
n 673 7099 m 703 7099 l 703 7029 l
 733 7029 l gs col0 s gr 
% Polyline
n 765 7065 m
 855 7065 l gs col0 s gr 
% Polyline
1 slj
n 6775 7065 m 6525 6930 l 6525 7200 l
 6775 7065 l  cp gs col0 s gr 
% Polyline
0 slj
n 6775 7065 m
 6840 7065 l gs col0 s gr 
% Polyline
n 6638 7031 m 6608 7031 l 6608 7101 l
 6578 7101 l gs col0 s gr 
% Polyline
n 6617 7031 m 6587 7031 l 6587 7101 l
 6557 7101 l gs col0 s gr 
% Polyline
n 6525 7065 m
 6435 7065 l gs col0 s gr 
% Polyline
n 3600 7965 m
 3735 7965 l gs col0 s gr 
% Polyline
n 3555 7965 m
 3420 7965 l gs col0 s gr 
% Polyline
n 3600 7875 m
 3600 8055 l gs col0 s gr 
% Polyline
n 3555 7875 m
 3555 8055 l gs col0 s gr 
% Polyline
n 4050 7965 m
 4140 7965 l gs col0 s gr 
% Polyline
n 3780 8010 m 3780 7920 l 4050 7920 l 4050 8010 l
 cp gs col0 s gr 
% Polyline
n 3690 7965 m
 3780 7965 l gs col0 s gr 
% Polyline
n 4320 7920 m 4365 7965 l
 4320 8010 l gs col0 s gr 
% Polyline
n 4275 7920 m 4320 7965 l
 4275 8010 l gs col0 s gr 
% Polyline
n 4095 7965 m
 4320 7965 l gs col0 s gr 
% Ellipse
n 5130 7380 135 135 0 360 DrawEllipse gs col0 s gr

% Polyline
n 5085 7325 m 5130 7425 l
 5175 7325 l gs col0 s gr 
% Polyline
n 4590 7245 m 4545 7290 l
 4500 7245 l gs col0 s gr 
% Polyline
n 4590 7290 m 4545 7335 l
 4500 7290 l gs col0 s gr 
% Polyline
n 4545 7335 m
 4545 7515 l gs col0 s gr 
% Polyline
n 4545 7065 m
 4545 7290 l gs col0 s gr 
% Ellipse
n 945 3960 30 30 0 360 DrawEllipse gs col0 s gr

% Ellipse
n 1125 4050 30 30 0 360 DrawEllipse gs col0 s gr

% Ellipse
n 765 4050 30 30 0 360 DrawEllipse gs col0 s gr

% Ellipse
n 1845 3960 30 30 0 360 DrawEllipse gs col0 s gr

% Ellipse
n 2025 4050 30 30 0 360 DrawEllipse gs col0 s gr

% Ellipse
n 1665 4050 30 30 0 360 DrawEllipse gs col0 s gr

% Ellipse
n 1845 4230 30 30 0 360 DrawEllipse gs col0 s gr

% Ellipse
n 2745 3960 30 30 0 360 DrawEllipse gs col0 s gr

% Ellipse
n 2925 4050 30 30 0 360 DrawEllipse gs col0 s gr

% Ellipse
n 2565 4050 30 30 0 360 DrawEllipse gs col0 s gr

% Ellipse
n 2745 4230 30 30 0 360 DrawEllipse gs col0 s gr

% Ellipse
n 4545 3960 30 30 0 360 DrawEllipse gs col0 s gr

% Ellipse
n 4725 4050 30 30 0 360 DrawEllipse gs col0 s gr

% Ellipse
n 4365 4050 30 30 0 360 DrawEllipse gs col0 s gr

% Ellipse
n 5445 3960 30 30 0 360 DrawEllipse gs col0 s gr

% Ellipse
n 5625 4050 30 30 0 360 DrawEllipse gs col0 s gr

% Ellipse
n 5445 4230 30 30 0 360 DrawEllipse gs col0 s gr

% Ellipse
n 6345 3960 30 30 0 360 DrawEllipse gs col0 s gr

% Ellipse
n 6525 4050 30 30 0 360 DrawEllipse gs col0 s gr

% Ellipse
n 6165 4050 30 30 0 360 DrawEllipse gs col0 s gr

% Ellipse
n 6345 4230 30 30 0 360 DrawEllipse gs col0 s gr

% Ellipse
gs
945 4230 tr
-135.000 rot
n 0 0 30 30 0 360 DrawEllipse 135.000 rot
gs col0 s gr
gr

% Ellipse
n 5265 4050 30 30 0 360 DrawEllipse gs col0 s gr

% Ellipse
n 4545 4230 30 30 0 360 DrawEllipse gs col0 s gr

% Ellipse
n 945 9360 30 30 0 360 DrawEllipse gs col0 s gr

% Ellipse
n 1125 9450 30 30 0 360 DrawEllipse gs col0 s gr

% Ellipse
n 765 9450 30 30 0 360 DrawEllipse gs col0 s gr

% Ellipse
n 2025 9450 30 30 0 360 DrawEllipse gs col0 s gr

% Ellipse
n 1665 9450 30 30 0 360 DrawEllipse gs col0 s gr

% Ellipse
n 1845 9630 30 30 0 360 DrawEllipse gs col0 s gr

% Ellipse
n 2745 9360 30 30 0 360 DrawEllipse gs col0 s gr

% Ellipse
n 2925 9450 30 30 0 360 DrawEllipse gs col0 s gr

% Ellipse
n 2565 9450 30 30 0 360 DrawEllipse gs col0 s gr

% Ellipse
n 2745 9630 30 30 0 360 DrawEllipse gs col0 s gr

% Ellipse
n 4545 9360 30 30 0 360 DrawEllipse gs col0 s gr

% Ellipse
n 4725 9450 30 30 0 360 DrawEllipse gs col0 s gr

% Ellipse
n 4365 9450 30 30 0 360 DrawEllipse gs col0 s gr

% Ellipse
n 5445 9360 30 30 0 360 DrawEllipse gs col0 s gr

% Ellipse
n 5625 9450 30 30 0 360 DrawEllipse gs col0 s gr

% Ellipse
n 5445 9630 30 30 0 360 DrawEllipse gs col0 s gr

% Ellipse
n 6345 9360 30 30 0 360 DrawEllipse gs col0 s gr

% Ellipse
n 6525 9450 30 30 0 360 DrawEllipse gs col0 s gr

% Ellipse
n 6165 9450 30 30 0 360 DrawEllipse gs col0 s gr

% Ellipse
n 6345 9630 30 30 0 360 DrawEllipse gs col0 s gr

% Ellipse
gs
945 9630 tr
-135.000 rot
n 0 0 30 30 0 360 DrawEllipse 135.000 rot
gs col0 s gr
gr

% Ellipse
n 5265 9450 30 30 0 360 DrawEllipse gs col0 s gr

% Ellipse
n 4545 9630 30 30 0 360 DrawEllipse gs col0 s gr

% Ellipse
n 1845 9360 30 30 0 360 DrawEllipse gs col0 s gr

% Ellipse
n 945 1260 30 30 0 360 DrawEllipse gs col0 s gr

% Ellipse
n 1125 1350 30 30 0 360 DrawEllipse gs col0 s gr

% Ellipse
n 765 1350 30 30 0 360 DrawEllipse gs col0 s gr

% Ellipse
n 1845 1260 30 30 0 360 DrawEllipse gs col0 s gr

% Ellipse
n 2025 1350 30 30 0 360 DrawEllipse gs col0 s gr

% Ellipse
n 1665 1350 30 30 0 360 DrawEllipse gs col0 s gr

% Ellipse
n 1845 1530 30 30 0 360 DrawEllipse gs col0 s gr

% Ellipse
n 2745 1260 30 30 0 360 DrawEllipse gs col0 s gr

% Ellipse
n 2925 1350 30 30 0 360 DrawEllipse gs col0 s gr

% Ellipse
n 2565 1350 30 30 0 360 DrawEllipse gs col0 s gr

% Ellipse
n 2745 1530 30 30 0 360 DrawEllipse gs col0 s gr

% Ellipse
n 4545 1260 30 30 0 360 DrawEllipse gs col0 s gr

% Ellipse
n 4725 1350 30 30 0 360 DrawEllipse gs col0 s gr

% Ellipse
n 4365 1350 30 30 0 360 DrawEllipse gs col0 s gr

% Ellipse
n 5445 1260 30 30 0 360 DrawEllipse gs col0 s gr

% Ellipse
n 5625 1350 30 30 0 360 DrawEllipse gs col0 s gr

% Ellipse
n 5265 1350 30 30 0 360 DrawEllipse gs col0 s gr

% Ellipse
n 5445 1530 30 30 0 360 DrawEllipse gs col0 s gr

% Ellipse
n 6345 1260 30 30 0 360 DrawEllipse gs col0 s gr

% Ellipse
n 6525 1350 30 30 0 360 DrawEllipse gs col0 s gr

% Ellipse
n 6165 1350 30 30 0 360 DrawEllipse gs col0 s gr

% Ellipse
n 6345 1530 30 30 0 360 DrawEllipse gs col0 s gr

% Ellipse
n 4545 1530 30 30 0 360 DrawEllipse gs col0 s gr

% Ellipse
gs
945 1530 tr
-135.000 rot
n 0 0 30 30 0 360 DrawEllipse 135.000 rot
gs col0 s gr
gr

% Ellipse
n 945 6660 30 30 0 360 DrawEllipse gs col0 s gr

% Ellipse
n 1125 6750 30 30 0 360 DrawEllipse gs col0 s gr

% Ellipse
n 765 6750 30 30 0 360 DrawEllipse gs col0 s gr

% Ellipse
n 1845 6660 30 30 0 360 DrawEllipse gs col0 s gr

% Ellipse
n 2025 6750 30 30 0 360 DrawEllipse gs col0 s gr

% Ellipse
n 1665 6750 30 30 0 360 DrawEllipse gs col0 s gr

% Ellipse
n 1845 6930 30 30 0 360 DrawEllipse gs col0 s gr

% Ellipse
n 2745 6660 30 30 0 360 DrawEllipse gs col0 s gr

% Ellipse
n 2925 6750 30 30 0 360 DrawEllipse gs col0 s gr

% Ellipse
n 2565 6750 30 30 0 360 DrawEllipse gs col0 s gr

% Ellipse
n 2745 6930 30 30 0 360 DrawEllipse gs col0 s gr

% Ellipse
n 4545 6660 30 30 0 360 DrawEllipse gs col0 s gr

% Ellipse
n 4725 6750 30 30 0 360 DrawEllipse gs col0 s gr

% Ellipse
n 4365 6750 30 30 0 360 DrawEllipse gs col0 s gr

% Ellipse
n 5445 6660 30 30 0 360 DrawEllipse gs col0 s gr

% Ellipse
n 5625 6750 30 30 0 360 DrawEllipse gs col0 s gr

% Ellipse
n 5265 6750 30 30 0 360 DrawEllipse gs col0 s gr

% Ellipse
n 5445 6930 30 30 0 360 DrawEllipse gs col0 s gr

% Ellipse
n 6345 6660 30 30 0 360 DrawEllipse gs col0 s gr

% Ellipse
n 6525 6750 30 30 0 360 DrawEllipse gs col0 s gr

% Ellipse
n 6165 6750 30 30 0 360 DrawEllipse gs col0 s gr

% Ellipse
n 6345 6930 30 30 0 360 DrawEllipse gs col0 s gr

% Ellipse
gs
945 6930 tr
-135.000 rot
n 0 0 30 30 0 360 DrawEllipse 135.000 rot
gs col0 s gr
gr

% Ellipse
n 4545 6930 30 30 0 360 DrawEllipse gs col0 s gr

% Polyline
n 945 3930 m
 945 3825 l gs col0 s gr 
% Polyline
n 1125 4020 m
 1125 3825 l gs col0 s gr 
% Polyline
n 765 4020 m
 765 3825 l gs col0 s gr 
% Polyline
n 945 4260 m
 945 4365 l gs col0 s gr 
% Polyline
n 1845 3930 m
 1845 3825 l gs col0 s gr 
% Polyline
n 2025 4020 m
 2025 3825 l gs col0 s gr 
% Polyline
n 1665 4020 m
 1665 3825 l gs col0 s gr 
% Polyline
n 1845 4260 m
 1845 4365 l gs col0 s gr 
% Polyline
n 2745 3930 m
 2745 3825 l gs col0 s gr 
% Polyline
n 2925 4020 m
 2925 3825 l gs col0 s gr 
% Polyline
n 2565 4020 m
 2565 3825 l gs col0 s gr 
% Polyline
n 2745 4260 m
 2745 4365 l gs col0 s gr 
% Polyline
n 4545 3930 m
 4545 3825 l gs col0 s gr 
% Polyline
n 4725 4020 m
 4725 3825 l gs col0 s gr 
% Polyline
n 4365 4020 m
 4365 3825 l gs col0 s gr 
% Polyline
n 4545 4260 m
 4545 4365 l gs col0 s gr 
% Polyline
n 5445 3930 m
 5445 3825 l gs col0 s gr 
% Polyline
n 5625 4020 m
 5625 3825 l gs col0 s gr 
% Polyline
n 5265 4020 m
 5265 3825 l gs col0 s gr 
% Polyline
n 5445 4260 m
 5445 4365 l gs col0 s gr 
% Polyline
n 6345 3930 m
 6345 3825 l gs col0 s gr 
% Polyline
n 6525 4020 m
 6525 3825 l gs col0 s gr 
% Polyline
n 6165 4020 m
 6165 3825 l gs col0 s gr 
% Polyline
n 6345 4260 m
 6345 4365 l gs col0 s gr 
% Polyline
gs  clippath
863 4122 m 790 4048 l 758 4080 l 832 4153 l 832 4153 l 795 4085 l 863 4122 l cp
eoclip
n 925 4215 m
 785 4075 l gs col0 s gr gr

% arrowhead
n 863 4122 m 795 4085 l 832 4153 l 863 4122 l  cp gs 0.00 setgray ef gr  col0 s
% Polyline
gs  clippath
1866 4082 m 1866 3978 l 1821 3978 l 1821 4082 l 1821 4082 l 1844 4007 l 1866 4082 l cp
eoclip
n 1844 4191 m
 1844 3993 l gs col0 s gr gr

% arrowhead
n 1866 4082 m 1844 4007 l 1821 4082 l 1866 4082 l  cp gs 0.00 setgray ef gr  col0 s
% Polyline
gs  clippath
2766 4088 m 2766 3984 l 2721 3984 l 2721 4088 l 2721 4088 l 2744 4013 l 2766 4088 l cp
eoclip
n 2744 4197 m
 2744 3999 l gs col0 s gr gr

% arrowhead
n 2766 4088 m 2744 4013 l 2721 4088 l 2766 4088 l  cp gs 0.00 setgray ef gr  col0 s
% Polyline
n 3555 3375 m
 3555 3600 l gs col0 s gr 
% Polyline
1 slc
30.000 slw
n 3645 3600 m
 3465 3600 l gs col0 s gr 
% Polyline
0 slc
7.500 slw
n 4725 3735 m
 4725 3825 l gs col0 s gr 
% Polyline
n 4680 3465 m 4770 3465 l 4770 3735 l 4680 3735 l
 cp gs col0 s gr 
% Polyline
n 4725 3375 m
 4725 3465 l gs col0 s gr 
% Polyline
n 765 3735 m
 765 3825 l gs col0 s gr 
% Polyline
n 720 3465 m 810 3465 l 810 3735 l 720 3735 l
 cp gs col0 s gr 
% Polyline
n 765 3375 m
 765 3465 l gs col0 s gr 
% Polyline
n 1125 3735 m
 1125 3825 l gs col0 s gr 
% Polyline
n 1080 3465 m 1170 3465 l 1170 3735 l 1080 3735 l
 cp gs col0 s gr 
% Polyline
n 1125 3375 m
 1125 3465 l gs col0 s gr 
% Polyline
n 1665 3735 m
 1665 3825 l gs col0 s gr 
% Polyline
n 1620 3465 m 1710 3465 l 1710 3735 l 1620 3735 l
 cp gs col0 s gr 
% Polyline
n 1665 3375 m
 1665 3465 l gs col0 s gr 
% Polyline
n 2025 3735 m
 2025 3825 l gs col0 s gr 
% Polyline
n 1980 3465 m 2070 3465 l 2070 3735 l 1980 3735 l
 cp gs col0 s gr 
% Polyline
n 2025 3375 m
 2025 3465 l gs col0 s gr 
% Polyline
n 2565 3735 m
 2565 3825 l gs col0 s gr 
% Polyline
n 2520 3465 m 2610 3465 l 2610 3735 l 2520 3735 l
 cp gs col0 s gr 
% Polyline
n 2565 3375 m
 2565 3465 l gs col0 s gr 
% Polyline
n 2925 3735 m
 2925 3825 l gs col0 s gr 
% Polyline
n 2880 3465 m 2970 3465 l 2970 3735 l 2880 3735 l
 cp gs col0 s gr 
% Polyline
n 2925 3375 m
 2925 3465 l gs col0 s gr 
% Polyline
n 4365 3735 m
 4365 3825 l gs col0 s gr 
% Polyline
n 4320 3465 m 4410 3465 l 4410 3735 l 4320 3735 l
 cp gs col0 s gr 
% Polyline
n 4365 3375 m
 4365 3465 l gs col0 s gr 
% Polyline
gs  clippath
4747 3166 m 4747 3045 l 4702 3045 l 4702 3166 l 4702 3166 l 4725 3076 l 4747 3166 l cp
eoclip
n 4725 3285 m
 4725 3060 l gs col0 s gr gr

% arrowhead
n 4747 3166 m 4725 3076 l 4702 3166 l 4747 3166 l  cp gs 0.00 setgray ef gr  col0 s
% Polyline
gs  clippath
6367 4087 m 6367 3983 l 6322 3983 l 6322 4087 l 6322 4087 l 6345 4012 l 6367 4087 l cp
eoclip
n 6345 4196 m
 6345 3998 l gs col0 s gr gr

% arrowhead
n 6367 4087 m 6345 4012 l 6322 4087 l 6367 4087 l  cp gs 0.00 setgray ef gr  col0 s
% Polyline
gs  clippath
4567 4087 m 4567 3983 l 4522 3983 l 4522 4087 l 4522 4087 l 4545 4012 l 4567 4087 l cp
eoclip
n 4545 4196 m
 4545 3998 l gs col0 s gr gr

% arrowhead
n 4567 4087 m 4545 4012 l 4522 4087 l 4567 4087 l  cp gs 0.00 setgray ef gr  col0 s
% Polyline
gs  clippath
5553 4152 m 5627 4079 l 5595 4047 l 5522 4121 l 5522 4121 l 5591 4084 l 5553 4152 l cp
eoclip
n 5461 4214 m
 5601 4074 l gs col0 s gr gr

% arrowhead
n 5553 4152 m 5591 4084 l 5522 4121 l 5553 4152 l  cp gs 0.00 setgray ef gr  col0 s
% Polyline
n 945 9330 m
 945 9225 l gs col0 s gr 
% Polyline
n 1125 9420 m
 1125 9225 l gs col0 s gr 
% Polyline
n 765 9420 m
 765 9225 l gs col0 s gr 
% Polyline
n 945 9660 m
 945 9765 l gs col0 s gr 
% Polyline
n 1845 9330 m
 1845 9225 l gs col0 s gr 
% Polyline
n 2025 9420 m
 2025 9225 l gs col0 s gr 
% Polyline
n 1665 9420 m
 1665 9225 l gs col0 s gr 
% Polyline
n 1845 9660 m
 1845 9765 l gs col0 s gr 
% Polyline
n 2745 9330 m
 2745 9225 l gs col0 s gr 
% Polyline
n 2925 9420 m
 2925 9225 l gs col0 s gr 
% Polyline
n 2565 9420 m
 2565 9225 l gs col0 s gr 
% Polyline
n 2745 9660 m
 2745 9765 l gs col0 s gr 
% Polyline
n 4545 9330 m
 4545 9225 l gs col0 s gr 
% Polyline
n 4725 9420 m
 4725 9225 l gs col0 s gr 
% Polyline
n 4365 9420 m
 4365 9225 l gs col0 s gr 
% Polyline
n 4545 9660 m
 4545 9765 l gs col0 s gr 
% Polyline
n 5445 9330 m
 5445 9225 l gs col0 s gr 
% Polyline
n 5625 9420 m
 5625 9225 l gs col0 s gr 
% Polyline
n 5265 9420 m
 5265 9225 l gs col0 s gr 
% Polyline
n 5445 9660 m
 5445 9765 l gs col0 s gr 
% Polyline
n 6345 9330 m
 6345 9225 l gs col0 s gr 
% Polyline
n 6525 9420 m
 6525 9225 l gs col0 s gr 
% Polyline
n 6165 9420 m
 6165 9225 l gs col0 s gr 
% Polyline
n 6345 9660 m
 6345 9765 l gs col0 s gr 
% Polyline
gs  clippath
2766 9488 m 2766 9384 l 2721 9384 l 2721 9488 l 2721 9488 l 2744 9413 l 2766 9488 l cp
eoclip
n 2744 9597 m
 2744 9399 l gs col0 s gr gr

% arrowhead
n 2766 9488 m 2744 9413 l 2721 9488 l 2766 9488 l  cp gs 0.00 setgray ef gr  col0 s
% Polyline
n 3555 8775 m
 3555 9000 l gs col0 s gr 
% Polyline
1 slc
30.000 slw
n 3645 9000 m
 3465 9000 l gs col0 s gr 
% Polyline
0 slc
7.500 slw
n 4725 9135 m
 4725 9225 l gs col0 s gr 
% Polyline
n 4680 8865 m 4770 8865 l 4770 9135 l 4680 9135 l
 cp gs col0 s gr 
% Polyline
n 4725 8775 m
 4725 8865 l gs col0 s gr 
% Polyline
n 765 9135 m
 765 9225 l gs col0 s gr 
% Polyline
n 765 8775 m
 765 8865 l gs col0 s gr 
% Polyline
n 1125 9135 m
 1125 9225 l gs col0 s gr 
% Polyline
n 1080 8865 m 1170 8865 l 1170 9135 l 1080 9135 l
 cp gs col0 s gr 
% Polyline
n 1125 8775 m
 1125 8865 l gs col0 s gr 
% Polyline
n 1665 9135 m
 1665 9225 l gs col0 s gr 
% Polyline
n 1620 8865 m 1710 8865 l 1710 9135 l 1620 9135 l
 cp gs col0 s gr 
% Polyline
n 1665 8775 m
 1665 8865 l gs col0 s gr 
% Polyline
n 2025 9135 m
 2025 9225 l gs col0 s gr 
% Polyline
n 1980 8865 m 2070 8865 l 2070 9135 l 1980 9135 l
 cp gs col0 s gr 
% Polyline
n 2025 8775 m
 2025 8865 l gs col0 s gr 
% Polyline
n 2565 9135 m
 2565 9225 l gs col0 s gr 
% Polyline
n 2520 8865 m 2610 8865 l 2610 9135 l 2520 9135 l
 cp gs col0 s gr 
% Polyline
n 2565 8775 m
 2565 8865 l gs col0 s gr 
% Polyline
n 2925 9135 m
 2925 9225 l gs col0 s gr 
% Polyline
n 2880 8865 m 2970 8865 l 2970 9135 l 2880 9135 l
 cp gs col0 s gr 
% Polyline
n 2925 8775 m
 2925 8865 l gs col0 s gr 
% Polyline
n 4365 9135 m
 4365 9225 l gs col0 s gr 
% Polyline
n 4320 8865 m 4410 8865 l 4410 9135 l 4320 9135 l
 cp gs col0 s gr 
% Polyline
n 4365 8775 m
 4365 8865 l gs col0 s gr 
% Polyline
gs  clippath
4747 8566 m 4747 8445 l 4702 8445 l 4702 8566 l 4702 8566 l 4725 8476 l 4747 8566 l cp
eoclip
n 4725 8685 m
 4725 8460 l gs col0 s gr gr

% arrowhead
n 4747 8566 m 4725 8476 l 4702 8566 l 4747 8566 l  cp gs 0.00 setgray ef gr  col0 s
% Polyline
gs  clippath
6367 9487 m 6367 9383 l 6322 9383 l 6322 9487 l 6322 9487 l 6345 9412 l 6367 9487 l cp
eoclip
n 6345 9596 m
 6345 9398 l gs col0 s gr gr

% arrowhead
n 6367 9487 m 6345 9412 l 6322 9487 l 6367 9487 l  cp gs 0.00 setgray ef gr  col0 s
% Polyline
n 720 8865 m 810 8865 l 810 9135 l 720 9135 l
 cp gs col0 s gr 
% Polyline
gs  clippath
4465 9519 m 4392 9445 l 4360 9477 l 4434 9550 l 4434 9550 l 4397 9482 l 4465 9519 l cp
eoclip
n 4527 9612 m
 4387 9472 l gs col0 s gr gr

% arrowhead
n 4465 9519 m 4397 9482 l 4434 9550 l 4465 9519 l  cp gs 0.00 setgray ef gr  col0 s
% Polyline
gs  clippath
967 9487 m 967 9383 l 922 9383 l 922 9487 l 922 9487 l 945 9412 l 967 9487 l cp
eoclip
n 945 9596 m
 945 9398 l gs col0 s gr gr

% arrowhead
n 967 9487 m 945 9412 l 922 9487 l 967 9487 l  cp gs 0.00 setgray ef gr  col0 s
% Polyline
gs  clippath
1977 9528 m 2051 9455 l 2019 9423 l 1946 9497 l 1946 9497 l 2015 9460 l 1977 9528 l cp
eoclip
n 1885 9590 m
 2025 9450 l gs col0 s gr gr

% arrowhead
n 1977 9528 m 2015 9460 l 1946 9497 l 1977 9528 l  cp gs 0.00 setgray ef gr  col0 s
% Polyline
gs  clippath
5467 9482 m 5467 9378 l 5422 9378 l 5422 9482 l 5422 9482 l 5445 9407 l 5467 9482 l cp
eoclip
n 5445 9591 m
 5445 9393 l gs col0 s gr gr

% arrowhead
n 5467 9482 m 5445 9407 l 5422 9482 l 5467 9482 l  cp gs 0.00 setgray ef gr  col0 s
% Polyline
n 945 1230 m
 945 1125 l gs col0 s gr 
% Polyline
n 1125 1320 m
 1125 1125 l gs col0 s gr 
% Polyline
n 765 1320 m
 765 1125 l gs col0 s gr 
% Polyline
n 945 1560 m
 945 1665 l gs col0 s gr 
% Polyline
n 1845 1230 m
 1845 1125 l gs col0 s gr 
% Polyline
n 2025 1320 m
 2025 1125 l gs col0 s gr 
% Polyline
n 1665 1320 m
 1665 1125 l gs col0 s gr 
% Polyline
n 1845 1560 m
 1845 1665 l gs col0 s gr 
% Polyline
n 2745 1230 m
 2745 1125 l gs col0 s gr 
% Polyline
n 2925 1320 m
 2925 1125 l gs col0 s gr 
% Polyline
n 2565 1320 m
 2565 1125 l gs col0 s gr 
% Polyline
n 2745 1560 m
 2745 1665 l gs col0 s gr 
% Polyline
n 4545 1230 m
 4545 1125 l gs col0 s gr 
% Polyline
n 4725 1320 m
 4725 1125 l gs col0 s gr 
% Polyline
n 4365 1320 m
 4365 1125 l gs col0 s gr 
% Polyline
n 4545 1560 m
 4545 1665 l gs col0 s gr 
% Polyline
n 5445 1230 m
 5445 1125 l gs col0 s gr 
% Polyline
n 5625 1320 m
 5625 1125 l gs col0 s gr 
% Polyline
n 5265 1320 m
 5265 1125 l gs col0 s gr 
% Polyline
n 5445 1560 m
 5445 1665 l gs col0 s gr 
% Polyline
n 6345 1230 m
 6345 1125 l gs col0 s gr 
% Polyline
n 6525 1320 m
 6525 1125 l gs col0 s gr 
% Polyline
n 6165 1320 m
 6165 1125 l gs col0 s gr 
% Polyline
n 6345 1560 m
 6345 1665 l gs col0 s gr 
% Polyline
gs  clippath
2766 1388 m 2766 1284 l 2721 1284 l 2721 1388 l 2721 1388 l 2744 1313 l 2766 1388 l cp
eoclip
n 2744 1497 m
 2744 1299 l gs col0 s gr gr

% arrowhead
n 2766 1388 m 2744 1313 l 2721 1388 l 2766 1388 l  cp gs 0.00 setgray ef gr  col0 s
% Polyline
gs  clippath
6367 1387 m 6367 1283 l 6322 1283 l 6322 1387 l 6322 1387 l 6345 1312 l 6367 1387 l cp
eoclip
n 6345 1496 m
 6345 1298 l gs col0 s gr gr

% arrowhead
n 6367 1387 m 6345 1312 l 6322 1387 l 6367 1387 l  cp gs 0.00 setgray ef gr  col0 s
% Polyline
n 3555 675 m
 3555 900 l gs col0 s gr 
% Polyline
1 slc
30.000 slw
n 3645 900 m
 3465 900 l gs col0 s gr 
% Polyline
0 slc
7.500 slw
n 4316 2565 m 4324 2565 l gs col0 s gr
% Polyline
n 4725 1035 m
 4725 1125 l gs col0 s gr 
% Polyline
n 4680 765 m 4770 765 l 4770 1035 l 4680 1035 l
 cp gs col0 s gr 
% Polyline
n 4725 675 m
 4725 765 l gs col0 s gr 
% Polyline
n 765 1035 m
 765 1125 l gs col0 s gr 
% Polyline
n 765 675 m
 765 765 l gs col0 s gr 
% Polyline
n 1125 1035 m
 1125 1125 l gs col0 s gr 
% Polyline
n 1080 765 m 1170 765 l 1170 1035 l 1080 1035 l
 cp gs col0 s gr 
% Polyline
n 1125 675 m
 1125 765 l gs col0 s gr 
% Polyline
n 1665 1035 m
 1665 1125 l gs col0 s gr 
% Polyline
n 1620 765 m 1710 765 l 1710 1035 l 1620 1035 l
 cp gs col0 s gr 
% Polyline
n 1665 675 m
 1665 765 l gs col0 s gr 
% Polyline
n 2025 1035 m
 2025 1125 l gs col0 s gr 
% Polyline
n 1980 765 m 2070 765 l 2070 1035 l 1980 1035 l
 cp gs col0 s gr 
% Polyline
n 2025 675 m
 2025 765 l gs col0 s gr 
% Polyline
n 2565 1035 m
 2565 1125 l gs col0 s gr 
% Polyline
n 2520 765 m 2610 765 l 2610 1035 l 2520 1035 l
 cp gs col0 s gr 
% Polyline
n 2565 675 m
 2565 765 l gs col0 s gr 
% Polyline
n 2925 1035 m
 2925 1125 l gs col0 s gr 
% Polyline
n 2880 765 m 2970 765 l 2970 1035 l 2880 1035 l
 cp gs col0 s gr 
% Polyline
n 2925 675 m
 2925 765 l gs col0 s gr 
% Polyline
n 4365 1035 m
 4365 1125 l gs col0 s gr 
% Polyline
n 4320 765 m 4410 765 l 4410 1035 l 4320 1035 l
 cp gs col0 s gr 
% Polyline
n 4365 675 m
 4365 765 l gs col0 s gr 
% Polyline
gs  clippath
4747 466 m 4747 345 l 4702 345 l 4702 466 l 4702 466 l 4725 376 l 4747 466 l cp
eoclip
n 4725 585 m
 4725 360 l gs col0 s gr gr

% arrowhead
n 4747 466 m 4725 376 l 4702 466 l 4747 466 l  cp gs 0.00 setgray ef gr  col0 s
% Polyline
n 4226 2565 m 4234 2565 l gs col0 s gr
% Polyline
n 4181 2565 m 4189 2565 l gs col0 s gr
% Polyline
n 4226 2565 m 4234 2565 l gs col0 s gr
% Polyline
n 720 765 m 810 765 l 810 1035 l 720 1035 l
 cp gs col0 s gr 
% Polyline
gs  clippath
862 1416 m 789 1342 l 757 1374 l 831 1447 l 831 1447 l 794 1379 l 862 1416 l cp
eoclip
n 924 1509 m
 784 1369 l gs col0 s gr gr

% arrowhead
n 862 1416 m 794 1379 l 831 1447 l 862 1416 l  cp gs 0.00 setgray ef gr  col0 s
% Polyline
gs  clippath
1959 1445 m 2033 1372 l 2001 1340 l 1928 1414 l 1928 1414 l 1997 1377 l 1959 1445 l cp
eoclip
n 1867 1507 m
 2007 1367 l gs col0 s gr gr

% arrowhead
n 1959 1445 m 1997 1377 l 1928 1414 l 1959 1445 l  cp gs 0.00 setgray ef gr  col0 s
% Polyline
gs  clippath
5467 1382 m 5467 1278 l 5422 1278 l 5422 1382 l 5422 1382 l 5445 1307 l 5467 1382 l cp
eoclip
n 5445 1491 m
 5445 1293 l gs col0 s gr gr

% arrowhead
n 5467 1382 m 5445 1307 l 5422 1382 l 5467 1382 l  cp gs 0.00 setgray ef gr  col0 s
% Polyline
gs  clippath
4567 1388 m 4567 1284 l 4522 1284 l 4522 1388 l 4522 1388 l 4545 1313 l 4567 1388 l cp
eoclip
n 4545 1497 m
 4545 1299 l gs col0 s gr gr

% arrowhead
n 4567 1388 m 4545 1313 l 4522 1388 l 4567 1388 l  cp gs 0.00 setgray ef gr  col0 s
% Polyline
n 945 6630 m
 945 6525 l gs col0 s gr 
% Polyline
n 1125 6720 m
 1125 6525 l gs col0 s gr 
% Polyline
n 765 6720 m
 765 6525 l gs col0 s gr 
% Polyline
n 945 6960 m
 945 7065 l gs col0 s gr 
% Polyline
n 1845 6630 m
 1845 6525 l gs col0 s gr 
% Polyline
n 2025 6720 m
 2025 6525 l gs col0 s gr 
% Polyline
n 1665 6720 m
 1665 6525 l gs col0 s gr 
% Polyline
n 1845 6960 m
 1845 7065 l gs col0 s gr 
% Polyline
n 2745 6630 m
 2745 6525 l gs col0 s gr 
% Polyline
n 2925 6720 m
 2925 6525 l gs col0 s gr 
% Polyline
n 2565 6720 m
 2565 6525 l gs col0 s gr 
% Polyline
n 2745 6960 m
 2745 7065 l gs col0 s gr 
% Polyline
n 4545 6630 m
 4545 6525 l gs col0 s gr 
% Polyline
n 4725 6720 m
 4725 6525 l gs col0 s gr 
% Polyline
n 4365 6720 m
 4365 6525 l gs col0 s gr 
% Polyline
n 4545 6960 m
 4545 7065 l gs col0 s gr 
% Polyline
n 5445 6630 m
 5445 6525 l gs col0 s gr 
% Polyline
n 5625 6720 m
 5625 6525 l gs col0 s gr 
% Polyline
n 5265 6720 m
 5265 6525 l gs col0 s gr 
% Polyline
n 5445 6960 m
 5445 7065 l gs col0 s gr 
% Polyline
n 6345 6630 m
 6345 6525 l gs col0 s gr 
% Polyline
n 6525 6720 m
 6525 6525 l gs col0 s gr 
% Polyline
n 6165 6720 m
 6165 6525 l gs col0 s gr 
% Polyline
n 6345 6960 m
 6345 7065 l gs col0 s gr 
% Polyline
gs  clippath
1866 6782 m 1866 6678 l 1821 6678 l 1821 6782 l 1821 6782 l 1844 6707 l 1866 6782 l cp
eoclip
n 1844 6891 m
 1844 6693 l gs col0 s gr gr

% arrowhead
n 1866 6782 m 1844 6707 l 1821 6782 l 1866 6782 l  cp gs 0.00 setgray ef gr  col0 s
% Polyline
gs  clippath
2766 6788 m 2766 6684 l 2721 6684 l 2721 6788 l 2721 6788 l 2744 6713 l 2766 6788 l cp
eoclip
n 2744 6897 m
 2744 6699 l gs col0 s gr gr

% arrowhead
n 2766 6788 m 2744 6713 l 2721 6788 l 2766 6788 l  cp gs 0.00 setgray ef gr  col0 s
% Polyline
gs  clippath
6367 6787 m 6367 6683 l 6322 6683 l 6322 6787 l 6322 6787 l 6345 6712 l 6367 6787 l cp
eoclip
n 6345 6896 m
 6345 6698 l gs col0 s gr gr

% arrowhead
n 6367 6787 m 6345 6712 l 6322 6787 l 6367 6787 l  cp gs 0.00 setgray ef gr  col0 s
% Polyline
n 3555 6075 m
 3555 6300 l gs col0 s gr 
% Polyline
1 slc
30.000 slw
n 3645 6300 m
 3465 6300 l gs col0 s gr 
% Polyline
0 slc
7.500 slw
n 4316 7965 m 4324 7965 l gs col0 s gr
% Polyline
n 4725 6435 m
 4725 6525 l gs col0 s gr 
% Polyline
n 4680 6165 m 4770 6165 l 4770 6435 l 4680 6435 l
 cp gs col0 s gr 
% Polyline
n 4725 6075 m
 4725 6165 l gs col0 s gr 
% Polyline
n 765 6435 m
 765 6525 l gs col0 s gr 
% Polyline
n 765 6075 m
 765 6165 l gs col0 s gr 
% Polyline
n 1125 6435 m
 1125 6525 l gs col0 s gr 
% Polyline
n 1080 6165 m 1170 6165 l 1170 6435 l 1080 6435 l
 cp gs col0 s gr 
% Polyline
n 1125 6075 m
 1125 6165 l gs col0 s gr 
% Polyline
n 1665 6435 m
 1665 6525 l gs col0 s gr 
% Polyline
n 1620 6165 m 1710 6165 l 1710 6435 l 1620 6435 l
 cp gs col0 s gr 
% Polyline
n 1665 6075 m
 1665 6165 l gs col0 s gr 
% Polyline
n 2025 6435 m
 2025 6525 l gs col0 s gr 
% Polyline
n 1980 6165 m 2070 6165 l 2070 6435 l 1980 6435 l
 cp gs col0 s gr 
% Polyline
n 2025 6075 m
 2025 6165 l gs col0 s gr 
% Polyline
n 2565 6435 m
 2565 6525 l gs col0 s gr 
% Polyline
n 2520 6165 m 2610 6165 l 2610 6435 l 2520 6435 l
 cp gs col0 s gr 
% Polyline
n 2565 6075 m
 2565 6165 l gs col0 s gr 
% Polyline
n 2925 6435 m
 2925 6525 l gs col0 s gr 
% Polyline
n 2880 6165 m 2970 6165 l 2970 6435 l 2880 6435 l
 cp gs col0 s gr 
% Polyline
n 2925 6075 m
 2925 6165 l gs col0 s gr 
% Polyline
n 4365 6435 m
 4365 6525 l gs col0 s gr 
% Polyline
n 4320 6165 m 4410 6165 l 4410 6435 l 4320 6435 l
 cp gs col0 s gr 
% Polyline
n 4365 6075 m
 4365 6165 l gs col0 s gr 
% Polyline
gs  clippath
4747 5866 m 4747 5745 l 4702 5745 l 4702 5866 l 4702 5866 l 4725 5776 l 4747 5866 l cp
eoclip
n 4725 5985 m
 4725 5760 l gs col0 s gr gr

% arrowhead
n 4747 5866 m 4725 5776 l 4702 5866 l 4747 5866 l  cp gs 0.00 setgray ef gr  col0 s
% Polyline
gs  clippath
5559 6845 m 5633 6772 l 5601 6740 l 5528 6814 l 5528 6814 l 5597 6777 l 5559 6845 l cp
eoclip
n 5467 6907 m
 5607 6767 l gs col0 s gr gr

% arrowhead
n 5559 6845 m 5597 6777 l 5528 6814 l 5559 6845 l  cp gs 0.00 setgray ef gr  col0 s
% Polyline
n 4226 7965 m 4234 7965 l gs col0 s gr
% Polyline
n 4181 7965 m 4189 7965 l gs col0 s gr
% Polyline
n 4226 7965 m 4234 7965 l gs col0 s gr
% Polyline
gs  clippath
967 6788 m 967 6684 l 922 6684 l 922 6788 l 922 6788 l 945 6713 l 967 6788 l cp
eoclip
n 945 6897 m
 945 6699 l gs col0 s gr gr

% arrowhead
n 967 6788 m 945 6713 l 922 6788 l 967 6788 l  cp gs 0.00 setgray ef gr  col0 s
% Polyline
n 720 6165 m 810 6165 l 810 6435 l 720 6435 l
 cp gs col0 s gr 
% Polyline
gs  clippath
4460 6819 m 4387 6745 l 4355 6777 l 4429 6850 l 4429 6850 l 4392 6782 l 4460 6819 l cp
eoclip
n 4522 6912 m
 4382 6772 l gs col0 s gr gr

% arrowhead
n 4460 6819 m 4392 6782 l 4429 6850 l 4460 6819 l  cp gs 0.00 setgray ef gr  col0 s
/Helvetica ff 90.00 scf sf
4725 3015 m
gs 1 -1 sc (VCC) dup sw pop 2 div neg 0 rm  col0 sh gr
/Helvetica ff 90.00 scf sf
4725 8415 m
gs 1 -1 sc (VCC) dup sw pop 2 div neg 0 rm  col0 sh gr
/Helvetica ff 90.00 scf sf
4725 360 m
gs 1 -1 sc (VCC) dup sw pop 2 div neg 0 rm  col0 sh gr
/Helvetica ff 90.00 scf sf
4725 5760 m
gs 1 -1 sc (VCC) dup sw pop 2 div neg 0 rm  col0 sh gr
% here ends figure;
pagefooter
showpage
%%Trailer
%EOF

%%EndDocument
 @endspecial Black Black eop end
%%Trailer

userdict /end-hook known{end-hook}if
%%EOF
