%!PS-Adobe-2.0
%%Creator: dvips(k) 5.993 Copyright 2013 Radical Eye Software
%%Title: job-001.dvi
%%CreationDate: Mon Apr  6 22:22:54 2015
%%Pages: 1
%%PageOrder: Ascend
%%BoundingBox: 156 2870 561 3229
%%EndComments
%DVIPSWebPage: (www.radicaleye.com)
%DVIPSCommandLine: dvips job-001.dvi -o job-001.dvips.ps
%DVIPSParameters: dpi=600
%DVIPSSource:  TeX output 2015.04.06:2222
%%BeginProcSet: tex.pro 0 0
%!
/TeXDict 300 dict def TeXDict begin/N{def}def/B{bind def}N/S{exch}N/X{S
N}B/A{dup}B/TR{translate}N/isls false N/vsize 11 72 mul N/hsize 8.5 72
mul N/landplus90{false}def/@rigin{isls{[0 landplus90{1 -1}{-1 1}ifelse 0
0 0]concat}if 72 Resolution div 72 VResolution div neg scale isls{
landplus90{VResolution 72 div vsize mul 0 exch}{Resolution -72 div hsize
mul 0}ifelse TR}if Resolution VResolution vsize -72 div 1 add mul TR[
matrix currentmatrix{A A round sub abs 0.00001 lt{round}if}forall round
exch round exch]setmatrix}N/@landscape{/isls true N}B/@manualfeed{
statusdict/manualfeed true put}B/@copies{/#copies X}B/FMat[1 0 0 -1 0 0]
N/FBB[0 0 0 0]N/nn 0 N/IEn 0 N/ctr 0 N/df-tail{/nn 8 dict N nn begin
/FontType 3 N/FontMatrix fntrx N/FontBBox FBB N string/base X array
/BitMaps X/BuildChar{CharBuilder}N/Encoding IEn N end A{/foo setfont}2
array copy cvx N load 0 nn put/ctr 0 N[}B/sf 0 N/df{/sf 1 N/fntrx FMat N
df-tail}B/dfs{div/sf X/fntrx[sf 0 0 sf neg 0 0]N df-tail}B/E{pop nn A
definefont setfont}B/Cw{Cd A length 5 sub get}B/Ch{Cd A length 4 sub get
}B/Cx{128 Cd A length 3 sub get sub}B/Cy{Cd A length 2 sub get 127 sub}
B/Cdx{Cd A length 1 sub get}B/Ci{Cd A type/stringtype ne{ctr get/ctr ctr
1 add N}if}B/CharBuilder{save 3 1 roll S A/base get 2 index get S
/BitMaps get S get/Cd X pop/ctr 0 N Cdx 0 Cx Cy Ch sub Cx Cw add Cy
setcachedevice Cw Ch true[1 0 0 -1 -.1 Cx sub Cy .1 sub]{Ci}imagemask
restore}B/D{/cc X A type/stringtype ne{]}if nn/base get cc ctr put nn
/BitMaps get S ctr S sf 1 ne{A A length 1 sub A 2 index S get sf div put
}if put/ctr ctr 1 add N}B/I{cc 1 add D}B/bop{userdict/bop-hook known{
bop-hook}if/SI save N @rigin 0 0 moveto/V matrix currentmatrix A 1 get A
mul exch 0 get A mul add .99 lt{/QV}{/RV}ifelse load def pop pop}N/eop{
SI restore userdict/eop-hook known{eop-hook}if showpage}N/@start{
userdict/start-hook known{start-hook}if pop/VResolution X/Resolution X
1000 div/DVImag X/IEn 256 array N 2 string 0 1 255{IEn S A 360 add 36 4
index cvrs cvn put}for pop 65781.76 div/vsize X 65781.76 div/hsize X}N
/dir 0 def/dyy{/dir 0 def}B/dyt{/dir 1 def}B/dty{/dir 2 def}B/dtt{/dir 3
def}B/p{dir 2 eq{-90 rotate show 90 rotate}{dir 3 eq{-90 rotate show 90
rotate}{show}ifelse}ifelse}N/RMat[1 0 0 -1 0 0]N/BDot 260 string N/Rx 0
N/Ry 0 N/V{}B/RV/v{/Ry X/Rx X V}B statusdict begin/product where{pop
false[(Display)(NeXT)(LaserWriter 16/600)]{A length product length le{A
length product exch 0 exch getinterval eq{pop true exit}if}{pop}ifelse}
forall}{false}ifelse end{{gsave TR -.1 .1 TR 1 1 scale Rx Ry false RMat{
BDot}imagemask grestore}}{{gsave TR -.1 .1 TR Rx Ry scale 1 1 false RMat
{BDot}imagemask grestore}}ifelse B/QV{gsave newpath transform round exch
round exch itransform moveto Rx 0 rlineto 0 Ry neg rlineto Rx neg 0
rlineto fill grestore}B/a{moveto}B/delta 0 N/tail{A/delta X 0 rmoveto}B
/M{S p delta add tail}B/b{S p tail}B/c{-4 M}B/d{-3 M}B/e{-2 M}B/f{-1 M}
B/g{0 M}B/h{1 M}B/i{2 M}B/j{3 M}B/k{4 M}B/w{0 rmoveto}B/l{p -4 w}B/m{p
-3 w}B/n{p -2 w}B/o{p -1 w}B/q{p 1 w}B/r{p 2 w}B/s{p 3 w}B/t{p 4 w}B/x{
0 S rmoveto}B/y{3 2 roll p a}B/bos{/SS save N}B/eos{SS restore}B end

%%EndProcSet
%%BeginProcSet: special.pro 0 0
%!
TeXDict begin/SDict 200 dict N SDict begin/@SpecialDefaults{/hs 612 N
/vs 792 N/ho 0 N/vo 0 N/hsc 1 N/vsc 1 N/ang 0 N/CLIP 0 N/rwiSeen false N
/rhiSeen false N/letter{}N/note{}N/a4{}N/legal{}N}B/@scaleunit 100 N
/@hscale{@scaleunit div/hsc X}B/@vscale{@scaleunit div/vsc X}B/@hsize{
/hs X/CLIP 1 N}B/@vsize{/vs X/CLIP 1 N}B/@clip{/CLIP 2 N}B/@hoffset{/ho
X}B/@voffset{/vo X}B/@angle{/ang X}B/@rwi{10 div/rwi X/rwiSeen true N}B
/@rhi{10 div/rhi X/rhiSeen true N}B/@llx{/llx X}B/@lly{/lly X}B/@urx{
/urx X}B/@ury{/ury X}B/magscale true def end/@MacSetUp{userdict/md known
{userdict/md get type/dicttype eq{userdict begin md length 10 add md
maxlength ge{/md md dup length 20 add dict copy def}if end md begin
/letter{}N/note{}N/legal{}N/od{txpose 1 0 mtx defaultmatrix dtransform S
atan/pa X newpath clippath mark{transform{itransform moveto}}{transform{
itransform lineto}}{6 -2 roll transform 6 -2 roll transform 6 -2 roll
transform{itransform 6 2 roll itransform 6 2 roll itransform 6 2 roll
curveto}}{{closepath}}pathforall newpath counttomark array astore/gc xdf
pop ct 39 0 put 10 fz 0 fs 2 F/|______Courier fnt invertflag{PaintBlack}
if}N/txpose{pxs pys scale ppr aload pop por{noflips{pop S neg S TR pop 1
-1 scale}if xflip yflip and{pop S neg S TR 180 rotate 1 -1 scale ppr 3
get ppr 1 get neg sub neg ppr 2 get ppr 0 get neg sub neg TR}if xflip
yflip not and{pop S neg S TR pop 180 rotate ppr 3 get ppr 1 get neg sub
neg 0 TR}if yflip xflip not and{ppr 1 get neg ppr 0 get neg TR}if}{
noflips{TR pop pop 270 rotate 1 -1 scale}if xflip yflip and{TR pop pop
90 rotate 1 -1 scale ppr 3 get ppr 1 get neg sub neg ppr 2 get ppr 0 get
neg sub neg TR}if xflip yflip not and{TR pop pop 90 rotate ppr 3 get ppr
1 get neg sub neg 0 TR}if yflip xflip not and{TR pop pop 270 rotate ppr
2 get ppr 0 get neg sub neg 0 S TR}if}ifelse scaleby96{ppr aload pop 4
-1 roll add 2 div 3 1 roll add 2 div 2 copy TR .96 dup scale neg S neg S
TR}if}N/cp{pop pop showpage pm restore}N end}if}if}N/normalscale{
Resolution 72 div VResolution 72 div neg scale magscale{DVImag dup scale
}if 0 setgray}N/psfts{S 65781.76 div N}N/startTexFig{/psf$SavedState
save N userdict maxlength dict begin/magscale true def normalscale
currentpoint TR/psf$ury psfts/psf$urx psfts/psf$lly psfts/psf$llx psfts
/psf$y psfts/psf$x psfts currentpoint/psf$cy X/psf$cx X/psf$sx psf$x
psf$urx psf$llx sub div N/psf$sy psf$y psf$ury psf$lly sub div N psf$sx
psf$sy scale psf$cx psf$sx div psf$llx sub psf$cy psf$sy div psf$ury sub
TR/showpage{}N/erasepage{}N/setpagedevice{pop}N/copypage{}N/p 3 def
@MacSetUp}N/doclip{psf$llx psf$lly psf$urx psf$ury currentpoint 6 2 roll
newpath 4 copy 4 2 roll moveto 6 -1 roll S lineto S lineto S lineto
closepath clip newpath moveto}N/endTexFig{end psf$SavedState restore}N
/@beginspecial{SDict begin/SpecialSave save N gsave normalscale
currentpoint TR @SpecialDefaults count/ocount X/dcount countdictstack N}
N/@setspecial{CLIP 1 eq{newpath 0 0 moveto hs 0 rlineto 0 vs rlineto hs
neg 0 rlineto closepath clip}if ho vo TR hsc vsc scale ang rotate
rwiSeen{rwi urx llx sub div rhiSeen{rhi ury lly sub div}{dup}ifelse
scale llx neg lly neg TR}{rhiSeen{rhi ury lly sub div dup scale llx neg
lly neg TR}if}ifelse CLIP 2 eq{newpath llx lly moveto urx lly lineto urx
ury lineto llx ury lineto closepath clip}if/showpage{}N/erasepage{}N
/setpagedevice{pop}N/copypage{}N newpath}N/@endspecial{count ocount sub{
pop}repeat countdictstack dcount sub{end}repeat grestore SpecialSave
restore end}N/@defspecial{SDict begin}N/@fedspecial{end}B/li{lineto}B
/rl{rlineto}B/rc{rcurveto}B/np{/SaveX currentpoint/SaveY X N 1
setlinecap newpath}N/st{stroke SaveX SaveY moveto}N/fil{fill SaveX SaveY
moveto}N/ellipse{/endangle X/startangle X/yrad X/xrad X/savematrix
matrix currentmatrix N TR xrad yrad scale 0 0 1 startangle endangle arc
savematrix setmatrix}N end

%%EndProcSet
%%BeginProcSet: color.pro 0 0
%!
TeXDict begin/setcmykcolor where{pop}{/setcmykcolor{dup 10 eq{pop
setrgbcolor}{1 sub 4 1 roll 3{3 index add neg dup 0 lt{pop 0}if 3 1 roll
}repeat setrgbcolor pop}ifelse}B}ifelse/TeXcolorcmyk{setcmykcolor}def
/TeXcolorrgb{setrgbcolor}def/TeXcolorgrey{setgray}def/TeXcolorgray{
setgray}def/TeXcolorhsb{sethsbcolor}def/currentcmykcolor where{pop}{
/currentcmykcolor{currentrgbcolor 10}B}ifelse/DC{exch dup userdict exch
known{pop pop}{X}ifelse}B/GreenYellow{0.15 0 0.69 0 setcmykcolor}DC
/Yellow{0 0 1 0 setcmykcolor}DC/Goldenrod{0 0.10 0.84 0 setcmykcolor}DC
/Dandelion{0 0.29 0.84 0 setcmykcolor}DC/Apricot{0 0.32 0.52 0
setcmykcolor}DC/Peach{0 0.50 0.70 0 setcmykcolor}DC/Melon{0 0.46 0.50 0
setcmykcolor}DC/YellowOrange{0 0.42 1 0 setcmykcolor}DC/Orange{0 0.61
0.87 0 setcmykcolor}DC/BurntOrange{0 0.51 1 0 setcmykcolor}DC
/Bittersweet{0 0.75 1 0.24 setcmykcolor}DC/RedOrange{0 0.77 0.87 0
setcmykcolor}DC/Mahogany{0 0.85 0.87 0.35 setcmykcolor}DC/Maroon{0 0.87
0.68 0.32 setcmykcolor}DC/BrickRed{0 0.89 0.94 0.28 setcmykcolor}DC/Red{
0 1 1 0 setcmykcolor}DC/OrangeRed{0 1 0.50 0 setcmykcolor}DC/RubineRed{
0 1 0.13 0 setcmykcolor}DC/WildStrawberry{0 0.96 0.39 0 setcmykcolor}DC
/Salmon{0 0.53 0.38 0 setcmykcolor}DC/CarnationPink{0 0.63 0 0
setcmykcolor}DC/Magenta{0 1 0 0 setcmykcolor}DC/VioletRed{0 0.81 0 0
setcmykcolor}DC/Rhodamine{0 0.82 0 0 setcmykcolor}DC/Mulberry{0.34 0.90
0 0.02 setcmykcolor}DC/RedViolet{0.07 0.90 0 0.34 setcmykcolor}DC
/Fuchsia{0.47 0.91 0 0.08 setcmykcolor}DC/Lavender{0 0.48 0 0
setcmykcolor}DC/Thistle{0.12 0.59 0 0 setcmykcolor}DC/Orchid{0.32 0.64 0
0 setcmykcolor}DC/DarkOrchid{0.40 0.80 0.20 0 setcmykcolor}DC/Purple{
0.45 0.86 0 0 setcmykcolor}DC/Plum{0.50 1 0 0 setcmykcolor}DC/Violet{
0.79 0.88 0 0 setcmykcolor}DC/RoyalPurple{0.75 0.90 0 0 setcmykcolor}DC
/BlueViolet{0.86 0.91 0 0.04 setcmykcolor}DC/Periwinkle{0.57 0.55 0 0
setcmykcolor}DC/CadetBlue{0.62 0.57 0.23 0 setcmykcolor}DC
/CornflowerBlue{0.65 0.13 0 0 setcmykcolor}DC/MidnightBlue{0.98 0.13 0
0.43 setcmykcolor}DC/NavyBlue{0.94 0.54 0 0 setcmykcolor}DC/RoyalBlue{1
0.50 0 0 setcmykcolor}DC/Blue{1 1 0 0 setcmykcolor}DC/Cerulean{0.94 0.11
0 0 setcmykcolor}DC/Cyan{1 0 0 0 setcmykcolor}DC/ProcessBlue{0.96 0 0 0
setcmykcolor}DC/SkyBlue{0.62 0 0.12 0 setcmykcolor}DC/Turquoise{0.85 0
0.20 0 setcmykcolor}DC/TealBlue{0.86 0 0.34 0.02 setcmykcolor}DC
/Aquamarine{0.82 0 0.30 0 setcmykcolor}DC/BlueGreen{0.85 0 0.33 0
setcmykcolor}DC/Emerald{1 0 0.50 0 setcmykcolor}DC/JungleGreen{0.99 0
0.52 0 setcmykcolor}DC/SeaGreen{0.69 0 0.50 0 setcmykcolor}DC/Green{1 0
1 0 setcmykcolor}DC/ForestGreen{0.91 0 0.88 0.12 setcmykcolor}DC
/PineGreen{0.92 0 0.59 0.25 setcmykcolor}DC/LimeGreen{0.50 0 1 0
setcmykcolor}DC/YellowGreen{0.44 0 0.74 0 setcmykcolor}DC/SpringGreen{
0.26 0 0.76 0 setcmykcolor}DC/OliveGreen{0.64 0 0.95 0.40 setcmykcolor}
DC/RawSienna{0 0.72 1 0.45 setcmykcolor}DC/Sepia{0 0.83 1 0.70
setcmykcolor}DC/Brown{0 0.81 1 0.60 setcmykcolor}DC/Tan{0.14 0.42 0.56 0
setcmykcolor}DC/Gray{0 0 0 0.50 setcmykcolor}DC/Black{0 0 0 1
setcmykcolor}DC/White{0 0 0 0 setcmykcolor}DC end

%%EndProcSet
TeXDict begin 156819571 221710428 1000 600 600 (job-001.dvi)
@start end
%%EndProlog
%%BeginSetup
%%Feature: *Resolution 600dpi
TeXDict begin
 end
%%EndSetup
%%Page: 1 1
TeXDict begin 1 0 bop Black Black 706 3564 a @beginspecial
0 @llx 0 @lly 405 @urx 358 @ury 4050 @rwi @setspecial
%%BeginDocument: job-001.fig2dev.ps
%!PS-Adobe-3.0 EPSF-3.0
%%Title: job-001.fig
%%Creator: fig2dev Version 3.2 Patchlevel 5e
%%CreationDate: Mon Apr  6 22:22:54 2015
%%BoundingBox: 156 2870 561 3229
%Magnification: 1.0000
%%EndComments
%%BeginProlog
/$F2psDict 200 dict def
$F2psDict begin
$F2psDict /mtrx matrix put
/col-1 {0 setgray} bind def
/col0 {0.000 0.000 0.000 srgb} bind def
/col1 {0.000 0.000 1.000 srgb} bind def
/col2 {0.000 1.000 0.000 srgb} bind def
/col3 {0.000 1.000 1.000 srgb} bind def
/col4 {1.000 0.000 0.000 srgb} bind def
/col5 {1.000 0.000 1.000 srgb} bind def
/col6 {1.000 1.000 0.000 srgb} bind def
/col7 {1.000 1.000 1.000 srgb} bind def
/col8 {0.000 0.000 0.560 srgb} bind def
/col9 {0.000 0.000 0.690 srgb} bind def
/col10 {0.000 0.000 0.820 srgb} bind def
/col11 {0.530 0.810 1.000 srgb} bind def
/col12 {0.000 0.560 0.000 srgb} bind def
/col13 {0.000 0.690 0.000 srgb} bind def
/col14 {0.000 0.820 0.000 srgb} bind def
/col15 {0.000 0.560 0.560 srgb} bind def
/col16 {0.000 0.690 0.690 srgb} bind def
/col17 {0.000 0.820 0.820 srgb} bind def
/col18 {0.560 0.000 0.000 srgb} bind def
/col19 {0.690 0.000 0.000 srgb} bind def
/col20 {0.820 0.000 0.000 srgb} bind def
/col21 {0.560 0.000 0.560 srgb} bind def
/col22 {0.690 0.000 0.690 srgb} bind def
/col23 {0.820 0.000 0.820 srgb} bind def
/col24 {0.500 0.190 0.000 srgb} bind def
/col25 {0.630 0.250 0.000 srgb} bind def
/col26 {0.750 0.380 0.000 srgb} bind def
/col27 {1.000 0.500 0.500 srgb} bind def
/col28 {1.000 0.630 0.630 srgb} bind def
/col29 {1.000 0.750 0.750 srgb} bind def
/col30 {1.000 0.880 0.880 srgb} bind def
/col31 {1.000 0.840 0.000 srgb} bind def
/col32 {0.255 0.271 0.255 srgb} bind def
/col33 {0.753 0.753 0.753 srgb} bind def
/col34 {0.776 0.718 0.592 srgb} bind def
/col35 {0.937 0.973 1.000 srgb} bind def
/col36 {0.502 0.502 0.502 srgb} bind def
/col37 {0.878 0.878 0.878 srgb} bind def
/col38 {0.557 0.561 0.557 srgb} bind def
/col39 {0.667 0.667 0.667 srgb} bind def
/col40 {0.333 0.333 0.333 srgb} bind def
/col41 {0.251 0.251 0.251 srgb} bind def
/col42 {0.863 0.796 0.651 srgb} bind def
/col43 {0.780 0.765 0.780 srgb} bind def
/col44 {0.337 0.318 0.318 srgb} bind def
/col45 {0.557 0.557 0.557 srgb} bind def
/col46 {0.843 0.843 0.843 srgb} bind def
/col47 {0.522 0.502 0.490 srgb} bind def
/col48 {0.824 0.824 0.824 srgb} bind def
/col49 {0.227 0.227 0.227 srgb} bind def
/col50 {0.271 0.451 0.667 srgb} bind def
/col51 {0.682 0.682 0.682 srgb} bind def
/col52 {0.482 0.475 0.647 srgb} bind def
/col53 {0.267 0.267 0.267 srgb} bind def
/col54 {0.451 0.459 0.549 srgb} bind def
/col55 {0.969 0.969 0.969 srgb} bind def
/col56 {0.388 0.365 0.808 srgb} bind def
/col57 {0.745 0.745 0.745 srgb} bind def
/col58 {0.318 0.318 0.318 srgb} bind def
/col59 {0.906 0.890 0.906 srgb} bind def
/col60 {0.000 0.000 0.286 srgb} bind def
/col61 {0.475 0.475 0.475 srgb} bind def
/col62 {0.188 0.204 0.188 srgb} bind def
/col63 {0.255 0.255 0.255 srgb} bind def
/col64 {0.780 0.714 0.588 srgb} bind def
/col65 {0.761 0.761 0.761 srgb} bind def
/col66 {0.431 0.431 0.431 srgb} bind def
/col67 {0.443 0.443 0.443 srgb} bind def
/col68 {0.200 0.200 0.200 srgb} bind def
/col69 {0.580 0.576 0.584 srgb} bind def
/col70 {0.455 0.439 0.459 srgb} bind def
/col71 {0.702 0.702 0.702 srgb} bind def
/col72 {0.765 0.765 0.765 srgb} bind def
/col73 {0.427 0.427 0.427 srgb} bind def
/col74 {0.271 0.271 0.271 srgb} bind def
/col75 {0.612 0.000 0.000 srgb} bind def
/col76 {0.549 0.549 0.549 srgb} bind def
/col77 {0.259 0.259 0.259 srgb} bind def
/col78 {0.549 0.549 0.549 srgb} bind def
/col79 {0.259 0.259 0.259 srgb} bind def
/col80 {0.549 0.549 0.549 srgb} bind def
/col81 {0.259 0.259 0.259 srgb} bind def
/col82 {0.549 0.549 0.549 srgb} bind def
/col83 {0.259 0.259 0.259 srgb} bind def
/col84 {0.549 0.549 0.549 srgb} bind def
/col85 {0.259 0.259 0.259 srgb} bind def
/col86 {0.549 0.549 0.549 srgb} bind def
/col87 {0.259 0.259 0.259 srgb} bind def

end

/cp {closepath} bind def
/ef {eofill} bind def
/gr {grestore} bind def
/gs {gsave} bind def
/sa {save} bind def
/rs {restore} bind def
/l {lineto} bind def
/m {moveto} bind def
/rm {rmoveto} bind def
/n {newpath} bind def
/s {stroke} bind def
/sh {show} bind def
/slc {setlinecap} bind def
/slj {setlinejoin} bind def
/slw {setlinewidth} bind def
/srgb {setrgbcolor} bind def
/rot {rotate} bind def
/sc {scale} bind def
/sd {setdash} bind def
/ff {findfont} bind def
/sf {setfont} bind def
/scf {scalefont} bind def
/sw {stringwidth} bind def
/tr {translate} bind def
/tnt {dup dup currentrgbcolor
  4 -2 roll dup 1 exch sub 3 -1 roll mul add
  4 -2 roll dup 1 exch sub 3 -1 roll mul add
  4 -2 roll dup 1 exch sub 3 -1 roll mul add srgb}
  bind def
/shd {dup dup currentrgbcolor 4 -2 roll mul 4 -2 roll mul
  4 -2 roll mul srgb} bind def
 /DrawEllipse {
	/endangle exch def
	/startangle exch def
	/yrad exch def
	/xrad exch def
	/y exch def
	/x exch def
	/savematrix mtrx currentmatrix def
	x y tr xrad yrad sc 0 0 1 startangle endangle arc
	closepath
	savematrix setmatrix
	} def

/$F2psBegin {$F2psDict begin /$F2psEnteredState save def} def
/$F2psEnd {$F2psEnteredState restore end} def

/pageheader {
save
newpath 0 358 moveto 0 0 lineto 405 0 lineto 405 358 lineto closepath clip newpath
-24.8 360.8 translate
1 -1 scale
$F2psBegin
10 setmiterlimit
0 slj 0 slc
 0.06299 0.06299 sc
} bind def
/pagefooter {
$F2psEnd
restore
} bind def
%%EndProlog
pageheader
%
% Fig objects follow
%
% 
% here starts figure with depth 50
% Polyline
0 slj
0 slc
7.500 slw
n 720 1440 m
 900 1440 l gs col0 s gr 
% Polyline
n 2025 1440 m
 1800 1440 l gs col0 s gr 
% Polyline
n 2925 1440 m
 2700 1440 l gs col0 s gr 
% Polyline
gs  clippath
1023 1470 m 1140 1470 l 1140 1410 l 1023 1410 l 1023 1410 l 1113 1440 l 1023 1470 l cp
eoclip
n 900 1440 m 1080 1440 l
 1125 1440 l gs col0 s gr gr

% arrowhead
n 1023 1470 m 1113 1440 l 1023 1410 l 993 1440 l 1023 1470 l 
 cp gs 0.00 setgray ef gr  col0 s
% Polyline
n 4275 1440 m
 4500 1440 l gs col0 s gr 
% Polyline
n 5625 1440 m
 5400 1440 l gs col0 s gr 
% Polyline
n 6480 1440 m
 6300 1440 l gs col0 s gr 
% Polyline
gs  clippath
4623 1470 m 4740 1470 l 4740 1410 l 4623 1410 l 4623 1410 l 4713 1440 l 4623 1470 l cp
eoclip
n 4500 1440 m 4680 1440 l
 4725 1440 l gs col0 s gr gr

% arrowhead
n 4623 1470 m 4713 1440 l 4623 1410 l 4593 1440 l 4623 1470 l 
 cp gs 0.00 setgray ef gr  col0 s
% Polyline
n 4500 1890 m
 4500 2340 l gs col0 s gr 
% Polyline
n 6300 2340 m
 4500 2340 l gs col0 s gr 
% Polyline
n 900 1890 m
 900 2340 l gs col0 s gr 
% Polyline
n 900 2340 m
 2700 2340 l gs col0 s gr 
% Polyline
n 2925 2340 m
 2700 2340 l gs col0 s gr 
% Polyline
n 4320 2340 m
 4500 2340 l gs col0 s gr 
% Polyline
n 720 450 m
 6120 450 l gs col0 s gr 
% Polyline
n 1980 450 m
 1980 360 l gs col0 s gr 
% Polyline
n 2880 450 m
 2880 360 l gs col0 s gr 
% Polyline
n 4680 450 m
 4680 360 l gs col0 s gr 
% Polyline
n 5580 450 m
 5580 360 l gs col0 s gr 
% Polyline
n 720 4365 m
 900 4365 l gs col0 s gr 
% Polyline
n 2025 4365 m
 1800 4365 l gs col0 s gr 
% Polyline
n 2925 4365 m
 2700 4365 l gs col0 s gr 
% Polyline
gs  clippath
1023 4395 m 1140 4395 l 1140 4335 l 1023 4335 l 1023 4335 l 1113 4365 l 1023 4395 l cp
eoclip
n 900 4365 m 1080 4365 l
 1125 4365 l gs col0 s gr gr

% arrowhead
n 1023 4395 m 1113 4365 l 1023 4335 l 993 4365 l 1023 4395 l 
 cp gs 0.00 setgray ef gr  col0 s
% Polyline
n 4275 4365 m
 4500 4365 l gs col0 s gr 
% Polyline
n 5625 4365 m
 5400 4365 l gs col0 s gr 
% Polyline
n 6480 4365 m
 6300 4365 l gs col0 s gr 
% Polyline
gs  clippath
4623 4395 m 4740 4395 l 4740 4335 l 4623 4335 l 4623 4335 l 4713 4365 l 4623 4395 l cp
eoclip
n 4500 4365 m 4680 4365 l
 4725 4365 l gs col0 s gr gr

% arrowhead
n 4623 4395 m 4713 4365 l 4623 4335 l 4593 4365 l 4623 4395 l 
 cp gs 0.00 setgray ef gr  col0 s
% Polyline
n 4500 4815 m
 4500 5265 l gs col0 s gr 
% Polyline
n 6300 5265 m
 4500 5265 l gs col0 s gr 
% Polyline
n 900 4815 m
 900 5265 l gs col0 s gr 
% Polyline
n 900 5265 m
 2700 5265 l gs col0 s gr 
% Polyline
n 2925 5265 m
 2700 5265 l gs col0 s gr 
% Polyline
n 720 3375 m
 6120 3375 l gs col0 s gr 
% Polyline
n 1980 3375 m
 1980 3285 l gs col0 s gr 
% Polyline
n 2880 3375 m
 2880 3285 l gs col0 s gr 
% Polyline
n 4680 3375 m
 4680 3285 l gs col0 s gr 
% Polyline
n 5580 3375 m
 5580 3285 l gs col0 s gr 
% Polyline
n 1080 3375 m 1080 3285 l 6480 3285 l
 6480 3375 l gs col0 s gr 
% Polyline
n 1080 450 m 1080 360 l 6480 360 l
 6480 450 l gs col0 s gr 
/Times-Bold ff 150.00 scf sf
945 1800 m
gs 1 -1 sc (PC0) col4 sh gr
/Times-Roman ff 120.00 scf sf
1845 1800 m
gs 1 -1 sc (PB0) col0 sh gr
/Times-Roman ff 120.00 scf sf
1035 1575 m
gs 1 -1 sc (ADCMUX) col0 sh gr
/Times-Roman ff 120.00 scf sf
4545 1800 m
gs 1 -1 sc (PC2) col0 sh gr
/Times-Roman ff 120.00 scf sf
4635 1575 m
gs 1 -1 sc (ADCMUX) col0 sh gr
/Times-Roman ff 120.00 scf sf
6345 1800 m
gs 1 -1 sc (PB5) col0 sh gr
/Times-Bold ff 150.00 scf sf
5445 1800 m
gs 1 -1 sc (PB4) col4 sh gr
/Times-Roman ff 120.00 scf sf
2745 1800 m
gs 1 -1 sc (PB1) col0 sh gr
/Times-Bold ff 150.00 scf sf
630 675 m
gs 1 -1 sc  90.0 rot (19) dup sw pop 2 div neg 0 rm  col4 sh gr
/Times-Roman ff 120.00 scf sf
990 675 m
gs 1 -1 sc  90.0 rot (22) dup sw pop 2 div neg 0 rm  col0 sh gr
/Times-Roman ff 120.00 scf sf
1530 675 m
gs 1 -1 sc  90.0 rot (19) dup sw pop 2 div neg 0 rm  col0 sh gr
/Times-Roman ff 120.00 scf sf
1890 675 m
gs 1 -1 sc  90.0 rot (22) dup sw pop 2 div neg 0 rm  col0 sh gr
/Times-Roman ff 120.00 scf sf
2430 675 m
gs 1 -1 sc  90.0 rot (19) dup sw pop 2 div neg 0 rm  col0 sh gr
/Times-Roman ff 120.00 scf sf
2790 675 m
gs 1 -1 sc  90.0 rot (22) dup sw pop 2 div neg 0 rm  col0 sh gr
/Times-Roman ff 120.00 scf sf
4230 675 m
gs 1 -1 sc  90.0 rot (19) dup sw pop 2 div neg 0 rm  col0 sh gr
/Times-Roman ff 120.00 scf sf
4590 675 m
gs 1 -1 sc  90.0 rot (22) dup sw pop 2 div neg 0 rm  col0 sh gr
/Times-Roman ff 135.00 scf sf
5130 675 m
gs 1 -1 sc  90.0 rot (19) dup sw pop 2 div neg 0 rm  col0 sh gr
/Times-Bold ff 150.00 scf sf
5490 675 m
gs 1 -1 sc  90.0 rot (22) dup sw pop 2 div neg 0 rm  col4 sh gr
/Times-Roman ff 120.00 scf sf
6030 675 m
gs 1 -1 sc  90.0 rot (19) dup sw pop 2 div neg 0 rm  col0 sh gr
/Times-Roman ff 120.00 scf sf
6390 675 m
gs 1 -1 sc  90.0 rot (22) dup sw pop 2 div neg 0 rm  col0 sh gr
/Times-Roman ff 120.00 scf sf
1710 2115 m
gs 1 -1 sc  90.0 rot (680) dup sw pop 2 div neg 0 rm  col0 sh gr
/Times-Roman ff 120.00 scf sf
2610 2115 m
gs 1 -1 sc  90.0 rot (470k) dup sw pop 2 div neg 0 rm  col0 sh gr
/Times-Roman ff 150.00 scf sf
3150 2250 m
gs 1 -1 sc (TP1) dup sw pop 2 div neg 0 rm  col0 sh gr
/Times-Bold ff 150.00 scf sf
5310 2115 m
gs 1 -1 sc  90.0 rot (680) dup sw pop 2 div neg 0 rm  col4 sh gr
/Times-Roman ff 120.00 scf sf
6210 2115 m
gs 1 -1 sc  90.0 rot (470k) dup sw pop 2 div neg 0 rm  col0 sh gr
/Helvetica ff 90.00 scf sf
3510 810 m
gs 1 -1 sc (GND) dup sw pop 2 div neg 0 rm  col0 sh gr
/Times-Bold ff 180.00 scf sf
3510 2160 m
gs 1 -1 sc (Cx) dup sw pop 2 div neg 0 rm  col0 sh gr
/Times-Bold ff 150.00 scf sf
945 4725 m
gs 1 -1 sc (PC0) col0 sh gr
/Times-Roman ff 120.00 scf sf
1845 4725 m
gs 1 -1 sc (PB0) col0 sh gr
/Times-Roman ff 120.00 scf sf
1035 4500 m
gs 1 -1 sc (ADCMUX) col0 sh gr
/Times-Bold ff 150.00 scf sf
4545 4725 m
gs 1 -1 sc (PC2) col1 sh gr
/Times-Roman ff 120.00 scf sf
4635 4500 m
gs 1 -1 sc (ADCMUX) col1 sh gr
/Times-Roman ff 120.00 scf sf
6345 4725 m
gs 1 -1 sc (PB5) col0 sh gr
/Times-Roman ff 135.00 scf sf
5445 4725 m
gs 1 -1 sc (PB4) col0 sh gr
/Times-Roman ff 120.00 scf sf
2745 4725 m
gs 1 -1 sc (PB1) col0 sh gr
/Times-Roman ff 120.00 scf sf
990 3600 m
gs 1 -1 sc  90.0 rot (22) dup sw pop 2 div neg 0 rm  col0 sh gr
/Times-Roman ff 120.00 scf sf
1530 3600 m
gs 1 -1 sc  90.0 rot (19) dup sw pop 2 div neg 0 rm  col0 sh gr
/Times-Roman ff 120.00 scf sf
1890 3600 m
gs 1 -1 sc  90.0 rot (22) dup sw pop 2 div neg 0 rm  col0 sh gr
/Times-Roman ff 120.00 scf sf
2430 3600 m
gs 1 -1 sc  90.0 rot (19) dup sw pop 2 div neg 0 rm  col0 sh gr
/Times-Roman ff 120.00 scf sf
2790 3600 m
gs 1 -1 sc  90.0 rot (22) dup sw pop 2 div neg 0 rm  col0 sh gr
/Times-Roman ff 120.00 scf sf
4230 3600 m
gs 1 -1 sc  90.0 rot (19) dup sw pop 2 div neg 0 rm  col0 sh gr
/Times-Roman ff 120.00 scf sf
4590 3600 m
gs 1 -1 sc  90.0 rot (22) dup sw pop 2 div neg 0 rm  col0 sh gr
/Times-Roman ff 120.00 scf sf
5130 3600 m
gs 1 -1 sc  90.0 rot (19) dup sw pop 2 div neg 0 rm  col0 sh gr
/Times-Roman ff 120.00 scf sf
5490 3600 m
gs 1 -1 sc  90.0 rot (22) dup sw pop 2 div neg 0 rm  col0 sh gr
/Times-Roman ff 120.00 scf sf
6030 3600 m
gs 1 -1 sc  90.0 rot (19) dup sw pop 2 div neg 0 rm  col0 sh gr
/Times-Roman ff 120.00 scf sf
6390 3600 m
gs 1 -1 sc  90.0 rot (22) dup sw pop 2 div neg 0 rm  col0 sh gr
/Times-Roman ff 120.00 scf sf
1710 5040 m
gs 1 -1 sc  90.0 rot (680) dup sw pop 2 div neg 0 rm  col0 sh gr
/Times-Roman ff 120.00 scf sf
2610 5040 m
gs 1 -1 sc  90.0 rot (470k) dup sw pop 2 div neg 0 rm  col0 sh gr
/Times-Roman ff 150.00 scf sf
3150 5175 m
gs 1 -1 sc (TP1) dup sw pop 2 div neg 0 rm  col0 sh gr
/Times-Roman ff 120.00 scf sf
5310 5040 m
gs 1 -1 sc  90.0 rot (680) dup sw pop 2 div neg 0 rm  col0 sh gr
/Times-Roman ff 120.00 scf sf
6210 5040 m
gs 1 -1 sc  90.0 rot (470k) dup sw pop 2 div neg 0 rm  col0 sh gr
/Helvetica ff 90.00 scf sf
3510 3735 m
gs 1 -1 sc (GND) dup sw pop 2 div neg 0 rm  col0 sh gr
/Times-Bold ff 180.00 scf sf
3510 5085 m
gs 1 -1 sc (Cx) dup sw pop 2 div neg 0 rm  col0 sh gr
/Times-Bold ff 150.00 scf sf
630 3600 m
gs 1 -1 sc  90.0 rot (19) dup sw pop 2 div neg 0 rm  col0 sh gr
/Times-Roman ff 180.00 scf sf
2520 5580 m
gs 1 -1 sc (Voltage measurement without current) dup sw pop 2 div neg 0 rm  col0 sh gr
/Times-Roman ff 150.00 scf sf
1980 2115 m
gs 1 -1 sc  90.0 rot (R1) dup sw pop 2 div neg 0 rm  col0 sh gr
/Times-Roman ff 150.00 scf sf
2880 2115 m
gs 1 -1 sc  90.0 rot (R2) dup sw pop 2 div neg 0 rm  col0 sh gr
/Times-Roman ff 150.00 scf sf
5580 2115 m
gs 1 -1 sc  90.0 rot (R5) dup sw pop 2 div neg 0 rm  col4 sh gr
/Times-Roman ff 150.00 scf sf
6480 2115 m
gs 1 -1 sc  90.0 rot (R6) dup sw pop 2 div neg 0 rm  col0 sh gr
/Times-Roman ff 150.00 scf sf
1980 5040 m
gs 1 -1 sc  90.0 rot (R1) dup sw pop 2 div neg 0 rm  col0 sh gr
/Times-Roman ff 150.00 scf sf
2880 5040 m
gs 1 -1 sc  90.0 rot (R2) dup sw pop 2 div neg 0 rm  col0 sh gr
/Times-Roman ff 150.00 scf sf
5580 5040 m
gs 1 -1 sc  90.0 rot (R5) dup sw pop 2 div neg 0 rm  col0 sh gr
/Times-Roman ff 150.00 scf sf
6480 5040 m
gs 1 -1 sc  90.0 rot (R6) dup sw pop 2 div neg 0 rm  col0 sh gr
/Times-Roman ff 150.00 scf sf
4230 2250 m
gs 1 -1 sc (TP3) dup sw pop 2 div neg 0 rm  col0 sh gr
/Times-Roman ff 150.00 scf sf
4275 5175 m
gs 1 -1 sc (TP3) dup sw pop 2 div neg 0 rm  col0 sh gr
/Times-Bold ff 180.00 scf sf
3870 2205 m
gs 1 -1 sc (ESR) dup sw pop 2 div neg 0 rm  col0 sh gr
/Times-Bold ff 180.00 scf sf
3870 5130 m
gs 1 -1 sc (ESR) dup sw pop 2 div neg 0 rm  col0 sh gr
/Times-Roman ff 180.00 scf sf
3330 2655 m
gs 1 -1 sc (Voltage measurement with charge current) dup sw pop 2 div neg 0 rm  col0 sh gr
% here ends figure;
% 
% here starts figure with depth 0
% Polyline
1 slj
0 slc
7.500 slw
n 2365 1440 m 2115 1305 l 2115 1575 l
 2365 1440 l  cp gs col0 s gr 
% Polyline
0 slj
n 2365 1440 m
 2430 1440 l gs col0 s gr 
% Polyline
n 2228 1406 m 2198 1406 l 2198 1476 l
 2168 1476 l gs col0 s gr 
% Polyline
n 2207 1406 m 2177 1406 l 2177 1476 l
 2147 1476 l gs col0 s gr 
% Polyline
n 2115 1440 m
 2025 1440 l gs col0 s gr 
% Polyline
1 slj
n 3265 1440 m 3015 1305 l 3015 1575 l
 3265 1440 l  cp gs col0 s gr 
% Polyline
0 slj
n 3265 1440 m
 3330 1440 l gs col0 s gr 
% Polyline
n 3128 1406 m 3098 1406 l 3098 1476 l
 3068 1476 l gs col0 s gr 
% Polyline
n 3107 1406 m 3077 1406 l 3077 1476 l
 3047 1476 l gs col0 s gr 
% Polyline
n 3015 1440 m
 2925 1440 l gs col0 s gr 
% Ellipse
n 898 1438 20 20 0 360 DrawEllipse gs 0.00 setgray ef gr gs col0 s gr

% Ellipse
n 1801 1438 20 20 0 360 DrawEllipse gs 0.00 setgray ef gr gs col0 s gr

% Ellipse
n 2698 1436 20 20 0 360 DrawEllipse gs 0.00 setgray ef gr gs col0 s gr

% Ellipse
n 1800 2340 20 20 0 360 DrawEllipse gs 0.00 setgray ef gr gs col0 s gr

% Ellipse
n 2700 2340 20 20 0 360 DrawEllipse gs 0.00 setgray ef gr gs col0 s gr

% Polyline
n 1800 2250 m
 1800 2340 l gs col0 s gr 
% Polyline
n 1755 1980 m 1845 1980 l 1845 2250 l 1755 2250 l
 cp gs col0 s gr 
% Polyline
n 1800 1890 m
 1800 1980 l gs col0 s gr 
% Polyline
n 2700 2250 m
 2700 2340 l gs col0 s gr 
% Polyline
n 2655 1980 m 2745 1980 l 2745 2250 l 2655 2250 l
 cp gs col0 s gr 
% Polyline
n 2700 1890 m
 2700 1980 l gs col0 s gr 
% Polyline
n 2745 1620 m 2700 1665 l
 2655 1620 l gs col0 s gr 
% Polyline
n 2745 1665 m 2700 1710 l
 2655 1665 l gs col0 s gr 
% Polyline
n 2700 1710 m
 2700 1890 l gs col0 s gr 
% Polyline
n 2700 1440 m
 2700 1665 l gs col0 s gr 
% Polyline
n 945 1620 m 900 1665 l
 855 1620 l gs col0 s gr 
% Polyline
n 945 1665 m 900 1710 l
 855 1665 l gs col0 s gr 
% Polyline
n 900 1710 m
 900 1890 l gs col0 s gr 
% Polyline
n 900 1440 m
 900 1665 l gs col0 s gr 
% Polyline
n 1845 1620 m 1800 1665 l
 1755 1620 l gs col0 s gr 
% Polyline
n 1845 1665 m 1800 1710 l
 1755 1665 l gs col0 s gr 
% Polyline
n 1800 1710 m
 1800 1890 l gs col0 s gr 
% Polyline
n 1800 1440 m
 1800 1665 l gs col0 s gr 
% Polyline
n 5580 810 m
 5580 900 l gs col0 s gr 
% Polyline
n 5535 540 m 5625 540 l 5625 810 l 5535 810 l
 cp gs col0 s gr 
% Polyline
n 5580 450 m
 5580 540 l gs col0 s gr 
% Polyline
n 6480 810 m
 6480 900 l gs col0 s gr 
% Polyline
n 6435 540 m 6525 540 l 6525 810 l 6435 810 l
 cp gs col0 s gr 
% Polyline
n 6480 450 m
 6480 540 l gs col0 s gr 
% Polyline
n 5220 810 m
 5220 900 l gs col0 s gr 
% Polyline
n 5175 540 m 5265 540 l 5265 810 l 5175 810 l
 cp gs col0 s gr 
% Polyline
n 5220 450 m
 5220 540 l gs col0 s gr 
% Polyline
n 6120 810 m
 6120 900 l gs col0 s gr 
% Polyline
n 6075 540 m 6165 540 l 6165 810 l 6075 810 l
 cp gs col0 s gr 
% Polyline
n 6120 450 m
 6120 540 l gs col0 s gr 
% Polyline
1 slj
n 5965 1440 m 5715 1305 l 5715 1575 l
 5965 1440 l  cp gs col0 s gr 
% Polyline
0 slj
n 5965 1440 m
 6030 1440 l gs col0 s gr 
% Polyline
n 5828 1406 m 5798 1406 l 5798 1476 l
 5768 1476 l gs col0 s gr 
% Polyline
n 5807 1406 m 5777 1406 l 5777 1476 l
 5747 1476 l gs col0 s gr 
% Polyline
n 5715 1440 m
 5625 1440 l gs col0 s gr 
% Polyline
1 slj
n 3935 1440 m 4185 1575 l 4185 1305 l
 3935 1440 l  cp gs col0 s gr 
% Polyline
0 slj
n 3935 1440 m
 3870 1440 l gs col0 s gr 
% Polyline
n 4072 1474 m 4102 1474 l 4102 1404 l
 4132 1404 l gs col0 s gr 
% Polyline
n 4093 1474 m 4123 1474 l 4123 1404 l
 4153 1404 l gs col0 s gr 
% Polyline
n 4185 1440 m
 4275 1440 l gs col0 s gr 
% Ellipse
n 4498 1438 20 20 0 360 DrawEllipse gs 0.00 setgray ef gr gs col0 s gr

% Ellipse
n 5401 1438 20 20 0 360 DrawEllipse gs 0.00 setgray ef gr gs col0 s gr

% Ellipse
n 6298 1436 20 20 0 360 DrawEllipse gs 0.00 setgray ef gr gs col0 s gr

% Ellipse
n 4500 2340 20 20 0 360 DrawEllipse gs 0.00 setgray ef gr gs col0 s gr

% Ellipse
n 5400 2340 20 20 0 360 DrawEllipse gs 0.00 setgray ef gr gs col0 s gr

% Polyline
n 5400 2250 m
 5400 2340 l gs col0 s gr 
% Polyline
n 5355 1980 m 5445 1980 l 5445 2250 l 5355 2250 l
 cp gs col0 s gr 
% Polyline
n 5400 1890 m
 5400 1980 l gs col0 s gr 
% Polyline
n 6300 2250 m
 6300 2340 l gs col0 s gr 
% Polyline
n 6255 1980 m 6345 1980 l 6345 2250 l 6255 2250 l
 cp gs col0 s gr 
% Polyline
n 6300 1890 m
 6300 1980 l gs col0 s gr 
% Ellipse
n 4500 2340 20 20 0 360 DrawEllipse gs 0.00 setgray ef gr gs col0 s gr

% Polyline
n 6345 1620 m 6300 1665 l
 6255 1620 l gs col0 s gr 
% Polyline
n 6345 1665 m 6300 1710 l
 6255 1665 l gs col0 s gr 
% Polyline
n 6300 1710 m
 6300 1890 l gs col0 s gr 
% Polyline
n 6300 1440 m
 6300 1665 l gs col0 s gr 
% Polyline
n 4545 1620 m 4500 1665 l
 4455 1620 l gs col0 s gr 
% Polyline
n 4545 1665 m 4500 1710 l
 4455 1665 l gs col0 s gr 
% Polyline
n 4500 1710 m
 4500 1890 l gs col0 s gr 
% Polyline
n 4500 1440 m
 4500 1665 l gs col0 s gr 
% Polyline
n 5445 1620 m 5400 1665 l
 5355 1620 l gs col0 s gr 
% Polyline
n 5445 1665 m 5400 1710 l
 5355 1665 l gs col0 s gr 
% Polyline
n 5400 1710 m
 5400 1890 l gs col0 s gr 
% Polyline
n 5400 1440 m
 5400 1665 l gs col0 s gr 
% Polyline
n 3195 2295 m 3150 2340 l
 3195 2385 l gs col0 s gr 
% Polyline
n 3150 2295 m 3105 2340 l
 3150 2385 l gs col0 s gr 
% Polyline
n 3105 2340 m
 2925 2340 l gs col0 s gr 
% Polyline
n 3375 2340 m
 3150 2340 l gs col0 s gr 
% Ellipse
n 1620 450 20 20 0 360 DrawEllipse gs 0.00 setgray ef gr gs col0 s gr

% Ellipse
n 2520 450 20 20 0 360 DrawEllipse gs 0.00 setgray ef gr gs col0 s gr

% Ellipse
n 3510 450 20 20 0 360 DrawEllipse gs 0.00 setgray ef gr gs col0 s gr

% Ellipse
n 4320 450 20 20 0 360 DrawEllipse gs 0.00 setgray ef gr gs col0 s gr

% Ellipse
n 5220 450 20 20 0 360 DrawEllipse gs 0.00 setgray ef gr gs col0 s gr

% Ellipse
n 2880 360 20 20 0 360 DrawEllipse gs 0.00 setgray ef gr gs col0 s gr

% Ellipse
n 1980 360 20 20 0 360 DrawEllipse gs 0.00 setgray ef gr gs col0 s gr

% Ellipse
n 4680 360 20 20 0 360 DrawEllipse gs 0.00 setgray ef gr gs col0 s gr

% Ellipse
n 5580 360 20 20 0 360 DrawEllipse gs 0.00 setgray ef gr gs col0 s gr

% Polyline
1 slj
n 470 1440 m 720 1575 l 720 1305 l
 470 1440 l  cp gs col0 s gr 
% Polyline
0 slj
n 470 1440 m
 405 1440 l gs col0 s gr 
% Polyline
n 607 1474 m 637 1474 l 637 1404 l
 667 1404 l gs col0 s gr 
% Polyline
n 628 1474 m 658 1474 l 658 1404 l
 688 1404 l gs col0 s gr 
% Polyline
n 720 1440 m
 810 1440 l gs col0 s gr 
% Polyline
1 slj
n 6730 1440 m 6480 1305 l 6480 1575 l
 6730 1440 l  cp gs col0 s gr 
% Polyline
0 slj
n 6730 1440 m
 6795 1440 l gs col0 s gr 
% Polyline
n 6593 1406 m 6563 1406 l 6563 1476 l
 6533 1476 l gs col0 s gr 
% Polyline
n 6572 1406 m 6542 1406 l 6542 1476 l
 6512 1476 l gs col0 s gr 
% Polyline
n 6480 1440 m
 6390 1440 l gs col0 s gr 
% Polyline
1 slj
n 2365 4365 m 2115 4230 l 2115 4500 l
 2365 4365 l  cp gs col0 s gr 
% Polyline
0 slj
n 2365 4365 m
 2430 4365 l gs col0 s gr 
% Polyline
n 2228 4331 m 2198 4331 l 2198 4401 l
 2168 4401 l gs col0 s gr 
% Polyline
n 2207 4331 m 2177 4331 l 2177 4401 l
 2147 4401 l gs col0 s gr 
% Polyline
n 2115 4365 m
 2025 4365 l gs col0 s gr 
% Polyline
1 slj
n 3265 4365 m 3015 4230 l 3015 4500 l
 3265 4365 l  cp gs col0 s gr 
% Polyline
0 slj
n 3265 4365 m
 3330 4365 l gs col0 s gr 
% Polyline
n 3128 4331 m 3098 4331 l 3098 4401 l
 3068 4401 l gs col0 s gr 
% Polyline
n 3107 4331 m 3077 4331 l 3077 4401 l
 3047 4401 l gs col0 s gr 
% Polyline
n 3015 4365 m
 2925 4365 l gs col0 s gr 
% Ellipse
n 898 4363 20 20 0 360 DrawEllipse gs 0.00 setgray ef gr gs col0 s gr

% Ellipse
n 1801 4363 20 20 0 360 DrawEllipse gs 0.00 setgray ef gr gs col0 s gr

% Ellipse
n 2698 4361 20 20 0 360 DrawEllipse gs 0.00 setgray ef gr gs col0 s gr

% Ellipse
n 1800 5265 20 20 0 360 DrawEllipse gs 0.00 setgray ef gr gs col0 s gr

% Ellipse
n 2700 5265 20 20 0 360 DrawEllipse gs 0.00 setgray ef gr gs col0 s gr

% Polyline
n 1800 5175 m
 1800 5265 l gs col0 s gr 
% Polyline
n 1755 4905 m 1845 4905 l 1845 5175 l 1755 5175 l
 cp gs col0 s gr 
% Polyline
n 1800 4815 m
 1800 4905 l gs col0 s gr 
% Polyline
n 2700 5175 m
 2700 5265 l gs col0 s gr 
% Polyline
n 2655 4905 m 2745 4905 l 2745 5175 l 2655 5175 l
 cp gs col0 s gr 
% Polyline
n 2700 4815 m
 2700 4905 l gs col0 s gr 
% Polyline
n 2745 4545 m 2700 4590 l
 2655 4545 l gs col0 s gr 
% Polyline
n 2745 4590 m 2700 4635 l
 2655 4590 l gs col0 s gr 
% Polyline
n 2700 4635 m
 2700 4815 l gs col0 s gr 
% Polyline
n 2700 4365 m
 2700 4590 l gs col0 s gr 
% Polyline
n 945 4545 m 900 4590 l
 855 4545 l gs col0 s gr 
% Polyline
n 945 4590 m 900 4635 l
 855 4590 l gs col0 s gr 
% Polyline
n 900 4635 m
 900 4815 l gs col0 s gr 
% Polyline
n 900 4365 m
 900 4590 l gs col0 s gr 
% Polyline
n 1845 4545 m 1800 4590 l
 1755 4545 l gs col0 s gr 
% Polyline
n 1845 4590 m 1800 4635 l
 1755 4590 l gs col0 s gr 
% Polyline
n 1800 4635 m
 1800 4815 l gs col0 s gr 
% Polyline
n 1800 4365 m
 1800 4590 l gs col0 s gr 
% Polyline
n 5580 3735 m
 5580 3825 l gs col0 s gr 
% Polyline
n 5535 3465 m 5625 3465 l 5625 3735 l 5535 3735 l
 cp gs col0 s gr 
% Polyline
n 5580 3375 m
 5580 3465 l gs col0 s gr 
% Polyline
n 6480 3735 m
 6480 3825 l gs col0 s gr 
% Polyline
n 6435 3465 m 6525 3465 l 6525 3735 l 6435 3735 l
 cp gs col0 s gr 
% Polyline
n 6480 3375 m
 6480 3465 l gs col0 s gr 
% Polyline
n 5220 3735 m
 5220 3825 l gs col0 s gr 
% Polyline
n 5175 3465 m 5265 3465 l 5265 3735 l 5175 3735 l
 cp gs col0 s gr 
% Polyline
n 5220 3375 m
 5220 3465 l gs col0 s gr 
% Polyline
n 6120 3735 m
 6120 3825 l gs col0 s gr 
% Polyline
n 6075 3465 m 6165 3465 l 6165 3735 l 6075 3735 l
 cp gs col0 s gr 
% Polyline
n 6120 3375 m
 6120 3465 l gs col0 s gr 
% Polyline
1 slj
n 5965 4365 m 5715 4230 l 5715 4500 l
 5965 4365 l  cp gs col0 s gr 
% Polyline
0 slj
n 5965 4365 m
 6030 4365 l gs col0 s gr 
% Polyline
n 5828 4331 m 5798 4331 l 5798 4401 l
 5768 4401 l gs col0 s gr 
% Polyline
n 5807 4331 m 5777 4331 l 5777 4401 l
 5747 4401 l gs col0 s gr 
% Polyline
n 5715 4365 m
 5625 4365 l gs col0 s gr 
% Polyline
1 slj
n 3935 4365 m 4185 4500 l 4185 4230 l
 3935 4365 l  cp gs col0 s gr 
% Polyline
0 slj
n 3935 4365 m
 3870 4365 l gs col0 s gr 
% Polyline
n 4072 4399 m 4102 4399 l 4102 4329 l
 4132 4329 l gs col0 s gr 
% Polyline
n 4093 4399 m 4123 4399 l 4123 4329 l
 4153 4329 l gs col0 s gr 
% Polyline
n 4185 4365 m
 4275 4365 l gs col0 s gr 
% Ellipse
n 4498 4363 20 20 0 360 DrawEllipse gs 0.00 setgray ef gr gs col0 s gr

% Ellipse
n 5401 4363 20 20 0 360 DrawEllipse gs 0.00 setgray ef gr gs col0 s gr

% Ellipse
n 6298 4361 20 20 0 360 DrawEllipse gs 0.00 setgray ef gr gs col0 s gr

% Ellipse
n 4500 5265 20 20 0 360 DrawEllipse gs 0.00 setgray ef gr gs col0 s gr

% Ellipse
n 5400 5265 20 20 0 360 DrawEllipse gs 0.00 setgray ef gr gs col0 s gr

% Polyline
n 5400 5175 m
 5400 5265 l gs col0 s gr 
% Polyline
n 5355 4905 m 5445 4905 l 5445 5175 l 5355 5175 l
 cp gs col0 s gr 
% Polyline
n 5400 4815 m
 5400 4905 l gs col0 s gr 
% Polyline
n 6300 5175 m
 6300 5265 l gs col0 s gr 
% Polyline
n 6255 4905 m 6345 4905 l 6345 5175 l 6255 5175 l
 cp gs col0 s gr 
% Polyline
n 6300 4815 m
 6300 4905 l gs col0 s gr 
% Ellipse
n 4500 5265 20 20 0 360 DrawEllipse gs 0.00 setgray ef gr gs col0 s gr

% Polyline
n 6345 4545 m 6300 4590 l
 6255 4545 l gs col0 s gr 
% Polyline
n 6345 4590 m 6300 4635 l
 6255 4590 l gs col0 s gr 
% Polyline
n 6300 4635 m
 6300 4815 l gs col0 s gr 
% Polyline
n 6300 4365 m
 6300 4590 l gs col0 s gr 
% Polyline
n 4545 4545 m 4500 4590 l
 4455 4545 l gs col0 s gr 
% Polyline
n 4545 4590 m 4500 4635 l
 4455 4590 l gs col0 s gr 
% Polyline
n 4500 4635 m
 4500 4815 l gs col0 s gr 
% Polyline
n 4500 4365 m
 4500 4590 l gs col0 s gr 
% Polyline
n 5445 4545 m 5400 4590 l
 5355 4545 l gs col0 s gr 
% Polyline
n 5445 4590 m 5400 4635 l
 5355 4590 l gs col0 s gr 
% Polyline
n 5400 4635 m
 5400 4815 l gs col0 s gr 
% Polyline
n 5400 4365 m
 5400 4590 l gs col0 s gr 
% Ellipse
n 5085 4680 135 135 0 360 DrawEllipse gs col0 s gr

% Polyline
n 5040 4625 m 5085 4725 l
 5130 4625 l gs col0 s gr 
% Ellipse
n 1620 3375 20 20 0 360 DrawEllipse gs 0.00 setgray ef gr gs col0 s gr

% Ellipse
n 2520 3375 20 20 0 360 DrawEllipse gs 0.00 setgray ef gr gs col0 s gr

% Ellipse
n 3510 3375 20 20 0 360 DrawEllipse gs 0.00 setgray ef gr gs col0 s gr

% Ellipse
n 4320 3375 20 20 0 360 DrawEllipse gs 0.00 setgray ef gr gs col0 s gr

% Ellipse
n 5220 3375 20 20 0 360 DrawEllipse gs 0.00 setgray ef gr gs col0 s gr

% Ellipse
n 2880 3285 20 20 0 360 DrawEllipse gs 0.00 setgray ef gr gs col0 s gr

% Ellipse
n 1980 3285 20 20 0 360 DrawEllipse gs 0.00 setgray ef gr gs col0 s gr

% Ellipse
n 4680 3285 20 20 0 360 DrawEllipse gs 0.00 setgray ef gr gs col0 s gr

% Ellipse
n 5580 3285 20 20 0 360 DrawEllipse gs 0.00 setgray ef gr gs col0 s gr

% Polyline
1 slj
n 470 4365 m 720 4500 l 720 4230 l
 470 4365 l  cp gs col0 s gr 
% Polyline
0 slj
n 470 4365 m
 405 4365 l gs col0 s gr 
% Polyline
n 607 4399 m 637 4399 l 637 4329 l
 667 4329 l gs col0 s gr 
% Polyline
n 628 4399 m 658 4399 l 658 4329 l
 688 4329 l gs col0 s gr 
% Polyline
n 720 4365 m
 810 4365 l gs col0 s gr 
% Polyline
1 slj
n 6730 4365 m 6480 4230 l 6480 4500 l
 6730 4365 l  cp gs col0 s gr 
% Polyline
0 slj
n 6730 4365 m
 6795 4365 l gs col0 s gr 
% Polyline
n 6593 4331 m 6563 4331 l 6563 4401 l
 6533 4401 l gs col0 s gr 
% Polyline
n 6572 4331 m 6542 4331 l 6542 4401 l
 6512 4401 l gs col0 s gr 
% Polyline
n 6480 4365 m
 6390 4365 l gs col0 s gr 
% Polyline
n 3555 2340 m
 3690 2340 l gs col0 s gr 
% Polyline
n 3510 2340 m
 3375 2340 l gs col0 s gr 
% Polyline
n 3555 2250 m
 3555 2430 l gs col0 s gr 
% Polyline
n 3510 2250 m
 3510 2430 l gs col0 s gr 
% Polyline
n 4005 2340 m
 4095 2340 l gs col0 s gr 
% Polyline
n 3735 2385 m 3735 2295 l 4005 2295 l 4005 2385 l
 cp gs col0 s gr 
% Polyline
n 3645 2340 m
 3735 2340 l gs col0 s gr 
% Polyline
n 4275 2295 m 4320 2340 l
 4275 2385 l gs col0 s gr 
% Polyline
n 4230 2295 m 4275 2340 l
 4230 2385 l gs col0 s gr 
% Polyline
n 4050 2340 m
 4275 2340 l gs col0 s gr 
% Polyline
n 3195 5220 m 3150 5265 l
 3195 5310 l gs col0 s gr 
% Polyline
n 3150 5220 m 3105 5265 l
 3150 5310 l gs col0 s gr 
% Polyline
n 3105 5265 m
 2925 5265 l gs col0 s gr 
% Polyline
n 3375 5265 m
 3150 5265 l gs col0 s gr 
% Polyline
n 3555 5265 m
 3690 5265 l gs col0 s gr 
% Polyline
n 3510 5265 m
 3375 5265 l gs col0 s gr 
% Polyline
n 3555 5175 m
 3555 5355 l gs col0 s gr 
% Polyline
n 3510 5175 m
 3510 5355 l gs col0 s gr 
% Polyline
n 4005 5265 m
 4095 5265 l gs col0 s gr 
% Polyline
n 3735 5310 m 3735 5220 l 4005 5220 l 4005 5310 l
 cp gs col0 s gr 
% Polyline
n 3645 5265 m
 3735 5265 l gs col0 s gr 
% Polyline
n 4230 5220 m 4275 5265 l
 4230 5310 l gs col0 s gr 
% Polyline
n 4275 5220 m 4320 5265 l
 4275 5310 l gs col0 s gr 
% Polyline
n 4320 5265 m
 4500 5265 l gs col0 s gr 
% Polyline
n 4050 5265 m
 4275 5265 l gs col0 s gr 
% Ellipse
n 5085 1755 135 135 0 360 DrawEllipse gs col0 s gr

% Polyline
n 5040 1700 m 5085 1800 l
 5130 1700 l gs col0 s gr 
% Ellipse
n 1485 1755 135 135 0 360 DrawEllipse gs col0 s gr

% Polyline
n 1440 1700 m 1485 1800 l
 1530 1700 l gs col0 s gr 
% Ellipse
n 900 1035 30 30 0 360 DrawEllipse gs col0 s gr

% Ellipse
n 1080 1125 30 30 0 360 DrawEllipse gs col0 s gr

% Ellipse
n 720 1125 30 30 0 360 DrawEllipse gs col0 s gr

% Ellipse
n 1800 1035 30 30 0 360 DrawEllipse gs col0 s gr

% Ellipse
n 1980 1125 30 30 0 360 DrawEllipse gs col0 s gr

% Ellipse
n 1620 1125 30 30 0 360 DrawEllipse gs col0 s gr

% Ellipse
n 1800 1305 30 30 0 360 DrawEllipse gs col0 s gr

% Ellipse
n 2700 1035 30 30 0 360 DrawEllipse gs col0 s gr

% Ellipse
n 2880 1125 30 30 0 360 DrawEllipse gs col0 s gr

% Ellipse
n 2520 1125 30 30 0 360 DrawEllipse gs col0 s gr

% Ellipse
n 2700 1305 30 30 0 360 DrawEllipse gs col0 s gr

% Ellipse
n 4500 1035 30 30 0 360 DrawEllipse gs col0 s gr

% Ellipse
n 4680 1125 30 30 0 360 DrawEllipse gs col0 s gr

% Ellipse
n 4320 1125 30 30 0 360 DrawEllipse gs col0 s gr

% Ellipse
n 5400 1035 30 30 0 360 DrawEllipse gs col0 s gr

% Ellipse
n 5580 1125 30 30 0 360 DrawEllipse gs col0 s gr

% Ellipse
n 5220 1125 30 30 0 360 DrawEllipse gs col0 s gr

% Ellipse
n 5400 1305 30 30 0 360 DrawEllipse gs col0 s gr

% Ellipse
n 6300 1035 30 30 0 360 DrawEllipse gs col0 s gr

% Ellipse
n 6480 1125 30 30 0 360 DrawEllipse gs col0 s gr

% Ellipse
n 6120 1125 30 30 0 360 DrawEllipse gs col0 s gr

% Ellipse
n 6300 1305 30 30 0 360 DrawEllipse gs col0 s gr

% Ellipse
gs
900 1305 tr
-135.000 rot
n 0 0 30 30 0 360 DrawEllipse 135.000 rot
gs col0 s gr
gr

% Ellipse
n 4500 1305 30 30 0 360 DrawEllipse gs col0 s gr

% Ellipse
n 900 3960 30 30 0 360 DrawEllipse gs col0 s gr

% Ellipse
n 1080 4050 30 30 0 360 DrawEllipse gs col0 s gr

% Ellipse
n 720 4050 30 30 0 360 DrawEllipse gs col0 s gr

% Ellipse
n 1800 3960 30 30 0 360 DrawEllipse gs col0 s gr

% Ellipse
n 1980 4050 30 30 0 360 DrawEllipse gs col0 s gr

% Ellipse
n 1620 4050 30 30 0 360 DrawEllipse gs col0 s gr

% Ellipse
n 1800 4230 30 30 0 360 DrawEllipse gs col0 s gr

% Ellipse
n 2700 3960 30 30 0 360 DrawEllipse gs col0 s gr

% Ellipse
n 2880 4050 30 30 0 360 DrawEllipse gs col0 s gr

% Ellipse
n 2520 4050 30 30 0 360 DrawEllipse gs col0 s gr

% Ellipse
n 2700 4230 30 30 0 360 DrawEllipse gs col0 s gr

% Ellipse
n 4500 3960 30 30 0 360 DrawEllipse gs col0 s gr

% Ellipse
n 4680 4050 30 30 0 360 DrawEllipse gs col0 s gr

% Ellipse
n 4320 4050 30 30 0 360 DrawEllipse gs col0 s gr

% Ellipse
n 5400 3960 30 30 0 360 DrawEllipse gs col0 s gr

% Ellipse
n 5580 4050 30 30 0 360 DrawEllipse gs col0 s gr

% Ellipse
n 5400 4230 30 30 0 360 DrawEllipse gs col0 s gr

% Ellipse
n 6300 3960 30 30 0 360 DrawEllipse gs col0 s gr

% Ellipse
n 6480 4050 30 30 0 360 DrawEllipse gs col0 s gr

% Ellipse
n 6120 4050 30 30 0 360 DrawEllipse gs col0 s gr

% Ellipse
n 6300 4230 30 30 0 360 DrawEllipse gs col0 s gr

% Ellipse
gs
900 4230 tr
-135.000 rot
n 0 0 30 30 0 360 DrawEllipse 135.000 rot
gs col0 s gr
gr

% Ellipse
n 5220 4050 30 30 0 360 DrawEllipse gs col0 s gr

% Ellipse
n 4500 4230 30 30 0 360 DrawEllipse gs col0 s gr

% Polyline
n 900 1005 m
 900 900 l gs col0 s gr 
% Polyline
n 1080 1095 m
 1080 900 l gs col0 s gr 
% Polyline
n 720 1095 m
 720 900 l gs col0 s gr 
% Polyline
n 900 1335 m
 900 1440 l gs col0 s gr 
% Polyline
n 1800 1005 m
 1800 900 l gs col0 s gr 
% Polyline
n 1980 1095 m
 1980 900 l gs col0 s gr 
% Polyline
n 1620 1095 m
 1620 900 l gs col0 s gr 
% Polyline
n 1800 1335 m
 1800 1440 l gs col0 s gr 
% Polyline
n 2700 1005 m
 2700 900 l gs col0 s gr 
% Polyline
n 2880 1095 m
 2880 900 l gs col0 s gr 
% Polyline
n 2520 1095 m
 2520 900 l gs col0 s gr 
% Polyline
n 2700 1335 m
 2700 1440 l gs col0 s gr 
% Polyline
n 4500 1005 m
 4500 900 l gs col0 s gr 
% Polyline
n 4680 1095 m
 4680 900 l gs col0 s gr 
% Polyline
n 4320 1095 m
 4320 900 l gs col0 s gr 
% Polyline
n 4500 1335 m
 4500 1440 l gs col0 s gr 
% Polyline
n 5400 1005 m
 5400 900 l gs col0 s gr 
% Polyline
n 5580 1095 m
 5580 900 l gs col0 s gr 
% Polyline
n 5220 1095 m
 5220 900 l gs col0 s gr 
% Polyline
n 5400 1335 m
 5400 1440 l gs col0 s gr 
% Polyline
n 6300 1005 m
 6300 900 l gs col0 s gr 
% Polyline
n 6480 1095 m
 6480 900 l gs col0 s gr 
% Polyline
n 6120 1095 m
 6120 900 l gs col0 s gr 
% Polyline
n 6300 1335 m
 6300 1440 l gs col0 s gr 
% Polyline
gs  clippath
818 1197 m 745 1123 l 713 1155 l 787 1228 l 787 1228 l 750 1160 l 818 1197 l cp
eoclip
n 880 1290 m
 740 1150 l gs col0 s gr gr

% arrowhead
n 818 1197 m 750 1160 l 787 1228 l 818 1197 l  cp gs 0.00 setgray ef gr  col0 s
% Polyline
gs  clippath
1821 1157 m 1821 1053 l 1776 1053 l 1776 1157 l 1776 1157 l 1799 1082 l 1821 1157 l cp
eoclip
n 1799 1266 m
 1799 1068 l gs col0 s gr gr

% arrowhead
n 1821 1157 m 1799 1082 l 1776 1157 l 1821 1157 l  cp gs 0.00 setgray ef gr  col0 s
% Polyline
gs  clippath
2721 1163 m 2721 1059 l 2676 1059 l 2676 1163 l 2676 1163 l 2699 1088 l 2721 1163 l cp
eoclip
n 2699 1272 m
 2699 1074 l gs col0 s gr gr

% arrowhead
n 2721 1163 m 2699 1088 l 2676 1163 l 2721 1163 l  cp gs 0.00 setgray ef gr  col0 s
% Polyline
gs  clippath
6322 1162 m 6322 1058 l 6277 1058 l 6277 1162 l 6277 1162 l 6300 1087 l 6322 1162 l cp
eoclip
n 6300 1271 m
 6300 1073 l gs col0 s gr gr

% arrowhead
n 6322 1162 m 6300 1087 l 6277 1162 l 6322 1162 l  cp gs 0.00 setgray ef gr  col0 s
% Polyline
n 3510 450 m
 3510 675 l gs col0 s gr 
% Polyline
1 slc
30.000 slw
n 3600 675 m
 3420 675 l gs col0 s gr 
% Polyline
0 slc
7.500 slw
n 4275 2340 m
 4275 2340 l  cp gs col0 s gr 
% Polyline
n 4680 810 m
 4680 900 l gs col0 s gr 
% Polyline
n 4635 540 m 4725 540 l 4725 810 l 4635 810 l
 cp gs col0 s gr 
% Polyline
n 4680 450 m
 4680 540 l gs col0 s gr 
% Polyline
n 720 810 m
 720 900 l gs col0 s gr 
% Polyline
n 675 540 m 765 540 l 765 810 l 675 810 l
 cp gs col0 s gr 
% Polyline
n 720 450 m
 720 540 l gs col0 s gr 
% Polyline
n 1080 810 m
 1080 900 l gs col0 s gr 
% Polyline
n 1035 540 m 1125 540 l 1125 810 l 1035 810 l
 cp gs col0 s gr 
% Polyline
n 1080 450 m
 1080 540 l gs col0 s gr 
% Polyline
n 1620 810 m
 1620 900 l gs col0 s gr 
% Polyline
n 1575 540 m 1665 540 l 1665 810 l 1575 810 l
 cp gs col0 s gr 
% Polyline
n 1620 450 m
 1620 540 l gs col0 s gr 
% Polyline
n 1980 810 m
 1980 900 l gs col0 s gr 
% Polyline
n 1935 540 m 2025 540 l 2025 810 l 1935 810 l
 cp gs col0 s gr 
% Polyline
n 1980 450 m
 1980 540 l gs col0 s gr 
% Polyline
n 2520 810 m
 2520 900 l gs col0 s gr 
% Polyline
n 2475 540 m 2565 540 l 2565 810 l 2475 810 l
 cp gs col0 s gr 
% Polyline
n 2520 450 m
 2520 540 l gs col0 s gr 
% Polyline
n 2880 810 m
 2880 900 l gs col0 s gr 
% Polyline
n 2835 540 m 2925 540 l 2925 810 l 2835 810 l
 cp gs col0 s gr 
% Polyline
n 2880 450 m
 2880 540 l gs col0 s gr 
% Polyline
n 4320 810 m
 4320 900 l gs col0 s gr 
% Polyline
n 4275 540 m 4365 540 l 4365 810 l 4275 810 l
 cp gs col0 s gr 
% Polyline
n 4320 450 m
 4320 540 l gs col0 s gr 
% Polyline
n 900 3930 m
 900 3825 l gs col0 s gr 
% Polyline
n 1080 4020 m
 1080 3825 l gs col0 s gr 
% Polyline
n 720 4020 m
 720 3825 l gs col0 s gr 
% Polyline
n 900 4260 m
 900 4365 l gs col0 s gr 
% Polyline
n 1800 3930 m
 1800 3825 l gs col0 s gr 
% Polyline
n 1980 4020 m
 1980 3825 l gs col0 s gr 
% Polyline
n 1620 4020 m
 1620 3825 l gs col0 s gr 
% Polyline
n 1800 4260 m
 1800 4365 l gs col0 s gr 
% Polyline
n 2700 3930 m
 2700 3825 l gs col0 s gr 
% Polyline
n 2880 4020 m
 2880 3825 l gs col0 s gr 
% Polyline
n 2520 4020 m
 2520 3825 l gs col0 s gr 
% Polyline
n 2700 4260 m
 2700 4365 l gs col0 s gr 
% Polyline
n 4500 3930 m
 4500 3825 l gs col0 s gr 
% Polyline
n 4680 4020 m
 4680 3825 l gs col0 s gr 
% Polyline
n 4320 4020 m
 4320 3825 l gs col0 s gr 
% Polyline
n 4500 4260 m
 4500 4365 l gs col0 s gr 
% Polyline
n 5400 3930 m
 5400 3825 l gs col0 s gr 
% Polyline
n 5580 4020 m
 5580 3825 l gs col0 s gr 
% Polyline
n 5220 4020 m
 5220 3825 l gs col0 s gr 
% Polyline
n 5400 4260 m
 5400 4365 l gs col0 s gr 
% Polyline
n 6300 3930 m
 6300 3825 l gs col0 s gr 
% Polyline
n 6480 4020 m
 6480 3825 l gs col0 s gr 
% Polyline
n 6120 4020 m
 6120 3825 l gs col0 s gr 
% Polyline
n 6300 4260 m
 6300 4365 l gs col0 s gr 
% Polyline
gs  clippath
818 4122 m 745 4048 l 713 4080 l 787 4153 l 787 4153 l 750 4085 l 818 4122 l cp
eoclip
n 880 4215 m
 740 4075 l gs col0 s gr gr

% arrowhead
n 818 4122 m 750 4085 l 787 4153 l 818 4122 l  cp gs 0.00 setgray ef gr  col0 s
% Polyline
gs  clippath
1821 4082 m 1821 3978 l 1776 3978 l 1776 4082 l 1776 4082 l 1799 4007 l 1821 4082 l cp
eoclip
n 1799 4191 m
 1799 3993 l gs col0 s gr gr

% arrowhead
n 1821 4082 m 1799 4007 l 1776 4082 l 1821 4082 l  cp gs 0.00 setgray ef gr  col0 s
% Polyline
gs  clippath
2721 4088 m 2721 3984 l 2676 3984 l 2676 4088 l 2676 4088 l 2699 4013 l 2721 4088 l cp
eoclip
n 2699 4197 m
 2699 3999 l gs col0 s gr gr

% arrowhead
n 2721 4088 m 2699 4013 l 2676 4088 l 2721 4088 l  cp gs 0.00 setgray ef gr  col0 s
% Polyline
n 3510 3375 m
 3510 3600 l gs col0 s gr 
% Polyline
1 slc
30.000 slw
n 3600 3600 m
 3420 3600 l gs col0 s gr 
% Polyline
0 slc
7.500 slw
n 4680 3735 m
 4680 3825 l gs col0 s gr 
% Polyline
n 4635 3465 m 4725 3465 l 4725 3735 l 4635 3735 l
 cp gs col0 s gr 
% Polyline
n 4680 3375 m
 4680 3465 l gs col0 s gr 
% Polyline
n 720 3735 m
 720 3825 l gs col0 s gr 
% Polyline
n 675 3465 m 765 3465 l 765 3735 l 675 3735 l
 cp gs col0 s gr 
% Polyline
n 720 3375 m
 720 3465 l gs col0 s gr 
% Polyline
n 1080 3735 m
 1080 3825 l gs col0 s gr 
% Polyline
n 1035 3465 m 1125 3465 l 1125 3735 l 1035 3735 l
 cp gs col0 s gr 
% Polyline
n 1080 3375 m
 1080 3465 l gs col0 s gr 
% Polyline
n 1620 3735 m
 1620 3825 l gs col0 s gr 
% Polyline
n 1575 3465 m 1665 3465 l 1665 3735 l 1575 3735 l
 cp gs col0 s gr 
% Polyline
n 1620 3375 m
 1620 3465 l gs col0 s gr 
% Polyline
n 1980 3735 m
 1980 3825 l gs col0 s gr 
% Polyline
n 1935 3465 m 2025 3465 l 2025 3735 l 1935 3735 l
 cp gs col0 s gr 
% Polyline
n 1980 3375 m
 1980 3465 l gs col0 s gr 
% Polyline
n 2520 3735 m
 2520 3825 l gs col0 s gr 
% Polyline
n 2475 3465 m 2565 3465 l 2565 3735 l 2475 3735 l
 cp gs col0 s gr 
% Polyline
n 2520 3375 m
 2520 3465 l gs col0 s gr 
% Polyline
n 2880 3735 m
 2880 3825 l gs col0 s gr 
% Polyline
n 2835 3465 m 2925 3465 l 2925 3735 l 2835 3735 l
 cp gs col0 s gr 
% Polyline
n 2880 3375 m
 2880 3465 l gs col0 s gr 
% Polyline
n 4320 3735 m
 4320 3825 l gs col0 s gr 
% Polyline
n 4275 3465 m 4365 3465 l 4365 3735 l 4275 3735 l
 cp gs col0 s gr 
% Polyline
n 4320 3375 m
 4320 3465 l gs col0 s gr 
% Polyline
gs  clippath
4702 3166 m 4702 3045 l 4657 3045 l 4657 3166 l 4657 3166 l 4680 3076 l 4702 3166 l cp
eoclip
n 4680 3285 m
 4680 3060 l gs col0 s gr gr

% arrowhead
n 4702 3166 m 4680 3076 l 4657 3166 l 4702 3166 l  cp gs 0.00 setgray ef gr  col0 s
% Polyline
gs  clippath
4702 241 m 4702 120 l 4657 120 l 4657 241 l 4657 241 l 4680 151 l 4702 241 l cp
eoclip
n 4680 360 m
 4680 135 l gs col0 s gr gr

% arrowhead
n 4702 241 m 4680 151 l 4657 241 l 4702 241 l  cp gs 0.00 setgray ef gr  col0 s
% Polyline
gs  clippath
5514 1220 m 5588 1147 l 5556 1115 l 5483 1189 l 5483 1189 l 5552 1152 l 5514 1220 l cp
eoclip
n 5422 1282 m
 5562 1142 l gs col0 s gr gr

% arrowhead
n 5514 1220 m 5552 1152 l 5483 1189 l 5514 1220 l  cp gs 0.00 setgray ef gr  col0 s
% Polyline
gs  clippath
4522 1163 m 4522 1059 l 4477 1059 l 4477 1163 l 4477 1163 l 4500 1088 l 4522 1163 l cp
eoclip
n 4500 1272 m
 4500 1074 l gs col0 s gr gr

% arrowhead
n 4522 1163 m 4500 1088 l 4477 1163 l 4522 1163 l  cp gs 0.00 setgray ef gr  col0 s
% Polyline
gs  clippath
6322 4087 m 6322 3983 l 6277 3983 l 6277 4087 l 6277 4087 l 6300 4012 l 6322 4087 l cp
eoclip
n 6300 4196 m
 6300 3998 l gs col0 s gr gr

% arrowhead
n 6322 4087 m 6300 4012 l 6277 4087 l 6322 4087 l  cp gs 0.00 setgray ef gr  col0 s
% Polyline
gs  clippath
5422 4087 m 5422 3983 l 5377 3983 l 5377 4087 l 5377 4087 l 5400 4012 l 5422 4087 l cp
eoclip
n 5400 4196 m
 5400 3998 l gs col0 s gr gr

% arrowhead
n 5422 4087 m 5400 4012 l 5377 4087 l 5422 4087 l  cp gs 0.00 setgray ef gr  col0 s
% Polyline
gs  clippath
4522 4087 m 4522 3983 l 4477 3983 l 4477 4087 l 4477 4087 l 4500 4012 l 4522 4087 l cp
eoclip
n 4500 4196 m
 4500 3998 l gs col0 s gr gr

% arrowhead
n 4522 4087 m 4500 4012 l 4477 4087 l 4522 4087 l  cp gs 0.00 setgray ef gr  col0 s
% Polyline
n 4185 2340 m
 4185 2340 l  cp gs col0 s gr 
% Polyline
n 4140 2340 m
 4140 2340 l  cp gs col0 s gr 
% Polyline
n 4185 2340 m
 4185 2340 l  cp gs col0 s gr 
% Polyline
n 4545 5715 m
 4545 5715 l  cp gs col0 s gr 
/Helvetica ff 90.00 scf sf
4680 3015 m
gs 1 -1 sc (VCC) dup sw pop 2 div neg 0 rm  col0 sh gr
/Helvetica ff 90.00 scf sf
4680 135 m
gs 1 -1 sc (VCC) dup sw pop 2 div neg 0 rm  col0 sh gr
% here ends figure;
pagefooter
showpage
%%Trailer
%EOF

%%EndDocument
 @endspecial Black Black eop end
%%Trailer

userdict /end-hook known{end-hook}if
%%EOF
