%!PS-Adobe-2.0
%%Creator: dvips(k) 5.993 Copyright 2013 Radical Eye Software
%%Title: job-001.dvi
%%CreationDate: Sun May  3 11:37:51 2015
%%Pages: 1
%%PageOrder: Ascend
%%BoundingBox: 156 3074 561 3229
%%EndComments
%DVIPSWebPage: (www.radicaleye.com)
%DVIPSCommandLine: dvips job-001.dvi -o job-001.dvips.ps
%DVIPSParameters: dpi=600
%DVIPSSource:  TeX output 2015.05.03:1137
%%BeginProcSet: tex.pro 0 0
%!
/TeXDict 300 dict def TeXDict begin/N{def}def/B{bind def}N/S{exch}N/X{S
N}B/A{dup}B/TR{translate}N/isls false N/vsize 11 72 mul N/hsize 8.5 72
mul N/landplus90{false}def/@rigin{isls{[0 landplus90{1 -1}{-1 1}ifelse 0
0 0]concat}if 72 Resolution div 72 VResolution div neg scale isls{
landplus90{VResolution 72 div vsize mul 0 exch}{Resolution -72 div hsize
mul 0}ifelse TR}if Resolution VResolution vsize -72 div 1 add mul TR[
matrix currentmatrix{A A round sub abs 0.00001 lt{round}if}forall round
exch round exch]setmatrix}N/@landscape{/isls true N}B/@manualfeed{
statusdict/manualfeed true put}B/@copies{/#copies X}B/FMat[1 0 0 -1 0 0]
N/FBB[0 0 0 0]N/nn 0 N/IEn 0 N/ctr 0 N/df-tail{/nn 8 dict N nn begin
/FontType 3 N/FontMatrix fntrx N/FontBBox FBB N string/base X array
/BitMaps X/BuildChar{CharBuilder}N/Encoding IEn N end A{/foo setfont}2
array copy cvx N load 0 nn put/ctr 0 N[}B/sf 0 N/df{/sf 1 N/fntrx FMat N
df-tail}B/dfs{div/sf X/fntrx[sf 0 0 sf neg 0 0]N df-tail}B/E{pop nn A
definefont setfont}B/Cw{Cd A length 5 sub get}B/Ch{Cd A length 4 sub get
}B/Cx{128 Cd A length 3 sub get sub}B/Cy{Cd A length 2 sub get 127 sub}
B/Cdx{Cd A length 1 sub get}B/Ci{Cd A type/stringtype ne{ctr get/ctr ctr
1 add N}if}B/CharBuilder{save 3 1 roll S A/base get 2 index get S
/BitMaps get S get/Cd X pop/ctr 0 N Cdx 0 Cx Cy Ch sub Cx Cw add Cy
setcachedevice Cw Ch true[1 0 0 -1 -.1 Cx sub Cy .1 sub]{Ci}imagemask
restore}B/D{/cc X A type/stringtype ne{]}if nn/base get cc ctr put nn
/BitMaps get S ctr S sf 1 ne{A A length 1 sub A 2 index S get sf div put
}if put/ctr ctr 1 add N}B/I{cc 1 add D}B/bop{userdict/bop-hook known{
bop-hook}if/SI save N @rigin 0 0 moveto/V matrix currentmatrix A 1 get A
mul exch 0 get A mul add .99 lt{/QV}{/RV}ifelse load def pop pop}N/eop{
SI restore userdict/eop-hook known{eop-hook}if showpage}N/@start{
userdict/start-hook known{start-hook}if pop/VResolution X/Resolution X
1000 div/DVImag X/IEn 256 array N 2 string 0 1 255{IEn S A 360 add 36 4
index cvrs cvn put}for pop 65781.76 div/vsize X 65781.76 div/hsize X}N
/dir 0 def/dyy{/dir 0 def}B/dyt{/dir 1 def}B/dty{/dir 2 def}B/dtt{/dir 3
def}B/p{dir 2 eq{-90 rotate show 90 rotate}{dir 3 eq{-90 rotate show 90
rotate}{show}ifelse}ifelse}N/RMat[1 0 0 -1 0 0]N/BDot 260 string N/Rx 0
N/Ry 0 N/V{}B/RV/v{/Ry X/Rx X V}B statusdict begin/product where{pop
false[(Display)(NeXT)(LaserWriter 16/600)]{A length product length le{A
length product exch 0 exch getinterval eq{pop true exit}if}{pop}ifelse}
forall}{false}ifelse end{{gsave TR -.1 .1 TR 1 1 scale Rx Ry false RMat{
BDot}imagemask grestore}}{{gsave TR -.1 .1 TR Rx Ry scale 1 1 false RMat
{BDot}imagemask grestore}}ifelse B/QV{gsave newpath transform round exch
round exch itransform moveto Rx 0 rlineto 0 Ry neg rlineto Rx neg 0
rlineto fill grestore}B/a{moveto}B/delta 0 N/tail{A/delta X 0 rmoveto}B
/M{S p delta add tail}B/b{S p tail}B/c{-4 M}B/d{-3 M}B/e{-2 M}B/f{-1 M}
B/g{0 M}B/h{1 M}B/i{2 M}B/j{3 M}B/k{4 M}B/w{0 rmoveto}B/l{p -4 w}B/m{p
-3 w}B/n{p -2 w}B/o{p -1 w}B/q{p 1 w}B/r{p 2 w}B/s{p 3 w}B/t{p 4 w}B/x{
0 S rmoveto}B/y{3 2 roll p a}B/bos{/SS save N}B/eos{SS restore}B end

%%EndProcSet
%%BeginProcSet: special.pro 0 0
%!
TeXDict begin/SDict 200 dict N SDict begin/@SpecialDefaults{/hs 612 N
/vs 792 N/ho 0 N/vo 0 N/hsc 1 N/vsc 1 N/ang 0 N/CLIP 0 N/rwiSeen false N
/rhiSeen false N/letter{}N/note{}N/a4{}N/legal{}N}B/@scaleunit 100 N
/@hscale{@scaleunit div/hsc X}B/@vscale{@scaleunit div/vsc X}B/@hsize{
/hs X/CLIP 1 N}B/@vsize{/vs X/CLIP 1 N}B/@clip{/CLIP 2 N}B/@hoffset{/ho
X}B/@voffset{/vo X}B/@angle{/ang X}B/@rwi{10 div/rwi X/rwiSeen true N}B
/@rhi{10 div/rhi X/rhiSeen true N}B/@llx{/llx X}B/@lly{/lly X}B/@urx{
/urx X}B/@ury{/ury X}B/magscale true def end/@MacSetUp{userdict/md known
{userdict/md get type/dicttype eq{userdict begin md length 10 add md
maxlength ge{/md md dup length 20 add dict copy def}if end md begin
/letter{}N/note{}N/legal{}N/od{txpose 1 0 mtx defaultmatrix dtransform S
atan/pa X newpath clippath mark{transform{itransform moveto}}{transform{
itransform lineto}}{6 -2 roll transform 6 -2 roll transform 6 -2 roll
transform{itransform 6 2 roll itransform 6 2 roll itransform 6 2 roll
curveto}}{{closepath}}pathforall newpath counttomark array astore/gc xdf
pop ct 39 0 put 10 fz 0 fs 2 F/|______Courier fnt invertflag{PaintBlack}
if}N/txpose{pxs pys scale ppr aload pop por{noflips{pop S neg S TR pop 1
-1 scale}if xflip yflip and{pop S neg S TR 180 rotate 1 -1 scale ppr 3
get ppr 1 get neg sub neg ppr 2 get ppr 0 get neg sub neg TR}if xflip
yflip not and{pop S neg S TR pop 180 rotate ppr 3 get ppr 1 get neg sub
neg 0 TR}if yflip xflip not and{ppr 1 get neg ppr 0 get neg TR}if}{
noflips{TR pop pop 270 rotate 1 -1 scale}if xflip yflip and{TR pop pop
90 rotate 1 -1 scale ppr 3 get ppr 1 get neg sub neg ppr 2 get ppr 0 get
neg sub neg TR}if xflip yflip not and{TR pop pop 90 rotate ppr 3 get ppr
1 get neg sub neg 0 TR}if yflip xflip not and{TR pop pop 270 rotate ppr
2 get ppr 0 get neg sub neg 0 S TR}if}ifelse scaleby96{ppr aload pop 4
-1 roll add 2 div 3 1 roll add 2 div 2 copy TR .96 dup scale neg S neg S
TR}if}N/cp{pop pop showpage pm restore}N end}if}if}N/normalscale{
Resolution 72 div VResolution 72 div neg scale magscale{DVImag dup scale
}if 0 setgray}N/psfts{S 65781.76 div N}N/startTexFig{/psf$SavedState
save N userdict maxlength dict begin/magscale true def normalscale
currentpoint TR/psf$ury psfts/psf$urx psfts/psf$lly psfts/psf$llx psfts
/psf$y psfts/psf$x psfts currentpoint/psf$cy X/psf$cx X/psf$sx psf$x
psf$urx psf$llx sub div N/psf$sy psf$y psf$ury psf$lly sub div N psf$sx
psf$sy scale psf$cx psf$sx div psf$llx sub psf$cy psf$sy div psf$ury sub
TR/showpage{}N/erasepage{}N/setpagedevice{pop}N/copypage{}N/p 3 def
@MacSetUp}N/doclip{psf$llx psf$lly psf$urx psf$ury currentpoint 6 2 roll
newpath 4 copy 4 2 roll moveto 6 -1 roll S lineto S lineto S lineto
closepath clip newpath moveto}N/endTexFig{end psf$SavedState restore}N
/@beginspecial{SDict begin/SpecialSave save N gsave normalscale
currentpoint TR @SpecialDefaults count/ocount X/dcount countdictstack N}
N/@setspecial{CLIP 1 eq{newpath 0 0 moveto hs 0 rlineto 0 vs rlineto hs
neg 0 rlineto closepath clip}if ho vo TR hsc vsc scale ang rotate
rwiSeen{rwi urx llx sub div rhiSeen{rhi ury lly sub div}{dup}ifelse
scale llx neg lly neg TR}{rhiSeen{rhi ury lly sub div dup scale llx neg
lly neg TR}if}ifelse CLIP 2 eq{newpath llx lly moveto urx lly lineto urx
ury lineto llx ury lineto closepath clip}if/showpage{}N/erasepage{}N
/setpagedevice{pop}N/copypage{}N newpath}N/@endspecial{count ocount sub{
pop}repeat countdictstack dcount sub{end}repeat grestore SpecialSave
restore end}N/@defspecial{SDict begin}N/@fedspecial{end}B/li{lineto}B
/rl{rlineto}B/rc{rcurveto}B/np{/SaveX currentpoint/SaveY X N 1
setlinecap newpath}N/st{stroke SaveX SaveY moveto}N/fil{fill SaveX SaveY
moveto}N/ellipse{/endangle X/startangle X/yrad X/xrad X/savematrix
matrix currentmatrix N TR xrad yrad scale 0 0 1 startangle endangle arc
savematrix setmatrix}N end

%%EndProcSet
%%BeginProcSet: color.pro 0 0
%!
TeXDict begin/setcmykcolor where{pop}{/setcmykcolor{dup 10 eq{pop
setrgbcolor}{1 sub 4 1 roll 3{3 index add neg dup 0 lt{pop 0}if 3 1 roll
}repeat setrgbcolor pop}ifelse}B}ifelse/TeXcolorcmyk{setcmykcolor}def
/TeXcolorrgb{setrgbcolor}def/TeXcolorgrey{setgray}def/TeXcolorgray{
setgray}def/TeXcolorhsb{sethsbcolor}def/currentcmykcolor where{pop}{
/currentcmykcolor{currentrgbcolor 10}B}ifelse/DC{exch dup userdict exch
known{pop pop}{X}ifelse}B/GreenYellow{0.15 0 0.69 0 setcmykcolor}DC
/Yellow{0 0 1 0 setcmykcolor}DC/Goldenrod{0 0.10 0.84 0 setcmykcolor}DC
/Dandelion{0 0.29 0.84 0 setcmykcolor}DC/Apricot{0 0.32 0.52 0
setcmykcolor}DC/Peach{0 0.50 0.70 0 setcmykcolor}DC/Melon{0 0.46 0.50 0
setcmykcolor}DC/YellowOrange{0 0.42 1 0 setcmykcolor}DC/Orange{0 0.61
0.87 0 setcmykcolor}DC/BurntOrange{0 0.51 1 0 setcmykcolor}DC
/Bittersweet{0 0.75 1 0.24 setcmykcolor}DC/RedOrange{0 0.77 0.87 0
setcmykcolor}DC/Mahogany{0 0.85 0.87 0.35 setcmykcolor}DC/Maroon{0 0.87
0.68 0.32 setcmykcolor}DC/BrickRed{0 0.89 0.94 0.28 setcmykcolor}DC/Red{
0 1 1 0 setcmykcolor}DC/OrangeRed{0 1 0.50 0 setcmykcolor}DC/RubineRed{
0 1 0.13 0 setcmykcolor}DC/WildStrawberry{0 0.96 0.39 0 setcmykcolor}DC
/Salmon{0 0.53 0.38 0 setcmykcolor}DC/CarnationPink{0 0.63 0 0
setcmykcolor}DC/Magenta{0 1 0 0 setcmykcolor}DC/VioletRed{0 0.81 0 0
setcmykcolor}DC/Rhodamine{0 0.82 0 0 setcmykcolor}DC/Mulberry{0.34 0.90
0 0.02 setcmykcolor}DC/RedViolet{0.07 0.90 0 0.34 setcmykcolor}DC
/Fuchsia{0.47 0.91 0 0.08 setcmykcolor}DC/Lavender{0 0.48 0 0
setcmykcolor}DC/Thistle{0.12 0.59 0 0 setcmykcolor}DC/Orchid{0.32 0.64 0
0 setcmykcolor}DC/DarkOrchid{0.40 0.80 0.20 0 setcmykcolor}DC/Purple{
0.45 0.86 0 0 setcmykcolor}DC/Plum{0.50 1 0 0 setcmykcolor}DC/Violet{
0.79 0.88 0 0 setcmykcolor}DC/RoyalPurple{0.75 0.90 0 0 setcmykcolor}DC
/BlueViolet{0.86 0.91 0 0.04 setcmykcolor}DC/Periwinkle{0.57 0.55 0 0
setcmykcolor}DC/CadetBlue{0.62 0.57 0.23 0 setcmykcolor}DC
/CornflowerBlue{0.65 0.13 0 0 setcmykcolor}DC/MidnightBlue{0.98 0.13 0
0.43 setcmykcolor}DC/NavyBlue{0.94 0.54 0 0 setcmykcolor}DC/RoyalBlue{1
0.50 0 0 setcmykcolor}DC/Blue{1 1 0 0 setcmykcolor}DC/Cerulean{0.94 0.11
0 0 setcmykcolor}DC/Cyan{1 0 0 0 setcmykcolor}DC/ProcessBlue{0.96 0 0 0
setcmykcolor}DC/SkyBlue{0.62 0 0.12 0 setcmykcolor}DC/Turquoise{0.85 0
0.20 0 setcmykcolor}DC/TealBlue{0.86 0 0.34 0.02 setcmykcolor}DC
/Aquamarine{0.82 0 0.30 0 setcmykcolor}DC/BlueGreen{0.85 0 0.33 0
setcmykcolor}DC/Emerald{1 0 0.50 0 setcmykcolor}DC/JungleGreen{0.99 0
0.52 0 setcmykcolor}DC/SeaGreen{0.69 0 0.50 0 setcmykcolor}DC/Green{1 0
1 0 setcmykcolor}DC/ForestGreen{0.91 0 0.88 0.12 setcmykcolor}DC
/PineGreen{0.92 0 0.59 0.25 setcmykcolor}DC/LimeGreen{0.50 0 1 0
setcmykcolor}DC/YellowGreen{0.44 0 0.74 0 setcmykcolor}DC/SpringGreen{
0.26 0 0.76 0 setcmykcolor}DC/OliveGreen{0.64 0 0.95 0.40 setcmykcolor}
DC/RawSienna{0 0.72 1 0.45 setcmykcolor}DC/Sepia{0 0.83 1 0.70
setcmykcolor}DC/Brown{0 0.81 1 0.60 setcmykcolor}DC/Tan{0.14 0.42 0.56 0
setcmykcolor}DC/Gray{0 0 0 0.50 setcmykcolor}DC/Black{0 0 0 1
setcmykcolor}DC/White{0 0 0 0 setcmykcolor}DC end

%%EndProcSet
TeXDict begin 156819571 221710428 1000 600 600 (job-001.dvi)
@start end
%%EndProlog
%%BeginSetup
%%Feature: *Resolution 600dpi
TeXDict begin
 end
%%EndSetup
%%Page: 1 1
TeXDict begin 1 0 bop Black Black 706 1863 a @beginspecial
0 @llx 0 @lly 405 @urx 154 @ury 4050 @rwi @setspecial
%%BeginDocument: job-001.fig2dev.ps
%!PS-Adobe-3.0 EPSF-3.0
%%Title: job-001.fig
%%Creator: fig2dev Version 3.2 Patchlevel 5e
%%CreationDate: Sun May  3 11:37:50 2015
%%BoundingBox: 156 3074 561 3229
%Magnification: 1.0000
%%EndComments
%%BeginProlog
/$F2psDict 200 dict def
$F2psDict begin
$F2psDict /mtrx matrix put
/col-1 {0 setgray} bind def
/col0 {0.000 0.000 0.000 srgb} bind def
/col1 {0.000 0.000 1.000 srgb} bind def
/col2 {0.000 1.000 0.000 srgb} bind def
/col3 {0.000 1.000 1.000 srgb} bind def
/col4 {1.000 0.000 0.000 srgb} bind def
/col5 {1.000 0.000 1.000 srgb} bind def
/col6 {1.000 1.000 0.000 srgb} bind def
/col7 {1.000 1.000 1.000 srgb} bind def
/col8 {0.000 0.000 0.560 srgb} bind def
/col9 {0.000 0.000 0.690 srgb} bind def
/col10 {0.000 0.000 0.820 srgb} bind def
/col11 {0.530 0.810 1.000 srgb} bind def
/col12 {0.000 0.560 0.000 srgb} bind def
/col13 {0.000 0.690 0.000 srgb} bind def
/col14 {0.000 0.820 0.000 srgb} bind def
/col15 {0.000 0.560 0.560 srgb} bind def
/col16 {0.000 0.690 0.690 srgb} bind def
/col17 {0.000 0.820 0.820 srgb} bind def
/col18 {0.560 0.000 0.000 srgb} bind def
/col19 {0.690 0.000 0.000 srgb} bind def
/col20 {0.820 0.000 0.000 srgb} bind def
/col21 {0.560 0.000 0.560 srgb} bind def
/col22 {0.690 0.000 0.690 srgb} bind def
/col23 {0.820 0.000 0.820 srgb} bind def
/col24 {0.500 0.190 0.000 srgb} bind def
/col25 {0.630 0.250 0.000 srgb} bind def
/col26 {0.750 0.380 0.000 srgb} bind def
/col27 {1.000 0.500 0.500 srgb} bind def
/col28 {1.000 0.630 0.630 srgb} bind def
/col29 {1.000 0.750 0.750 srgb} bind def
/col30 {1.000 0.880 0.880 srgb} bind def
/col31 {1.000 0.840 0.000 srgb} bind def
/col32 {0.255 0.271 0.255 srgb} bind def
/col33 {0.753 0.753 0.753 srgb} bind def
/col34 {0.776 0.718 0.592 srgb} bind def
/col35 {0.937 0.973 1.000 srgb} bind def
/col36 {0.502 0.502 0.502 srgb} bind def
/col37 {0.878 0.878 0.878 srgb} bind def
/col38 {0.557 0.561 0.557 srgb} bind def
/col39 {0.667 0.667 0.667 srgb} bind def
/col40 {0.333 0.333 0.333 srgb} bind def
/col41 {0.251 0.251 0.251 srgb} bind def
/col42 {0.863 0.796 0.651 srgb} bind def
/col43 {0.780 0.765 0.780 srgb} bind def
/col44 {0.337 0.318 0.318 srgb} bind def
/col45 {0.557 0.557 0.557 srgb} bind def
/col46 {0.843 0.843 0.843 srgb} bind def
/col47 {0.522 0.502 0.490 srgb} bind def
/col48 {0.824 0.824 0.824 srgb} bind def
/col49 {0.227 0.227 0.227 srgb} bind def
/col50 {0.271 0.451 0.667 srgb} bind def
/col51 {0.682 0.682 0.682 srgb} bind def
/col52 {0.482 0.475 0.647 srgb} bind def
/col53 {0.267 0.267 0.267 srgb} bind def
/col54 {0.451 0.459 0.549 srgb} bind def
/col55 {0.969 0.969 0.969 srgb} bind def
/col56 {0.388 0.365 0.808 srgb} bind def
/col57 {0.745 0.745 0.745 srgb} bind def
/col58 {0.318 0.318 0.318 srgb} bind def
/col59 {0.906 0.890 0.906 srgb} bind def
/col60 {0.000 0.000 0.286 srgb} bind def
/col61 {0.475 0.475 0.475 srgb} bind def
/col62 {0.188 0.204 0.188 srgb} bind def
/col63 {0.255 0.255 0.255 srgb} bind def
/col64 {0.780 0.714 0.588 srgb} bind def
/col65 {0.761 0.761 0.761 srgb} bind def
/col66 {0.431 0.431 0.431 srgb} bind def
/col67 {0.443 0.443 0.443 srgb} bind def
/col68 {0.200 0.200 0.200 srgb} bind def
/col69 {0.580 0.576 0.584 srgb} bind def
/col70 {0.455 0.439 0.459 srgb} bind def
/col71 {0.702 0.702 0.702 srgb} bind def
/col72 {0.765 0.765 0.765 srgb} bind def
/col73 {0.427 0.427 0.427 srgb} bind def
/col74 {0.271 0.271 0.271 srgb} bind def
/col75 {0.612 0.000 0.000 srgb} bind def
/col76 {0.549 0.549 0.549 srgb} bind def
/col77 {0.259 0.259 0.259 srgb} bind def
/col78 {0.549 0.549 0.549 srgb} bind def
/col79 {0.259 0.259 0.259 srgb} bind def
/col80 {0.549 0.549 0.549 srgb} bind def
/col81 {0.259 0.259 0.259 srgb} bind def
/col82 {0.549 0.549 0.549 srgb} bind def
/col83 {0.259 0.259 0.259 srgb} bind def
/col84 {0.549 0.549 0.549 srgb} bind def
/col85 {0.259 0.259 0.259 srgb} bind def
/col86 {0.549 0.549 0.549 srgb} bind def
/col87 {0.259 0.259 0.259 srgb} bind def

end

/cp {closepath} bind def
/ef {eofill} bind def
/gr {grestore} bind def
/gs {gsave} bind def
/sa {save} bind def
/rs {restore} bind def
/l {lineto} bind def
/m {moveto} bind def
/rm {rmoveto} bind def
/n {newpath} bind def
/s {stroke} bind def
/sh {show} bind def
/slc {setlinecap} bind def
/slj {setlinejoin} bind def
/slw {setlinewidth} bind def
/srgb {setrgbcolor} bind def
/rot {rotate} bind def
/sc {scale} bind def
/sd {setdash} bind def
/ff {findfont} bind def
/sf {setfont} bind def
/scf {scalefont} bind def
/sw {stringwidth} bind def
/tr {translate} bind def
/tnt {dup dup currentrgbcolor
  4 -2 roll dup 1 exch sub 3 -1 roll mul add
  4 -2 roll dup 1 exch sub 3 -1 roll mul add
  4 -2 roll dup 1 exch sub 3 -1 roll mul add srgb}
  bind def
/shd {dup dup currentrgbcolor 4 -2 roll mul 4 -2 roll mul
  4 -2 roll mul srgb} bind def
 /DrawEllipse {
	/endangle exch def
	/startangle exch def
	/yrad exch def
	/xrad exch def
	/y exch def
	/x exch def
	/savematrix mtrx currentmatrix def
	x y tr xrad yrad sc 0 0 1 startangle endangle arc
	closepath
	savematrix setmatrix
	} def

/$F2psBegin {$F2psDict begin /$F2psEnteredState save def} def
/$F2psEnd {$F2psEnteredState restore end} def

/pageheader {
save
newpath 0 154 moveto 0 0 lineto 405 0 lineto 405 154 lineto closepath clip newpath
-27.6 168.0 translate
1 -1 scale
$F2psBegin
10 setmiterlimit
0 slj 0 slc
 0.06299 0.06299 sc
} bind def
/pagefooter {
$F2psEnd
restore
} bind def
%%EndProlog
pageheader
%
% Fig objects follow
%
% 
% here starts figure with depth 50
% Polyline
0 slj
0 slc
7.500 slw
n 765 1665 m
 945 1665 l gs col0 s gr 
% Polyline
n 2070 1665 m
 1845 1665 l gs col0 s gr 
% Polyline
n 2970 1665 m
 2745 1665 l gs col0 s gr 
% Polyline
gs  clippath
1068 1695 m 1185 1695 l 1185 1635 l 1068 1635 l 1068 1635 l 1158 1665 l 1068 1695 l cp
eoclip
n 945 1665 m 1125 1665 l
 1170 1665 l gs col0 s gr gr

% arrowhead
n 1068 1695 m 1158 1665 l 1068 1635 l 1038 1665 l 1068 1695 l 
 cp gs 0.00 setgray ef gr  col0 s
% Polyline
n 4320 1665 m
 4545 1665 l gs col0 s gr 
% Polyline
n 5670 1665 m
 5445 1665 l gs col0 s gr 
% Polyline
n 6525 1665 m
 6345 1665 l gs col0 s gr 
% Polyline
gs  clippath
4668 1695 m 4785 1695 l 4785 1635 l 4668 1635 l 4668 1635 l 4758 1665 l 4668 1695 l cp
eoclip
n 4545 1665 m 4725 1665 l
 4770 1665 l gs col0 s gr gr

% arrowhead
n 4668 1695 m 4758 1665 l 4668 1635 l 4638 1665 l 4668 1695 l 
 cp gs 0.00 setgray ef gr  col0 s
% Polyline
n 4545 2115 m
 4545 2565 l gs col0 s gr 
% Polyline
n 6345 2565 m
 4545 2565 l gs col0 s gr 
% Polyline
n 945 2115 m
 945 2565 l gs col0 s gr 
% Polyline
n 2970 2565 m
 2745 2565 l gs col0 s gr 
% Polyline
n 4320 2565 m
 4545 2565 l gs col0 s gr 
% Polyline
n 765 675 m
 6165 675 l gs col0 s gr 
% Polyline
n 2025 675 m
 2025 585 l gs col0 s gr 
% Polyline
n 2925 675 m
 2925 585 l gs col0 s gr 
% Polyline
n 4725 675 m
 4725 585 l gs col0 s gr 
% Polyline
n 5625 675 m
 5625 585 l gs col0 s gr 
% Polyline
n 3735 2565 m
 3870 2565 l gs col0 s gr 
% Polyline
n 1125 675 m 1125 585 l 6525 585 l
 6525 675 l gs col0 s gr 
% Polyline
n 945 2565 m
 2745 2565 l gs col0 s gr 
/Times-Bold ff 150.00 scf sf
990 2025 m
gs 1 -1 sc (PC0) col0 sh gr
/Times-Bold ff 150.00 scf sf
1890 2025 m
gs 1 -1 sc (PB0) col0 sh gr
/Times-Roman ff 120.00 scf sf
1080 1800 m
gs 1 -1 sc (ADCMUX) col0 sh gr
/Times-Bold ff 150.00 scf sf
4590 2025 m
gs 1 -1 sc (PC2) col1 sh gr
/Times-Roman ff 120.00 scf sf
4680 1800 m
gs 1 -1 sc (ADCMUX) col1 sh gr
/Times-Roman ff 120.00 scf sf
6390 2025 m
gs 1 -1 sc (PB5) col0 sh gr
/Times-Roman ff 135.00 scf sf
5490 2025 m
gs 1 -1 sc (PB4) col0 sh gr
/Times-Roman ff 120.00 scf sf
2790 2025 m
gs 1 -1 sc (PB1) col0 sh gr
/Times-Roman ff 120.00 scf sf
1035 900 m
gs 1 -1 sc  90.0 rot (22) dup sw pop 2 div neg 0 rm  col0 sh gr
/Times-Roman ff 120.00 scf sf
1575 900 m
gs 1 -1 sc  90.0 rot (19) dup sw pop 2 div neg 0 rm  col0 sh gr
/Times-Bold ff 150.00 scf sf
1935 900 m
gs 1 -1 sc  90.0 rot (22) dup sw pop 2 div neg 0 rm  col0 sh gr
/Times-Roman ff 120.00 scf sf
2475 900 m
gs 1 -1 sc  90.0 rot (19) dup sw pop 2 div neg 0 rm  col0 sh gr
/Times-Roman ff 120.00 scf sf
2835 900 m
gs 1 -1 sc  90.0 rot (22) dup sw pop 2 div neg 0 rm  col0 sh gr
/Times-Roman ff 120.00 scf sf
4275 900 m
gs 1 -1 sc  90.0 rot (19) dup sw pop 2 div neg 0 rm  col0 sh gr
/Times-Roman ff 120.00 scf sf
4635 900 m
gs 1 -1 sc  90.0 rot (22) dup sw pop 2 div neg 0 rm  col0 sh gr
/Times-Roman ff 120.00 scf sf
5175 900 m
gs 1 -1 sc  90.0 rot (19) dup sw pop 2 div neg 0 rm  col0 sh gr
/Times-Roman ff 120.00 scf sf
5535 900 m
gs 1 -1 sc  90.0 rot (22) dup sw pop 2 div neg 0 rm  col0 sh gr
/Times-Roman ff 120.00 scf sf
6075 900 m
gs 1 -1 sc  90.0 rot (19) dup sw pop 2 div neg 0 rm  col0 sh gr
/Times-Roman ff 120.00 scf sf
6435 900 m
gs 1 -1 sc  90.0 rot (22) dup sw pop 2 div neg 0 rm  col0 sh gr
/Times-Bold ff 150.00 scf sf
1755 2340 m
gs 1 -1 sc  90.0 rot (680) dup sw pop 2 div neg 0 rm  col0 sh gr
/Times-Roman ff 120.00 scf sf
2655 2340 m
gs 1 -1 sc  90.0 rot (470k) dup sw pop 2 div neg 0 rm  col0 sh gr
/Times-Roman ff 150.00 scf sf
3195 2475 m
gs 1 -1 sc (TP1) dup sw pop 2 div neg 0 rm  col0 sh gr
/Times-Roman ff 150.00 scf sf
4095 2475 m
gs 1 -1 sc (TP3) dup sw pop 2 div neg 0 rm  col0 sh gr
/Times-Roman ff 120.00 scf sf
5355 2340 m
gs 1 -1 sc  90.0 rot (680) dup sw pop 2 div neg 0 rm  col0 sh gr
/Times-Roman ff 120.00 scf sf
6255 2340 m
gs 1 -1 sc  90.0 rot (470k) dup sw pop 2 div neg 0 rm  col0 sh gr
/Helvetica ff 90.00 scf sf
3555 1035 m
gs 1 -1 sc (GND) dup sw pop 2 div neg 0 rm  col0 sh gr
/Times-Bold ff 180.00 scf sf
3555 2385 m
gs 1 -1 sc (Cx) dup sw pop 2 div neg 0 rm  col0 sh gr
/Times-Roman ff 150.00 scf sf
2025 2340 m
gs 1 -1 sc  90.0 rot (R1) dup sw pop 2 div neg 0 rm  col0 sh gr
/Times-Roman ff 150.00 scf sf
2925 2340 m
gs 1 -1 sc  90.0 rot (R2) dup sw pop 2 div neg 0 rm  col0 sh gr
/Times-Roman ff 150.00 scf sf
5625 2340 m
gs 1 -1 sc  90.0 rot (R5) dup sw pop 2 div neg 0 rm  col0 sh gr
/Times-Roman ff 150.00 scf sf
6525 2340 m
gs 1 -1 sc  90.0 rot (R6) dup sw pop 2 div neg 0 rm  col0 sh gr
/Times-Bold ff 150.00 scf sf
675 900 m
gs 1 -1 sc  90.0 rot (19) dup sw pop 2 div neg 0 rm  col0 sh gr
% here ends figure;
% 
% here starts figure with depth 0
% Polyline
1 slj
0 slc
7.500 slw
n 2410 1665 m 2160 1530 l 2160 1800 l
 2410 1665 l  cp gs col0 s gr 
% Polyline
0 slj
n 2410 1665 m
 2475 1665 l gs col0 s gr 
% Polyline
n 2273 1631 m 2243 1631 l 2243 1701 l
 2213 1701 l gs col0 s gr 
% Polyline
n 2252 1631 m 2222 1631 l 2222 1701 l
 2192 1701 l gs col0 s gr 
% Polyline
n 2160 1665 m
 2070 1665 l gs col0 s gr 
% Polyline
1 slj
n 3310 1665 m 3060 1530 l 3060 1800 l
 3310 1665 l  cp gs col0 s gr 
% Polyline
0 slj
n 3310 1665 m
 3375 1665 l gs col0 s gr 
% Polyline
n 3173 1631 m 3143 1631 l 3143 1701 l
 3113 1701 l gs col0 s gr 
% Polyline
n 3152 1631 m 3122 1631 l 3122 1701 l
 3092 1701 l gs col0 s gr 
% Polyline
n 3060 1665 m
 2970 1665 l gs col0 s gr 
% Ellipse
n 943 1663 20 20 0 360 DrawEllipse gs 0.00 setgray ef gr gs col0 s gr

% Ellipse
n 1846 1663 20 20 0 360 DrawEllipse gs 0.00 setgray ef gr gs col0 s gr

% Ellipse
n 2743 1661 20 20 0 360 DrawEllipse gs 0.00 setgray ef gr gs col0 s gr

% Ellipse
n 1845 2565 20 20 0 360 DrawEllipse gs 0.00 setgray ef gr gs col0 s gr

% Ellipse
n 2745 2565 20 20 0 360 DrawEllipse gs 0.00 setgray ef gr gs col0 s gr

% Polyline
n 1845 2475 m
 1845 2565 l gs col0 s gr 
% Polyline
n 1800 2205 m 1890 2205 l 1890 2475 l 1800 2475 l
 cp gs col0 s gr 
% Polyline
n 1845 2115 m
 1845 2205 l gs col0 s gr 
% Polyline
n 2745 2475 m
 2745 2565 l gs col0 s gr 
% Polyline
n 2700 2205 m 2790 2205 l 2790 2475 l 2700 2475 l
 cp gs col0 s gr 
% Polyline
n 2745 2115 m
 2745 2205 l gs col0 s gr 
% Polyline
n 2790 1845 m 2745 1890 l
 2700 1845 l gs col0 s gr 
% Polyline
n 2790 1890 m 2745 1935 l
 2700 1890 l gs col0 s gr 
% Polyline
n 2745 1935 m
 2745 2115 l gs col0 s gr 
% Polyline
n 2745 1665 m
 2745 1890 l gs col0 s gr 
% Polyline
n 990 1845 m 945 1890 l
 900 1845 l gs col0 s gr 
% Polyline
n 990 1890 m 945 1935 l
 900 1890 l gs col0 s gr 
% Polyline
n 945 1935 m
 945 2115 l gs col0 s gr 
% Polyline
n 945 1665 m
 945 1890 l gs col0 s gr 
% Polyline
n 1890 1845 m 1845 1890 l
 1800 1845 l gs col0 s gr 
% Polyline
n 1890 1890 m 1845 1935 l
 1800 1890 l gs col0 s gr 
% Polyline
n 1845 1935 m
 1845 2115 l gs col0 s gr 
% Polyline
n 1845 1665 m
 1845 1890 l gs col0 s gr 
% Polyline
n 5625 1035 m
 5625 1125 l gs col0 s gr 
% Polyline
n 5580 765 m 5670 765 l 5670 1035 l 5580 1035 l
 cp gs col0 s gr 
% Polyline
n 5625 675 m
 5625 765 l gs col0 s gr 
% Polyline
n 6525 1035 m
 6525 1125 l gs col0 s gr 
% Polyline
n 6480 765 m 6570 765 l 6570 1035 l 6480 1035 l
 cp gs col0 s gr 
% Polyline
n 6525 675 m
 6525 765 l gs col0 s gr 
% Polyline
n 5265 1035 m
 5265 1125 l gs col0 s gr 
% Polyline
n 5220 765 m 5310 765 l 5310 1035 l 5220 1035 l
 cp gs col0 s gr 
% Polyline
n 5265 675 m
 5265 765 l gs col0 s gr 
% Polyline
n 6165 1035 m
 6165 1125 l gs col0 s gr 
% Polyline
n 6120 765 m 6210 765 l 6210 1035 l 6120 1035 l
 cp gs col0 s gr 
% Polyline
n 6165 675 m
 6165 765 l gs col0 s gr 
% Polyline
1 slj
n 6010 1665 m 5760 1530 l 5760 1800 l
 6010 1665 l  cp gs col0 s gr 
% Polyline
0 slj
n 6010 1665 m
 6075 1665 l gs col0 s gr 
% Polyline
n 5873 1631 m 5843 1631 l 5843 1701 l
 5813 1701 l gs col0 s gr 
% Polyline
n 5852 1631 m 5822 1631 l 5822 1701 l
 5792 1701 l gs col0 s gr 
% Polyline
n 5760 1665 m
 5670 1665 l gs col0 s gr 
% Polyline
1 slj
n 3980 1665 m 4230 1800 l 4230 1530 l
 3980 1665 l  cp gs col0 s gr 
% Polyline
0 slj
n 3980 1665 m
 3915 1665 l gs col0 s gr 
% Polyline
n 4117 1699 m 4147 1699 l 4147 1629 l
 4177 1629 l gs col0 s gr 
% Polyline
n 4138 1699 m 4168 1699 l 4168 1629 l
 4198 1629 l gs col0 s gr 
% Polyline
n 4230 1665 m
 4320 1665 l gs col0 s gr 
% Ellipse
n 4543 1663 20 20 0 360 DrawEllipse gs 0.00 setgray ef gr gs col0 s gr

% Ellipse
n 5446 1663 20 20 0 360 DrawEllipse gs 0.00 setgray ef gr gs col0 s gr

% Ellipse
n 6343 1661 20 20 0 360 DrawEllipse gs 0.00 setgray ef gr gs col0 s gr

% Ellipse
n 4545 2565 20 20 0 360 DrawEllipse gs 0.00 setgray ef gr gs col0 s gr

% Ellipse
n 5445 2565 20 20 0 360 DrawEllipse gs 0.00 setgray ef gr gs col0 s gr

% Polyline
n 5445 2475 m
 5445 2565 l gs col0 s gr 
% Polyline
n 5400 2205 m 5490 2205 l 5490 2475 l 5400 2475 l
 cp gs col0 s gr 
% Polyline
n 5445 2115 m
 5445 2205 l gs col0 s gr 
% Polyline
n 6345 2475 m
 6345 2565 l gs col0 s gr 
% Polyline
n 6300 2205 m 6390 2205 l 6390 2475 l 6300 2475 l
 cp gs col0 s gr 
% Polyline
n 6345 2115 m
 6345 2205 l gs col0 s gr 
% Ellipse
n 4545 2565 20 20 0 360 DrawEllipse gs 0.00 setgray ef gr gs col0 s gr

% Polyline
n 6390 1845 m 6345 1890 l
 6300 1845 l gs col0 s gr 
% Polyline
n 6390 1890 m 6345 1935 l
 6300 1890 l gs col0 s gr 
% Polyline
n 6345 1935 m
 6345 2115 l gs col0 s gr 
% Polyline
n 6345 1665 m
 6345 1890 l gs col0 s gr 
% Polyline
n 4590 1845 m 4545 1890 l
 4500 1845 l gs col0 s gr 
% Polyline
n 4590 1890 m 4545 1935 l
 4500 1890 l gs col0 s gr 
% Polyline
n 4545 1935 m
 4545 2115 l gs col0 s gr 
% Polyline
n 4545 1665 m
 4545 1890 l gs col0 s gr 
% Polyline
n 5490 1845 m 5445 1890 l
 5400 1845 l gs col0 s gr 
% Polyline
n 5490 1890 m 5445 1935 l
 5400 1890 l gs col0 s gr 
% Polyline
n 5445 1935 m
 5445 2115 l gs col0 s gr 
% Polyline
n 5445 1665 m
 5445 1890 l gs col0 s gr 
% Polyline
n 3240 2520 m 3195 2565 l
 3240 2610 l gs col0 s gr 
% Polyline
n 3195 2520 m 3150 2565 l
 3195 2610 l gs col0 s gr 
% Polyline
n 3150 2565 m
 2970 2565 l gs col0 s gr 
% Polyline
n 3420 2565 m
 3195 2565 l gs col0 s gr 
% Ellipse
n 5130 1980 135 135 0 360 DrawEllipse gs col0 s gr

% Polyline
n 5085 1925 m 5130 2025 l
 5175 1925 l gs col0 s gr 
% Ellipse
n 1665 675 20 20 0 360 DrawEllipse gs 0.00 setgray ef gr gs col0 s gr

% Ellipse
n 2565 675 20 20 0 360 DrawEllipse gs 0.00 setgray ef gr gs col0 s gr

% Ellipse
n 3555 675 20 20 0 360 DrawEllipse gs 0.00 setgray ef gr gs col0 s gr

% Ellipse
n 4365 675 20 20 0 360 DrawEllipse gs 0.00 setgray ef gr gs col0 s gr

% Ellipse
n 5265 675 20 20 0 360 DrawEllipse gs 0.00 setgray ef gr gs col0 s gr

% Ellipse
n 2925 585 20 20 0 360 DrawEllipse gs 0.00 setgray ef gr gs col0 s gr

% Ellipse
n 2025 585 20 20 0 360 DrawEllipse gs 0.00 setgray ef gr gs col0 s gr

% Ellipse
n 4725 585 20 20 0 360 DrawEllipse gs 0.00 setgray ef gr gs col0 s gr

% Ellipse
n 5625 585 20 20 0 360 DrawEllipse gs 0.00 setgray ef gr gs col0 s gr

% Polyline
1 slj
n 515 1665 m 765 1800 l 765 1530 l
 515 1665 l  cp gs col0 s gr 
% Polyline
0 slj
n 515 1665 m
 450 1665 l gs col0 s gr 
% Polyline
n 652 1699 m 682 1699 l 682 1629 l
 712 1629 l gs col0 s gr 
% Polyline
n 673 1699 m 703 1699 l 703 1629 l
 733 1629 l gs col0 s gr 
% Polyline
n 765 1665 m
 855 1665 l gs col0 s gr 
% Polyline
1 slj
n 6775 1665 m 6525 1530 l 6525 1800 l
 6775 1665 l  cp gs col0 s gr 
% Polyline
0 slj
n 6775 1665 m
 6840 1665 l gs col0 s gr 
% Polyline
n 6638 1631 m 6608 1631 l 6608 1701 l
 6578 1701 l gs col0 s gr 
% Polyline
n 6617 1631 m 6587 1631 l 6587 1701 l
 6557 1701 l gs col0 s gr 
% Polyline
n 6525 1665 m
 6435 1665 l gs col0 s gr 
% Polyline
n 3600 2565 m
 3735 2565 l gs col0 s gr 
% Polyline
n 3555 2565 m
 3420 2565 l gs col0 s gr 
% Polyline
n 3600 2475 m
 3600 2655 l gs col0 s gr 
% Polyline
n 3555 2475 m
 3555 2655 l gs col0 s gr 
% Ellipse
n 1484 1983 135 135 0 360 DrawEllipse gs col0 s gr

% Polyline
n 1439 1928 m 1484 2028 l
 1529 1928 l gs col0 s gr 
% Ellipse
n 945 1260 30 30 0 360 DrawEllipse gs col0 s gr

% Ellipse
n 1125 1350 30 30 0 360 DrawEllipse gs col0 s gr

% Ellipse
n 765 1350 30 30 0 360 DrawEllipse gs col0 s gr

% Ellipse
n 1845 1260 30 30 0 360 DrawEllipse gs col0 s gr

% Ellipse
n 2025 1350 30 30 0 360 DrawEllipse gs col0 s gr

% Ellipse
n 1665 1350 30 30 0 360 DrawEllipse gs col0 s gr

% Ellipse
n 1845 1530 30 30 0 360 DrawEllipse gs col0 s gr

% Ellipse
n 2745 1260 30 30 0 360 DrawEllipse gs col0 s gr

% Ellipse
n 2925 1350 30 30 0 360 DrawEllipse gs col0 s gr

% Ellipse
n 2565 1350 30 30 0 360 DrawEllipse gs col0 s gr

% Ellipse
n 2745 1530 30 30 0 360 DrawEllipse gs col0 s gr

% Ellipse
n 4545 1260 30 30 0 360 DrawEllipse gs col0 s gr

% Ellipse
n 4725 1350 30 30 0 360 DrawEllipse gs col0 s gr

% Ellipse
n 4365 1350 30 30 0 360 DrawEllipse gs col0 s gr

% Ellipse
n 5445 1260 30 30 0 360 DrawEllipse gs col0 s gr

% Ellipse
n 5625 1350 30 30 0 360 DrawEllipse gs col0 s gr

% Ellipse
n 5445 1530 30 30 0 360 DrawEllipse gs col0 s gr

% Ellipse
n 6345 1260 30 30 0 360 DrawEllipse gs col0 s gr

% Ellipse
n 6525 1350 30 30 0 360 DrawEllipse gs col0 s gr

% Ellipse
n 6165 1350 30 30 0 360 DrawEllipse gs col0 s gr

% Ellipse
n 6345 1530 30 30 0 360 DrawEllipse gs col0 s gr

% Ellipse
gs
945 1530 tr
-135.000 rot
n 0 0 30 30 0 360 DrawEllipse 135.000 rot
gs col0 s gr
gr

% Ellipse
n 5265 1350 30 30 0 360 DrawEllipse gs col0 s gr

% Ellipse
n 4545 1530 30 30 0 360 DrawEllipse gs col0 s gr

% Polyline
n 945 1230 m
 945 1125 l gs col0 s gr 
% Polyline
n 1125 1320 m
 1125 1125 l gs col0 s gr 
% Polyline
n 765 1320 m
 765 1125 l gs col0 s gr 
% Polyline
n 945 1560 m
 945 1665 l gs col0 s gr 
% Polyline
n 1845 1230 m
 1845 1125 l gs col0 s gr 
% Polyline
n 2025 1320 m
 2025 1125 l gs col0 s gr 
% Polyline
n 1665 1320 m
 1665 1125 l gs col0 s gr 
% Polyline
n 1845 1560 m
 1845 1665 l gs col0 s gr 
% Polyline
n 2745 1230 m
 2745 1125 l gs col0 s gr 
% Polyline
n 2925 1320 m
 2925 1125 l gs col0 s gr 
% Polyline
n 2565 1320 m
 2565 1125 l gs col0 s gr 
% Polyline
n 2745 1560 m
 2745 1665 l gs col0 s gr 
% Polyline
n 4545 1230 m
 4545 1125 l gs col0 s gr 
% Polyline
n 4725 1320 m
 4725 1125 l gs col0 s gr 
% Polyline
n 4365 1320 m
 4365 1125 l gs col0 s gr 
% Polyline
n 4545 1560 m
 4545 1665 l gs col0 s gr 
% Polyline
n 5445 1230 m
 5445 1125 l gs col0 s gr 
% Polyline
n 5625 1320 m
 5625 1125 l gs col0 s gr 
% Polyline
n 5265 1320 m
 5265 1125 l gs col0 s gr 
% Polyline
n 5445 1560 m
 5445 1665 l gs col0 s gr 
% Polyline
n 6345 1230 m
 6345 1125 l gs col0 s gr 
% Polyline
n 6525 1320 m
 6525 1125 l gs col0 s gr 
% Polyline
n 6165 1320 m
 6165 1125 l gs col0 s gr 
% Polyline
n 6345 1560 m
 6345 1665 l gs col0 s gr 
% Polyline
gs  clippath
863 1422 m 790 1348 l 758 1380 l 832 1453 l 832 1453 l 795 1385 l 863 1422 l cp
eoclip
n 925 1515 m
 785 1375 l gs col0 s gr gr

% arrowhead
n 863 1422 m 795 1385 l 832 1453 l 863 1422 l  cp gs 0.00 setgray ef gr  col0 s
% Polyline
gs  clippath
2766 1388 m 2766 1284 l 2721 1284 l 2721 1388 l 2721 1388 l 2744 1313 l 2766 1388 l cp
eoclip
n 2744 1497 m
 2744 1299 l gs col0 s gr gr

% arrowhead
n 2766 1388 m 2744 1313 l 2721 1388 l 2766 1388 l  cp gs 0.00 setgray ef gr  col0 s
% Polyline
n 3555 675 m
 3555 900 l gs col0 s gr 
% Polyline
1 slc
30.000 slw
n 3645 900 m
 3465 900 l gs col0 s gr 
% Polyline
0 slc
7.500 slw
n 4050 2520 m 4095 2565 l
 4050 2610 l gs col0 s gr 
% Polyline
n 4095 2520 m 4140 2565 l
 4095 2610 l gs col0 s gr 
% Polyline
n 4140 2565 m
 4320 2565 l gs col0 s gr 
% Polyline
n 3870 2565 m
 4095 2565 l gs col0 s gr 
% Polyline
n 4725 1035 m
 4725 1125 l gs col0 s gr 
% Polyline
n 4680 765 m 4770 765 l 4770 1035 l 4680 1035 l
 cp gs col0 s gr 
% Polyline
n 4725 675 m
 4725 765 l gs col0 s gr 
% Polyline
n 765 1035 m
 765 1125 l gs col0 s gr 
% Polyline
n 720 765 m 810 765 l 810 1035 l 720 1035 l
 cp gs col0 s gr 
% Polyline
n 765 675 m
 765 765 l gs col0 s gr 
% Polyline
n 1125 1035 m
 1125 1125 l gs col0 s gr 
% Polyline
n 1080 765 m 1170 765 l 1170 1035 l 1080 1035 l
 cp gs col0 s gr 
% Polyline
n 1125 675 m
 1125 765 l gs col0 s gr 
% Polyline
n 1665 1035 m
 1665 1125 l gs col0 s gr 
% Polyline
n 1620 765 m 1710 765 l 1710 1035 l 1620 1035 l
 cp gs col0 s gr 
% Polyline
n 1665 675 m
 1665 765 l gs col0 s gr 
% Polyline
n 2025 1035 m
 2025 1125 l gs col0 s gr 
% Polyline
n 1980 765 m 2070 765 l 2070 1035 l 1980 1035 l
 cp gs col0 s gr 
% Polyline
n 2025 675 m
 2025 765 l gs col0 s gr 
% Polyline
n 2565 1035 m
 2565 1125 l gs col0 s gr 
% Polyline
n 2520 765 m 2610 765 l 2610 1035 l 2520 1035 l
 cp gs col0 s gr 
% Polyline
n 2565 675 m
 2565 765 l gs col0 s gr 
% Polyline
n 2925 1035 m
 2925 1125 l gs col0 s gr 
% Polyline
n 2880 765 m 2970 765 l 2970 1035 l 2880 1035 l
 cp gs col0 s gr 
% Polyline
n 2925 675 m
 2925 765 l gs col0 s gr 
% Polyline
n 4365 1035 m
 4365 1125 l gs col0 s gr 
% Polyline
n 4320 765 m 4410 765 l 4410 1035 l 4320 1035 l
 cp gs col0 s gr 
% Polyline
n 4365 675 m
 4365 765 l gs col0 s gr 
% Polyline
gs  clippath
4747 466 m 4747 345 l 4702 345 l 4702 466 l 4702 466 l 4725 376 l 4747 466 l cp
eoclip
n 4725 585 m
 4725 360 l gs col0 s gr gr

% arrowhead
n 4747 466 m 4725 376 l 4702 466 l 4747 466 l  cp gs 0.00 setgray ef gr  col0 s
% Polyline
gs  clippath
6367 1387 m 6367 1283 l 6322 1283 l 6322 1387 l 6322 1387 l 6345 1312 l 6367 1387 l cp
eoclip
n 6345 1496 m
 6345 1298 l gs col0 s gr gr

% arrowhead
n 6367 1387 m 6345 1312 l 6322 1387 l 6367 1387 l  cp gs 0.00 setgray ef gr  col0 s
% Polyline
gs  clippath
5467 1387 m 5467 1283 l 5422 1283 l 5422 1387 l 5422 1387 l 5445 1312 l 5467 1387 l cp
eoclip
n 5445 1496 m
 5445 1298 l gs col0 s gr gr

% arrowhead
n 5467 1387 m 5445 1312 l 5422 1387 l 5467 1387 l  cp gs 0.00 setgray ef gr  col0 s
% Polyline
gs  clippath
4567 1387 m 4567 1283 l 4522 1283 l 4522 1387 l 4522 1387 l 4545 1312 l 4567 1387 l cp
eoclip
n 4545 1496 m
 4545 1298 l gs col0 s gr gr

% arrowhead
n 4567 1387 m 4545 1312 l 4522 1387 l 4567 1387 l  cp gs 0.00 setgray ef gr  col0 s
% Polyline
gs  clippath
1965 1447 m 2039 1374 l 2007 1342 l 1934 1416 l 1934 1416 l 2003 1379 l 1965 1447 l cp
eoclip
n 1873 1509 m
 2013 1369 l gs col0 s gr gr

% arrowhead
n 1965 1447 m 2003 1379 l 1934 1416 l 1965 1447 l  cp gs 0.00 setgray ef gr  col0 s
/Helvetica ff 90.00 scf sf
4725 315 m
gs 1 -1 sc (VCC) dup sw pop 2 div neg 0 rm  col0 sh gr
% here ends figure;
pagefooter
showpage
%%Trailer
%EOF

%%EndDocument
 @endspecial Black Black eop end
%%Trailer

userdict /end-hook known{end-hook}if
%%EOF
