%!PS-Adobe-2.0
%%Creator: dvips(k) 5.993 Copyright 2013 Radical Eye Software
%%Title: job-001.dvi
%%CreationDate: Mon Apr  6 22:22:57 2015
%%Pages: 1
%%PageOrder: Ascend
%%BoundingBox: 156 2521 659 3230
%%EndComments
%DVIPSWebPage: (www.radicaleye.com)
%DVIPSCommandLine: dvips job-001.dvi -o job-001.dvips.ps
%DVIPSParameters: dpi=600
%DVIPSSource:  TeX output 2015.04.06:2222
%%BeginProcSet: tex.pro 0 0
%!
/TeXDict 300 dict def TeXDict begin/N{def}def/B{bind def}N/S{exch}N/X{S
N}B/A{dup}B/TR{translate}N/isls false N/vsize 11 72 mul N/hsize 8.5 72
mul N/landplus90{false}def/@rigin{isls{[0 landplus90{1 -1}{-1 1}ifelse 0
0 0]concat}if 72 Resolution div 72 VResolution div neg scale isls{
landplus90{VResolution 72 div vsize mul 0 exch}{Resolution -72 div hsize
mul 0}ifelse TR}if Resolution VResolution vsize -72 div 1 add mul TR[
matrix currentmatrix{A A round sub abs 0.00001 lt{round}if}forall round
exch round exch]setmatrix}N/@landscape{/isls true N}B/@manualfeed{
statusdict/manualfeed true put}B/@copies{/#copies X}B/FMat[1 0 0 -1 0 0]
N/FBB[0 0 0 0]N/nn 0 N/IEn 0 N/ctr 0 N/df-tail{/nn 8 dict N nn begin
/FontType 3 N/FontMatrix fntrx N/FontBBox FBB N string/base X array
/BitMaps X/BuildChar{CharBuilder}N/Encoding IEn N end A{/foo setfont}2
array copy cvx N load 0 nn put/ctr 0 N[}B/sf 0 N/df{/sf 1 N/fntrx FMat N
df-tail}B/dfs{div/sf X/fntrx[sf 0 0 sf neg 0 0]N df-tail}B/E{pop nn A
definefont setfont}B/Cw{Cd A length 5 sub get}B/Ch{Cd A length 4 sub get
}B/Cx{128 Cd A length 3 sub get sub}B/Cy{Cd A length 2 sub get 127 sub}
B/Cdx{Cd A length 1 sub get}B/Ci{Cd A type/stringtype ne{ctr get/ctr ctr
1 add N}if}B/CharBuilder{save 3 1 roll S A/base get 2 index get S
/BitMaps get S get/Cd X pop/ctr 0 N Cdx 0 Cx Cy Ch sub Cx Cw add Cy
setcachedevice Cw Ch true[1 0 0 -1 -.1 Cx sub Cy .1 sub]{Ci}imagemask
restore}B/D{/cc X A type/stringtype ne{]}if nn/base get cc ctr put nn
/BitMaps get S ctr S sf 1 ne{A A length 1 sub A 2 index S get sf div put
}if put/ctr ctr 1 add N}B/I{cc 1 add D}B/bop{userdict/bop-hook known{
bop-hook}if/SI save N @rigin 0 0 moveto/V matrix currentmatrix A 1 get A
mul exch 0 get A mul add .99 lt{/QV}{/RV}ifelse load def pop pop}N/eop{
SI restore userdict/eop-hook known{eop-hook}if showpage}N/@start{
userdict/start-hook known{start-hook}if pop/VResolution X/Resolution X
1000 div/DVImag X/IEn 256 array N 2 string 0 1 255{IEn S A 360 add 36 4
index cvrs cvn put}for pop 65781.76 div/vsize X 65781.76 div/hsize X}N
/dir 0 def/dyy{/dir 0 def}B/dyt{/dir 1 def}B/dty{/dir 2 def}B/dtt{/dir 3
def}B/p{dir 2 eq{-90 rotate show 90 rotate}{dir 3 eq{-90 rotate show 90
rotate}{show}ifelse}ifelse}N/RMat[1 0 0 -1 0 0]N/BDot 260 string N/Rx 0
N/Ry 0 N/V{}B/RV/v{/Ry X/Rx X V}B statusdict begin/product where{pop
false[(Display)(NeXT)(LaserWriter 16/600)]{A length product length le{A
length product exch 0 exch getinterval eq{pop true exit}if}{pop}ifelse}
forall}{false}ifelse end{{gsave TR -.1 .1 TR 1 1 scale Rx Ry false RMat{
BDot}imagemask grestore}}{{gsave TR -.1 .1 TR Rx Ry scale 1 1 false RMat
{BDot}imagemask grestore}}ifelse B/QV{gsave newpath transform round exch
round exch itransform moveto Rx 0 rlineto 0 Ry neg rlineto Rx neg 0
rlineto fill grestore}B/a{moveto}B/delta 0 N/tail{A/delta X 0 rmoveto}B
/M{S p delta add tail}B/b{S p tail}B/c{-4 M}B/d{-3 M}B/e{-2 M}B/f{-1 M}
B/g{0 M}B/h{1 M}B/i{2 M}B/j{3 M}B/k{4 M}B/w{0 rmoveto}B/l{p -4 w}B/m{p
-3 w}B/n{p -2 w}B/o{p -1 w}B/q{p 1 w}B/r{p 2 w}B/s{p 3 w}B/t{p 4 w}B/x{
0 S rmoveto}B/y{3 2 roll p a}B/bos{/SS save N}B/eos{SS restore}B end

%%EndProcSet
%%BeginProcSet: special.pro 0 0
%!
TeXDict begin/SDict 200 dict N SDict begin/@SpecialDefaults{/hs 612 N
/vs 792 N/ho 0 N/vo 0 N/hsc 1 N/vsc 1 N/ang 0 N/CLIP 0 N/rwiSeen false N
/rhiSeen false N/letter{}N/note{}N/a4{}N/legal{}N}B/@scaleunit 100 N
/@hscale{@scaleunit div/hsc X}B/@vscale{@scaleunit div/vsc X}B/@hsize{
/hs X/CLIP 1 N}B/@vsize{/vs X/CLIP 1 N}B/@clip{/CLIP 2 N}B/@hoffset{/ho
X}B/@voffset{/vo X}B/@angle{/ang X}B/@rwi{10 div/rwi X/rwiSeen true N}B
/@rhi{10 div/rhi X/rhiSeen true N}B/@llx{/llx X}B/@lly{/lly X}B/@urx{
/urx X}B/@ury{/ury X}B/magscale true def end/@MacSetUp{userdict/md known
{userdict/md get type/dicttype eq{userdict begin md length 10 add md
maxlength ge{/md md dup length 20 add dict copy def}if end md begin
/letter{}N/note{}N/legal{}N/od{txpose 1 0 mtx defaultmatrix dtransform S
atan/pa X newpath clippath mark{transform{itransform moveto}}{transform{
itransform lineto}}{6 -2 roll transform 6 -2 roll transform 6 -2 roll
transform{itransform 6 2 roll itransform 6 2 roll itransform 6 2 roll
curveto}}{{closepath}}pathforall newpath counttomark array astore/gc xdf
pop ct 39 0 put 10 fz 0 fs 2 F/|______Courier fnt invertflag{PaintBlack}
if}N/txpose{pxs pys scale ppr aload pop por{noflips{pop S neg S TR pop 1
-1 scale}if xflip yflip and{pop S neg S TR 180 rotate 1 -1 scale ppr 3
get ppr 1 get neg sub neg ppr 2 get ppr 0 get neg sub neg TR}if xflip
yflip not and{pop S neg S TR pop 180 rotate ppr 3 get ppr 1 get neg sub
neg 0 TR}if yflip xflip not and{ppr 1 get neg ppr 0 get neg TR}if}{
noflips{TR pop pop 270 rotate 1 -1 scale}if xflip yflip and{TR pop pop
90 rotate 1 -1 scale ppr 3 get ppr 1 get neg sub neg ppr 2 get ppr 0 get
neg sub neg TR}if xflip yflip not and{TR pop pop 90 rotate ppr 3 get ppr
1 get neg sub neg 0 TR}if yflip xflip not and{TR pop pop 270 rotate ppr
2 get ppr 0 get neg sub neg 0 S TR}if}ifelse scaleby96{ppr aload pop 4
-1 roll add 2 div 3 1 roll add 2 div 2 copy TR .96 dup scale neg S neg S
TR}if}N/cp{pop pop showpage pm restore}N end}if}if}N/normalscale{
Resolution 72 div VResolution 72 div neg scale magscale{DVImag dup scale
}if 0 setgray}N/psfts{S 65781.76 div N}N/startTexFig{/psf$SavedState
save N userdict maxlength dict begin/magscale true def normalscale
currentpoint TR/psf$ury psfts/psf$urx psfts/psf$lly psfts/psf$llx psfts
/psf$y psfts/psf$x psfts currentpoint/psf$cy X/psf$cx X/psf$sx psf$x
psf$urx psf$llx sub div N/psf$sy psf$y psf$ury psf$lly sub div N psf$sx
psf$sy scale psf$cx psf$sx div psf$llx sub psf$cy psf$sy div psf$ury sub
TR/showpage{}N/erasepage{}N/setpagedevice{pop}N/copypage{}N/p 3 def
@MacSetUp}N/doclip{psf$llx psf$lly psf$urx psf$ury currentpoint 6 2 roll
newpath 4 copy 4 2 roll moveto 6 -1 roll S lineto S lineto S lineto
closepath clip newpath moveto}N/endTexFig{end psf$SavedState restore}N
/@beginspecial{SDict begin/SpecialSave save N gsave normalscale
currentpoint TR @SpecialDefaults count/ocount X/dcount countdictstack N}
N/@setspecial{CLIP 1 eq{newpath 0 0 moveto hs 0 rlineto 0 vs rlineto hs
neg 0 rlineto closepath clip}if ho vo TR hsc vsc scale ang rotate
rwiSeen{rwi urx llx sub div rhiSeen{rhi ury lly sub div}{dup}ifelse
scale llx neg lly neg TR}{rhiSeen{rhi ury lly sub div dup scale llx neg
lly neg TR}if}ifelse CLIP 2 eq{newpath llx lly moveto urx lly lineto urx
ury lineto llx ury lineto closepath clip}if/showpage{}N/erasepage{}N
/setpagedevice{pop}N/copypage{}N newpath}N/@endspecial{count ocount sub{
pop}repeat countdictstack dcount sub{end}repeat grestore SpecialSave
restore end}N/@defspecial{SDict begin}N/@fedspecial{end}B/li{lineto}B
/rl{rlineto}B/rc{rcurveto}B/np{/SaveX currentpoint/SaveY X N 1
setlinecap newpath}N/st{stroke SaveX SaveY moveto}N/fil{fill SaveX SaveY
moveto}N/ellipse{/endangle X/startangle X/yrad X/xrad X/savematrix
matrix currentmatrix N TR xrad yrad scale 0 0 1 startangle endangle arc
savematrix setmatrix}N end

%%EndProcSet
%%BeginProcSet: color.pro 0 0
%!
TeXDict begin/setcmykcolor where{pop}{/setcmykcolor{dup 10 eq{pop
setrgbcolor}{1 sub 4 1 roll 3{3 index add neg dup 0 lt{pop 0}if 3 1 roll
}repeat setrgbcolor pop}ifelse}B}ifelse/TeXcolorcmyk{setcmykcolor}def
/TeXcolorrgb{setrgbcolor}def/TeXcolorgrey{setgray}def/TeXcolorgray{
setgray}def/TeXcolorhsb{sethsbcolor}def/currentcmykcolor where{pop}{
/currentcmykcolor{currentrgbcolor 10}B}ifelse/DC{exch dup userdict exch
known{pop pop}{X}ifelse}B/GreenYellow{0.15 0 0.69 0 setcmykcolor}DC
/Yellow{0 0 1 0 setcmykcolor}DC/Goldenrod{0 0.10 0.84 0 setcmykcolor}DC
/Dandelion{0 0.29 0.84 0 setcmykcolor}DC/Apricot{0 0.32 0.52 0
setcmykcolor}DC/Peach{0 0.50 0.70 0 setcmykcolor}DC/Melon{0 0.46 0.50 0
setcmykcolor}DC/YellowOrange{0 0.42 1 0 setcmykcolor}DC/Orange{0 0.61
0.87 0 setcmykcolor}DC/BurntOrange{0 0.51 1 0 setcmykcolor}DC
/Bittersweet{0 0.75 1 0.24 setcmykcolor}DC/RedOrange{0 0.77 0.87 0
setcmykcolor}DC/Mahogany{0 0.85 0.87 0.35 setcmykcolor}DC/Maroon{0 0.87
0.68 0.32 setcmykcolor}DC/BrickRed{0 0.89 0.94 0.28 setcmykcolor}DC/Red{
0 1 1 0 setcmykcolor}DC/OrangeRed{0 1 0.50 0 setcmykcolor}DC/RubineRed{
0 1 0.13 0 setcmykcolor}DC/WildStrawberry{0 0.96 0.39 0 setcmykcolor}DC
/Salmon{0 0.53 0.38 0 setcmykcolor}DC/CarnationPink{0 0.63 0 0
setcmykcolor}DC/Magenta{0 1 0 0 setcmykcolor}DC/VioletRed{0 0.81 0 0
setcmykcolor}DC/Rhodamine{0 0.82 0 0 setcmykcolor}DC/Mulberry{0.34 0.90
0 0.02 setcmykcolor}DC/RedViolet{0.07 0.90 0 0.34 setcmykcolor}DC
/Fuchsia{0.47 0.91 0 0.08 setcmykcolor}DC/Lavender{0 0.48 0 0
setcmykcolor}DC/Thistle{0.12 0.59 0 0 setcmykcolor}DC/Orchid{0.32 0.64 0
0 setcmykcolor}DC/DarkOrchid{0.40 0.80 0.20 0 setcmykcolor}DC/Purple{
0.45 0.86 0 0 setcmykcolor}DC/Plum{0.50 1 0 0 setcmykcolor}DC/Violet{
0.79 0.88 0 0 setcmykcolor}DC/RoyalPurple{0.75 0.90 0 0 setcmykcolor}DC
/BlueViolet{0.86 0.91 0 0.04 setcmykcolor}DC/Periwinkle{0.57 0.55 0 0
setcmykcolor}DC/CadetBlue{0.62 0.57 0.23 0 setcmykcolor}DC
/CornflowerBlue{0.65 0.13 0 0 setcmykcolor}DC/MidnightBlue{0.98 0.13 0
0.43 setcmykcolor}DC/NavyBlue{0.94 0.54 0 0 setcmykcolor}DC/RoyalBlue{1
0.50 0 0 setcmykcolor}DC/Blue{1 1 0 0 setcmykcolor}DC/Cerulean{0.94 0.11
0 0 setcmykcolor}DC/Cyan{1 0 0 0 setcmykcolor}DC/ProcessBlue{0.96 0 0 0
setcmykcolor}DC/SkyBlue{0.62 0 0.12 0 setcmykcolor}DC/Turquoise{0.85 0
0.20 0 setcmykcolor}DC/TealBlue{0.86 0 0.34 0.02 setcmykcolor}DC
/Aquamarine{0.82 0 0.30 0 setcmykcolor}DC/BlueGreen{0.85 0 0.33 0
setcmykcolor}DC/Emerald{1 0 0.50 0 setcmykcolor}DC/JungleGreen{0.99 0
0.52 0 setcmykcolor}DC/SeaGreen{0.69 0 0.50 0 setcmykcolor}DC/Green{1 0
1 0 setcmykcolor}DC/ForestGreen{0.91 0 0.88 0.12 setcmykcolor}DC
/PineGreen{0.92 0 0.59 0.25 setcmykcolor}DC/LimeGreen{0.50 0 1 0
setcmykcolor}DC/YellowGreen{0.44 0 0.74 0 setcmykcolor}DC/SpringGreen{
0.26 0 0.76 0 setcmykcolor}DC/OliveGreen{0.64 0 0.95 0.40 setcmykcolor}
DC/RawSienna{0 0.72 1 0.45 setcmykcolor}DC/Sepia{0 0.83 1 0.70
setcmykcolor}DC/Brown{0 0.81 1 0.60 setcmykcolor}DC/Tan{0.14 0.42 0.56 0
setcmykcolor}DC/Gray{0 0 0 0.50 setcmykcolor}DC/Black{0 0 0 1
setcmykcolor}DC/White{0 0 0 0 setcmykcolor}DC end

%%EndProcSet
TeXDict begin 156819571 221710428 1000 600 600 (job-001.dvi)
@start end
%%EndProlog
%%BeginSetup
%%Feature: *Resolution 600dpi
TeXDict begin
 end
%%EndSetup
%%Page: 1 1
TeXDict begin 1 0 bop Black Black 706 6473 a @beginspecial
0 @llx 0 @lly 501 @urx 707 @ury 5010 @rwi @setspecial
%%BeginDocument: job-001.fig2dev.ps
%!PS-Adobe-3.0 EPSF-3.0
%%Title: job-001.fig
%%Creator: fig2dev Version 3.2 Patchlevel 5e
%%CreationDate: Mon Apr  6 22:22:57 2015
%%BoundingBox: 156 2521 659 3230
%Magnification: 0.7500
%%EndComments
%%BeginProlog
/$F2psDict 200 dict def
$F2psDict begin
$F2psDict /mtrx matrix put
/col-1 {0 setgray} bind def
/col0 {0.000 0.000 0.000 srgb} bind def
/col1 {0.000 0.000 1.000 srgb} bind def
/col2 {0.000 1.000 0.000 srgb} bind def
/col3 {0.000 1.000 1.000 srgb} bind def
/col4 {1.000 0.000 0.000 srgb} bind def
/col5 {1.000 0.000 1.000 srgb} bind def
/col6 {1.000 1.000 0.000 srgb} bind def
/col7 {1.000 1.000 1.000 srgb} bind def
/col8 {0.000 0.000 0.560 srgb} bind def
/col9 {0.000 0.000 0.690 srgb} bind def
/col10 {0.000 0.000 0.820 srgb} bind def
/col11 {0.530 0.810 1.000 srgb} bind def
/col12 {0.000 0.560 0.000 srgb} bind def
/col13 {0.000 0.690 0.000 srgb} bind def
/col14 {0.000 0.820 0.000 srgb} bind def
/col15 {0.000 0.560 0.560 srgb} bind def
/col16 {0.000 0.690 0.690 srgb} bind def
/col17 {0.000 0.820 0.820 srgb} bind def
/col18 {0.560 0.000 0.000 srgb} bind def
/col19 {0.690 0.000 0.000 srgb} bind def
/col20 {0.820 0.000 0.000 srgb} bind def
/col21 {0.560 0.000 0.560 srgb} bind def
/col22 {0.690 0.000 0.690 srgb} bind def
/col23 {0.820 0.000 0.820 srgb} bind def
/col24 {0.500 0.190 0.000 srgb} bind def
/col25 {0.630 0.250 0.000 srgb} bind def
/col26 {0.750 0.380 0.000 srgb} bind def
/col27 {1.000 0.500 0.500 srgb} bind def
/col28 {1.000 0.630 0.630 srgb} bind def
/col29 {1.000 0.750 0.750 srgb} bind def
/col30 {1.000 0.880 0.880 srgb} bind def
/col31 {1.000 0.840 0.000 srgb} bind def
/col32 {0.761 0.761 0.761 srgb} bind def
/col33 {0.431 0.431 0.431 srgb} bind def
/col34 {0.267 0.267 0.267 srgb} bind def
/col35 {0.557 0.561 0.557 srgb} bind def
/col36 {0.443 0.443 0.443 srgb} bind def
/col37 {0.682 0.682 0.682 srgb} bind def
/col38 {0.200 0.200 0.200 srgb} bind def
/col39 {0.580 0.576 0.584 srgb} bind def
/col40 {0.455 0.439 0.459 srgb} bind def
/col41 {0.333 0.333 0.333 srgb} bind def
/col42 {0.702 0.702 0.702 srgb} bind def
/col43 {0.765 0.765 0.765 srgb} bind def
/col44 {0.427 0.427 0.427 srgb} bind def
/col45 {0.271 0.271 0.271 srgb} bind def
/col46 {0.557 0.557 0.557 srgb} bind def
/col47 {0.906 0.906 0.906 srgb} bind def
/col48 {0.443 0.459 0.443 srgb} bind def
/col49 {0.851 0.851 0.851 srgb} bind def
/col50 {0.337 0.620 0.690 srgb} bind def
/col51 {0.255 0.271 0.255 srgb} bind def
/col52 {0.753 0.753 0.753 srgb} bind def
/col53 {0.886 0.886 0.933 srgb} bind def
/col54 {0.580 0.580 0.604 srgb} bind def
/col55 {0.859 0.859 0.859 srgb} bind def
/col56 {0.631 0.631 0.718 srgb} bind def
/col57 {0.612 0.000 0.000 srgb} bind def
/col58 {0.929 0.929 0.929 srgb} bind def
/col59 {0.878 0.878 0.878 srgb} bind def
/col60 {0.525 0.675 1.000 srgb} bind def
/col61 {0.439 0.439 1.000 srgb} bind def

end

/cp {closepath} bind def
/ef {eofill} bind def
/gr {grestore} bind def
/gs {gsave} bind def
/sa {save} bind def
/rs {restore} bind def
/l {lineto} bind def
/m {moveto} bind def
/rm {rmoveto} bind def
/n {newpath} bind def
/s {stroke} bind def
/sh {show} bind def
/slc {setlinecap} bind def
/slj {setlinejoin} bind def
/slw {setlinewidth} bind def
/srgb {setrgbcolor} bind def
/rot {rotate} bind def
/sc {scale} bind def
/sd {setdash} bind def
/ff {findfont} bind def
/sf {setfont} bind def
/scf {scalefont} bind def
/sw {stringwidth} bind def
/tr {translate} bind def
/tnt {dup dup currentrgbcolor
  4 -2 roll dup 1 exch sub 3 -1 roll mul add
  4 -2 roll dup 1 exch sub 3 -1 roll mul add
  4 -2 roll dup 1 exch sub 3 -1 roll mul add srgb}
  bind def
/shd {dup dup currentrgbcolor 4 -2 roll mul 4 -2 roll mul
  4 -2 roll mul srgb} bind def
/reencdict 12 dict def /ReEncode { reencdict begin
/newcodesandnames exch def /newfontname exch def /basefontname exch def
/basefontdict basefontname findfont def /newfont basefontdict maxlength dict def
basefontdict { exch dup /FID ne { dup /Encoding eq
{ exch dup length array copy newfont 3 1 roll put }
{ exch newfont 3 1 roll put } ifelse } { pop pop } ifelse } forall
newfont /FontName newfontname put newcodesandnames aload pop
128 1 255 { newfont /Encoding get exch /.notdef put } for
newcodesandnames length 2 idiv { newfont /Encoding get 3 1 roll put } repeat
newfontname newfont definefont pop end } def
/isovec [
8#055 /minus 8#200 /grave 8#201 /acute 8#202 /circumflex 8#203 /tilde
8#204 /macron 8#205 /breve 8#206 /dotaccent 8#207 /dieresis
8#210 /ring 8#211 /cedilla 8#212 /hungarumlaut 8#213 /ogonek 8#214 /caron
8#220 /dotlessi 8#230 /oe 8#231 /OE
8#240 /space 8#241 /exclamdown 8#242 /cent 8#243 /sterling
8#244 /currency 8#245 /yen 8#246 /brokenbar 8#247 /section 8#250 /dieresis
8#251 /copyright 8#252 /ordfeminine 8#253 /guillemotleft 8#254 /logicalnot
8#255 /hyphen 8#256 /registered 8#257 /macron 8#260 /degree 8#261 /plusminus
8#262 /twosuperior 8#263 /threesuperior 8#264 /acute 8#265 /mu 8#266 /paragraph
8#267 /periodcentered 8#270 /cedilla 8#271 /onesuperior 8#272 /ordmasculine
8#273 /guillemotright 8#274 /onequarter 8#275 /onehalf
8#276 /threequarters 8#277 /questiondown 8#300 /Agrave 8#301 /Aacute
8#302 /Acircumflex 8#303 /Atilde 8#304 /Adieresis 8#305 /Aring
8#306 /AE 8#307 /Ccedilla 8#310 /Egrave 8#311 /Eacute
8#312 /Ecircumflex 8#313 /Edieresis 8#314 /Igrave 8#315 /Iacute
8#316 /Icircumflex 8#317 /Idieresis 8#320 /Eth 8#321 /Ntilde 8#322 /Ograve
8#323 /Oacute 8#324 /Ocircumflex 8#325 /Otilde 8#326 /Odieresis 8#327 /multiply
8#330 /Oslash 8#331 /Ugrave 8#332 /Uacute 8#333 /Ucircumflex
8#334 /Udieresis 8#335 /Yacute 8#336 /Thorn 8#337 /germandbls 8#340 /agrave
8#341 /aacute 8#342 /acircumflex 8#343 /atilde 8#344 /adieresis 8#345 /aring
8#346 /ae 8#347 /ccedilla 8#350 /egrave 8#351 /eacute
8#352 /ecircumflex 8#353 /edieresis 8#354 /igrave 8#355 /iacute
8#356 /icircumflex 8#357 /idieresis 8#360 /eth 8#361 /ntilde 8#362 /ograve
8#363 /oacute 8#364 /ocircumflex 8#365 /otilde 8#366 /odieresis 8#367 /divide
8#370 /oslash 8#371 /ugrave 8#372 /uacute 8#373 /ucircumflex
8#374 /udieresis 8#375 /yacute 8#376 /thorn 8#377 /ydieresis] def
/Times-Roman /Times-Roman-iso isovec ReEncode
 /DrawEllipse {
	/endangle exch def
	/startangle exch def
	/yrad exch def
	/xrad exch def
	/y exch def
	/x exch def
	/savematrix mtrx currentmatrix def
	x y tr xrad yrad sc 0 0 1 startangle endangle arc
	closepath
	savematrix setmatrix
	} def

/$F2psBegin {$F2psDict begin /$F2psEnteredState save def} def
/$F2psEnd {$F2psEnteredState restore end} def

/pageheader {
save
newpath 0 707 moveto 0 0 lineto 501 0 lineto 501 707 lineto closepath clip newpath
-3.7 710.6 translate
1 -1 scale
$F2psBegin
10 setmiterlimit
0 slj 0 slc
 0.04724 0.04724 sc
} bind def
/pagefooter {
$F2psEnd
restore
} bind def
%%EndProlog
pageheader
%
% Fig objects follow
%
% 
% here starts figure with depth 80
% Polyline
0 slj
0 slc
7.500 slw
n 2564 4320 m 3240 4725 l 2564 5130 l 1890 4725 l
 cp gs col7 1.00 shd ef gr gs col-1 s gr 
% Polyline
n 2554 5722 m 3148 6118 l 2554 6514 l 1961 6118 l
 cp gs col7 1.00 shd ef gr gs col-1 s gr 
% Polyline
n 3190 8650 m 4048 9222 l 3190 9793 l 2333 9222 l
 cp gs col7 1.00 shd ef gr gs col-1 s gr 
% Polyline
n 1924 1042 m 2518 1438 l 1924 1834 l 1331 1438 l
 cp gs col7 1.00 shd ef gr gs col-1 s gr 
% Polyline
n 6337 11438 m 7063 11922 l 6337 12406 l 5612 11922 l
 cp gs col7 1.00 shd ef gr gs col-1 s gr 
% Polyline
n 1204 7567 m 1798 7963 l 1204 8359 l 611 7963 l
 cp gs col7 1.00 shd ef gr gs col-1 s gr 
% Polyline
n 9410 9101 m 10136 9585 l 9410 10069 l 8685 9585 l
 cp gs col7 1.00 shd ef gr gs col-1 s gr 
% Polyline
n 945 9922 m 1671 10406 l 945 10890 l 220 10406 l
 cp gs col7 1.00 shd ef gr gs col-1 s gr 
% Polyline
n 6345 9630 m 7155 10125 l 6345 10620 l 5535 10125 l
 cp gs col7 1.00 shd ef gr gs col-1 s gr 
% Polyline
n 8859 7751 m 9585 8235 l 8859 8719 l 8134 8235 l
 cp gs col7 1.00 shd ef gr gs col-1 s gr 
% Polyline
n 3015 11160 m 3690 11610 l 3015 12060 l 2340 11610 l
 cp gs col7 1.00 shd ef gr gs col-1 s gr 
% Polyline
n 6345 13275 m 7020 13725 l 6345 14175 l 5670 13725 l
 cp gs col7 1.00 shd ef gr gs col-1 s gr 
% Polyline
n 6795 1080 m 7560 1575 l 6795 2070 l 6030 1575 l
 cp gs col7 1.00 shd ef gr gs col-1 s gr 
% Polyline
n 1040 11441 m 1766 11925 l 1040 12409 l 315 11925 l
 cp gs col7 1.00 shd ef gr gs col-1 s gr 
% Polyline
n 1035 13207 m 1761 13691 l 1035 14175 l 310 13691 l
 cp gs col7 1.00 shd ef gr gs col-1 s gr 
% Polyline
n 8825 10946 m 9540 11430 l 8825 11914 l 8100 11430 l
 cp gs col7 1.00 shd ef gr gs col-1 s gr 
% Polyline
n 9034 4192 m 9628 4588 l 9034 4984 l 8460 4590 l
 cp gs col7 1.00 shd ef gr gs col-1 s gr 
% here ends figure;
% 
% here starts figure with depth 60
% Ellipse
7.500 slw
n 3470 270 68 63 0 360 DrawEllipse gs col0 s gr

% Ellipse
n 3470 720 68 63 0 360 DrawEllipse gs col0 s gr

% Ellipse
n 1723 495 68 63 0 360 DrawEllipse gs col0 s gr

% Ellipse
n 8240 270 68 63 0 360 DrawEllipse gs col0 s gr

% Ellipse
n 8240 720 68 63 0 360 DrawEllipse gs col0 s gr

% Ellipse
n 6502 513 68 63 0 360 DrawEllipse gs col0 s gr

% Ellipse
n 10040 1980 68 63 0 360 DrawEllipse gs col0 s gr

% Ellipse
n 10040 2430 68 63 0 360 DrawEllipse gs col0 s gr

% Ellipse
n 8302 2223 68 63 0 360 DrawEllipse gs col0 s gr

% Ellipse
n 3483 3465 63 63 0 360 DrawEllipse gs col0 s gr

% Ellipse
n 3483 3915 63 63 0 360 DrawEllipse gs col0 s gr

% Ellipse
n 4370 1845 68 63 0 360 DrawEllipse gs col0 s gr

% Ellipse
n 4370 2295 68 63 0 360 DrawEllipse gs col0 s gr

% Ellipse
n 2623 2070 68 63 0 360 DrawEllipse gs col0 s gr

% Ellipse
n 7430 6930 68 63 0 360 DrawEllipse gs col0 s gr

% Ellipse
n 7430 7380 68 63 0 360 DrawEllipse gs col0 s gr

% Ellipse
n 5692 7137 68 63 0 360 DrawEllipse gs col0 s gr

% Ellipse
n 4968 5175 63 63 0 360 DrawEllipse gs col0 s gr

% Ellipse
n 4968 5625 63 63 0 360 DrawEllipse gs col0 s gr

% Ellipse
n 3348 5400 63 63 0 360 DrawEllipse gs col0 s gr

% Ellipse
n 2133 6660 63 63 0 360 DrawEllipse gs col0 s gr

% Ellipse
n 2133 7110 63 63 0 360 DrawEllipse gs col0 s gr

% Ellipse
n 513 6885 63 63 0 360 DrawEllipse gs col0 s gr

% Ellipse
n 5148 13860 63 63 0 360 DrawEllipse gs col0 s gr

% Ellipse
n 5148 14310 63 63 0 360 DrawEllipse gs col0 s gr

% Ellipse
n 3528 14085 63 63 0 360 DrawEllipse gs col0 s gr

% Ellipse
n 5148 13005 63 64 0 360 DrawEllipse gs col0 s gr

% Ellipse
n 5148 13455 63 64 0 360 DrawEllipse gs col0 s gr

% Ellipse
n 3531 13233 63 64 0 360 DrawEllipse gs col0 s gr

% Ellipse
n 10503 13320 63 63 0 360 DrawEllipse gs col0 s gr

% Ellipse
n 10503 13770 63 63 0 360 DrawEllipse gs col0 s gr

% Ellipse
n 8883 13527 63 63 0 360 DrawEllipse gs col0 s gr

% Ellipse
n 10503 12330 63 63 0 360 DrawEllipse gs col0 s gr

% Ellipse
n 10503 12780 63 63 0 360 DrawEllipse gs col0 s gr

% Ellipse
n 8883 12555 63 63 0 360 DrawEllipse gs col0 s gr

% Ellipse
n 7520 3150 68 63 0 360 DrawEllipse gs col0 s gr

% Ellipse
n 7520 3600 68 63 0 360 DrawEllipse gs col0 s gr

% Ellipse
n 5782 3357 68 63 0 360 DrawEllipse gs col0 s gr

% here ends figure;
% 
% here starts figure with depth 50
% Polyline
0 slj
0 slc
7.500 slw
n 3428 270 m
 3513 270 l gs col0 s gr 
% Polyline
n 3470 232 m
 3470 308 l gs col0 s gr 
% Polyline
n 3433 720 m
 3512 720 l gs col0 s gr 
% Ellipse
n 2719 495 195 180 0 360 DrawEllipse gs col0 s gr

% Polyline
n 2825 352 m
 2918 266 l gs col0 s gr 
% Polyline
n 2828 641 m
 2920 726 l gs col0 s gr 
% Polyline
n 2524 495 m
 2426 495 l gs col0 s gr 
% Polyline
n 1686 495 m
 1765 495 l gs col0 s gr 
% Polyline
n 1575 90 m 3645 90 l 3645 900 l 1575 900 l
 cp gs col0 s gr 
% Polyline
n 3251 900 m 3259 900 l gs col0 s gr
% Polyline
n 2426 495 m
 2250 495 l gs col0 s gr 
% Polyline
n 2914 720 m
 3401 720 l gs col0 s gr 
% Polyline
n 8198 270 m
 8283 270 l gs col0 s gr 
% Polyline
n 8240 232 m
 8240 308 l gs col0 s gr 
% Polyline
n 8203 720 m
 8282 720 l gs col0 s gr 
% Ellipse
n 7489 495 195 180 0 360 DrawEllipse gs col0 s gr

% Polyline
n 7595 352 m
 7688 266 l gs col0 s gr 
% Polyline
n 7598 641 m
 7690 726 l gs col0 s gr 
% Polyline
n 7294 495 m
 7196 495 l gs col0 s gr 
% Polyline
n 6460 513 m
 6545 513 l gs col0 s gr 
% Polyline
n 6502 475 m
 6502 551 l gs col0 s gr 
% Polyline
n 8021 900 m 8029 900 l gs col0 s gr
% Polyline
n 7196 495 m
 7020 495 l gs col0 s gr 
% Polyline
n 6345 90 m 8415 90 l 8415 900 l 6345 900 l
 cp gs col0 s gr 
% Polyline
n 7684 270 m
 8171 270 l gs col0 s gr 
% Polyline
n 9998 1980 m
 10083 1980 l gs col0 s gr 
% Polyline
n 10040 1942 m
 10040 2018 l gs col0 s gr 
% Polyline
n 10003 2430 m
 10082 2430 l gs col0 s gr 
% Ellipse
n 9289 2205 195 180 0 360 DrawEllipse gs col0 s gr

% Polyline
n 9395 2062 m
 9488 1976 l gs col0 s gr 
% Polyline
n 9398 2351 m
 9490 2436 l gs col0 s gr 
% Polyline
n 9094 2205 m
 8996 2205 l gs col0 s gr 
% Polyline
n 8260 2223 m
 8345 2223 l gs col0 s gr 
% Polyline
n 8302 2185 m
 8302 2261 l gs col0 s gr 
% Polyline
n 3445 3465 m
 3523 3465 l gs col0 s gr 
% Polyline
n 3483 3427 m
 3483 3503 l gs col0 s gr 
% Polyline
n 3449 3915 m
 3522 3915 l gs col0 s gr 
% Ellipse
n 2790 3690 180 180 0 360 DrawEllipse gs col0 s gr

% Polyline
n 2888 3547 m
 2974 3461 l gs col0 s gr 
% Polyline
n 2891 3836 m
 2976 3921 l gs col0 s gr 
% Polyline
n 2610 3690 m
 2521 3690 l gs col0 s gr 
% Polyline
n 3281 4095 m 3289 4095 l gs col0 s gr
% Polyline
n 2970 3465 m
 3420 3465 l gs col0 s gr 
% Polyline
n 1575 3285 m 3645 3285 l 3645 4095 l 1575 4095 l
 cp gs col0 s gr 
% Polyline
n 4328 1845 m
 4413 1845 l gs col0 s gr 
% Polyline
n 4370 1807 m
 4370 1883 l gs col0 s gr 
% Polyline
n 4333 2295 m
 4412 2295 l gs col0 s gr 
% Ellipse
n 3619 2070 195 180 0 360 DrawEllipse gs col0 s gr

% Polyline
n 3725 1927 m
 3818 1841 l gs col0 s gr 
% Polyline
n 3728 2216 m
 3820 2301 l gs col0 s gr 
% Polyline
n 3424 2070 m
 3326 2070 l gs col0 s gr 
% Polyline
n 2586 2070 m
 2665 2070 l gs col0 s gr 
% Polyline
n 2475 1665 m 4545 1665 l 4545 2475 l 2475 2475 l
 cp gs col0 s gr 
% Polyline
n 4151 2475 m 4159 2475 l gs col0 s gr
% Polyline
n 3326 2070 m
 3150 2070 l gs col0 s gr 
% Polyline
n 3814 2295 m
 4301 2295 l gs col0 s gr 
% Polyline
n 6975 12240 m 8370 12240 l 8370 12870 l 6975 12870 l
 cp gs col0 s gr 
% Polyline
n 7388 6930 m
 7473 6930 l gs col0 s gr 
% Polyline
n 7430 6892 m
 7430 6968 l gs col0 s gr 
% Polyline
n 7393 7380 m
 7472 7380 l gs col0 s gr 
% Polyline
n 5650 7137 m
 5735 7137 l gs col0 s gr 
% Polyline
n 5692 7099 m
 5692 7175 l gs col0 s gr 
% Ellipse
n 6679 7155 195 180 0 360 DrawEllipse gs col0 s gr

% Polyline
n 6785 7012 m
 6878 6926 l gs col0 s gr 
% Polyline
n 6788 7301 m
 6880 7386 l gs col0 s gr 
% Polyline
n 6484 7155 m
 6386 7155 l gs col0 s gr 
% Polyline
n 5535 6750 m 7605 6750 l 7605 7560 l 5535 7560 l
 cp gs col0 s gr 
% Polyline
n 7211 7560 m 7219 7560 l gs col0 s gr
% Polyline
n 6874 7380 m
 7361 7380 l gs col0 s gr 
% Polyline
n 6390 7155 m
 6214 7155 l gs col0 s gr 
% Polyline
n 2670 12330 m 2565 12330 2565 12495 105 arcto 4 {pop} repeat
  2565 12600 3810 12600 105 arcto 4 {pop} repeat
  3915 12600 3915 12435 105 arcto 4 {pop} repeat
  3915 12330 2670 12330 105 arcto 4 {pop} repeat
 cp gs col6 1.00 shd ef gr gs col0 s gr 
% Polyline
n 3690 11835 m 5085 11835 l 5085 12195 l 3690 12195 l
 cp gs col0 s gr 
% Polyline
n 5760 2250 m 7605 2250 l 7605 2745 l 5760 2745 l
 cp gs col0 s gr 
% Polyline
n 7875 2745 m 10305 2745 l 10305 3015 l 7875 3015 l
 cp gs col0 s gr 
% Polyline
n 4930 5175 m
 5008 5175 l gs col0 s gr 
% Polyline
n 4968 5137 m
 4968 5213 l gs col0 s gr 
% Polyline
n 4934 5625 m
 5007 5625 l gs col0 s gr 
% Ellipse
n 4275 5400 180 180 0 360 DrawEllipse gs col0 s gr

% Polyline
n 4373 5257 m
 4459 5171 l gs col0 s gr 
% Polyline
n 4376 5546 m
 4461 5631 l gs col0 s gr 
% Polyline
n 4095 5400 m
 4006 5400 l gs col0 s gr 
% Polyline
n 3314 5400 m
 3387 5400 l gs col0 s gr 
% Polyline
n 2095 6660 m
 2173 6660 l gs col0 s gr 
% Polyline
n 2133 6622 m
 2133 6698 l gs col0 s gr 
% Polyline
n 2099 7110 m
 2172 7110 l gs col0 s gr 
% Ellipse
n 1440 6885 180 180 0 360 DrawEllipse gs col0 s gr

% Polyline
n 1538 6742 m
 1624 6656 l gs col0 s gr 
% Polyline
n 1541 7031 m
 1626 7116 l gs col0 s gr 
% Polyline
n 1260 6885 m
 1171 6885 l gs col0 s gr 
% Polyline
n 479 6885 m
 552 6885 l gs col0 s gr 
% Polyline
n 315 12600 m 1665 12600 l 1665 13050 l 315 13050 l
 cp gs col0 s gr 
% Polyline
n 5110 13860 m
 5188 13860 l gs col0 s gr 
% Polyline
n 5148 13822 m
 5148 13898 l gs col0 s gr 
% Polyline
n 5114 14310 m
 5187 14310 l gs col0 s gr 
% Ellipse
n 4455 14085 180 180 0 360 DrawEllipse gs col0 s gr

% Polyline
n 4553 13942 m
 4639 13856 l gs col0 s gr 
% Polyline
n 4556 14231 m
 4641 14316 l gs col0 s gr 
% Polyline
n 4275 14085 m
 4186 14085 l gs col0 s gr 
% Polyline
n 3494 14085 m
 3567 14085 l gs col0 s gr 
% Polyline
n 4946 14490 m 4954 14490 l gs col0 s gr
% Polyline
n 4635 13860 m
 5085 13860 l gs col0 s gr 
% Polyline
n 4186 14085 m
 4050 14085 l gs col0 s gr 
% Polyline
gs  clippath
4560 14387 m 4560 14295 l 4530 14295 l 4530 14387 l 4530 14387 l 4545 14327 l 4560 14387 l cp
eoclip
n 4545 14445 m
 4545 14310 l gs col0 s gr gr

% arrowhead
n 4560 14387 m 4545 14327 l 4530 14387 l  col0 s
% Polyline
n 3375 13680 m 5310 13680 l 5310 14490 l 3375 14490 l
 cp gs col0 s gr 
% Polyline
n 5110 13005 m
 5188 13005 l gs col0 s gr 
% Polyline
n 5148 12967 m
 5148 13043 l gs col0 s gr 
% Polyline
n 5114 13455 m
 5187 13455 l gs col0 s gr 
% Polyline
n 3493 13233 m
 3571 13233 l gs col0 s gr 
% Polyline
n 3531 13195 m
 3531 13271 l gs col0 s gr 
% Ellipse
n 4455 13231 180 180 0 360 DrawEllipse gs col0 s gr

% Polyline
n 4553 13087 m
 4639 13001 l gs col0 s gr 
% Polyline
n 4556 13376 m
 4641 13461 l gs col0 s gr 
% Polyline
n 4275 13231 m
 4186 13231 l gs col0 s gr 
% Polyline
n 4635 13005 m
 5085 13005 l gs col0 s gr 
% Polyline
n 4050 13231 m
 4185 13231 l gs col0 s gr 
% Polyline
n 3375 12870 m 5310 12870 l 5310 13590 l 3375 13590 l
 cp gs col0 s gr 
% Polyline
n 5820 14760 m 5715 14760 5715 14925 105 arcto 4 {pop} repeat
  5715 15030 6960 15030 105 arcto 4 {pop} repeat
  7065 15030 7065 14865 105 arcto 4 {pop} repeat
  7065 14760 5820 14760 105 arcto 4 {pop} repeat
 cp gs col6 1.00 shd ef gr gs col0 s gr 
% Polyline
n 6750 14085 m 8595 14085 l 8595 14490 l 6750 14490 l
 cp gs col0 s gr 
% Polyline
n 10465 13320 m
 10543 13320 l gs col0 s gr 
% Polyline
n 10503 13282 m
 10503 13358 l gs col0 s gr 
% Polyline
n 10469 13770 m
 10542 13770 l gs col0 s gr 
% Ellipse
n 9810 13545 180 180 0 360 DrawEllipse gs col0 s gr

% Polyline
n 9908 13402 m
 9994 13316 l gs col0 s gr 
% Polyline
n 9911 13691 m
 9996 13776 l gs col0 s gr 
% Polyline
n 9630 13545 m
 9541 13545 l gs col0 s gr 
% Polyline
n 8845 13527 m
 8923 13527 l gs col0 s gr 
% Polyline
n 8883 13489 m
 8883 13565 l gs col0 s gr 
% Polyline
n 10301 13950 m 10309 13950 l gs col0 s gr
% Polyline
n 9541 13545 m
 9405 13545 l gs col0 s gr 
% Polyline
n 8595 13140 m 10665 13140 l 10665 13950 l 8595 13950 l
 cp gs col0 s gr 
% Polyline
n 9990 13770 m
 10440 13770 l gs col0 s gr 
% Polyline
gs  clippath
9885 13243 m 9885 13335 l 9915 13335 l 9915 13243 l 9915 13243 l 9900 13303 l 9885 13243 l cp
eoclip
n 9900 13185 m
 9900 13320 l gs col0 s gr gr

% arrowhead
n 9885 13243 m 9900 13303 l 9915 13243 l  col0 s
% Polyline
n 10465 12330 m
 10543 12330 l gs col0 s gr 
% Polyline
n 10503 12292 m
 10503 12368 l gs col0 s gr 
% Polyline
n 10469 12780 m
 10542 12780 l gs col0 s gr 
% Ellipse
n 9810 12555 180 180 0 360 DrawEllipse gs col0 s gr

% Polyline
n 9908 12412 m
 9994 12326 l gs col0 s gr 
% Polyline
n 9911 12701 m
 9996 12786 l gs col0 s gr 
% Polyline
n 9630 12555 m
 9541 12555 l gs col0 s gr 
% Polyline
n 8849 12555 m
 8922 12555 l gs col0 s gr 
% Polyline
n 10301 12960 m 10309 12960 l gs col0 s gr
% Polyline
n 9405 12555 m
 9540 12555 l gs col0 s gr 
% Polyline
n 9990 12780 m
 10440 12780 l gs col0 s gr 
% Polyline
n 8595 12150 m 10665 12150 l 10665 12960 l 8595 12960 l
 cp gs col0 s gr 
% Polyline
n 9315 11655 m 10665 11655 l 10665 11925 l 9315 11925 l
 cp gs col0 s gr 
% Polyline
n 8730 10260 m 10080 10260 l 10080 10755 l 8730 10755 l
 cp gs col0 s gr 
% Polyline
n 6315 5985 m 6210 5985 6210 6195 105 arcto 4 {pop} repeat
  6210 6300 6780 6300 105 arcto 4 {pop} repeat
  6885 6300 6885 6090 105 arcto 4 {pop} repeat
  6885 5985 6315 5985 105 arcto 4 {pop} repeat
 cp gs col14 1.00 shd ef gr gs col0 s gr 
% Polyline
n 7478 3150 m
 7563 3150 l gs col0 s gr 
% Polyline
n 7520 3112 m
 7520 3188 l gs col0 s gr 
% Polyline
n 7483 3600 m
 7562 3600 l gs col0 s gr 
% Ellipse
n 6769 3375 195 180 0 360 DrawEllipse gs col0 s gr

% Polyline
n 6875 3232 m
 6968 3146 l gs col0 s gr 
% Polyline
n 6878 3521 m
 6970 3606 l gs col0 s gr 
% Polyline
n 6574 3375 m
 6476 3375 l gs col0 s gr 
% Polyline
n 5740 3357 m
 5825 3357 l gs col0 s gr 
% Polyline
n 5782 3319 m
 5782 3395 l gs col0 s gr 
% Polyline
n 5625 2970 m 7695 2970 l 7695 3780 l 5625 3780 l
 cp gs col0 s gr 
% Polyline
n 7301 3780 m 7309 3780 l gs col0 s gr
% Polyline
n 6964 3600 m
 7451 3600 l gs col0 s gr 
% Polyline
n 6480 3375 m
 6304 3375 l gs col0 s gr 
% Polyline
n 9821 2610 m 9829 2610 l gs col0 s gr
% Polyline
n 8996 2205 m
 8820 2205 l gs col0 s gr 
% Polyline
n 8145 1800 m 10215 1800 l 10215 2610 l 8145 2610 l
 cp gs col0 s gr 
% Polyline
n 9484 1980 m
 9971 1980 l gs col0 s gr 
% Polyline
gs  clippath
9105 1698 m 9105 1815 l 9165 1815 l 9165 1698 l 9165 1698 l 9135 1788 l 9105 1698 l cp
eoclip
n 7560 1575 m 9135 1575 l
 9135 1800 l gs col0 s gr gr

% arrowhead
n 9105 1698 m 9135 1788 l 9165 1698 l 9135 1668 l 9105 1698 l 
 cp gs 0.00 setgray ef gr  col0 s
% Polyline
n 9135 2610 m
 9135 2745 l gs col0 s gr 
% Polyline
n 1526 5625 m 1534 5625 l gs col0 s gr
% Polyline
n 986 5940 m 994 5940 l gs col0 s gr
% Polyline
gs  clippath
1473 390 m 1590 390 l 1590 330 l 1473 330 l 1473 330 l 1563 360 l 1473 390 l cp
eoclip
n 1305 360 m
 1575 360 l gs col0 s gr gr

% arrowhead
n 1473 390 m 1563 360 l 1473 330 l 1443 360 l 1473 390 l 
 cp gs 0.00 setgray ef gr  col0 s
% Polyline
gs  clippath
6765 2148 m 6765 2265 l 6825 2265 l 6825 2148 l 6825 2148 l 6795 2238 l 6765 2148 l cp
eoclip
n 6795 2070 m
 6795 2250 l gs col0 s gr gr

% arrowhead
n 6765 2148 m 6795 2238 l 6825 2148 l 6795 2118 l 6765 2148 l 
 cp gs 0.00 setgray ef gr  col0 s
% Polyline
gs  clippath
2535 4218 m 2535 4335 l 2595 4335 l 2595 4218 l 2595 4218 l 2565 4308 l 2535 4218 l cp
eoclip
n 2565 4095 m
 2565 4320 l gs col0 s gr gr

% arrowhead
n 2535 4218 m 2565 4308 l 2595 4218 l 2565 4188 l 2535 4218 l 
 cp gs 0.00 setgray ef gr  col0 s
% Polyline
gs  clippath
1677 4695 m 1560 4695 l 1560 4755 l 1677 4755 l 1677 4755 l 1587 4725 l 1677 4695 l cp
eoclip
n 1890 4725 m
 1575 4725 l gs col0 s gr gr

% arrowhead
n 1677 4695 m 1587 4725 l 1677 4755 l 1707 4725 l 1677 4695 l 
 cp gs 0.00 setgray ef gr  col0 s
% Polyline
gs  clippath
3975 4893 m 3975 5010 l 4035 5010 l 4035 4893 l 4035 4893 l 4005 4983 l 3975 4893 l cp
eoclip
n 3240 4725 m 4005 4725 l
 4005 4995 l gs col0 s gr gr

% arrowhead
n 3975 4893 m 4005 4983 l 4035 4893 l 4005 4863 l 3975 4893 l 
 cp gs 0.00 setgray ef gr  col0 s
% Polyline
gs  clippath
2535 5613 m 2535 5730 l 2595 5730 l 2595 5613 l 2595 5613 l 2565 5703 l 2535 5613 l cp
eoclip
n 3060 5445 m 2565 5445 l
 2565 5715 l gs col0 s gr gr

% arrowhead
n 2535 5613 m 2565 5703 l 2595 5613 l 2565 5583 l 2535 5613 l 
 cp gs 0.00 setgray ef gr  col0 s
% Polyline
gs  clippath
1185 6378 m 1185 6495 l 1245 6495 l 1245 6378 l 1245 6378 l 1215 6468 l 1185 6378 l cp
eoclip
n 1980 6120 m 1215 6120 l
 1215 6480 l gs col0 s gr gr

% arrowhead
n 1185 6378 m 1215 6468 l 1245 6378 l 1215 6348 l 1185 6378 l 
 cp gs 0.00 setgray ef gr  col0 s
% Polyline
gs  clippath
3165 8538 m 3165 8655 l 3225 8655 l 3225 8538 l 3225 8538 l 3195 8628 l 3165 8538 l cp
eoclip
n 3195 8460 m
 3195 8640 l gs col0 s gr gr

% arrowhead
n 3165 8538 m 3195 8628 l 3225 8538 l 3195 8508 l 3165 8538 l 
 cp gs 0.00 setgray ef gr  col0 s
% Polyline
gs  clippath
2217 9195 m 2100 9195 l 2100 9255 l 2217 9255 l 2217 9255 l 2127 9225 l 2217 9195 l cp
eoclip
n 2340 9225 m
 2115 9225 l gs col0 s gr gr

% arrowhead
n 2217 9195 m 2127 9225 l 2217 9255 l 2247 9225 l 2217 9195 l 
 cp gs 0.00 setgray ef gr  col0 s
% Polyline
gs  clippath
915 9843 m 915 9960 l 975 9960 l 975 9843 l 975 9843 l 945 9933 l 915 9843 l cp
eoclip
n 945 9540 m
 945 9945 l gs col0 s gr gr

% arrowhead
n 915 9843 m 945 9933 l 975 9843 l 945 9813 l 915 9843 l 
 cp gs 0.00 setgray ef gr  col0 s
% Polyline
gs  clippath
1047 9690 m 930 9690 l 930 9750 l 1047 9750 l 1047 9750 l 957 9720 l 1047 9690 l cp
eoclip
n 3195 9765 m 3195 9900 l 2025 9900 l 2025 9720 l
 945 9720 l gs col0 s gr gr

% arrowhead
n 1047 9690 m 957 9720 l 1047 9750 l 1077 9720 l 1047 9690 l 
 cp gs 0.00 setgray ef gr  col0 s
% Polyline
gs  clippath
2013 10425 m 2130 10425 l 2130 10365 l 2013 10365 l 2013 10365 l 2103 10395 l 2013 10425 l cp
eoclip
n 1665 10395 m
 2115 10395 l gs col0 s gr gr

% arrowhead
n 2013 10425 m 2103 10395 l 2013 10365 l 1983 10395 l 2013 10425 l 
 cp gs 0.00 setgray ef gr  col0 s
% Polyline
n 2115 10170 m 4005 10170 l 4005 10800 l 2115 10800 l
 cp gs col0 s gr 
% Polyline
gs  clippath
2985 11058 m 2985 11175 l 3045 11175 l 3045 11058 l 3045 11058 l 3015 11148 l 2985 11058 l cp
eoclip
n 3015 10800 m
 3015 11160 l gs col0 s gr gr

% arrowhead
n 2985 11058 m 3015 11148 l 3045 11058 l 3015 11028 l 2985 11058 l 
 cp gs 0.00 setgray ef gr  col0 s
% Polyline
gs  clippath
2913 11010 m 3030 11010 l 3030 10950 l 2913 10950 l 2913 10950 l 3003 10980 l 2913 11010 l cp
eoclip
n 945 10890 m 945 10980 l
 3015 10980 l gs col0 s gr gr

% arrowhead
n 2913 11010 m 3003 10980 l 2913 10950 l 2883 10980 l 2913 11010 l 
 cp gs 0.00 setgray ef gr  col0 s
% Polyline
gs  clippath
1005 11373 m 1005 11490 l 1065 11490 l 1065 11373 l 1065 11373 l 1035 11463 l 1005 11373 l cp
eoclip
n 630 7965 m 90 7965 l 90 11250 l 1035 11250 l
 1035 11475 l gs col0 s gr gr

% arrowhead
n 1005 11373 m 1035 11463 l 1065 11373 l 1035 11343 l 1005 11373 l 
 cp gs 0.00 setgray ef gr  col0 s
% Polyline
n 1796 11430 m 1804 11430 l gs col0 s gr
% Polyline
gs  clippath
6243 390 m 6360 390 l 6360 330 l 6243 330 l 6243 330 l 6333 360 l 6243 390 l cp
eoclip
n 5355 6120 m 5355 360 l
 6345 360 l gs col0 s gr gr

% arrowhead
n 6243 390 m 6333 360 l 6243 330 l 6213 360 l 6243 390 l 
 cp gs 0.00 setgray ef gr  col0 s
% Polyline
gs  clippath
5253 6150 m 5370 6150 l 5370 6090 l 5253 6090 l 5253 6090 l 5343 6120 l 5253 6150 l cp
eoclip
n 3150 6120 m
 5355 6120 l gs col0 s gr gr

% arrowhead
n 5253 6150 m 5343 6120 l 5253 6090 l 5223 6120 l 5253 6150 l 
 cp gs 0.00 setgray ef gr  col0 s
% Polyline
gs  clippath
5385 6222 m 5385 6105 l 5325 6105 l 5325 6222 l 5325 6222 l 5355 6132 l 5385 6222 l cp
eoclip
n 5355 12780 m
 5355 6120 l gs col0 s gr gr

% arrowhead
n 5385 6222 m 5355 6132 l 5325 6222 l 5355 6252 l 5385 6222 l 
 cp gs 0.00 setgray ef gr  col0 s
% Polyline
n 3506 1170 m 3514 1170 l gs col0 s gr
% Polyline
n 1935 900 m
 1935 1035 l gs col0 s gr 
% Polyline
n 2696 1575 m 2704 1575 l gs col0 s gr
% Polyline
n 1301 1890 m 1309 1890 l gs col0 s gr
% Polyline
gs  clippath
3435 1563 m 3435 1680 l 3495 1680 l 3495 1563 l 3495 1563 l 3465 1653 l 3435 1563 l cp
eoclip
n 2520 1440 m 3465 1440 l
 3465 1665 l gs col0 s gr gr

% arrowhead
n 3435 1563 m 3465 1653 l 3495 1563 l 3465 1533 l 3435 1563 l 
 cp gs 0.00 setgray ef gr  col0 s
% Polyline
gs  clippath
1905 2508 m 1905 2625 l 1965 2625 l 1965 2508 l 1965 2508 l 1935 2598 l 1905 2508 l cp
eoclip
n 1935 1845 m
 1935 2610 l gs col0 s gr gr

% arrowhead
n 1905 2508 m 1935 2598 l 1965 2508 l 1935 2478 l 1905 2508 l 
 cp gs 0.00 setgray ef gr  col0 s
% Polyline
n 3465 2475 m
 3465 2610 l gs col0 s gr 
% Polyline
n 2475 2610 m 4860 2610 l 4860 2880 l 2475 2880 l
 cp gs col0 s gr 
% Polyline
gs  clippath
2037 3030 m 1920 3030 l 1920 3090 l 2037 3090 l 2037 3090 l 1947 3060 l 2037 3030 l cp
eoclip
n 3465 2880 m 3465 3060 l
 1935 3060 l gs col0 s gr gr

% arrowhead
n 2037 3030 m 1947 3060 l 2037 3090 l 2067 3060 l 2037 3030 l 
 cp gs 0.00 setgray ef gr  col0 s
% Polyline
gs  clippath
1905 3183 m 1905 3300 l 1965 3300 l 1965 3183 l 1965 3183 l 1935 3273 l 1905 3183 l cp
eoclip
n 1935 2880 m
 1935 3285 l gs col0 s gr gr

% arrowhead
n 1905 3183 m 1935 3273 l 1965 3183 l 1935 3153 l 1905 3183 l 
 cp gs 0.00 setgray ef gr  col0 s
% Polyline
n 405 2610 m 2385 2610 l 2385 2880 l 405 2880 l
 cp gs col0 s gr 
% Polyline
gs  clippath
6495 6648 m 6495 6765 l 6555 6765 l 6555 6648 l 6555 6648 l 6525 6738 l 6495 6648 l cp
eoclip
n 6525 6300 m
 6525 6750 l gs col0 s gr gr

% arrowhead
n 6495 6648 m 6525 6738 l 6555 6648 l 6525 6618 l 6495 6648 l 
 cp gs 0.00 setgray ef gr  col0 s
% Polyline
gs  clippath
6315 9528 m 6315 9645 l 6375 9645 l 6375 9528 l 6375 9528 l 6345 9618 l 6315 9528 l cp
eoclip
n 6345 9360 m
 6345 9630 l gs col0 s gr gr

% arrowhead
n 6315 9528 m 6345 9618 l 6375 9528 l 6345 9498 l 6315 9528 l 
 cp gs 0.00 setgray ef gr  col0 s
% Polyline
gs  clippath
7665 10293 m 7665 10410 l 7725 10410 l 7725 10293 l 7725 10293 l 7695 10383 l 7665 10293 l cp
eoclip
n 7155 10125 m 7695 10125 l
 7695 10395 l gs col0 s gr gr

% arrowhead
n 7665 10293 m 7695 10383 l 7725 10293 l 7695 10263 l 7665 10293 l 
 cp gs 0.00 setgray ef gr  col0 s
% Polyline
gs  clippath
6315 11328 m 6315 11445 l 6375 11445 l 6375 11328 l 6375 11328 l 6345 11418 l 6315 11328 l cp
eoclip
n 6345 10620 m
 6345 11430 l gs col0 s gr gr

% arrowhead
n 6315 11328 m 6345 11418 l 6375 11328 l 6345 11298 l 6315 11328 l 
 cp gs 0.00 setgray ef gr  col0 s
% Polyline
gs  clippath
7620 12138 m 7620 12255 l 7680 12255 l 7680 12138 l 7680 12138 l 7650 12228 l 7620 12138 l cp
eoclip
n 7065 11925 m 7650 11925 l
 7650 12240 l gs col0 s gr gr

% arrowhead
n 7620 12138 m 7650 12228 l 7680 12138 l 7650 12108 l 7620 12138 l 
 cp gs 0.00 setgray ef gr  col0 s
% Polyline
gs  clippath
6447 11130 m 6330 11130 l 6330 11190 l 6447 11190 l 6447 11190 l 6357 11160 l 6447 11130 l cp
eoclip
n 7695 11025 m 7695 11160 l
 6345 11160 l gs col0 s gr gr

% arrowhead
n 6447 11130 m 6357 11160 l 6447 11190 l 6477 11160 l 6447 11130 l 
 cp gs 0.00 setgray ef gr  col0 s
% Polyline
n 5936 12690 m 5944 12690 l gs col0 s gr
% Polyline
gs  clippath
6315 13173 m 6315 13290 l 6375 13290 l 6375 13173 l 6375 13173 l 6345 13263 l 6315 13173 l cp
eoclip
n 6345 12420 m
 6345 13275 l gs col0 s gr gr

% arrowhead
n 6315 13173 m 6345 13263 l 6375 13173 l 6345 13143 l 6315 13173 l 
 cp gs 0.00 setgray ef gr  col0 s
% Polyline
gs  clippath
6447 13020 m 6330 13020 l 6330 13080 l 6447 13080 l 6447 13080 l 6357 13050 l 6447 13020 l cp
eoclip
n 7650 12870 m 7650 13050 l
 6345 13050 l gs col0 s gr gr

% arrowhead
n 6447 13020 m 6357 13050 l 6447 13080 l 6477 13050 l 6447 13020 l 
 cp gs 0.00 setgray ef gr  col0 s
% Polyline
gs  clippath
1185 7458 m 1185 7575 l 1245 7575 l 1245 7458 l 1245 7458 l 1215 7548 l 1185 7458 l cp
eoclip
n 1215 7290 m
 1215 7560 l gs col0 s gr gr

% arrowhead
n 1185 7458 m 1215 7548 l 1245 7458 l 1215 7428 l 1185 7458 l 
 cp gs 0.00 setgray ef gr  col0 s
% Polyline
gs  clippath
2013 7995 m 2130 7995 l 2130 7935 l 2013 7935 l 2013 7935 l 2103 7965 l 2013 7995 l cp
eoclip
n 1800 7965 m
 2115 7965 l gs col0 s gr gr

% arrowhead
n 2013 7995 m 2103 7965 l 2013 7935 l 1983 7965 l 2013 7995 l 
 cp gs 0.00 setgray ef gr  col0 s
% Polyline
n 2115 7560 m 4410 7560 l 4410 8460 l 2115 8460 l
 cp gs col0 s gr 
% Polyline
n 3641 1080 m 3649 1080 l gs col0 s gr
% Polyline
n 6791 6570 m 6799 6570 l gs col0 s gr
% Polyline
gs  clippath
8835 7188 m 8835 7305 l 8895 7305 l 8895 7188 l 8895 7188 l 8865 7278 l 8835 7188 l cp
eoclip
n 7605 7065 m 8865 7065 l
 8865 7290 l gs col0 s gr gr

% arrowhead
n 8835 7188 m 8865 7278 l 8895 7188 l 8865 7158 l 8835 7188 l 
 cp gs 0.00 setgray ef gr  col0 s
% Polyline
n 8235 7290 m 9585 7290 l 9585 7650 l 8235 7650 l
 cp gs col0 s gr 
% Polyline
n 5535 8550 m 8280 8550 l 8280 9360 l 5535 9360 l
 cp gs col0 s gr 
% Polyline
gs  clippath
6675 8448 m 6675 8565 l 6735 8565 l 6735 8448 l 6735 8448 l 6705 8538 l 6675 8448 l cp
eoclip
n 8145 8235 m 6705 8235 l
 6705 8550 l gs col0 s gr gr

% arrowhead
n 6675 8448 m 6705 8538 l 6735 8448 l 6705 8418 l 6675 8448 l 
 cp gs 0.00 setgray ef gr  col0 s
% Polyline
gs  clippath
9375 8988 m 9375 9105 l 9435 9105 l 9435 8988 l 9435 8988 l 9405 9078 l 9375 8988 l cp
eoclip
n 8865 8730 m 8865 8865 l 9405 8865 l
 9405 9090 l gs col0 s gr gr

% arrowhead
n 9375 8988 m 9405 9078 l 9435 8988 l 9405 8958 l 9375 8988 l 
 cp gs 0.00 setgray ef gr  col0 s
% Polyline
n 8865 7650 m
 8865 7740 l gs col0 s gr 
% Polyline
n 600 4455 m 495 4455 495 4890 105 arcto 4 {pop} repeat
  495 4995 1470 4995 105 arcto 4 {pop} repeat
  1575 4995 1575 4560 105 arcto 4 {pop} repeat
  1575 4455 600 4455 105 arcto 4 {pop} repeat
 cp gs col6 1.00 shd ef gr gs col0 s gr 
% Polyline
n 330 90 m 225 90 225 525 105 arcto 4 {pop} repeat
  225 630 1200 630 105 arcto 4 {pop} repeat
  1305 630 1305 195 105 arcto 4 {pop} repeat
  1305 90 330 90 105 arcto 4 {pop} repeat
 cp gs col11 1.00 shd ef gr gs col0 s gr 
% Polyline
gs  clippath
5253 12810 m 5370 12810 l 5370 12750 l 5253 12750 l 5253 12750 l 5343 12780 l 5253 12810 l cp
eoclip
n 1755 11925 m 2070 11925 l 2070 12780 l
 5355 12780 l gs col0 s gr gr

% arrowhead
n 5253 12810 m 5343 12780 l 5253 12750 l 5223 12780 l 5253 12810 l 
 cp gs 0.00 setgray ef gr  col0 s
% Polyline
gs  clippath
2985 12228 m 2985 12345 l 3045 12345 l 3045 12228 l 3045 12228 l 3015 12318 l 2985 12228 l cp
eoclip
n 3015 12060 m
 3015 12330 l gs col0 s gr gr

% arrowhead
n 2985 12228 m 3015 12318 l 3045 12228 l 3015 12198 l 2985 12228 l 
 cp gs 0.00 setgray ef gr  col0 s
% Polyline
gs  clippath
4290 11733 m 4290 11850 l 4350 11850 l 4350 11733 l 4350 11733 l 4320 11823 l 4290 11733 l cp
eoclip
n 3690 11610 m 4320 11610 l
 4320 11835 l gs col0 s gr gr

% arrowhead
n 4290 11733 m 4320 11823 l 4350 11733 l 4320 11703 l 4290 11733 l 
 cp gs 0.00 setgray ef gr  col0 s
% Polyline
gs  clippath
4017 12390 m 3900 12390 l 3900 12450 l 4017 12450 l 4017 12450 l 3927 12420 l 4017 12390 l cp
eoclip
n 4320 12195 m 4320 12420 l
 3915 12420 l gs col0 s gr gr

% arrowhead
n 4017 12390 m 3927 12420 l 4017 12450 l 4047 12420 l 4017 12390 l 
 cp gs 0.00 setgray ef gr  col0 s
% Polyline
n 6341 14265 m 6349 14265 l gs col0 s gr
% Polyline
gs  clippath
6315 14658 m 6315 14775 l 6375 14775 l 6375 14658 l 6375 14658 l 6345 14748 l 6315 14658 l cp
eoclip
n 6345 14175 m
 6345 14760 l gs col0 s gr gr

% arrowhead
n 6315 14658 m 6345 14748 l 6375 14658 l 6345 14628 l 6315 14658 l 
 cp gs 0.00 setgray ef gr  col0 s
% Polyline
n 7196 13230 m 7204 13230 l gs col0 s gr
% Polyline
gs  clippath
6765 978 m 6765 1095 l 6825 1095 l 6825 978 l 6825 978 l 6795 1068 l 6765 978 l cp
eoclip
n 6795 900 m
 6795 1080 l gs col0 s gr gr

% arrowhead
n 6765 978 m 6795 1068 l 6825 978 l 6795 948 l 6765 978 l 
 cp gs 0.00 setgray ef gr  col0 s
% Polyline
gs  clippath
7797 3165 m 7680 3165 l 7680 3225 l 7797 3225 l 7797 3225 l 7707 3195 l 7797 3165 l cp
eoclip
n 9135 3015 m 9135 3195 l
 7695 3195 l gs col0 s gr gr

% arrowhead
n 7797 3165 m 7707 3195 l 7797 3225 l 7827 3195 l 7797 3165 l 
 cp gs 0.00 setgray ef gr  col0 s
% Polyline
gs  clippath
6765 2868 m 6765 2985 l 6825 2985 l 6825 2868 l 6825 2868 l 6795 2958 l 6765 2868 l cp
eoclip
n 6795 2745 m
 6795 2970 l gs col0 s gr gr

% arrowhead
n 6765 2868 m 6795 2958 l 6825 2868 l 6795 2838 l 6765 2868 l 
 cp gs 0.00 setgray ef gr  col0 s
% Polyline
n 3060 4995 m 5130 4995 l 5130 5805 l 3060 5805 l
 cp gs col0 s gr 
% Polyline
n 4766 5805 m 4774 5805 l gs col0 s gr
% Polyline
n 4455 5175 m
 4905 5175 l gs col0 s gr 
% Polyline
n 4006 5400 m
 3870 5400 l gs col0 s gr 
% Polyline
gs  clippath
7620 13983 m 7620 14100 l 7680 14100 l 7680 13983 l 7680 13983 l 7650 14073 l 7620 13983 l cp
eoclip
n 7020 13725 m 7650 13725 l
 7650 14085 l gs col0 s gr gr

% arrowhead
n 7620 13983 m 7650 14073 l 7680 13983 l 7650 13953 l 7620 13983 l 
 cp gs 0.00 setgray ef gr  col0 s
% Polyline
n 1931 7290 m 1939 7290 l gs col0 s gr
% Polyline
n 1171 6885 m
 1035 6885 l gs col0 s gr 
% Polyline
n 225 6480 m 2295 6480 l 2295 7290 l 225 7290 l
 cp gs col0 s gr 
% Polyline
n 1620 6660 m
 2070 6660 l gs col0 s gr 
% Polyline
n 225 8910 m 2115 8910 l 2115 9540 l 225 9540 l
 cp gs col0 s gr 
% Polyline
gs  clippath
1012 12520 m 1012 12615 l 1057 12615 l 1057 12520 l 1057 12520 l 1035 12588 l 1012 12520 l cp
eoclip
n 1035 12420 m
 1035 12600 l gs col0 s gr gr

% arrowhead
n 1012 12520 m 1035 12588 l 1057 12520 l 1035 12498 l 1012 12520 l 
 cp gs 0.00 setgray ef gr  col0 s
% Polyline
gs  clippath
3027 14775 m 2910 14775 l 2910 14835 l 3027 14835 l 3027 14835 l 2937 14805 l 3027 14775 l cp
eoclip
n 3645 14805 m
 2925 14805 l gs col0 s gr gr

% arrowhead
n 3027 14775 m 2937 14805 l 3027 14835 l 3057 14805 l 3027 14775 l 
 cp gs 0.00 setgray ef gr  col0 s
% Polyline
n 1680 14715 m 1575 14715 1575 14880 105 arcto 4 {pop} repeat
  1575 14985 2820 14985 105 arcto 4 {pop} repeat
  2925 14985 2925 14820 105 arcto 4 {pop} repeat
  2925 14715 1680 14715 105 arcto 4 {pop} repeat
 cp gs col6 1.00 shd ef gr gs col0 s gr 
% Polyline
gs  clippath
4245 14568 m 4245 14685 l 4305 14685 l 4305 14568 l 4305 14568 l 4275 14658 l 4245 14568 l cp
eoclip
n 4275 14490 m
 4275 14670 l gs col0 s gr gr

% arrowhead
n 4245 14568 m 4275 14658 l 4305 14568 l 4275 14538 l 4245 14568 l 
 cp gs 0.00 setgray ef gr  col0 s
% Polyline
n 3645 14670 m 4995 14670 l 4995 15030 l 3645 15030 l
 cp gs col0 s gr 
% Polyline
n 4275 13590 m
 4275 13680 l gs col0 s gr 
% Polyline
gs  clippath
1012 13150 m 1012 13245 l 1057 13245 l 1057 13150 l 1057 13150 l 1035 13218 l 1012 13150 l cp
eoclip
n 1035 13050 m
 1035 13230 l gs col0 s gr gr

% arrowhead
n 1012 13150 m 1035 13218 l 1057 13150 l 1035 13128 l 1012 13150 l 
 cp gs 0.00 setgray ef gr  col0 s
% Polyline
gs  clippath
2148 13710 m 2265 13710 l 2265 13650 l 2148 13650 l 2148 13650 l 2238 13680 l 2148 13710 l cp
eoclip
n 1755 13680 m
 2250 13680 l gs col0 s gr gr

% arrowhead
n 2148 13710 m 2238 13680 l 2148 13650 l 2118 13680 l 2148 13710 l 
 cp gs 0.00 setgray ef gr  col0 s
% Polyline
gs  clippath
1518 14340 m 1635 14340 l 1635 14280 l 1518 14280 l 1518 14280 l 1608 14310 l 1518 14340 l cp
eoclip
n 1035 14175 m 1035 14310 l
 1620 14310 l gs col0 s gr gr

% arrowhead
n 1518 14340 m 1608 14310 l 1518 14280 l 1488 14310 l 1518 14340 l 
 cp gs 0.00 setgray ef gr  col0 s
% Polyline
n 1620 14040 m 2970 14040 l 2970 14490 l 1620 14490 l
 cp gs col0 s gr 
% Polyline
gs  clippath
2280 13782 m 2280 13665 l 2220 13665 l 2220 13782 l 2220 13782 l 2250 13692 l 2280 13782 l cp
eoclip
n 2250 14040 m
 2250 13680 l gs col0 s gr gr

% arrowhead
n 2280 13782 m 2250 13692 l 2220 13782 l 2250 13812 l 2280 13782 l 
 cp gs 0.00 setgray ef gr  col0 s
% Polyline
gs  clippath
3273 13170 m 3390 13170 l 3390 13110 l 3273 13110 l 3273 13110 l 3363 13140 l 3273 13170 l cp
eoclip
n 2250 13680 m 2250 13140 l
 3375 13140 l gs col0 s gr gr

% arrowhead
n 3273 13170 m 3363 13140 l 3273 13110 l 3243 13140 l 3273 13170 l 
 cp gs 0.00 setgray ef gr  col0 s
% Polyline
gs  clippath
6447 14550 m 6330 14550 l 6330 14610 l 6447 14610 l 6447 14610 l 6357 14580 l 6447 14550 l cp
eoclip
n 7650 14490 m 7650 14580 l
 6345 14580 l gs col0 s gr gr

% arrowhead
n 6447 14550 m 6357 14580 l 6447 14610 l 6477 14580 l 6447 14550 l 
 cp gs 0.00 setgray ef gr  col0 s
% Polyline
gs  clippath
7167 14865 m 7050 14865 l 7050 14925 l 7167 14925 l 7167 14925 l 7077 14895 l 7167 14865 l cp
eoclip
n 9585 14580 m 9585 14895 l
 7065 14895 l gs col0 s gr gr

% arrowhead
n 7167 14865 m 7077 14895 l 7167 14925 l 7197 14895 l 7167 14865 l 
 cp gs 0.00 setgray ef gr  col0 s
% Polyline
n 8910 14175 m 10440 14175 l 10440 14580 l 8910 14580 l
 cp gs col0 s gr 
% Polyline
gs  clippath
9555 14073 m 9555 14190 l 9615 14190 l 9615 14073 l 9615 14073 l 9585 14163 l 9555 14073 l cp
eoclip
n 9585 13950 m
 9585 14175 l gs col0 s gr gr

% arrowhead
n 9555 14073 m 9585 14163 l 9615 14073 l 9585 14043 l 9555 14073 l 
 cp gs 0.00 setgray ef gr  col0 s
% Polyline
gs  clippath
9555 13038 m 9555 13155 l 9615 13155 l 9615 13038 l 9615 13038 l 9585 13128 l 9555 13038 l cp
eoclip
n 9585 12960 m
 9585 13140 l gs col0 s gr gr

% arrowhead
n 9555 13038 m 9585 13128 l 9615 13038 l 9585 13008 l 9555 13038 l 
 cp gs 0.00 setgray ef gr  col0 s
% Polyline
n 6975 10395 m 8550 10395 l 8550 11025 l 6975 11025 l
 cp gs col0 s gr 
% Polyline
gs  clippath
8790 12048 m 8790 12165 l 8850 12165 l 8850 12048 l 8850 12048 l 8820 12138 l 8790 12048 l cp
eoclip
n 8820 11925 m
 8820 12150 l gs col0 s gr gr

% arrowhead
n 8790 12048 m 8820 12138 l 8850 12048 l 8820 12018 l 8790 12048 l 
 cp gs 0.00 setgray ef gr  col0 s
% Polyline
gs  clippath
10290 4332 m 10290 4215 l 10230 4215 l 10230 4332 l 10230 4332 l 10260 4242 l 10290 4332 l cp
eoclip
n 10125 9585 m 10260 9585 l
 10260 4230 l gs col0 s gr gr

% arrowhead
n 10290 4332 m 10260 4242 l 10230 4332 l 10260 4362 l 10290 4332 l 
 cp gs 0.00 setgray ef gr  col0 s
% Polyline
gs  clippath
9825 11553 m 9825 11670 l 9885 11670 l 9885 11553 l 9885 11553 l 9855 11643 l 9825 11553 l cp
eoclip
n 9540 11430 m 9855 11430 l
 9855 11655 l gs col0 s gr gr

% arrowhead
n 9825 11553 m 9855 11643 l 9885 11553 l 9855 11523 l 9825 11553 l 
 cp gs 0.00 setgray ef gr  col0 s
% Polyline
gs  clippath
9825 12048 m 9825 12165 l 9885 12165 l 9885 12048 l 9885 12048 l 9855 12138 l 9825 12048 l cp
eoclip
n 9855 11925 m
 9855 12150 l gs col0 s gr gr

% arrowhead
n 9825 12048 m 9855 12138 l 9885 12048 l 9855 12018 l 9825 12048 l 
 cp gs 0.00 setgray ef gr  col0 s
% Polyline
gs  clippath
9375 10158 m 9375 10275 l 9435 10275 l 9435 10158 l 9435 10158 l 9405 10248 l 9375 10158 l cp
eoclip
n 9405 10080 m
 9405 10260 l gs col0 s gr gr

% arrowhead
n 9375 10158 m 9405 10248 l 9435 10158 l 9405 10128 l 9375 10158 l 
 cp gs 0.00 setgray ef gr  col0 s
% Polyline
gs  clippath
8790 10833 m 8790 10950 l 8850 10950 l 8850 10833 l 8850 10833 l 8820 10923 l 8790 10833 l cp
eoclip
n 8820 10755 m
 8820 10935 l gs col0 s gr gr

% arrowhead
n 8790 10833 m 8820 10923 l 8850 10833 l 8820 10803 l 8790 10833 l 
 cp gs 0.00 setgray ef gr  col0 s
% Polyline
 [60] 0 sd
gs  clippath
6839 5929 m 6727 5960 l 6743 6017 l 6855 5987 l 6855 5987 l 6761 5982 l 6839 5929 l cp
eoclip
n 8235 5580 m
 6750 5985 l gs col0 s gr gr
 [] 0 sd
% arrowhead
n 6839 5929 m 6761 5982 l 6855 5987 l 6876 5950 l 6839 5929 l 
 cp gs 0.00 setgray ef gr  col0 s
% Polyline
gs  clippath
9015 4128 m 9015 4245 l 9075 4245 l 9075 4128 l 9075 4128 l 9045 4218 l 9015 4128 l cp
eoclip
n 6795 3780 m 6795 3960 l 9045 3960 l
 9045 4230 l gs col0 s gr gr

% arrowhead
n 9015 4128 m 9045 4218 l 9075 4128 l 9045 4098 l 9015 4128 l 
 cp gs 0.00 setgray ef gr  col0 s
% Polyline
n 9690 3690 m 9585 3690 9585 4125 105 arcto 4 {pop} repeat
  9585 4230 10560 4230 105 arcto 4 {pop} repeat
  10665 4230 10665 3795 105 arcto 4 {pop} repeat
  10665 3690 9690 3690 105 arcto 4 {pop} repeat
 cp gs col6 1.00 shd ef gr gs col0 s gr 
% Polyline
gs  clippath
10110 4332 m 10110 4215 l 10050 4215 l 10050 4332 l 10050 4332 l 10080 4242 l 10110 4332 l cp
eoclip
n 9630 4590 m 10080 4590 l
 10080 4230 l gs col0 s gr gr

% arrowhead
n 10110 4332 m 10080 4242 l 10050 4332 l 10080 4362 l 10110 4332 l 
 cp gs 0.00 setgray ef gr  col0 s
% Polyline
gs  clippath
9015 5163 m 9015 5280 l 9075 5280 l 9075 5163 l 9075 5163 l 9045 5253 l 9015 5163 l cp
eoclip
n 9045 4995 m
 9045 5265 l gs col0 s gr gr

% arrowhead
n 9015 5163 m 9045 5253 l 9075 5163 l 9045 5133 l 9015 5163 l 
 cp gs 0.00 setgray ef gr  col0 s
% Polyline
n 8340 5265 m 8235 5265 8235 5745 105 arcto 4 {pop} repeat
  8235 5850 9795 5850 105 arcto 4 {pop} repeat
  9900 5850 9900 5370 105 arcto 4 {pop} repeat
  9900 5265 8340 5265 105 arcto 4 {pop} repeat
 cp gs col14 1.00 shd ef gr gs col0 s gr 
/Times-Roman-iso ff 105.00 scf sf
2586 525 m
gs 1 -1 sc (T) dup sw pop 2 div neg 0 rm  col0 sh gr
/Times-Roman-iso ff 105.00 scf sf
2773 637 m
gs 1 -1 sc (L) dup sw pop 2 div neg 0 rm  col0 sh gr
/Times-Roman-iso ff 105.00 scf sf
2762 428 m
gs 1 -1 sc (H) dup sw pop 2 div neg 0 rm  col0 sh gr
/Times-Roman-iso ff 105.00 scf sf
3158 306 m
gs 1 -1 sc (680) dup sw pop 2 div neg 0 rm  col0 sh gr
/Times-Roman-iso ff 90.00 scf sf
2025 531 m
gs 1 -1 sc (680) dup sw pop 2 div neg 0 rm  col0 sh gr
/Times-Roman-iso ff 135.00 scf sf
2378 405 m
gs 1 -1 sc (tp1) dup sw pop 2 div neg 0 rm  col0 sh gr
/Times-Roman-iso ff 135.00 scf sf
2835 225 m
gs 1 -1 sc (hp1) dup sw pop 2 div neg 0 rm  col0 sh gr
/Times-Roman-iso ff 90.00 scf sf
6795 531 m
gs 1 -1 sc (680) dup sw pop 2 div neg 0 rm  col0 sh gr
/Times-Roman-iso ff 105.00 scf sf
7356 525 m
gs 1 -1 sc (T) dup sw pop 2 div neg 0 rm  col0 sh gr
/Times-Roman-iso ff 105.00 scf sf
7543 637 m
gs 1 -1 sc (L) dup sw pop 2 div neg 0 rm  col0 sh gr
/Times-Roman-iso ff 105.00 scf sf
7532 428 m
gs 1 -1 sc (H) dup sw pop 2 div neg 0 rm  col0 sh gr
/Times-Roman-iso ff 105.00 scf sf
7928 756 m
gs 1 -1 sc (680) dup sw pop 2 div neg 0 rm  col0 sh gr
/Times-Roman-iso ff 135.00 scf sf
7148 405 m
gs 1 -1 sc (tp1) dup sw pop 2 div neg 0 rm  col0 sh gr
/Times-Roman-iso ff 135.00 scf sf
7560 855 m
gs 1 -1 sc (lp1) dup sw pop 2 div neg 0 rm  col0 sh gr
/Times-Roman-iso ff 105.00 scf sf
9156 2235 m
gs 1 -1 sc (T) dup sw pop 2 div neg 0 rm  col0 sh gr
/Times-Roman-iso ff 105.00 scf sf
9343 2347 m
gs 1 -1 sc (L) dup sw pop 2 div neg 0 rm  col0 sh gr
/Times-Roman-iso ff 105.00 scf sf
9332 2138 m
gs 1 -1 sc (H) dup sw pop 2 div neg 0 rm  col0 sh gr
/Times-Roman-iso ff 105.00 scf sf
9728 2466 m
gs 1 -1 sc (680) dup sw pop 2 div neg 0 rm  col0 sh gr
/Times-Roman-iso ff 90.00 scf sf
8595 2241 m
gs 1 -1 sc (470k) dup sw pop 2 div neg 0 rm  col0 sh gr
/Times-Roman-iso ff 105.00 scf sf
2667 3720 m
gs 1 -1 sc (T) dup sw pop 2 div neg 0 rm  col0 sh gr
/Times-Roman-iso ff 105.00 scf sf
2840 3832 m
gs 1 -1 sc (L) dup sw pop 2 div neg 0 rm  col0 sh gr
/Times-Roman-iso ff 105.00 scf sf
2830 3623 m
gs 1 -1 sc (H) dup sw pop 2 div neg 0 rm  col0 sh gr
/Times-Roman-iso ff 105.00 scf sf
3195 3951 m
gs 1 -1 sc (680) dup sw pop 2 div neg 0 rm  col0 sh gr
/Times-Roman-iso ff 105.00 scf sf
3486 2100 m
gs 1 -1 sc (T) dup sw pop 2 div neg 0 rm  col0 sh gr
/Times-Roman-iso ff 105.00 scf sf
3673 2212 m
gs 1 -1 sc (L) dup sw pop 2 div neg 0 rm  col0 sh gr
/Times-Roman-iso ff 105.00 scf sf
3662 2003 m
gs 1 -1 sc (H) dup sw pop 2 div neg 0 rm  col0 sh gr
/Times-Roman-iso ff 105.00 scf sf
4058 1881 m
gs 1 -1 sc (680) dup sw pop 2 div neg 0 rm  col0 sh gr
/Times-Roman-iso ff 90.00 scf sf
2925 2106 m
gs 1 -1 sc (470k) dup sw pop 2 div neg 0 rm  col0 sh gr
/Times-Roman-iso ff 135.00 scf sf
3278 1980 m
gs 1 -1 sc (tp1) dup sw pop 2 div neg 0 rm  col0 sh gr
/Times-Roman-iso ff 135.00 scf sf
3735 1800 m
gs 1 -1 sc (hp1) dup sw pop 2 div neg 0 rm  col0 sh gr
/Times-Roman-iso ff 150.00 scf sf
7695 12600 m
gs 1 -1 sc (n.uBE = tp2 - lpx) dup sw pop 2 div neg 0 rm  col0 sh gr
/Times-Roman-iso ff 150.00 scf sf
7560 12420 m
gs 1 -1 sc (n.hfe = e_hfe) dup sw pop 2 div neg 0 rm  col0 sh gr
/Times-Roman-iso ff 150.00 scf sf
7650 12780 m
gs 1 -1 sc (update_pins = 1) dup sw pop 2 div neg 0 rm  col0 sh gr
/Times-Roman-iso ff 150.00 scf sf
6345 11970 m
gs 1 -1 sc (c_hfe > n.hfe ?) dup sw pop 2 div neg 0 rm  col0 sh gr
/Times-Roman-iso ff 90.00 scf sf
5985 7191 m
gs 1 -1 sc (470k) dup sw pop 2 div neg 0 rm  col0 sh gr
/Times-Roman-iso ff 105.00 scf sf
6546 7185 m
gs 1 -1 sc (T) dup sw pop 2 div neg 0 rm  col0 sh gr
/Times-Roman-iso ff 105.00 scf sf
6733 7297 m
gs 1 -1 sc (L) dup sw pop 2 div neg 0 rm  col0 sh gr
/Times-Roman-iso ff 105.00 scf sf
6722 7088 m
gs 1 -1 sc (H) dup sw pop 2 div neg 0 rm  col0 sh gr
/Times-Roman-iso ff 105.00 scf sf
7137 6966 m
gs 1 -1 sc (680) dup sw pop 2 div neg 0 rm  col0 sh gr
/Times-Roman-iso ff 135.00 scf sf
6750 6885 m
gs 1 -1 sc (hp2) dup sw pop 2 div neg 0 rm  col0 sh gr
/Times-Roman-iso ff 135.00 scf sf
6345 7065 m
gs 1 -1 sc (tp2) dup sw pop 2 div neg 0 rm  col0 sh gr
/Times-Roman-iso ff 135.00 scf sf
6750 7470 m
gs 1 -1 sc (lpx) dup sw pop 2 div neg 0 rm  col0 sh gr
/Times-Roman-iso ff 150.00 scf sf
3285 12510 m
gs 1 -1 sc (savePresult) dup sw pop 2 div neg 0 rm  col0 sh gr
/Times-Roman-iso ff 135.00 scf sf
4410 11970 m
gs 1 -1 sc (p.ice0 = lp_otr/680) dup sw pop 2 div neg 0 rm  col0 sh gr
/Times-Roman-iso ff 135.00 scf sf
4410 12105 m
gs 1 -1 sc (p.ices = vCEs / 680) dup sw pop 2 div neg 0 rm  col0 sh gr
/Times-Roman-iso ff 150.00 scf sf
6570 2430 m
gs 1 -1 sc (tpx = VCC - tp1) dup sw pop 2 div neg 0 rm  col0 sh gr
/Times-Roman-iso ff 150.00 scf sf
6660 2655 m
gs 1 -1 sc (c_hfe = \(lp1 - tpx\) / tpx) dup sw pop 2 div neg 0 rm  col0 sh gr
/Times-Roman-iso ff 150.00 scf sf
9045 2925 m
gs 1 -1 sc (c_hfe=lp1*470k/680/\(VCC-tp1\)) dup sw pop 2 div neg 0 rm  col0 sh gr
/Times-Roman-iso ff 105.00 scf sf
4680 5661 m
gs 1 -1 sc (680) dup sw pop 2 div neg 0 rm  col0 sh gr
/Times-Roman-iso ff 105.00 scf sf
4152 5430 m
gs 1 -1 sc (T) dup sw pop 2 div neg 0 rm  col0 sh gr
/Times-Roman-iso ff 105.00 scf sf
4325 5542 m
gs 1 -1 sc (L) dup sw pop 2 div neg 0 rm  col0 sh gr
/Times-Roman-iso ff 105.00 scf sf
4315 5333 m
gs 1 -1 sc (H) dup sw pop 2 div neg 0 rm  col0 sh gr
/Times-Roman-iso ff 105.00 scf sf
3645 5436 m
gs 1 -1 sc (680) dup sw pop 2 div neg 0 rm  col0 sh gr
/Times-Roman-iso ff 105.00 scf sf
1845 7146 m
gs 1 -1 sc (680) dup sw pop 2 div neg 0 rm  col0 sh gr
/Times-Roman-iso ff 105.00 scf sf
1317 6915 m
gs 1 -1 sc (T) dup sw pop 2 div neg 0 rm  col0 sh gr
/Times-Roman-iso ff 105.00 scf sf
1490 7027 m
gs 1 -1 sc (L) dup sw pop 2 div neg 0 rm  col0 sh gr
/Times-Roman-iso ff 105.00 scf sf
1480 6818 m
gs 1 -1 sc (H) dup sw pop 2 div neg 0 rm  col0 sh gr
/Times-Roman-iso ff 105.00 scf sf
821 6921 m
gs 1 -1 sc (470k) dup sw pop 2 div neg 0 rm  col0 sh gr
/Times-Roman-iso ff 150.00 scf sf
990 12780 m
gs 1 -1 sc (Part = FET) dup sw pop 2 div neg 0 rm  col0 sh gr
/Times-Roman-iso ff 150.00 scf sf
990 12960 m
gs 1 -1 sc (Typ = P_E_MOS) dup sw pop 2 div neg 0 rm  col0 sh gr
/Times-Roman-iso ff 105.00 scf sf
4860 14346 m
gs 1 -1 sc (680) dup sw pop 2 div neg 0 rm  col0 sh gr
/Times-Roman-iso ff 105.00 scf sf
4332 14115 m
gs 1 -1 sc (T) dup sw pop 2 div neg 0 rm  col0 sh gr
/Times-Roman-iso ff 105.00 scf sf
4505 14227 m
gs 1 -1 sc (L) dup sw pop 2 div neg 0 rm  col0 sh gr
/Times-Roman-iso ff 105.00 scf sf
4495 14018 m
gs 1 -1 sc (H) dup sw pop 2 div neg 0 rm  col0 sh gr
/Times-Roman-iso ff 105.00 scf sf
3836 14121 m
gs 1 -1 sc (470k) dup sw pop 2 div neg 0 rm  col0 sh gr
/Times-Roman-iso ff 120.00 scf sf
4140 13995 m
gs 1 -1 sc (tpx) dup sw pop 2 div neg 0 rm  col0 sh gr
/Times-Roman-iso ff 120.00 scf sf
4500 14445 m
gs 1 -1 sc (DInp) dup sw pop neg 0 rm  col0 sh gr
/Times-Roman-iso ff 105.00 scf sf
4332 13260 m
gs 1 -1 sc (T) dup sw pop 2 div neg 0 rm  col0 sh gr
/Times-Roman-iso ff 105.00 scf sf
4505 13372 m
gs 1 -1 sc (L) dup sw pop 2 div neg 0 rm  col0 sh gr
/Times-Roman-iso ff 105.00 scf sf
4495 13163 m
gs 1 -1 sc (H) dup sw pop 2 div neg 0 rm  col0 sh gr
/Times-Roman-iso ff 105.00 scf sf
3836 13267 m
gs 1 -1 sc (680) dup sw pop 2 div neg 0 rm  col0 sh gr
/Times-Roman-iso ff 105.00 scf sf
4862 13493 m
gs 1 -1 sc (680) dup sw pop 2 div neg 0 rm  col0 sh gr
/Times-Roman-iso ff 150.00 scf sf
6390 14940 m
gs 1 -1 sc (saveNresult) dup sw pop 2 div neg 0 rm  col0 sh gr
/Times-Roman-iso ff 135.00 scf sf
7695 14400 m
gs 1 -1 sc (p.ices = \(VCC-vCEs\) / 680) dup sw pop 2 div neg 0 rm  col0 sh gr
/Times-Roman-iso ff 135.00 scf sf
7560 14220 m
gs 1 -1 sc (p.ice0 = lp_otr / 680) dup sw pop 2 div neg 0 rm  col0 sh gr
/Times-Roman-iso ff 105.00 scf sf
9687 13575 m
gs 1 -1 sc (T) dup sw pop 2 div neg 0 rm  col0 sh gr
/Times-Roman-iso ff 105.00 scf sf
9860 13687 m
gs 1 -1 sc (L) dup sw pop 2 div neg 0 rm  col0 sh gr
/Times-Roman-iso ff 105.00 scf sf
9850 13478 m
gs 1 -1 sc (H) dup sw pop 2 div neg 0 rm  col0 sh gr
/Times-Roman-iso ff 105.00 scf sf
9191 13581 m
gs 1 -1 sc (470k) dup sw pop 2 div neg 0 rm  col0 sh gr
/Times-Roman-iso ff 105.00 scf sf
10215 13356 m
gs 1 -1 sc (680) dup sw pop 2 div neg 0 rm  col0 sh gr
/Times-Roman-iso ff 120.00 scf sf
9495 13455 m
gs 1 -1 sc (tpx) dup sw pop 2 div neg 0 rm  col0 sh gr
/Times-Roman-iso ff 120.00 scf sf
9855 13275 m
gs 1 -1 sc (DInp) dup sw pop neg 0 rm  col0 sh gr
/Times-Roman-iso ff 105.00 scf sf
9687 12585 m
gs 1 -1 sc (T) dup sw pop 2 div neg 0 rm  col0 sh gr
/Times-Roman-iso ff 105.00 scf sf
9860 12697 m
gs 1 -1 sc (L) dup sw pop 2 div neg 0 rm  col0 sh gr
/Times-Roman-iso ff 105.00 scf sf
9850 12488 m
gs 1 -1 sc (H) dup sw pop 2 div neg 0 rm  col0 sh gr
/Times-Roman-iso ff 105.00 scf sf
9191 12591 m
gs 1 -1 sc (470k) dup sw pop 2 div neg 0 rm  col0 sh gr
/Times-Roman-iso ff 105.00 scf sf
10217 12366 m
gs 1 -1 sc (680) dup sw pop 2 div neg 0 rm  col0 sh gr
/Times-Roman-iso ff 150.00 scf sf
9990 11835 m
gs 1 -1 sc (Typ = N_E_IGBT) dup sw pop 2 div neg 0 rm  col0 sh gr
/Times-Roman-iso ff 150.00 scf sf
9450 9765 m
gs 1 -1 sc (rhp > 3400 ?) dup sw pop 2 div neg 0 rm  col0 sh gr
/Times-Roman-iso ff 150.00 scf sf
9450 9585 m
gs 1 -1 sc (lp_otr < 97 ?) dup sw pop 2 div neg 0 rm  col0 sh gr
/Times-Roman-iso ff 150.00 scf sf
9405 10485 m
gs 1 -1 sc (Part = FET) dup sw pop 2 div neg 0 rm  col0 sh gr
/Times-Roman-iso ff 150.00 scf sf
9405 10665 m
gs 1 -1 sc (Typ = N_E_MOS) dup sw pop 2 div neg 0 rm  col0 sh gr
/Times-Roman-iso ff 180.00 scf sf
6525 6210 m
gs 1 -1 sc (Ntype) dup sw pop 2 div neg 0 rm  col0 sh gr
/Times-Roman-iso ff 105.00 scf sf
6636 3405 m
gs 1 -1 sc (T) dup sw pop 2 div neg 0 rm  col0 sh gr
/Times-Roman-iso ff 105.00 scf sf
6823 3517 m
gs 1 -1 sc (L) dup sw pop 2 div neg 0 rm  col0 sh gr
/Times-Roman-iso ff 105.00 scf sf
6812 3308 m
gs 1 -1 sc (H) dup sw pop 2 div neg 0 rm  col0 sh gr
/Times-Roman-iso ff 105.00 scf sf
7208 3186 m
gs 1 -1 sc (680) dup sw pop 2 div neg 0 rm  col0 sh gr
/Times-Roman-iso ff 90.00 scf sf
6075 3411 m
gs 1 -1 sc (680) dup sw pop 2 div neg 0 rm  col0 sh gr
/Times-Roman-iso ff 135.00 scf sf
6885 3105 m
gs 1 -1 sc (hp1) dup sw pop 2 div neg 0 rm  col0 sh gr
/Times-Roman-iso ff 135.00 scf sf
6885 3735 m
gs 1 -1 sc (lp2) dup sw pop 2 div neg 0 rm  col0 sh gr
/Times-Roman-iso ff 135.00 scf sf
6435 3285 m
gs 1 -1 sc (tp2) dup sw pop 2 div neg 0 rm  col0 sh gr
/Times-Roman-iso ff 135.00 scf sf
8948 2115 m
gs 1 -1 sc (tp1) dup sw pop 2 div neg 0 rm  col0 sh gr
/Times-Roman-iso ff 135.00 scf sf
9360 2565 m
gs 1 -1 sc (lp1) dup sw pop 2 div neg 0 rm  col0 sh gr
/Times-Roman-iso ff 150.00 scf sf
7695 1530 m
gs 1 -1 sc (Y) dup sw pop 2 div neg 0 rm  col0 sh gr
/Times-Roman-iso ff 150.00 scf sf
2610 6165 m
gs 1 -1 sc (lp1 > 3422 ?) dup sw pop 2 div neg 0 rm  col0 sh gr
/Times-Roman-iso ff 150.00 scf sf
3195 9180 m
gs 1 -1 sc (p.cnt > 0 or) dup sw pop 2 div neg 0 rm  col0 sh gr
/Times-Roman-iso ff 150.00 scf sf
3195 9360 m
gs 1 -1 sc (e_hfe > p.hfe ?) dup sw pop 2 div neg 0 rm  col0 sh gr
/Times-Roman-iso ff 150.00 scf sf
2295 9405 m
gs 1 -1 sc (Y) dup sw pop 2 div neg 0 rm  col0 sh gr
/Times-Roman-iso ff 150.00 scf sf
945 10440 m
gs 1 -1 sc (c_hfe > p.hfe ?) dup sw pop 2 div neg 0 rm  col0 sh gr
/Times-Roman-iso ff 150.00 scf sf
3330 9900 m
gs 1 -1 sc (N) dup sw pop 2 div neg 0 rm  col0 sh gr
/Times-Roman-iso ff 150.00 scf sf
1890 6300 m
gs 1 -1 sc (Y) dup sw pop 2 div neg 0 rm  col0 sh gr
/Times-Roman-iso ff 150.00 scf sf
3195 6300 m
gs 1 -1 sc (N) dup sw pop 2 div neg 0 rm  col0 sh gr
/Times-Roman-iso ff 150.00 scf sf
1710 10620 m
gs 1 -1 sc (Y) dup sw pop 2 div neg 0 rm  col0 sh gr
/Times-Roman-iso ff 150.00 scf sf
810 11025 m
gs 1 -1 sc (N) dup sw pop 2 div neg 0 rm  col0 sh gr
/Times-Roman-iso ff 150.00 scf sf
2970 10710 m
gs 1 -1 sc (update_pins = 1) dup sw pop 2 div neg 0 rm  col0 sh gr
/Times-Roman-iso ff 150.00 scf sf
3015 10350 m
gs 1 -1 sc (p.hfe = c_hfe) dup sw pop 2 div neg 0 rm  col0 sh gr
/Times-Roman-iso ff 150.00 scf sf
3060 10530 m
gs 1 -1 sc (p.uBE = hp1 - tp1) dup sw pop 2 div neg 0 rm  col0 sh gr
/Times-Roman-iso ff 150.00 scf sf
1935 1485 m
gs 1 -1 sc (tp1 < 10 ?) dup sw pop 2 div neg 0 rm  col0 sh gr
/Times-Roman-iso ff 150.00 scf sf
2610 1395 m
gs 1 -1 sc (Y) dup sw pop 2 div neg 0 rm  col0 sh gr
/Times-Roman-iso ff 150.00 scf sf
1800 1980 m
gs 1 -1 sc (N) dup sw pop 2 div neg 0 rm  col0 sh gr
/Times-Roman-iso ff 150.00 scf sf
3690 2790 m
gs 1 -1 sc (c_hfe=\(VCC-hp1\)*470k/680/tp1) dup sw pop 2 div neg 0 rm  col0 sh gr
/Times-Roman-iso ff 150.00 scf sf
1395 2790 m
gs 1 -1 sc (c_hfe=\(VCC-hp1-tp1\)/tp1) dup sw pop 2 div neg 0 rm  col0 sh gr
/Times-Roman-iso ff 150.00 scf sf
6795 1620 m
gs 1 -1 sc (\(VCC-tp1\) < 10 ?) dup sw pop 2 div neg 0 rm  col0 sh gr
/Times-Roman-iso ff 150.00 scf sf
6345 10080 m
gs 1 -1 sc (n.cnt = 0 ? or) dup sw pop 2 div neg 0 rm  col0 sh gr
/Times-Roman-iso ff 150.00 scf sf
6345 10260 m
gs 1 -1 sc (e_hfe > n.hfe ?) dup sw pop 2 div neg 0 rm  col0 sh gr
/Times-Roman-iso ff 150.00 scf sf
7200 10035 m
gs 1 -1 sc (Y) dup sw pop 2 div neg 0 rm  col0 sh gr
/Times-Roman-iso ff 150.00 scf sf
6165 10755 m
gs 1 -1 sc (N) dup sw pop 2 div neg 0 rm  col0 sh gr
/Times-Roman-iso ff 150.00 scf sf
7560 10575 m
gs 1 -1 sc (n.hfe = e_hfe) dup sw pop 2 div neg 0 rm  col0 sh gr
/Times-Roman-iso ff 150.00 scf sf
1845 8145 m
gs 1 -1 sc (Y) dup sw pop 2 div neg 0 rm  col0 sh gr
/Times-Roman-iso ff 150.00 scf sf
1215 8010 m
gs 1 -1 sc (tp2 > 2000 ?) dup sw pop 2 div neg 0 rm  col0 sh gr
/Times-Roman-iso ff 150.00 scf sf
540 8145 m
gs 1 -1 sc (N) dup sw pop 2 div neg 0 rm  col0 sh gr
/Times-Roman-iso ff 150.00 scf sf
3240 7785 m
gs 1 -1 sc (Part = TRANS) dup sw pop 2 div neg 0 rm  col0 sh gr
/Times-Roman-iso ff 150.00 scf sf
3150 7965 m
gs 1 -1 sc (Typ = PNP) dup sw pop 2 div neg 0 rm  col0 sh gr
/Times-Roman-iso ff 135.00 scf sf
3240 8145 m
gs 1 -1 sc (e_hfe = \(lp1-lp_otr\)*470k/680/tp2) dup sw pop 2 div neg 0 rm  col0 sh gr
/Times-Roman-iso ff 150.00 scf sf
3105 8370 m
gs 1 -1 sc (update_pins = 0) dup sw pop 2 div neg 0 rm  col0 sh gr
/Times-Roman-iso ff 180.00 scf sf
3555 1125 m
gs 1 -1 sc (P-Channel) col0 sh gr
/Times-Roman-iso ff 180.00 scf sf
8325 1125 m
gs 1 -1 sc (N-Channel) col0 sh gr
/Times-Roman-iso ff 150.00 scf sf
6705 9270 m
gs 1 -1 sc (update_pins = 0) dup sw pop 2 div neg 0 rm  col0 sh gr
/Times-Roman-iso ff 150.00 scf sf
7695 10935 m
gs 1 -1 sc (update_pins = 1) dup sw pop 2 div neg 0 rm  col0 sh gr
/Times-Roman-iso ff 150.00 scf sf
8910 7425 m
gs 1 -1 sc (rtp = VCC - tp2) dup sw pop 2 div neg 0 rm  col0 sh gr
/Times-Roman-iso ff 150.00 scf sf
6570 8910 m
gs 1 -1 sc (Typ = NPN) dup sw pop 2 div neg 0 rm  col0 sh gr
/Times-Roman-iso ff 150.00 scf sf
6615 8730 m
gs 1 -1 sc (Part = TRANS) dup sw pop 2 div neg 0 rm  col0 sh gr
/Times-Roman-iso ff 150.00 scf sf
8865 8325 m
gs 1 -1 sc (rtp > 2557 ?) dup sw pop 2 div neg 0 rm  col0 sh gr
/Times-Roman-iso ff 150.00 scf sf
9000 8820 m
gs 1 -1 sc (N) dup sw pop 2 div neg 0 rm  col0 sh gr
/Times-Roman-iso ff 150.00 scf sf
8100 8190 m
gs 1 -1 sc (Y) dup sw pop 2 div neg 0 rm  col0 sh gr
/Times-Roman-iso ff 150.00 scf sf
765 450 m
gs 1 -1 sc (Part2) dup sw pop 2 div neg 0 rm  col0 sh gr
/Times-Roman-iso ff 150.00 scf sf
7155 11835 m
gs 1 -1 sc (Y) dup sw pop 2 div neg 0 rm  col0 sh gr
/Times-Roman-iso ff 150.00 scf sf
6165 12555 m
gs 1 -1 sc (N) dup sw pop 2 div neg 0 rm  col0 sh gr
/Times-Roman-iso ff 150.00 scf sf
1035 4770 m
gs 1 -1 sc (checkDiode) dup sw pop 2 div neg 0 rm  col0 sh gr
/Times-Roman-iso ff 150.00 scf sf
1845 4905 m
gs 1 -1 sc (N) dup sw pop 2 div neg 0 rm  col0 sh gr
/Times-Roman-iso ff 150.00 scf sf
3330 4905 m
gs 1 -1 sc (Y) dup sw pop 2 div neg 0 rm  col0 sh gr
/Times-Roman-iso ff 150.00 scf sf
2610 4770 m
gs 1 -1 sc (lp_otr < 1977 ?) dup sw pop 2 div neg 0 rm  col0 sh gr
/Times-Roman-iso ff 135.00 scf sf
3015 11655 m
gs 1 -1 sc (update_pins = 1 ?) dup sw pop 2 div neg 0 rm  col0 sh gr
/Times-Roman-iso ff 150.00 scf sf
3780 11565 m
gs 1 -1 sc (Y) dup sw pop 2 div neg 0 rm  col0 sh gr
/Times-Roman-iso ff 150.00 scf sf
2880 12195 m
gs 1 -1 sc (N) dup sw pop 2 div neg 0 rm  col0 sh gr
/Times-Roman-iso ff 135.00 scf sf
6345 13770 m
gs 1 -1 sc (update_pins = 1 ?) dup sw pop 2 div neg 0 rm  col0 sh gr
/Times-Roman-iso ff 150.00 scf sf
7110 13680 m
gs 1 -1 sc (Y) dup sw pop 2 div neg 0 rm  col0 sh gr
/Times-Roman-iso ff 150.00 scf sf
6210 14355 m
gs 1 -1 sc (N) dup sw pop 2 div neg 0 rm  col0 sh gr
/Times-Roman-iso ff 150.00 scf sf
6660 2205 m
gs 1 -1 sc (N) dup sw pop 2 div neg 0 rm  col0 sh gr
/Times-Roman-iso ff 120.00 scf sf
4365 5760 m
gs 1 -1 sc (lp1) dup sw pop 2 div neg 0 rm  col0 sh gr
/Times-Roman-iso ff 120.00 scf sf
1530 7245 m
gs 1 -1 sc (lp1) dup sw pop 2 div neg 0 rm  col0 sh gr
/Times-Roman-iso ff 120.00 scf sf
1125 6795 m
gs 1 -1 sc (tp2) dup sw pop 2 div neg 0 rm  col0 sh gr
/Times-Roman-iso ff 120.00 scf sf
1530 6615 m
gs 1 -1 sc (hp2) dup sw pop 2 div neg 0 rm  col0 sh gr
/Times-Roman-iso ff 150.00 scf sf
1080 9450 m
gs 1 -1 sc (update_pins = 1) dup sw pop 2 div neg 0 rm  col0 sh gr
/Times-Roman-iso ff 150.00 scf sf
1125 9090 m
gs 1 -1 sc (p.hfe = e_hfe) dup sw pop 2 div neg 0 rm  col0 sh gr
/Times-Roman-iso ff 150.00 scf sf
1125 9270 m
gs 1 -1 sc (p.uBE = hp2 - tp2) dup sw pop 2 div neg 0 rm  col0 sh gr
/Times-Roman-iso ff 150.00 scf sf
1080 11880 m
gs 1 -1 sc (lp_otr < 97 ?) dup sw pop 2 div neg 0 rm  col0 sh gr
/Times-Roman-iso ff 150.00 scf sf
1080 12060 m
gs 1 -1 sc (lp1 > 2000 ?) dup sw pop 2 div neg 0 rm  col0 sh gr
/Times-Roman-iso ff 150.00 scf sf
2340 14895 m
gs 1 -1 sc (savePresult) dup sw pop 2 div neg 0 rm  col0 sh gr
/Times-Roman-iso ff 120.00 scf sf
4320 14895 m
gs 1 -1 sc (gthvoltage = VCC - tpx) dup sw pop 2 div neg 0 rm  col0 sh gr
/Times-Roman-iso ff 150.00 scf sf
1035 13770 m
gs 1 -1 sc (hp2 > lp1+250 ?) dup sw pop 2 div neg 0 rm  col0 sh gr
/Times-Roman-iso ff 150.00 scf sf
1845 12105 m
gs 1 -1 sc (N) dup sw pop 2 div neg 0 rm  col0 sh gr
/Times-Roman-iso ff 150.00 scf sf
900 12510 m
gs 1 -1 sc (Y) dup sw pop 2 div neg 0 rm  col0 sh gr
/Times-Roman-iso ff 150.00 scf sf
1845 13635 m
gs 1 -1 sc (N) dup sw pop 2 div neg 0 rm  col0 sh gr
/Times-Roman-iso ff 150.00 scf sf
945 14310 m
gs 1 -1 sc (Y) dup sw pop 2 div neg 0 rm  col0 sh gr
/Times-Roman-iso ff 150.00 scf sf
2295 14355 m
gs 1 -1 sc (Typ = P_E_IGBT) dup sw pop 2 div neg 0 rm  col0 sh gr
/Times-Roman-iso ff 150.00 scf sf
8910 7605 m
gs 1 -1 sc (rhp = VCC - hp2) dup sw pop 2 div neg 0 rm  col0 sh gr
/Times-Roman-iso ff 150.00 scf sf
6885 9090 m
gs 1 -1 sc (e_hfe = \(rhp-lp_otr\)*470k/680/rtp) dup sw pop 2 div neg 0 rm  col0 sh gr
/Times-Roman-iso ff 150.00 scf sf
7875 10755 m
gs 1 -1 sc (n.uBE = tp2 - lpx) dup sw pop 2 div neg 0 rm  col0 sh gr
/Times-Roman-iso ff 150.00 scf sf
9675 14400 m
gs 1 -1 sc (n.gthvoltage = tpx) dup sw pop 2 div neg 0 rm  col0 sh gr
/Times-Roman-iso ff 150.00 scf sf
8820 11520 m
gs 1 -1 sc (hp2 >lp2+250 ?) dup sw pop 2 div neg 0 rm  col0 sh gr
/Times-Roman-iso ff 150.00 scf sf
9270 10170 m
gs 1 -1 sc (Y) dup sw pop 2 div neg 0 rm  col0 sh gr
/Times-Roman-iso ff 150.00 scf sf
10170 9765 m
gs 1 -1 sc (N) dup sw pop 2 div neg 0 rm  col0 sh gr
/Times-Roman-iso ff 150.00 scf sf
9045 4635 m
gs 1 -1 sc (hp1 < 1600 ?) dup sw pop 2 div neg 0 rm  col0 sh gr
/Times-Roman-iso ff 150.00 scf sf
10125 4005 m
gs 1 -1 sc (checkDiode) dup sw pop 2 div neg 0 rm  col0 sh gr
/Times-Roman-iso ff 150.00 scf sf
9720 4500 m
gs 1 -1 sc (N) dup sw pop 2 div neg 0 rm  col0 sh gr
/Times-Roman-iso ff 150.00 scf sf
8865 5085 m
gs 1 -1 sc (Y) dup sw pop 2 div neg 0 rm  col0 sh gr
/Times-Roman-iso ff 180.00 scf sf
9045 5625 m
gs 1 -1 sc (ThyristorCheck) dup sw pop 2 div neg 0 rm  col0 sh gr
% here ends figure;
% 
% here starts figure with depth 0
% Polyline
0 slj
0 slc
7.500 slw
n 3011 270 m
 2914 270 l gs col0 s gr 
% Polyline
n 3304 225 m 3304 315 l 3011 315 l 3011 225 l
 cp gs col0 s gr 
% Polyline
n 3401 270 m
 3304 270 l gs col0 s gr 
% Ellipse
n 2378 495 22 20 0 360 DrawEllipse gs 0.00 setgray ef gr gs col0 s gr

% Polyline
n 1890 495 m
 1800 495 l gs col0 s gr 
% Polyline
n 2160 450 m 2160 540 l 1890 540 l 1890 450 l
 cp gs col0 s gr 
% Polyline
n 2250 495 m
 2160 495 l gs col0 s gr 
% Ellipse
n 2929 270 22 20 0 360 DrawEllipse gs 0.00 setgray ef gr gs col0 s gr

% Ellipse
n 7148 495 22 20 0 360 DrawEllipse gs 0.00 setgray ef gr gs col0 s gr

% Polyline
n 6660 495 m
 6570 495 l gs col0 s gr 
% Polyline
n 6930 450 m 6930 540 l 6660 540 l 6660 450 l
 cp gs col0 s gr 
% Polyline
n 7020 495 m
 6930 495 l gs col0 s gr 
% Ellipse
n 7692 720 22 20 0 360 DrawEllipse gs 0.00 setgray ef gr gs col0 s gr

% Polyline
n 7781 720 m
 7684 720 l gs col0 s gr 
% Polyline
n 8074 675 m 8074 765 l 7781 765 l 7781 675 l
 cp gs col0 s gr 
% Polyline
n 8171 720 m
 8074 720 l gs col0 s gr 
% Ellipse
n 8948 2205 22 20 0 360 DrawEllipse gs 0.00 setgray ef gr gs col0 s gr

% Ellipse
n 9492 2430 22 20 0 360 DrawEllipse gs 0.00 setgray ef gr gs col0 s gr

% Polyline
n 9581 2430 m
 9484 2430 l gs col0 s gr 
% Polyline
n 9874 2385 m 9874 2475 l 9581 2475 l 9581 2385 l
 cp gs col0 s gr 
% Polyline
n 9971 2430 m
 9874 2430 l gs col0 s gr 
% Polyline
n 8460 2205 m
 8370 2205 l gs col0 s gr 
% Polyline
n 8730 2160 m 8730 2250 l 8460 2250 l 8460 2160 l
 cp gs col0 s gr 
% Polyline
n 8820 2205 m
 8730 2205 l gs col0 s gr 
% Polyline
n 3060 3915 m
 2970 3915 l gs col0 s gr 
% Polyline
n 3330 3870 m 3330 3960 l 3060 3960 l 3060 3870 l
 cp gs col0 s gr 
% Polyline
n 3420 3915 m
 3330 3915 l gs col0 s gr 
% Polyline
n 3911 1845 m
 3814 1845 l gs col0 s gr 
% Polyline
n 4204 1800 m 4204 1890 l 3911 1890 l 3911 1800 l
 cp gs col0 s gr 
% Polyline
n 4301 1845 m
 4204 1845 l gs col0 s gr 
% Ellipse
n 3278 2070 22 20 0 360 DrawEllipse gs 0.00 setgray ef gr gs col0 s gr

% Ellipse
n 3829 1845 22 20 0 360 DrawEllipse gs 0.00 setgray ef gr gs col0 s gr

% Polyline
n 2790 2070 m
 2700 2070 l gs col0 s gr 
% Polyline
n 3060 2025 m 3060 2115 l 2790 2115 l 2790 2025 l
 cp gs col0 s gr 
% Polyline
n 3150 2070 m
 3060 2070 l gs col0 s gr 
% Polyline
n 5850 7155 m
 5760 7155 l gs col0 s gr 
% Polyline
n 6120 7110 m 6120 7200 l 5850 7200 l 5850 7110 l
 cp gs col0 s gr 
% Polyline
n 6210 7155 m
 6120 7155 l gs col0 s gr 
% Polyline
n 6990 6930 m
 6893 6930 l gs col0 s gr 
% Polyline
n 7283 6885 m 7283 6975 l 6990 6975 l 6990 6885 l
 cp gs col0 s gr 
% Polyline
n 7380 6930 m
 7283 6930 l gs col0 s gr 
% Ellipse
n 6882 6930 22 20 0 360 DrawEllipse gs 0.00 setgray ef gr gs col0 s gr

% Ellipse
n 6342 7155 22 20 0 360 DrawEllipse gs 0.00 setgray ef gr gs col0 s gr

% Ellipse
n 6885 7380 20 20 0 360 DrawEllipse gs 0.00 setgray ef gr gs col0 s gr

% Polyline
n 4545 5625 m
 4455 5625 l gs col0 s gr 
% Polyline
n 4815 5580 m 4815 5670 l 4545 5670 l 4545 5580 l
 cp gs col0 s gr 
% Polyline
n 4905 5625 m
 4815 5625 l gs col0 s gr 
% Ellipse
n 4455 5625 20 20 0 360 DrawEllipse gs 0.00 setgray ef gr gs col0 s gr

% Polyline
n 3510 5400 m
 3420 5400 l gs col0 s gr 
% Polyline
n 3780 5355 m 3780 5445 l 3510 5445 l 3510 5355 l
 cp gs col0 s gr 
% Polyline
n 3870 5400 m
 3780 5400 l gs col0 s gr 
% Polyline
n 1710 7110 m
 1620 7110 l gs col0 s gr 
% Polyline
n 1980 7065 m 1980 7155 l 1710 7155 l 1710 7065 l
 cp gs col0 s gr 
% Polyline
n 2070 7110 m
 1980 7110 l gs col0 s gr 
% Ellipse
n 1620 7110 20 20 0 360 DrawEllipse gs 0.00 setgray ef gr gs col0 s gr

% Polyline
n 675 6885 m
 578 6885 l gs col0 s gr 
% Polyline
n 968 6840 m 968 6930 l 675 6930 l 675 6840 l
 cp gs col0 s gr 
% Polyline
n 1065 6885 m
 968 6885 l gs col0 s gr 
% Ellipse
n 1129 6885 22 20 0 360 DrawEllipse gs 0.00 setgray ef gr gs col0 s gr

% Ellipse
n 1620 6660 20 20 0 360 DrawEllipse gs 0.00 setgray ef gr gs col0 s gr

% Polyline
n 4725 14310 m
 4635 14310 l gs col0 s gr 
% Polyline
n 4995 14265 m 4995 14355 l 4725 14355 l 4725 14265 l
 cp gs col0 s gr 
% Polyline
n 5085 14310 m
 4995 14310 l gs col0 s gr 
% Ellipse
n 4635 14310 20 20 0 360 DrawEllipse gs 0.00 setgray ef gr gs col0 s gr

% Polyline
n 3690 14085 m
 3593 14085 l gs col0 s gr 
% Polyline
n 3983 14040 m 3983 14130 l 3690 14130 l 3690 14040 l
 cp gs col0 s gr 
% Polyline
n 4080 14085 m
 3983 14085 l gs col0 s gr 
% Ellipse
n 4144 14085 22 20 0 360 DrawEllipse gs 0.00 setgray ef gr gs col0 s gr

% Polyline
n 3690 13231 m
 3593 13231 l gs col0 s gr 
% Polyline
n 3983 13185 m 3983 13275 l 3690 13275 l 3690 13185 l
 cp gs col0 s gr 
% Polyline
n 4080 13231 m
 3983 13231 l gs col0 s gr 
% Polyline
n 4727 13457 m
 4637 13457 l gs col0 s gr 
% Polyline
n 4997 13412 m 4997 13502 l 4727 13502 l 4727 13412 l
 cp gs col0 s gr 
% Polyline
n 5087 13457 m
 4997 13457 l gs col0 s gr 
% Polyline
n 9045 13545 m
 8948 13545 l gs col0 s gr 
% Polyline
n 9338 13500 m 9338 13590 l 9045 13590 l 9045 13500 l
 cp gs col0 s gr 
% Polyline
n 9435 13545 m
 9338 13545 l gs col0 s gr 
% Ellipse
n 9499 13545 22 20 0 360 DrawEllipse gs 0.00 setgray ef gr gs col0 s gr

% Ellipse
n 9991 13320 20 20 0 360 DrawEllipse gs 0.00 setgray ef gr gs col0 s gr

% Polyline
n 10080 13320 m
 9990 13320 l gs col0 s gr 
% Polyline
n 10350 13275 m 10350 13365 l 10080 13365 l 10080 13275 l
 cp gs col0 s gr 
% Polyline
n 10440 13320 m
 10350 13320 l gs col0 s gr 
% Polyline
n 9045 12555 m
 8948 12555 l gs col0 s gr 
% Polyline
n 9338 12510 m 9338 12600 l 9045 12600 l 9045 12510 l
 cp gs col0 s gr 
% Polyline
n 9435 12555 m
 9338 12555 l gs col0 s gr 
% Polyline
n 10082 12330 m
 9992 12330 l gs col0 s gr 
% Polyline
n 10352 12285 m 10352 12375 l 10082 12375 l 10082 12285 l
 cp gs col0 s gr 
% Polyline
n 10442 12330 m
 10352 12330 l gs col0 s gr 
% Polyline
n 7061 3150 m
 6964 3150 l gs col0 s gr 
% Polyline
n 7354 3105 m 7354 3195 l 7061 3195 l 7061 3105 l
 cp gs col0 s gr 
% Polyline
n 7451 3150 m
 7354 3150 l gs col0 s gr 
% Ellipse
n 6979 3150 22 20 0 360 DrawEllipse gs 0.00 setgray ef gr gs col0 s gr

% Polyline
n 5940 3375 m
 5850 3375 l gs col0 s gr 
% Polyline
n 6210 3330 m 6210 3420 l 5940 3420 l 5940 3330 l
 cp gs col0 s gr 
% Polyline
n 6300 3375 m
 6210 3375 l gs col0 s gr 
% Ellipse
n 6435 3375 20 20 0 360 DrawEllipse gs 0.00 setgray ef gr gs col0 s gr

% Ellipse
n 6975 3600 20 20 0 360 DrawEllipse gs 0.00 setgray ef gr gs col0 s gr

% here ends figure;
pagefooter
showpage
%%Trailer
%EOF

%%EndDocument
 @endspecial Black Black eop end
%%Trailer

userdict /end-hook known{end-hook}if
%%EOF
