%!PS-Adobe-2.0
%%Creator: dvips(k) 5.993 Copyright 2013 Radical Eye Software
%%Title: job-001.dvi
%%CreationDate: Mon Apr  6 22:22:57 2015
%%Pages: 1
%%PageOrder: Ascend
%%BoundingBox: 155 2619 630 3230
%%EndComments
%DVIPSWebPage: (www.radicaleye.com)
%DVIPSCommandLine: dvips job-001.dvi -o job-001.dvips.ps
%DVIPSParameters: dpi=600
%DVIPSSource:  TeX output 2015.04.06:2222
%%BeginProcSet: tex.pro 0 0
%!
/TeXDict 300 dict def TeXDict begin/N{def}def/B{bind def}N/S{exch}N/X{S
N}B/A{dup}B/TR{translate}N/isls false N/vsize 11 72 mul N/hsize 8.5 72
mul N/landplus90{false}def/@rigin{isls{[0 landplus90{1 -1}{-1 1}ifelse 0
0 0]concat}if 72 Resolution div 72 VResolution div neg scale isls{
landplus90{VResolution 72 div vsize mul 0 exch}{Resolution -72 div hsize
mul 0}ifelse TR}if Resolution VResolution vsize -72 div 1 add mul TR[
matrix currentmatrix{A A round sub abs 0.00001 lt{round}if}forall round
exch round exch]setmatrix}N/@landscape{/isls true N}B/@manualfeed{
statusdict/manualfeed true put}B/@copies{/#copies X}B/FMat[1 0 0 -1 0 0]
N/FBB[0 0 0 0]N/nn 0 N/IEn 0 N/ctr 0 N/df-tail{/nn 8 dict N nn begin
/FontType 3 N/FontMatrix fntrx N/FontBBox FBB N string/base X array
/BitMaps X/BuildChar{CharBuilder}N/Encoding IEn N end A{/foo setfont}2
array copy cvx N load 0 nn put/ctr 0 N[}B/sf 0 N/df{/sf 1 N/fntrx FMat N
df-tail}B/dfs{div/sf X/fntrx[sf 0 0 sf neg 0 0]N df-tail}B/E{pop nn A
definefont setfont}B/Cw{Cd A length 5 sub get}B/Ch{Cd A length 4 sub get
}B/Cx{128 Cd A length 3 sub get sub}B/Cy{Cd A length 2 sub get 127 sub}
B/Cdx{Cd A length 1 sub get}B/Ci{Cd A type/stringtype ne{ctr get/ctr ctr
1 add N}if}B/CharBuilder{save 3 1 roll S A/base get 2 index get S
/BitMaps get S get/Cd X pop/ctr 0 N Cdx 0 Cx Cy Ch sub Cx Cw add Cy
setcachedevice Cw Ch true[1 0 0 -1 -.1 Cx sub Cy .1 sub]{Ci}imagemask
restore}B/D{/cc X A type/stringtype ne{]}if nn/base get cc ctr put nn
/BitMaps get S ctr S sf 1 ne{A A length 1 sub A 2 index S get sf div put
}if put/ctr ctr 1 add N}B/I{cc 1 add D}B/bop{userdict/bop-hook known{
bop-hook}if/SI save N @rigin 0 0 moveto/V matrix currentmatrix A 1 get A
mul exch 0 get A mul add .99 lt{/QV}{/RV}ifelse load def pop pop}N/eop{
SI restore userdict/eop-hook known{eop-hook}if showpage}N/@start{
userdict/start-hook known{start-hook}if pop/VResolution X/Resolution X
1000 div/DVImag X/IEn 256 array N 2 string 0 1 255{IEn S A 360 add 36 4
index cvrs cvn put}for pop 65781.76 div/vsize X 65781.76 div/hsize X}N
/dir 0 def/dyy{/dir 0 def}B/dyt{/dir 1 def}B/dty{/dir 2 def}B/dtt{/dir 3
def}B/p{dir 2 eq{-90 rotate show 90 rotate}{dir 3 eq{-90 rotate show 90
rotate}{show}ifelse}ifelse}N/RMat[1 0 0 -1 0 0]N/BDot 260 string N/Rx 0
N/Ry 0 N/V{}B/RV/v{/Ry X/Rx X V}B statusdict begin/product where{pop
false[(Display)(NeXT)(LaserWriter 16/600)]{A length product length le{A
length product exch 0 exch getinterval eq{pop true exit}if}{pop}ifelse}
forall}{false}ifelse end{{gsave TR -.1 .1 TR 1 1 scale Rx Ry false RMat{
BDot}imagemask grestore}}{{gsave TR -.1 .1 TR Rx Ry scale 1 1 false RMat
{BDot}imagemask grestore}}ifelse B/QV{gsave newpath transform round exch
round exch itransform moveto Rx 0 rlineto 0 Ry neg rlineto Rx neg 0
rlineto fill grestore}B/a{moveto}B/delta 0 N/tail{A/delta X 0 rmoveto}B
/M{S p delta add tail}B/b{S p tail}B/c{-4 M}B/d{-3 M}B/e{-2 M}B/f{-1 M}
B/g{0 M}B/h{1 M}B/i{2 M}B/j{3 M}B/k{4 M}B/w{0 rmoveto}B/l{p -4 w}B/m{p
-3 w}B/n{p -2 w}B/o{p -1 w}B/q{p 1 w}B/r{p 2 w}B/s{p 3 w}B/t{p 4 w}B/x{
0 S rmoveto}B/y{3 2 roll p a}B/bos{/SS save N}B/eos{SS restore}B end

%%EndProcSet
%%BeginProcSet: special.pro 0 0
%!
TeXDict begin/SDict 200 dict N SDict begin/@SpecialDefaults{/hs 612 N
/vs 792 N/ho 0 N/vo 0 N/hsc 1 N/vsc 1 N/ang 0 N/CLIP 0 N/rwiSeen false N
/rhiSeen false N/letter{}N/note{}N/a4{}N/legal{}N}B/@scaleunit 100 N
/@hscale{@scaleunit div/hsc X}B/@vscale{@scaleunit div/vsc X}B/@hsize{
/hs X/CLIP 1 N}B/@vsize{/vs X/CLIP 1 N}B/@clip{/CLIP 2 N}B/@hoffset{/ho
X}B/@voffset{/vo X}B/@angle{/ang X}B/@rwi{10 div/rwi X/rwiSeen true N}B
/@rhi{10 div/rhi X/rhiSeen true N}B/@llx{/llx X}B/@lly{/lly X}B/@urx{
/urx X}B/@ury{/ury X}B/magscale true def end/@MacSetUp{userdict/md known
{userdict/md get type/dicttype eq{userdict begin md length 10 add md
maxlength ge{/md md dup length 20 add dict copy def}if end md begin
/letter{}N/note{}N/legal{}N/od{txpose 1 0 mtx defaultmatrix dtransform S
atan/pa X newpath clippath mark{transform{itransform moveto}}{transform{
itransform lineto}}{6 -2 roll transform 6 -2 roll transform 6 -2 roll
transform{itransform 6 2 roll itransform 6 2 roll itransform 6 2 roll
curveto}}{{closepath}}pathforall newpath counttomark array astore/gc xdf
pop ct 39 0 put 10 fz 0 fs 2 F/|______Courier fnt invertflag{PaintBlack}
if}N/txpose{pxs pys scale ppr aload pop por{noflips{pop S neg S TR pop 1
-1 scale}if xflip yflip and{pop S neg S TR 180 rotate 1 -1 scale ppr 3
get ppr 1 get neg sub neg ppr 2 get ppr 0 get neg sub neg TR}if xflip
yflip not and{pop S neg S TR pop 180 rotate ppr 3 get ppr 1 get neg sub
neg 0 TR}if yflip xflip not and{ppr 1 get neg ppr 0 get neg TR}if}{
noflips{TR pop pop 270 rotate 1 -1 scale}if xflip yflip and{TR pop pop
90 rotate 1 -1 scale ppr 3 get ppr 1 get neg sub neg ppr 2 get ppr 0 get
neg sub neg TR}if xflip yflip not and{TR pop pop 90 rotate ppr 3 get ppr
1 get neg sub neg 0 TR}if yflip xflip not and{TR pop pop 270 rotate ppr
2 get ppr 0 get neg sub neg 0 S TR}if}ifelse scaleby96{ppr aload pop 4
-1 roll add 2 div 3 1 roll add 2 div 2 copy TR .96 dup scale neg S neg S
TR}if}N/cp{pop pop showpage pm restore}N end}if}if}N/normalscale{
Resolution 72 div VResolution 72 div neg scale magscale{DVImag dup scale
}if 0 setgray}N/psfts{S 65781.76 div N}N/startTexFig{/psf$SavedState
save N userdict maxlength dict begin/magscale true def normalscale
currentpoint TR/psf$ury psfts/psf$urx psfts/psf$lly psfts/psf$llx psfts
/psf$y psfts/psf$x psfts currentpoint/psf$cy X/psf$cx X/psf$sx psf$x
psf$urx psf$llx sub div N/psf$sy psf$y psf$ury psf$lly sub div N psf$sx
psf$sy scale psf$cx psf$sx div psf$llx sub psf$cy psf$sy div psf$ury sub
TR/showpage{}N/erasepage{}N/setpagedevice{pop}N/copypage{}N/p 3 def
@MacSetUp}N/doclip{psf$llx psf$lly psf$urx psf$ury currentpoint 6 2 roll
newpath 4 copy 4 2 roll moveto 6 -1 roll S lineto S lineto S lineto
closepath clip newpath moveto}N/endTexFig{end psf$SavedState restore}N
/@beginspecial{SDict begin/SpecialSave save N gsave normalscale
currentpoint TR @SpecialDefaults count/ocount X/dcount countdictstack N}
N/@setspecial{CLIP 1 eq{newpath 0 0 moveto hs 0 rlineto 0 vs rlineto hs
neg 0 rlineto closepath clip}if ho vo TR hsc vsc scale ang rotate
rwiSeen{rwi urx llx sub div rhiSeen{rhi ury lly sub div}{dup}ifelse
scale llx neg lly neg TR}{rhiSeen{rhi ury lly sub div dup scale llx neg
lly neg TR}if}ifelse CLIP 2 eq{newpath llx lly moveto urx lly lineto urx
ury lineto llx ury lineto closepath clip}if/showpage{}N/erasepage{}N
/setpagedevice{pop}N/copypage{}N newpath}N/@endspecial{count ocount sub{
pop}repeat countdictstack dcount sub{end}repeat grestore SpecialSave
restore end}N/@defspecial{SDict begin}N/@fedspecial{end}B/li{lineto}B
/rl{rlineto}B/rc{rcurveto}B/np{/SaveX currentpoint/SaveY X N 1
setlinecap newpath}N/st{stroke SaveX SaveY moveto}N/fil{fill SaveX SaveY
moveto}N/ellipse{/endangle X/startangle X/yrad X/xrad X/savematrix
matrix currentmatrix N TR xrad yrad scale 0 0 1 startangle endangle arc
savematrix setmatrix}N end

%%EndProcSet
%%BeginProcSet: color.pro 0 0
%!
TeXDict begin/setcmykcolor where{pop}{/setcmykcolor{dup 10 eq{pop
setrgbcolor}{1 sub 4 1 roll 3{3 index add neg dup 0 lt{pop 0}if 3 1 roll
}repeat setrgbcolor pop}ifelse}B}ifelse/TeXcolorcmyk{setcmykcolor}def
/TeXcolorrgb{setrgbcolor}def/TeXcolorgrey{setgray}def/TeXcolorgray{
setgray}def/TeXcolorhsb{sethsbcolor}def/currentcmykcolor where{pop}{
/currentcmykcolor{currentrgbcolor 10}B}ifelse/DC{exch dup userdict exch
known{pop pop}{X}ifelse}B/GreenYellow{0.15 0 0.69 0 setcmykcolor}DC
/Yellow{0 0 1 0 setcmykcolor}DC/Goldenrod{0 0.10 0.84 0 setcmykcolor}DC
/Dandelion{0 0.29 0.84 0 setcmykcolor}DC/Apricot{0 0.32 0.52 0
setcmykcolor}DC/Peach{0 0.50 0.70 0 setcmykcolor}DC/Melon{0 0.46 0.50 0
setcmykcolor}DC/YellowOrange{0 0.42 1 0 setcmykcolor}DC/Orange{0 0.61
0.87 0 setcmykcolor}DC/BurntOrange{0 0.51 1 0 setcmykcolor}DC
/Bittersweet{0 0.75 1 0.24 setcmykcolor}DC/RedOrange{0 0.77 0.87 0
setcmykcolor}DC/Mahogany{0 0.85 0.87 0.35 setcmykcolor}DC/Maroon{0 0.87
0.68 0.32 setcmykcolor}DC/BrickRed{0 0.89 0.94 0.28 setcmykcolor}DC/Red{
0 1 1 0 setcmykcolor}DC/OrangeRed{0 1 0.50 0 setcmykcolor}DC/RubineRed{
0 1 0.13 0 setcmykcolor}DC/WildStrawberry{0 0.96 0.39 0 setcmykcolor}DC
/Salmon{0 0.53 0.38 0 setcmykcolor}DC/CarnationPink{0 0.63 0 0
setcmykcolor}DC/Magenta{0 1 0 0 setcmykcolor}DC/VioletRed{0 0.81 0 0
setcmykcolor}DC/Rhodamine{0 0.82 0 0 setcmykcolor}DC/Mulberry{0.34 0.90
0 0.02 setcmykcolor}DC/RedViolet{0.07 0.90 0 0.34 setcmykcolor}DC
/Fuchsia{0.47 0.91 0 0.08 setcmykcolor}DC/Lavender{0 0.48 0 0
setcmykcolor}DC/Thistle{0.12 0.59 0 0 setcmykcolor}DC/Orchid{0.32 0.64 0
0 setcmykcolor}DC/DarkOrchid{0.40 0.80 0.20 0 setcmykcolor}DC/Purple{
0.45 0.86 0 0 setcmykcolor}DC/Plum{0.50 1 0 0 setcmykcolor}DC/Violet{
0.79 0.88 0 0 setcmykcolor}DC/RoyalPurple{0.75 0.90 0 0 setcmykcolor}DC
/BlueViolet{0.86 0.91 0 0.04 setcmykcolor}DC/Periwinkle{0.57 0.55 0 0
setcmykcolor}DC/CadetBlue{0.62 0.57 0.23 0 setcmykcolor}DC
/CornflowerBlue{0.65 0.13 0 0 setcmykcolor}DC/MidnightBlue{0.98 0.13 0
0.43 setcmykcolor}DC/NavyBlue{0.94 0.54 0 0 setcmykcolor}DC/RoyalBlue{1
0.50 0 0 setcmykcolor}DC/Blue{1 1 0 0 setcmykcolor}DC/Cerulean{0.94 0.11
0 0 setcmykcolor}DC/Cyan{1 0 0 0 setcmykcolor}DC/ProcessBlue{0.96 0 0 0
setcmykcolor}DC/SkyBlue{0.62 0 0.12 0 setcmykcolor}DC/Turquoise{0.85 0
0.20 0 setcmykcolor}DC/TealBlue{0.86 0 0.34 0.02 setcmykcolor}DC
/Aquamarine{0.82 0 0.30 0 setcmykcolor}DC/BlueGreen{0.85 0 0.33 0
setcmykcolor}DC/Emerald{1 0 0.50 0 setcmykcolor}DC/JungleGreen{0.99 0
0.52 0 setcmykcolor}DC/SeaGreen{0.69 0 0.50 0 setcmykcolor}DC/Green{1 0
1 0 setcmykcolor}DC/ForestGreen{0.91 0 0.88 0.12 setcmykcolor}DC
/PineGreen{0.92 0 0.59 0.25 setcmykcolor}DC/LimeGreen{0.50 0 1 0
setcmykcolor}DC/YellowGreen{0.44 0 0.74 0 setcmykcolor}DC/SpringGreen{
0.26 0 0.76 0 setcmykcolor}DC/OliveGreen{0.64 0 0.95 0.40 setcmykcolor}
DC/RawSienna{0 0.72 1 0.45 setcmykcolor}DC/Sepia{0 0.83 1 0.70
setcmykcolor}DC/Brown{0 0.81 1 0.60 setcmykcolor}DC/Tan{0.14 0.42 0.56 0
setcmykcolor}DC/Gray{0 0 0 0.50 setcmykcolor}DC/Black{0 0 0 1
setcmykcolor}DC/White{0 0 0 0 setcmykcolor}DC end

%%EndProcSet
TeXDict begin 156819571 221710428 1000 600 600 (job-001.dvi)
@start end
%%EndProlog
%%BeginSetup
%%Feature: *Resolution 600dpi
TeXDict begin
 end
%%EndSetup
%%Page: 1 1
TeXDict begin 1 0 bop Black Black 706 5652 a @beginspecial
0 @llx 0 @lly 473 @urx 609 @ury 4730 @rwi @setspecial
%%BeginDocument: job-001.fig2dev.ps
%!PS-Adobe-3.0 EPSF-3.0
%%Title: job-001.fig
%%Creator: fig2dev Version 3.2 Patchlevel 5e
%%CreationDate: Mon Apr  6 22:22:56 2015
%%BoundingBox: 155 2619 630 3230
%Magnification: 0.8400
%%EndComments
%%BeginProlog
/$F2psDict 200 dict def
$F2psDict begin
$F2psDict /mtrx matrix put
/col-1 {0 setgray} bind def
/col0 {0.000 0.000 0.000 srgb} bind def
/col1 {0.000 0.000 1.000 srgb} bind def
/col2 {0.000 1.000 0.000 srgb} bind def
/col3 {0.000 1.000 1.000 srgb} bind def
/col4 {1.000 0.000 0.000 srgb} bind def
/col5 {1.000 0.000 1.000 srgb} bind def
/col6 {1.000 1.000 0.000 srgb} bind def
/col7 {1.000 1.000 1.000 srgb} bind def
/col8 {0.000 0.000 0.560 srgb} bind def
/col9 {0.000 0.000 0.690 srgb} bind def
/col10 {0.000 0.000 0.820 srgb} bind def
/col11 {0.530 0.810 1.000 srgb} bind def
/col12 {0.000 0.560 0.000 srgb} bind def
/col13 {0.000 0.690 0.000 srgb} bind def
/col14 {0.000 0.820 0.000 srgb} bind def
/col15 {0.000 0.560 0.560 srgb} bind def
/col16 {0.000 0.690 0.690 srgb} bind def
/col17 {0.000 0.820 0.820 srgb} bind def
/col18 {0.560 0.000 0.000 srgb} bind def
/col19 {0.690 0.000 0.000 srgb} bind def
/col20 {0.820 0.000 0.000 srgb} bind def
/col21 {0.560 0.000 0.560 srgb} bind def
/col22 {0.690 0.000 0.690 srgb} bind def
/col23 {0.820 0.000 0.820 srgb} bind def
/col24 {0.500 0.190 0.000 srgb} bind def
/col25 {0.630 0.250 0.000 srgb} bind def
/col26 {0.750 0.380 0.000 srgb} bind def
/col27 {1.000 0.500 0.500 srgb} bind def
/col28 {1.000 0.630 0.630 srgb} bind def
/col29 {1.000 0.750 0.750 srgb} bind def
/col30 {1.000 0.880 0.880 srgb} bind def
/col31 {1.000 0.840 0.000 srgb} bind def
/col32 {0.761 0.761 0.761 srgb} bind def
/col33 {0.431 0.431 0.431 srgb} bind def
/col34 {0.267 0.267 0.267 srgb} bind def
/col35 {0.557 0.561 0.557 srgb} bind def
/col36 {0.443 0.443 0.443 srgb} bind def
/col37 {0.682 0.682 0.682 srgb} bind def
/col38 {0.200 0.200 0.200 srgb} bind def
/col39 {0.580 0.576 0.584 srgb} bind def
/col40 {0.455 0.439 0.459 srgb} bind def
/col41 {0.333 0.333 0.333 srgb} bind def
/col42 {0.702 0.702 0.702 srgb} bind def
/col43 {0.765 0.765 0.765 srgb} bind def
/col44 {0.427 0.427 0.427 srgb} bind def
/col45 {0.271 0.271 0.271 srgb} bind def
/col46 {0.557 0.557 0.557 srgb} bind def
/col47 {0.906 0.906 0.906 srgb} bind def
/col48 {0.443 0.459 0.443 srgb} bind def
/col49 {0.851 0.851 0.851 srgb} bind def
/col50 {0.337 0.620 0.690 srgb} bind def
/col51 {0.255 0.271 0.255 srgb} bind def
/col52 {0.753 0.753 0.753 srgb} bind def

end

/cp {closepath} bind def
/ef {eofill} bind def
/gr {grestore} bind def
/gs {gsave} bind def
/sa {save} bind def
/rs {restore} bind def
/l {lineto} bind def
/m {moveto} bind def
/rm {rmoveto} bind def
/n {newpath} bind def
/s {stroke} bind def
/sh {show} bind def
/slc {setlinecap} bind def
/slj {setlinejoin} bind def
/slw {setlinewidth} bind def
/srgb {setrgbcolor} bind def
/rot {rotate} bind def
/sc {scale} bind def
/sd {setdash} bind def
/ff {findfont} bind def
/sf {setfont} bind def
/scf {scalefont} bind def
/sw {stringwidth} bind def
/tr {translate} bind def
/tnt {dup dup currentrgbcolor
  4 -2 roll dup 1 exch sub 3 -1 roll mul add
  4 -2 roll dup 1 exch sub 3 -1 roll mul add
  4 -2 roll dup 1 exch sub 3 -1 roll mul add srgb}
  bind def
/shd {dup dup currentrgbcolor 4 -2 roll mul 4 -2 roll mul
  4 -2 roll mul srgb} bind def
/reencdict 12 dict def /ReEncode { reencdict begin
/newcodesandnames exch def /newfontname exch def /basefontname exch def
/basefontdict basefontname findfont def /newfont basefontdict maxlength dict def
basefontdict { exch dup /FID ne { dup /Encoding eq
{ exch dup length array copy newfont 3 1 roll put }
{ exch newfont 3 1 roll put } ifelse } { pop pop } ifelse } forall
newfont /FontName newfontname put newcodesandnames aload pop
128 1 255 { newfont /Encoding get exch /.notdef put } for
newcodesandnames length 2 idiv { newfont /Encoding get 3 1 roll put } repeat
newfontname newfont definefont pop end } def
/isovec [
8#055 /minus 8#200 /grave 8#201 /acute 8#202 /circumflex 8#203 /tilde
8#204 /macron 8#205 /breve 8#206 /dotaccent 8#207 /dieresis
8#210 /ring 8#211 /cedilla 8#212 /hungarumlaut 8#213 /ogonek 8#214 /caron
8#220 /dotlessi 8#230 /oe 8#231 /OE
8#240 /space 8#241 /exclamdown 8#242 /cent 8#243 /sterling
8#244 /currency 8#245 /yen 8#246 /brokenbar 8#247 /section 8#250 /dieresis
8#251 /copyright 8#252 /ordfeminine 8#253 /guillemotleft 8#254 /logicalnot
8#255 /hyphen 8#256 /registered 8#257 /macron 8#260 /degree 8#261 /plusminus
8#262 /twosuperior 8#263 /threesuperior 8#264 /acute 8#265 /mu 8#266 /paragraph
8#267 /periodcentered 8#270 /cedilla 8#271 /onesuperior 8#272 /ordmasculine
8#273 /guillemotright 8#274 /onequarter 8#275 /onehalf
8#276 /threequarters 8#277 /questiondown 8#300 /Agrave 8#301 /Aacute
8#302 /Acircumflex 8#303 /Atilde 8#304 /Adieresis 8#305 /Aring
8#306 /AE 8#307 /Ccedilla 8#310 /Egrave 8#311 /Eacute
8#312 /Ecircumflex 8#313 /Edieresis 8#314 /Igrave 8#315 /Iacute
8#316 /Icircumflex 8#317 /Idieresis 8#320 /Eth 8#321 /Ntilde 8#322 /Ograve
8#323 /Oacute 8#324 /Ocircumflex 8#325 /Otilde 8#326 /Odieresis 8#327 /multiply
8#330 /Oslash 8#331 /Ugrave 8#332 /Uacute 8#333 /Ucircumflex
8#334 /Udieresis 8#335 /Yacute 8#336 /Thorn 8#337 /germandbls 8#340 /agrave
8#341 /aacute 8#342 /acircumflex 8#343 /atilde 8#344 /adieresis 8#345 /aring
8#346 /ae 8#347 /ccedilla 8#350 /egrave 8#351 /eacute
8#352 /ecircumflex 8#353 /edieresis 8#354 /igrave 8#355 /iacute
8#356 /icircumflex 8#357 /idieresis 8#360 /eth 8#361 /ntilde 8#362 /ograve
8#363 /oacute 8#364 /ocircumflex 8#365 /otilde 8#366 /odieresis 8#367 /divide
8#370 /oslash 8#371 /ugrave 8#372 /uacute 8#373 /ucircumflex
8#374 /udieresis 8#375 /yacute 8#376 /thorn 8#377 /ydieresis] def
/Times-Roman /Times-Roman-iso isovec ReEncode
 /DrawEllipse {
	/endangle exch def
	/startangle exch def
	/yrad exch def
	/xrad exch def
	/y exch def
	/x exch def
	/savematrix mtrx currentmatrix def
	x y tr xrad yrad sc 0 0 1 startangle endangle arc
	closepath
	savematrix setmatrix
	} def

/$F2psBegin {$F2psDict begin /$F2psEnteredState save def} def
/$F2psEnd {$F2psEnteredState restore end} def

/pageheader {
save
newpath 0 609 moveto 0 0 lineto 473 0 lineto 473 609 lineto closepath clip newpath
-168.4 617.3 translate
1 -1 scale
$F2psBegin
10 setmiterlimit
0 slj 0 slc
 0.05291 0.05291 sc
} bind def
/pagefooter {
$F2psEnd
restore
} bind def
%%EndProlog
pageheader
%
% Fig objects follow
%
% 
% here starts figure with depth 80
% Polyline
0 slj
0 slc
7.500 slw
n 8725 6310 m 9583 6882 l 8725 7453 l 7868 6882 l
 cp gs col7 1.00 shd ef gr gs col-1 s gr 
% Polyline
n 5840 9007 m 6478 9403 l 5840 9799 l 5203 9403 l
 cp gs col7 1.00 shd ef gr gs col-1 s gr 
% Polyline
n 8765 8647 m 9403 9043 l 8765 9439 l 8128 9043 l
 cp gs col7 1.00 shd ef gr gs col-1 s gr 
% Polyline
n 4044 3022 m 4858 3462 l 4044 3902 l 3231 3462 l
 cp gs col7 1.00 shd ef gr gs col-1 s gr 
% Polyline
n 5845 6670 m 6703 7242 l 5845 7813 l 4988 7242 l
 cp gs col7 1.00 shd ef gr gs col-1 s gr 
% Polyline
n 8820 1260 m 9405 1620 l 8820 1980 l 8235 1620 l
 cp gs col7 1.00 shd ef gr gs col-1 s gr 
% Polyline
n 10790 1132 m 11428 1528 l 10790 1924 l 10153 1528 l
 cp gs col7 1.00 shd ef gr gs col-1 s gr 
% Polyline
n 10880 4912 m 11518 5308 l 10880 5704 l 10243 5308 l
 cp gs col7 1.00 shd ef gr gs col-1 s gr 
% Polyline
n 4041 4012 m 4905 4500 l 4050 4950 l 3195 4500 l
 cp gs col7 1.00 shd ef gr gs col-1 s gr 
% here ends figure;
% 
% here starts figure with depth 60
% Ellipse
7.500 slw
n 9634 4500 69 63 0 360 DrawEllipse gs col0 s gr

% Ellipse
n 9634 4950 69 63 0 360 DrawEllipse gs col0 s gr

% Ellipse
n 7885 4723 69 63 0 360 DrawEllipse gs col0 s gr

% Ellipse
n 9635 5490 68 63 0 360 DrawEllipse gs col0 s gr

% Ellipse
n 9635 5940 68 63 0 360 DrawEllipse gs col0 s gr

% Ellipse
n 7880 5715 68 63 0 360 DrawEllipse gs col0 s gr

% Ellipse
n 9635 7830 68 63 0 360 DrawEllipse gs col0 s gr

% Ellipse
n 9635 8280 68 63 0 360 DrawEllipse gs col0 s gr

% Ellipse
n 7880 8055 68 63 0 360 DrawEllipse gs col0 s gr

% Ellipse
n 6755 8190 68 63 0 360 DrawEllipse gs col0 s gr

% Ellipse
n 6755 8640 68 63 0 360 DrawEllipse gs col0 s gr

% Ellipse
n 5005 8413 68 63 0 360 DrawEllipse gs col0 s gr

% Ellipse
n 6768 5805 63 63 0 360 DrawEllipse gs col0 s gr

% Ellipse
n 6768 6255 63 63 0 360 DrawEllipse gs col0 s gr

% Ellipse
n 5153 6028 63 63 0 360 DrawEllipse gs col0 s gr

% Ellipse
n 6768 4860 63 63 0 360 DrawEllipse gs col0 s gr

% Ellipse
n 6768 5310 63 63 0 360 DrawEllipse gs col0 s gr

% Ellipse
n 5148 5085 63 63 0 360 DrawEllipse gs col0 s gr

% Ellipse
n 6183 360 63 63 0 360 DrawEllipse gs col0 s gr

% Ellipse
n 6183 810 63 63 0 360 DrawEllipse gs col0 s gr

% Ellipse
n 4707 567 63 63 0 360 DrawEllipse gs col0 s gr

% Ellipse
n 7623 810 63 63 0 360 DrawEllipse gs col0 s gr

% Ellipse
n 7623 342 63 63 0 360 DrawEllipse gs col0 s gr

% Ellipse
n 9648 360 63 63 0 360 DrawEllipse gs col0 s gr

% Ellipse
n 9648 810 63 63 0 360 DrawEllipse gs col0 s gr

% Ellipse
n 8163 585 63 63 0 360 DrawEllipse gs col0 s gr

% Ellipse
n 7803 1440 63 63 0 360 DrawEllipse gs col0 s gr

% Ellipse
n 7803 1890 63 63 0 360 DrawEllipse gs col0 s gr

% Ellipse
n 6318 1665 63 63 0 360 DrawEllipse gs col0 s gr

% Ellipse
n 5733 1890 63 63 0 360 DrawEllipse gs col0 s gr

% Ellipse
n 5733 1422 63 63 0 360 DrawEllipse gs col0 s gr

% here ends figure;
% 
% here starts figure with depth 50
% Polyline
0 slj
0 slc
7.500 slw
n 9594 4500 m
 9678 4500 l gs col0 s gr 
% Polyline
n 9634 4462 m
 9634 4538 l gs col0 s gr 
% Polyline
n 9598 4950 m
 9677 4950 l gs col0 s gr 
% Ellipse
n 8883 4725 196 180 0 360 DrawEllipse gs col0 s gr

% Polyline
n 8989 4582 m
 9083 4496 l gs col0 s gr 
% Polyline
n 8994 4871 m
 9085 4956 l gs col0 s gr 
% Polyline
n 8689 4725 m
 8591 4725 l gs col0 s gr 
% Polyline
n 7843 4723 m
 7929 4723 l gs col0 s gr 
% Polyline
n 7885 4685 m
 7885 4761 l gs col0 s gr 
% Polyline
n 9416 5130 m 9424 5130 l gs col0 s gr
% Polyline
n 8591 4725 m
 8446 4725 l gs col0 s gr 
% Polyline
n 9079 4950 m
 9567 4950 l gs col0 s gr 
% Polyline
n 7650 4320 m 9810 4320 l 9810 5130 l 7650 5130 l
 cp gs col0 s gr 
% Polyline
n 9593 5490 m
 9678 5490 l gs col0 s gr 
% Polyline
n 9635 5452 m
 9635 5528 l gs col0 s gr 
% Polyline
n 9598 5940 m
 9677 5940 l gs col0 s gr 
% Polyline
n 7843 5715 m
 7922 5715 l gs col0 s gr 
% Ellipse
n 8884 5715 195 180 0 360 DrawEllipse gs col0 s gr

% Polyline
n 8990 5572 m
 9083 5486 l gs col0 s gr 
% Polyline
n 8993 5861 m
 9085 5946 l gs col0 s gr 
% Polyline
n 8689 5715 m
 8591 5715 l gs col0 s gr 
% Polyline
n 9416 6120 m 9424 6120 l gs col0 s gr
% Polyline
n 9079 5940 m
 9566 5940 l gs col0 s gr 
% Polyline
n 8591 5715 m
 8445 5715 l gs col0 s gr 
% Polyline
n 7650 5310 m 9810 5310 l 9810 6120 l 7650 6120 l
 cp gs col0 s gr 
% Polyline
n 9593 7830 m
 9678 7830 l gs col0 s gr 
% Polyline
n 9635 7792 m
 9635 7868 l gs col0 s gr 
% Polyline
n 9598 8280 m
 9677 8280 l gs col0 s gr 
% Polyline
n 7843 8055 m
 7922 8055 l gs col0 s gr 
% Ellipse
n 8884 8055 195 180 0 360 DrawEllipse gs col0 s gr

% Polyline
n 8990 7912 m
 9083 7826 l gs col0 s gr 
% Polyline
n 8993 8201 m
 9085 8286 l gs col0 s gr 
% Polyline
n 8689 8055 m
 8591 8055 l gs col0 s gr 
% Polyline
n 4410 9810 m 5490 9810 l 5490 10260 l 4410 10260 l
 cp gs col0 s gr 
% Polyline
n 6120 9810 m 7200 9810 l 7200 10260 l 6120 10260 l
 cp gs col0 s gr 
% Polyline
n 6713 8190 m
 6798 8190 l gs col0 s gr 
% Polyline
n 6755 8152 m
 6755 8228 l gs col0 s gr 
% Polyline
n 6718 8640 m
 6797 8640 l gs col0 s gr 
% Ellipse
n 6004 8415 195 180 0 360 DrawEllipse gs col0 s gr

% Polyline
n 6110 8272 m
 6203 8186 l gs col0 s gr 
% Polyline
n 6113 8561 m
 6205 8646 l gs col0 s gr 
% Polyline
n 5809 8415 m
 5711 8415 l gs col0 s gr 
% Polyline
n 4964 8413 m
 5048 8413 l gs col0 s gr 
% Polyline
n 5005 8375 m
 5005 8451 l gs col0 s gr 
% Polyline
n 6536 8820 m 6544 8820 l gs col0 s gr
% Polyline
n 5711 8415 m
 5565 8415 l gs col0 s gr 
% Polyline
n 6199 8640 m
 6686 8640 l gs col0 s gr 
% Polyline
n 4860 8010 m 6930 8010 l 6930 8820 l 4860 8820 l
 cp gs col0 s gr 
% Polyline
n 6730 5805 m
 6808 5805 l gs col0 s gr 
% Polyline
n 6768 5767 m
 6768 5843 l gs col0 s gr 
% Polyline
n 6734 6255 m
 6807 6255 l gs col0 s gr 
% Ellipse
n 6075 6030 180 180 0 360 DrawEllipse gs col0 s gr

% Polyline
n 6173 5887 m
 6259 5801 l gs col0 s gr 
% Polyline
n 6176 6176 m
 6261 6261 l gs col0 s gr 
% Polyline
n 5895 6030 m
 5806 6030 l gs col0 s gr 
% Polyline
n 5115 6028 m
 5193 6028 l gs col0 s gr 
% Polyline
n 5153 5990 m
 5153 6066 l gs col0 s gr 
% Polyline
n 6566 6435 m 6574 6435 l gs col0 s gr
% Polyline
n 6255 5805 m
 6705 5805 l gs col0 s gr 
% Polyline
n 5806 6030 m
 5670 6030 l gs col0 s gr 
% Polyline
n 6730 4860 m
 6808 4860 l gs col0 s gr 
% Polyline
n 6768 4822 m
 6768 4898 l gs col0 s gr 
% Polyline
n 6734 5310 m
 6807 5310 l gs col0 s gr 
% Polyline
n 5114 5085 m
 5187 5085 l gs col0 s gr 
% Ellipse
n 6075 5085 180 180 0 360 DrawEllipse gs col0 s gr

% Polyline
n 6173 4942 m
 6259 4856 l gs col0 s gr 
% Polyline
n 6176 5231 m
 6261 5316 l gs col0 s gr 
% Polyline
n 5895 5085 m
 5806 5085 l gs col0 s gr 
% Polyline
n 6566 5490 m 6574 5490 l gs col0 s gr
% Polyline
n 6255 4860 m
 6705 4860 l gs col0 s gr 
% Polyline
n 5806 5085 m
 5670 5085 l gs col0 s gr 
% Polyline
n 4860 4680 m 6930 4680 l 6930 5490 l 4860 5490 l
 cp gs col0 s gr 
% Polyline
n 7380 9540 m 8460 9540 l 8460 9990 l 7380 9990 l
 cp gs col0 s gr 
% Polyline
n 9090 9540 m 10170 9540 l 10170 9990 l 9090 9990 l
 cp gs col0 s gr 
% Polyline
n 3660 11160 m 3555 11160 3555 11460 105 arcto 4 {pop} repeat
  3555 11565 4440 11565 105 arcto 4 {pop} repeat
  4545 11565 4545 11265 105 arcto 4 {pop} repeat
  4545 11160 3660 11160 105 arcto 4 {pop} repeat
 cp gs col11 1.00 shd ef gr gs col0 s gr 
% Polyline
n 6145 360 m
 6223 360 l gs col0 s gr 
% Polyline
n 6183 322 m
 6183 398 l gs col0 s gr 
% Polyline
n 6149 810 m
 6222 810 l gs col0 s gr 
% Ellipse
n 5490 585 180 180 0 360 DrawEllipse gs col0 s gr

% Polyline
n 5588 442 m
 5674 356 l gs col0 s gr 
% Polyline
n 5591 731 m
 5676 816 l gs col0 s gr 
% Polyline
n 5310 585 m
 5220 585 l gs col0 s gr 
% Polyline
n 4669 567 m
 4747 567 l gs col0 s gr 
% Polyline
n 4707 529 m
 4707 605 l gs col0 s gr 
% Polyline
n 5216 180 m 5224 180 l gs col0 s gr
% Polyline
n 5981 990 m 5989 990 l gs col0 s gr
% Polyline
n 5670 360 m
 6120 360 l gs col0 s gr 
% Polyline
n 4590 180 m 6300 180 l 6300 990 l 4590 990 l
 cp gs col0 s gr 
% Ellipse
n 6930 585 180 180 0 360 DrawEllipse gs col0 s gr

% Polyline
n 7028 442 m
 7114 356 l gs col0 s gr 
% Polyline
n 7031 731 m
 7116 816 l gs col0 s gr 
% Polyline
n 6750 585 m
 6660 585 l gs col0 s gr 
% Polyline
n 7589 810 m
 7662 810 l gs col0 s gr 
% Polyline
n 7585 342 m
 7663 342 l gs col0 s gr 
% Polyline
n 7623 304 m
 7623 380 l gs col0 s gr 
% Polyline
n 7110 360 m
 7560 360 l gs col0 s gr 
% Polyline
n 6615 180 m 7740 180 l 7740 990 l 6615 990 l
 cp gs col0 s gr 
% Polyline
n 9610 360 m
 9688 360 l gs col0 s gr 
% Polyline
n 9648 322 m
 9648 398 l gs col0 s gr 
% Polyline
n 9614 810 m
 9687 810 l gs col0 s gr 
% Ellipse
n 8955 585 180 180 0 360 DrawEllipse gs col0 s gr

% Polyline
n 9053 442 m
 9139 356 l gs col0 s gr 
% Polyline
n 9056 731 m
 9141 816 l gs col0 s gr 
% Polyline
n 8775 585 m
 8685 585 l gs col0 s gr 
% Polyline
n 8129 585 m
 8202 585 l gs col0 s gr 
% Polyline
n 9446 990 m 9454 990 l gs col0 s gr
% Polyline
n 9135 360 m
 9585 360 l gs col0 s gr 
% Polyline
n 8055 180 m 9765 180 l 9765 990 l 8055 990 l
 cp gs col0 s gr 
% Polyline
n 7765 1440 m
 7843 1440 l gs col0 s gr 
% Polyline
n 7803 1402 m
 7803 1478 l gs col0 s gr 
% Polyline
n 7769 1890 m
 7842 1890 l gs col0 s gr 
% Polyline
n 6284 1665 m
 6357 1665 l gs col0 s gr 
% Ellipse
n 7110 1665 180 180 0 360 DrawEllipse gs col0 s gr

% Polyline
n 7208 1522 m
 7294 1436 l gs col0 s gr 
% Polyline
n 7211 1811 m
 7296 1896 l gs col0 s gr 
% Polyline
n 6930 1665 m
 6840 1665 l gs col0 s gr 
% Polyline
n 7601 2070 m 7609 2070 l gs col0 s gr
% Polyline
n 6210 1260 m 7920 1260 l 7920 2070 l 6210 2070 l
 cp gs col0 s gr 
% Polyline
n 7290 1890 m
 7740 1890 l gs col0 s gr 
% Polyline
n 5699 1890 m
 5772 1890 l gs col0 s gr 
% Polyline
n 5695 1422 m
 5773 1422 l gs col0 s gr 
% Polyline
n 5733 1384 m
 5733 1460 l gs col0 s gr 
% Ellipse
n 5040 1665 180 180 0 360 DrawEllipse gs col0 s gr

% Polyline
n 5138 1522 m
 5224 1436 l gs col0 s gr 
% Polyline
n 5141 1811 m
 5226 1896 l gs col0 s gr 
% Polyline
n 4860 1665 m
 4770 1665 l gs col0 s gr 
% Polyline
n 4725 1260 m 5850 1260 l 5850 2070 l 4725 2070 l
 cp gs col0 s gr 
% Polyline
n 5220 1890 m
 5670 1890 l gs col0 s gr 
% Polyline
n 10215 720 m 11385 720 l 11385 900 l 10215 900 l
 cp gs col0 s gr 
% Polyline
n 11025 2250 m 12015 2250 l 12015 2745 l 11025 2745 l
 cp gs col0 s gr 
% Polyline
n 10305 4455 m 11475 4455 l 11475 4635 l 10305 4635 l
 cp gs col0 s gr 
% Polyline
n 11115 6120 m 12105 6120 l 12105 6615 l 11115 6615 l
 cp gs col0 s gr 
% Ellipse
n 11269 7290 195 180 0 360 DrawEllipse gs col0 s gr

% Polyline
n 11375 7147 m
 11468 7061 l gs col0 s gr 
% Polyline
n 11378 7436 m
 11470 7521 l gs col0 s gr 
% Polyline
n 11074 7290 m
 10976 7290 l gs col0 s gr 
% Polyline
n 10410 8145 m 10305 8145 10305 8445 105 arcto 4 {pop} repeat
  10305 8550 11370 8550 105 arcto 4 {pop} repeat
  11475 8550 11475 8250 105 arcto 4 {pop} repeat
  11475 8145 10410 8145 105 arcto 4 {pop} repeat
 cp gs col29 1.00 shd ef gr gs col0 s gr 
% Polyline
gs  clippath
8700 4218 m 8700 4335 l 8760 4335 l 8760 4218 l 8760 4218 l 8730 4308 l 8700 4218 l cp
eoclip
n 6705 7245 m 7290 7245 l 7290 4050 l 8730 4050 l
 8730 4320 l gs col0 s gr gr

% arrowhead
n 8700 4218 m 8730 4308 l 8760 4218 l 8730 4188 l 8700 4218 l 
 cp gs 0.00 setgray ef gr  col0 s
% Polyline
n 7650 7650 m 9810 7650 l 9810 8460 l 7650 8460 l
 cp gs col0 s gr 
% Polyline
n 9416 8460 m 9424 8460 l gs col0 s gr
% Polyline
n 8591 8055 m
 8445 8055 l gs col0 s gr 
% Polyline
n 9079 7830 m
 9566 7830 l gs col0 s gr 
% Polyline
gs  clippath
4830 9708 m 4830 9825 l 4890 9825 l 4890 9708 l 4890 9708 l 4860 9798 l 4830 9708 l cp
eoclip
n 5220 9405 m 4860 9405 l
 4860 9810 l gs col0 s gr gr

% arrowhead
n 4830 9708 m 4860 9798 l 4890 9708 l 4860 9678 l 4830 9708 l 
 cp gs 0.00 setgray ef gr  col0 s
% Polyline
gs  clippath
6765 9708 m 6765 9825 l 6825 9825 l 6825 9708 l 6825 9708 l 6795 9798 l 6765 9708 l cp
eoclip
n 6480 9405 m 6795 9405 l
 6795 9810 l gs col0 s gr gr

% arrowhead
n 6765 9708 m 6795 9798 l 6825 9708 l 6795 9678 l 6765 9708 l 
 cp gs 0.00 setgray ef gr  col0 s
% Polyline
gs  clippath
5748 10470 m 5865 10470 l 5865 10410 l 5748 10410 l 5748 10410 l 5838 10440 l 5748 10470 l cp
eoclip
n 4860 10260 m 4860 10440 l
 5850 10440 l gs col0 s gr gr

% arrowhead
n 5748 10470 m 5838 10440 l 5748 10410 l 5718 10440 l 5748 10470 l 
 cp gs 0.00 setgray ef gr  col0 s
% Polyline
gs  clippath
5952 10410 m 5835 10410 l 5835 10470 l 5952 10470 l 5952 10470 l 5862 10440 l 5952 10410 l cp
eoclip
n 6795 10260 m 6795 10440 l
 5850 10440 l gs col0 s gr gr

% arrowhead
n 5952 10410 m 5862 10440 l 5952 10470 l 5982 10440 l 5952 10410 l 
 cp gs 0.00 setgray ef gr  col0 s
% Polyline
gs  clippath
7800 9438 m 7800 9555 l 7860 9555 l 7860 9438 l 7860 9438 l 7830 9528 l 7800 9438 l cp
eoclip
n 8145 9045 m 7830 9045 l
 7830 9540 l gs col0 s gr gr

% arrowhead
n 7800 9438 m 7830 9528 l 7860 9438 l 7830 9408 l 7800 9438 l 
 cp gs 0.00 setgray ef gr  col0 s
% Polyline
gs  clippath
9600 9438 m 9600 9555 l 9660 9555 l 9660 9438 l 9660 9438 l 9630 9528 l 9600 9438 l cp
eoclip
n 9405 9045 m 9630 9045 l
 9630 9540 l gs col0 s gr gr

% arrowhead
n 9600 9438 m 9630 9528 l 9660 9438 l 9630 9408 l 9600 9438 l 
 cp gs 0.00 setgray ef gr  col0 s
% Polyline
n 8730 5130 m
 8730 5310 l gs col0 s gr 
% Polyline
n 8730 6120 m
 8730 6300 l gs col0 s gr 
% Polyline
gs  clippath
8700 7548 m 8700 7665 l 8760 7665 l 8760 7548 l 8760 7548 l 8730 7638 l 8700 7548 l cp
eoclip
n 8730 7470 m
 8730 7650 l gs col0 s gr gr

% arrowhead
n 8700 7548 m 8730 7638 l 8760 7548 l 8730 7518 l 8700 7548 l 
 cp gs 0.00 setgray ef gr  col0 s
% Polyline
gs  clippath
8700 8538 m 8700 8655 l 8760 8655 l 8760 8538 l 8760 8538 l 8730 8628 l 8700 8538 l cp
eoclip
n 8730 8460 m
 8730 8640 l gs col0 s gr gr

% arrowhead
n 8700 8538 m 8730 8628 l 8760 8538 l 8730 8508 l 8700 8538 l 
 cp gs 0.00 setgray ef gr  col0 s
% Polyline
gs  clippath
5820 8898 m 5820 9015 l 5880 9015 l 5880 8898 l 5880 8898 l 5850 8988 l 5820 8898 l cp
eoclip
n 5850 8820 m
 5850 9000 l gs col0 s gr gr

% arrowhead
n 5820 8898 m 5850 8988 l 5880 8898 l 5850 8868 l 5820 8898 l 
 cp gs 0.00 setgray ef gr  col0 s
% Polyline
gs  clippath
5820 7908 m 5820 8025 l 5880 8025 l 5880 7908 l 5880 7908 l 5850 7998 l 5820 7908 l cp
eoclip
n 5850 7830 m
 5850 8010 l gs col0 s gr gr

% arrowhead
n 5820 7908 m 5850 7998 l 5880 7908 l 5850 7878 l 5820 7908 l 
 cp gs 0.00 setgray ef gr  col0 s
% Polyline
n 5850 6480 m
 5850 6660 l gs col0 s gr 
% Polyline
n 5850 5490 m
 5850 5670 l gs col0 s gr 
% Polyline
n 4860 5670 m 6930 5670 l 6930 6480 l 4860 6480 l
 cp gs col0 s gr 
% Polyline
gs  clippath
4020 2913 m 4020 3030 l 4080 3030 l 4080 2913 l 4080 2913 l 4050 3003 l 4020 2913 l cp
eoclip
n 4050 2790 m
 4050 3015 l gs col0 s gr gr

% arrowhead
n 4020 2913 m 4050 3003 l 4080 2913 l 4050 2883 l 4020 2913 l 
 cp gs 0.00 setgray ef gr  col0 s
% Polyline
gs  clippath
8628 10200 m 8745 10200 l 8745 10140 l 8628 10140 l 8628 10140 l 8718 10170 l 8628 10200 l cp
eoclip
n 7740 9990 m 7740 10170 l
 8730 10170 l gs col0 s gr gr

% arrowhead
n 8628 10200 m 8718 10170 l 8628 10140 l 8598 10170 l 8628 10200 l 
 cp gs 0.00 setgray ef gr  col0 s
% Polyline
gs  clippath
8832 10140 m 8715 10140 l 8715 10200 l 8832 10200 l 8832 10200 l 8742 10170 l 8832 10140 l cp
eoclip
n 9720 9990 m 9720 10170 l
 8730 10170 l gs col0 s gr gr

% arrowhead
n 8832 10140 m 8742 10170 l 8832 10200 l 8862 10170 l 8832 10140 l 
 cp gs 0.00 setgray ef gr  col0 s
% Polyline
gs  clippath
8700 10248 m 8700 10365 l 8760 10365 l 8760 10248 l 8760 10248 l 8730 10338 l 8700 10248 l cp
eoclip
n 8730 10170 m
 8730 10350 l gs col0 s gr gr

% arrowhead
n 8700 10248 m 8730 10338 l 8760 10248 l 8730 10218 l 8700 10248 l 
 cp gs 0.00 setgray ef gr  col0 s
% Polyline
n 7920 10350 m 9495 10350 l 9495 10980 l 7920 10980 l
 cp gs col0 s gr 
% Polyline
gs  clippath
5820 11373 m 5820 11490 l 5880 11490 l 5880 11373 l 5880 11373 l 5850 11463 l 5820 11373 l cp
eoclip
n 5850 11250 m
 5850 11475 l gs col0 s gr gr

% arrowhead
n 5820 11373 m 5850 11463 l 5880 11373 l 5850 11343 l 5820 11373 l 
 cp gs 0.00 setgray ef gr  col0 s
% Polyline
gs  clippath
8700 11148 m 8700 11265 l 8760 11265 l 8760 11148 l 8760 11148 l 8730 11238 l 8700 11148 l cp
eoclip
n 8730 10980 m
 8730 11250 l gs col0 s gr gr

% arrowhead
n 8700 11148 m 8730 11238 l 8760 11148 l 8730 11118 l 8700 11148 l 
 cp gs 0.00 setgray ef gr  col0 s
% Polyline
n 5130 10620 m 6570 10620 l 6570 11250 l 5130 11250 l
 cp gs col0 s gr 
% Polyline
gs  clippath
5820 10518 m 5820 10635 l 5880 10635 l 5880 10518 l 5880 10518 l 5850 10608 l 5820 10518 l cp
eoclip
n 5850 10440 m
 5850 10620 l gs col0 s gr gr

% arrowhead
n 5820 10518 m 5850 10608 l 5880 10518 l 5850 10488 l 5820 10518 l 
 cp gs 0.00 setgray ef gr  col0 s
% Polyline
gs  clippath
6267 3480 m 6150 3480 l 6150 3540 l 6267 3540 l 6267 3540 l 6177 3510 l 6267 3480 l cp
eoclip
n 9585 6885 m 9945 6885 l 9945 3510 l
 6165 3510 l gs col0 s gr gr

% arrowhead
n 6267 3480 m 6177 3510 l 6267 3540 l 6297 3510 l 6267 3480 l 
 cp gs 0.00 setgray ef gr  col0 s
% Polyline
n 5310 11475 m 5220 11475 5220 11565 90 arcto 4 {pop} repeat
  5220 11655 6390 11655 90 arcto 4 {pop} repeat
  6480 11655 6480 11565 90 arcto 4 {pop} repeat
  6480 11475 5310 11475 90 arcto 4 {pop} repeat
 cp gs col6 1.00 shd ef gr gs col0 s gr 
% Polyline
n 8190 11250 m 8100 11250 8100 11340 90 arcto 4 {pop} repeat
  8100 11430 9270 11430 90 arcto 4 {pop} repeat
  9360 11430 9360 11340 90 arcto 4 {pop} repeat
  9360 11250 8190 11250 90 arcto 4 {pop} repeat
 cp gs col6 1.00 shd ef gr gs col0 s gr 
% Polyline
n 5190 3285 m 5085 3285 5085 3630 105 arcto 4 {pop} repeat
  5085 3735 6060 3735 105 arcto 4 {pop} repeat
  6165 3735 6165 3390 105 arcto 4 {pop} repeat
  6165 3285 5190 3285 105 arcto 4 {pop} repeat
 cp gs col6 1.00 shd ef gr gs col0 s gr 
% Polyline
gs  clippath
4983 3495 m 5100 3495 l 5100 3435 l 4983 3435 l 4983 3435 l 5073 3465 l 4983 3495 l cp
eoclip
n 4860 3465 m
 5085 3465 l gs col0 s gr gr

% arrowhead
n 4983 3495 m 5073 3465 l 4983 3435 l 4953 3465 l 4983 3495 l 
 cp gs 0.00 setgray ef gr  col0 s
% Polyline
n 4050 3915 m
 4050 4005 l gs col0 s gr 
% Polyline
n 3390 180 m 3285 180 3285 570 105 arcto 4 {pop} repeat
  3285 675 4305 675 105 arcto 4 {pop} repeat
  4410 675 4410 285 105 arcto 4 {pop} repeat
  4410 180 3390 180 105 arcto 4 {pop} repeat
 cp gs col11 1.00 shd ef gr gs col0 s gr 
% Polyline
gs  clippath
4488 480 m 4605 480 l 4605 420 l 4488 420 l 4488 420 l 4578 450 l 4488 480 l cp
eoclip
n 4410 450 m
 4590 450 l gs col0 s gr gr

% arrowhead
n 4488 480 m 4578 450 l 4488 420 l 4458 450 l 4488 480 l 
 cp gs 0.00 setgray ef gr  col0 s
% Polyline
gs  clippath
6513 480 m 6630 480 l 6630 420 l 6513 420 l 6513 420 l 6603 450 l 6513 480 l cp
eoclip
n 6300 450 m
 6615 450 l gs col0 s gr gr

% arrowhead
n 6513 480 m 6603 450 l 6513 420 l 6483 450 l 6513 480 l 
 cp gs 0.00 setgray ef gr  col0 s
% Polyline
n 3330 2520 m 4500 2520 l 4500 2790 l 3330 2790 l
 cp gs col0 s gr 
% Polyline
n 5981 2295 m 5989 2295 l gs col0 s gr
% Polyline
gs  clippath
4020 2418 m 4020 2535 l 4080 2535 l 4080 2418 l 4080 2418 l 4050 2508 l 4020 2418 l cp
eoclip
n 4050 2250 m
 4050 2520 l gs col0 s gr gr

% arrowhead
n 4020 2418 m 4050 2508 l 4080 2418 l 4050 2388 l 4020 2418 l 
 cp gs 0.00 setgray ef gr  col0 s
% Polyline
gs  clippath
4020 11058 m 4020 11175 l 4080 11175 l 4080 11058 l 4080 11058 l 4050 11148 l 4020 11058 l cp
eoclip
n 4050 4950 m
 4050 11160 l gs col0 s gr gr

% arrowhead
n 4020 11058 m 4050 11148 l 4080 11058 l 4050 11028 l 4020 11058 l 
 cp gs 0.00 setgray ef gr  col0 s
% Polyline
gs  clippath
5820 4578 m 5820 4695 l 5880 4695 l 5880 4578 l 5880 4578 l 5850 4668 l 5820 4578 l cp
eoclip
n 4905 4500 m 5850 4500 l
 5850 4680 l gs col0 s gr gr

% arrowhead
n 5820 4578 m 5850 4668 l 5880 4578 l 5850 4548 l 5820 4578 l 
 cp gs 0.00 setgray ef gr  col0 s
% Polyline
gs  clippath
7953 435 m 8070 435 l 8070 375 l 7953 375 l 7953 375 l 8043 405 l 7953 435 l cp
eoclip
n 7740 405 m
 8055 405 l gs col0 s gr gr

% arrowhead
n 7953 435 m 8043 405 l 7953 375 l 7923 405 l 7953 435 l 
 cp gs 0.00 setgray ef gr  col0 s
% Polyline
gs  clippath
8790 1158 m 8790 1275 l 8850 1275 l 8850 1158 l 8850 1158 l 8820 1248 l 8790 1158 l cp
eoclip
n 8820 990 m
 8820 1260 l gs col0 s gr gr

% arrowhead
n 8790 1158 m 8820 1248 l 8850 1158 l 8820 1128 l 8790 1158 l 
 cp gs 0.00 setgray ef gr  col0 s
% Polyline
gs  clippath
8022 1590 m 7905 1590 l 7905 1650 l 8022 1650 l 8022 1650 l 7932 1620 l 8022 1590 l cp
eoclip
n 8280 1620 m
 7920 1620 l gs col0 s gr gr

% arrowhead
n 8022 1590 m 7932 1620 l 8022 1650 l 8052 1620 l 8022 1590 l 
 cp gs 0.00 setgray ef gr  col0 s
% Polyline
gs  clippath
5952 1590 m 5835 1590 l 5835 1650 l 5952 1650 l 5952 1650 l 5862 1620 l 5952 1590 l cp
eoclip
n 6210 1620 m
 5850 1620 l gs col0 s gr gr

% arrowhead
n 5952 1590 m 5862 1620 l 5952 1650 l 5982 1620 l 5952 1590 l 
 cp gs 0.00 setgray ef gr  col0 s
% Polyline
gs  clippath
4020 2148 m 4020 2265 l 4080 2265 l 4080 2148 l 4080 2148 l 4050 2238 l 4020 2148 l cp
eoclip
n 4725 1620 m 4050 1620 l
 4050 2250 l gs col0 s gr gr

% arrowhead
n 4020 2148 m 4050 2238 l 4080 2148 l 4050 2118 l 4020 2148 l 
 cp gs 0.00 setgray ef gr  col0 s
% Polyline
gs  clippath
4152 2220 m 4035 2220 l 4035 2280 l 4152 2280 l 4152 2280 l 4062 2250 l 4152 2220 l cp
eoclip
n 8820 1980 m 8820 2250 l
 4050 2250 l gs col0 s gr gr

% arrowhead
n 4152 2220 m 4062 2250 l 4152 2280 l 4182 2250 l 4152 2220 l 
 cp gs 0.00 setgray ef gr  col0 s
% Polyline
gs  clippath
11535 2148 m 11535 2265 l 11595 2265 l 11595 2148 l 11595 2148 l 11565 2238 l 11535 2148 l cp
eoclip
n 11430 1530 m 11565 1530 l
 11565 2250 l gs col0 s gr gr

% arrowhead
n 11535 2148 m 11565 2238 l 11595 2148 l 11565 2118 l 11535 2148 l 
 cp gs 0.00 setgray ef gr  col0 s
% Polyline
gs  clippath
10770 1023 m 10770 1140 l 10830 1140 l 10830 1023 l 10830 1023 l 10800 1113 l 10770 1023 l cp
eoclip
n 10800 900 m
 10800 1125 l gs col0 s gr gr

% arrowhead
n 10770 1023 m 10800 1113 l 10830 1023 l 10800 993 l 10770 1023 l 
 cp gs 0.00 setgray ef gr  col0 s
% Polyline
n 10260 270 m 10170 270 10170 360 90 arcto 4 {pop} repeat
  10170 450 11340 450 90 arcto 4 {pop} repeat
  11430 450 11430 360 90 arcto 4 {pop} repeat
  11430 270 10260 270 90 arcto 4 {pop} repeat
 cp gs col6 1.00 shd ef gr gs col0 s gr 
% Polyline
gs  clippath
10770 618 m 10770 735 l 10830 735 l 10830 618 l 10830 618 l 10800 708 l 10770 618 l cp
eoclip
n 10800 450 m
 10800 720 l gs col0 s gr gr

% arrowhead
n 10770 618 m 10800 708 l 10830 618 l 10800 588 l 10770 618 l 
 cp gs 0.00 setgray ef gr  col0 s
% Polyline
gs  clippath
10788 6060 m 10905 6060 l 10905 6000 l 10788 6000 l 10788 6000 l 10878 6030 l 10788 6060 l cp
eoclip
n 10800 2925 m 10125 2925 l 10125 6030 l
 10890 6030 l gs col0 s gr gr

% arrowhead
n 10788 6060 m 10878 6030 l 10788 6000 l 10758 6030 l 10788 6060 l 
 cp gs 0.00 setgray ef gr  col0 s
% Polyline
gs  clippath
10770 2823 m 10770 2940 l 10830 2940 l 10830 2823 l 10830 2823 l 10800 2913 l 10770 2823 l cp
eoclip
n 10800 1935 m
 10800 2925 l gs col0 s gr gr

% arrowhead
n 10770 2823 m 10800 2913 l 10830 2823 l 10800 2793 l 10770 2823 l 
 cp gs 0.00 setgray ef gr  col0 s
% Polyline
gs  clippath
10902 2580 m 10785 2580 l 10785 2640 l 10902 2640 l 10902 2640 l 10812 2610 l 10902 2580 l cp
eoclip
n 11025 2610 m
 10800 2610 l gs col0 s gr gr

% arrowhead
n 10902 2580 m 10812 2610 l 10902 2640 l 10932 2610 l 10902 2580 l 
 cp gs 0.00 setgray ef gr  col0 s
% Polyline
gs  clippath
10860 4803 m 10860 4920 l 10920 4920 l 10920 4803 l 10920 4803 l 10890 4893 l 10860 4803 l cp
eoclip
n 10890 4635 m
 10890 4905 l gs col0 s gr gr

% arrowhead
n 10860 4803 m 10890 4893 l 10920 4803 l 10890 4773 l 10860 4803 l 
 cp gs 0.00 setgray ef gr  col0 s
% Polyline
gs  clippath
10860 4353 m 10860 4470 l 10920 4470 l 10920 4353 l 10920 4353 l 10890 4443 l 10860 4353 l cp
eoclip
n 10890 4185 m
 10890 4455 l gs col0 s gr gr

% arrowhead
n 10860 4353 m 10890 4443 l 10920 4353 l 10890 4323 l 10860 4353 l 
 cp gs 0.00 setgray ef gr  col0 s
% Polyline
n 10350 4005 m 10260 4005 10260 4095 90 arcto 4 {pop} repeat
  10260 4185 11430 4185 90 arcto 4 {pop} repeat
  11520 4185 11520 4095 90 arcto 4 {pop} repeat
  11520 4005 10350 4005 90 arcto 4 {pop} repeat
 cp gs col6 1.00 shd ef gr gs col0 s gr 
% Polyline
gs  clippath
10860 6783 m 10860 6900 l 10920 6900 l 10920 6783 l 10920 6783 l 10890 6873 l 10860 6783 l cp
eoclip
n 10890 5715 m
 10890 6885 l gs col0 s gr gr

% arrowhead
n 10860 6783 m 10890 6873 l 10920 6783 l 10890 6753 l 10860 6783 l 
 cp gs 0.00 setgray ef gr  col0 s
% Polyline
gs  clippath
10992 6495 m 10875 6495 l 10875 6555 l 10992 6555 l 10992 6555 l 10902 6525 l 10992 6495 l cp
eoclip
n 11115 6525 m
 10890 6525 l gs col0 s gr gr

% arrowhead
n 10992 6495 m 10902 6525 l 10992 6555 l 11022 6525 l 10992 6495 l 
 cp gs 0.00 setgray ef gr  col0 s
% Polyline
gs  clippath
11580 6018 m 11580 6135 l 11640 6135 l 11640 6018 l 11640 6018 l 11610 6108 l 11580 6018 l cp
eoclip
n 11520 5310 m 11610 5310 l
 11610 6120 l gs col0 s gr gr

% arrowhead
n 11580 6018 m 11610 6108 l 11640 6018 l 11610 5988 l 11580 6018 l 
 cp gs 0.00 setgray ef gr  col0 s
% Polyline
n 11801 7695 m 11809 7695 l gs col0 s gr
% Polyline
n 10215 6885 m 12105 6885 l 12105 7695 l 10215 7695 l
 cp gs col0 s gr 
% Polyline
gs  clippath
10860 8043 m 10860 8160 l 10920 8160 l 10920 8043 l 10920 8043 l 10890 8133 l 10860 8043 l cp
eoclip
n 10890 7695 m
 10890 8145 l gs col0 s gr gr

% arrowhead
n 10860 8043 m 10890 8133 l 10920 8043 l 10890 8013 l 10860 8043 l 
 cp gs 0.00 setgray ef gr  col0 s
/Times-Roman-iso ff 90.00 scf sf
8750 4755 m
gs 1 -1 sc (T) dup sw pop 2 div neg 0 rm  col0 sh gr
/Times-Roman-iso ff 90.00 scf sf
8937 4867 m
gs 1 -1 sc (L) dup sw pop 2 div neg 0 rm  col0 sh gr
/Times-Roman-iso ff 90.00 scf sf
8927 4658 m
gs 1 -1 sc (H) dup sw pop 2 div neg 0 rm  col0 sh gr
/Times-Roman-iso ff 90.00 scf sf
8201 4761 m
gs 1 -1 sc (470k) dup sw pop 2 div neg 0 rm  col0 sh gr
/Times-Roman-iso ff 90.00 scf sf
9322 4536 m
gs 1 -1 sc (680) dup sw pop 2 div neg 0 rm  col0 sh gr
/Times-Roman-iso ff 120.00 scf sf
8542 4635 m
gs 1 -1 sc (tp1) dup sw pop 2 div neg 0 rm  col0 sh gr
/Times-Roman-iso ff 120.00 scf sf
8981 4455 m
gs 1 -1 sc (hp1) dup sw pop 2 div neg 0 rm  col0 sh gr
/Times-Roman-iso ff 105.00 scf sf
8201 5751 m
gs 1 -1 sc (470k) dup sw pop 2 div neg 0 rm  col0 sh gr
/Times-Roman-iso ff 105.00 scf sf
9323 5526 m
gs 1 -1 sc (680) dup sw pop 2 div neg 0 rm  col0 sh gr
/Times-Roman-iso ff 105.00 scf sf
8751 5745 m
gs 1 -1 sc (T) dup sw pop 2 div neg 0 rm  col0 sh gr
/Times-Roman-iso ff 105.00 scf sf
8938 5857 m
gs 1 -1 sc (L) dup sw pop 2 div neg 0 rm  col0 sh gr
/Times-Roman-iso ff 105.00 scf sf
8927 5648 m
gs 1 -1 sc (H) dup sw pop 2 div neg 0 rm  col0 sh gr
/Times-Roman-iso ff 135.00 scf sf
8981 5445 m
gs 1 -1 sc (hp2) dup sw pop 2 div neg 0 rm  col0 sh gr
/Times-Roman-iso ff 105.00 scf sf
8201 8091 m
gs 1 -1 sc (470k) dup sw pop 2 div neg 0 rm  col0 sh gr
/Times-Roman-iso ff 105.00 scf sf
8751 8085 m
gs 1 -1 sc (T) dup sw pop 2 div neg 0 rm  col0 sh gr
/Times-Roman-iso ff 105.00 scf sf
8938 8197 m
gs 1 -1 sc (L) dup sw pop 2 div neg 0 rm  col0 sh gr
/Times-Roman-iso ff 105.00 scf sf
8927 7988 m
gs 1 -1 sc (H) dup sw pop 2 div neg 0 rm  col0 sh gr
/Times-Roman-iso ff 120.00 scf sf
4905 9990 m
gs 1 -1 sc (Part = FET) dup sw pop 2 div neg 0 rm  col0 sh gr
/Times-Roman-iso ff 120.00 scf sf
4954 10125 m
gs 1 -1 sc (Typ = N-D-MOS) dup sw pop 2 div neg 0 rm  col0 sh gr
/Times-Roman-iso ff 120.00 scf sf
6660 9990 m
gs 1 -1 sc (Part = FET) dup sw pop 2 div neg 0 rm  col0 sh gr
/Times-Roman-iso ff 120.00 scf sf
6660 10140 m
gs 1 -1 sc (Typ = N-JFET) dup sw pop 2 div neg 0 rm  col0 sh gr
/Times-Roman-iso ff 105.00 scf sf
5871 8445 m
gs 1 -1 sc (T) dup sw pop 2 div neg 0 rm  col0 sh gr
/Times-Roman-iso ff 105.00 scf sf
6058 8557 m
gs 1 -1 sc (L) dup sw pop 2 div neg 0 rm  col0 sh gr
/Times-Roman-iso ff 105.00 scf sf
6047 8348 m
gs 1 -1 sc (H) dup sw pop 2 div neg 0 rm  col0 sh gr
/Times-Roman-iso ff 105.00 scf sf
5321 8451 m
gs 1 -1 sc (470k) dup sw pop 2 div neg 0 rm  col0 sh gr
/Times-Roman-iso ff 105.00 scf sf
6443 8226 m
gs 1 -1 sc (680) dup sw pop 2 div neg 0 rm  col0 sh gr
/Times-Roman-iso ff 135.00 scf sf
5663 8325 m
gs 1 -1 sc (lp2) dup sw pop 2 div neg 0 rm  col0 sh gr
/Times-Roman-iso ff 105.00 scf sf
6480 6291 m
gs 1 -1 sc (680) dup sw pop 2 div neg 0 rm  col0 sh gr
/Times-Roman-iso ff 105.00 scf sf
5952 6060 m
gs 1 -1 sc (T) dup sw pop 2 div neg 0 rm  col0 sh gr
/Times-Roman-iso ff 105.00 scf sf
6125 6172 m
gs 1 -1 sc (L) dup sw pop 2 div neg 0 rm  col0 sh gr
/Times-Roman-iso ff 105.00 scf sf
6115 5963 m
gs 1 -1 sc (H) dup sw pop 2 div neg 0 rm  col0 sh gr
/Times-Roman-iso ff 105.00 scf sf
5445 6066 m
gs 1 -1 sc (470k) dup sw pop 2 div neg 0 rm  col0 sh gr
/Times-Roman-iso ff 120.00 scf sf
6165 6390 m
gs 1 -1 sc (lp2) dup sw pop 2 div neg 0 rm  col0 sh gr
/Times-Roman-iso ff 105.00 scf sf
6480 5346 m
gs 1 -1 sc (680) dup sw pop 2 div neg 0 rm  col0 sh gr
/Times-Roman-iso ff 105.00 scf sf
5445 5121 m
gs 1 -1 sc (470k) dup sw pop 2 div neg 0 rm  col0 sh gr
/Times-Roman-iso ff 105.00 scf sf
5952 5115 m
gs 1 -1 sc (T) dup sw pop 2 div neg 0 rm  col0 sh gr
/Times-Roman-iso ff 105.00 scf sf
6125 5227 m
gs 1 -1 sc (L) dup sw pop 2 div neg 0 rm  col0 sh gr
/Times-Roman-iso ff 105.00 scf sf
6115 5018 m
gs 1 -1 sc (H) dup sw pop 2 div neg 0 rm  col0 sh gr
/Times-Roman-iso ff 120.00 scf sf
6165 5445 m
gs 1 -1 sc (lp1) dup sw pop 2 div neg 0 rm  col0 sh gr
/Times-Roman-iso ff 120.00 scf sf
5760 4995 m
gs 1 -1 sc (tp1) dup sw pop 2 div neg 0 rm  col0 sh gr
/Times-Roman-iso ff 120.00 scf sf
7875 9720 m
gs 1 -1 sc (Part = FET) dup sw pop 2 div neg 0 rm  col0 sh gr
/Times-Roman-iso ff 120.00 scf sf
7924 9855 m
gs 1 -1 sc (Typ = P-D-MOS) dup sw pop 2 div neg 0 rm  col0 sh gr
/Times-Roman-iso ff 120.00 scf sf
9630 9720 m
gs 1 -1 sc (Part = FET) dup sw pop 2 div neg 0 rm  col0 sh gr
/Times-Roman-iso ff 120.00 scf sf
9630 9870 m
gs 1 -1 sc (Typ = P-JFET) dup sw pop 2 div neg 0 rm  col0 sh gr
/Times-Roman-iso ff 150.00 scf sf
4095 11430 m
gs 1 -1 sc (Part 2) dup sw pop 2 div neg 0 rm  col0 sh gr
/Times-Roman-iso ff 90.00 scf sf
5895 846 m
gs 1 -1 sc (680) dup sw pop 2 div neg 0 rm  col0 sh gr
/Times-Roman-iso ff 90.00 scf sf
4995 621 m
gs 1 -1 sc (680) dup sw pop 2 div neg 0 rm  col0 sh gr
/Times-Roman-iso ff 90.00 scf sf
5367 615 m
gs 1 -1 sc (T) dup sw pop 2 div neg 0 rm  col0 sh gr
/Times-Roman-iso ff 90.00 scf sf
5540 727 m
gs 1 -1 sc (L) dup sw pop 2 div neg 0 rm  col0 sh gr
/Times-Roman-iso ff 90.00 scf sf
5530 518 m
gs 1 -1 sc (H) dup sw pop 2 div neg 0 rm  col0 sh gr
/Times-Roman-iso ff 120.00 scf sf
5580 945 m
gs 1 -1 sc (vCEs) dup sw pop 2 div neg 0 rm  col0 sh gr
/Times-Roman-iso ff 90.00 scf sf
6807 615 m
gs 1 -1 sc (T) dup sw pop 2 div neg 0 rm  col0 sh gr
/Times-Roman-iso ff 90.00 scf sf
6980 727 m
gs 1 -1 sc (L) dup sw pop 2 div neg 0 rm  col0 sh gr
/Times-Roman-iso ff 90.00 scf sf
6970 518 m
gs 1 -1 sc (H) dup sw pop 2 div neg 0 rm  col0 sh gr
/Times-Roman-iso ff 90.00 scf sf
7335 846 m
gs 1 -1 sc (680) dup sw pop 2 div neg 0 rm  col0 sh gr
/Times-Roman-iso ff 120.00 scf sf
6930 945 m
gs 1 -1 sc (lp_otr) dup sw pop 2 div neg 0 rm  col0 sh gr
/Times-Roman-iso ff 90.00 scf sf
9360 846 m
gs 1 -1 sc (680) dup sw pop 2 div neg 0 rm  col0 sh gr
/Times-Roman-iso ff 90.00 scf sf
8460 621 m
gs 1 -1 sc (680) dup sw pop 2 div neg 0 rm  col0 sh gr
/Times-Roman-iso ff 90.00 scf sf
8832 615 m
gs 1 -1 sc (T) dup sw pop 2 div neg 0 rm  col0 sh gr
/Times-Roman-iso ff 90.00 scf sf
9005 727 m
gs 1 -1 sc (L) dup sw pop 2 div neg 0 rm  col0 sh gr
/Times-Roman-iso ff 90.00 scf sf
8995 518 m
gs 1 -1 sc (H) dup sw pop 2 div neg 0 rm  col0 sh gr
/Times-Roman-iso ff 120.00 scf sf
9045 945 m
gs 1 -1 sc (lp2) dup sw pop 2 div neg 0 rm  col0 sh gr
/Times-Roman-iso ff 150.00 scf sf
8820 1665 m
gs 1 -1 sc (lp2 < vCEs ?) dup sw pop 2 div neg 0 rm  col0 sh gr
/Times-Roman-iso ff 90.00 scf sf
6615 1701 m
gs 1 -1 sc (680) dup sw pop 2 div neg 0 rm  col0 sh gr
/Times-Roman-iso ff 90.00 scf sf
7515 1476 m
gs 1 -1 sc (680) dup sw pop 2 div neg 0 rm  col0 sh gr
/Times-Roman-iso ff 90.00 scf sf
6987 1695 m
gs 1 -1 sc (T) dup sw pop 2 div neg 0 rm  col0 sh gr
/Times-Roman-iso ff 90.00 scf sf
7160 1807 m
gs 1 -1 sc (L) dup sw pop 2 div neg 0 rm  col0 sh gr
/Times-Roman-iso ff 90.00 scf sf
7150 1598 m
gs 1 -1 sc (H) dup sw pop 2 div neg 0 rm  col0 sh gr
/Times-Roman-iso ff 120.00 scf sf
7155 1395 m
gs 1 -1 sc (vCEs) dup sw pop 2 div neg 0 rm  col0 sh gr
/Times-Roman-iso ff 90.00 scf sf
5445 1476 m
gs 1 -1 sc (680) dup sw pop 2 div neg 0 rm  col0 sh gr
/Times-Roman-iso ff 90.00 scf sf
4917 1695 m
gs 1 -1 sc (T) dup sw pop 2 div neg 0 rm  col0 sh gr
/Times-Roman-iso ff 90.00 scf sf
5090 1807 m
gs 1 -1 sc (L) dup sw pop 2 div neg 0 rm  col0 sh gr
/Times-Roman-iso ff 90.00 scf sf
5080 1598 m
gs 1 -1 sc (H) dup sw pop 2 div neg 0 rm  col0 sh gr
/Times-Roman-iso ff 120.00 scf sf
5130 1395 m
gs 1 -1 sc (lp_otr) dup sw pop 2 div neg 0 rm  col0 sh gr
/Times-Roman-iso ff 150.00 scf sf
10800 1530 m
gs 1 -1 sc (update_pins) dup sw pop 2 div neg 0 rm  col0 sh gr
/Times-Roman-iso ff 150.00 scf sf
10800 1665 m
gs 1 -1 sc (= 1 ?) dup sw pop 2 div neg 0 rm  col0 sh gr
/Times-Roman-iso ff 120.00 scf sf
10800 855 m
gs 1 -1 sc (n.cnt = n.cnt+1) dup sw pop 2 div neg 0 rm  col0 sh gr
/Times-Roman-iso ff 120.00 scf sf
11520 2385 m
gs 1 -1 sc (n.b = TristatePin) dup sw pop 2 div neg 0 rm  col0 sh gr
/Times-Roman-iso ff 120.00 scf sf
11520 2520 m
gs 1 -1 sc (n.e = LowPin) dup sw pop 2 div neg 0 rm  col0 sh gr
/Times-Roman-iso ff 120.00 scf sf
11520 2655 m
gs 1 -1 sc (n.c = HighPin) dup sw pop 2 div neg 0 rm  col0 sh gr
/Times-Roman-iso ff 150.00 scf sf
10890 5310 m
gs 1 -1 sc (update_pins) dup sw pop 2 div neg 0 rm  col0 sh gr
/Times-Roman-iso ff 150.00 scf sf
10890 5445 m
gs 1 -1 sc (= 1 ?) dup sw pop 2 div neg 0 rm  col0 sh gr
/Times-Roman-iso ff 120.00 scf sf
10890 4590 m
gs 1 -1 sc (p.cnt = p.cnt+1) dup sw pop 2 div neg 0 rm  col0 sh gr
/Times-Roman-iso ff 120.00 scf sf
11610 6255 m
gs 1 -1 sc (p.b = TristatePin) dup sw pop 2 div neg 0 rm  col0 sh gr
/Times-Roman-iso ff 120.00 scf sf
11610 6390 m
gs 1 -1 sc (p.e = HighPin) dup sw pop 2 div neg 0 rm  col0 sh gr
/Times-Roman-iso ff 120.00 scf sf
11610 6525 m
gs 1 -1 sc (p.c = LowPin) dup sw pop 2 div neg 0 rm  col0 sh gr
/Times-Roman-iso ff 105.00 scf sf
11136 7320 m
gs 1 -1 sc (T) dup sw pop 2 div neg 0 rm  col0 sh gr
/Times-Roman-iso ff 105.00 scf sf
11323 7432 m
gs 1 -1 sc (L) dup sw pop 2 div neg 0 rm  col0 sh gr
/Times-Roman-iso ff 105.00 scf sf
11312 7223 m
gs 1 -1 sc (H) dup sw pop 2 div neg 0 rm  col0 sh gr
/Times-Roman-iso ff 150.00 scf sf
10890 8325 m
gs 1 -1 sc (CheckPins) dup sw pop 2 div neg 0 rm  col0 sh gr
/Times-Roman-iso ff 150.00 scf sf
10890 8505 m
gs 1 -1 sc (Exit) dup sw pop 2 div neg 0 rm  col0 sh gr
/Times-Roman-iso ff 120.00 scf sf
8550 7965 m
gs 1 -1 sc (tp2) dup sw pop 2 div neg 0 rm  col0 sh gr
/Times-Roman-iso ff 120.00 scf sf
9675 7065 m
gs 1 -1 sc (N) dup sw pop 2 div neg 0 rm  col0 sh gr
/Times-Roman-iso ff 150.00 scf sf
8595 7560 m
gs 1 -1 sc (Y) dup sw pop 2 div neg 0 rm  col0 sh gr
/Times-Roman-iso ff 150.00 scf sf
5895 9450 m
gs 1 -1 sc (lp2 > 3911 ?) dup sw pop 2 div neg 0 rm  col0 sh gr
/Times-Roman-iso ff 120.00 scf sf
5220 9585 m
gs 1 -1 sc (Y) dup sw pop 2 div neg 0 rm  col0 sh gr
/Times-Roman-iso ff 120.00 scf sf
6480 9585 m
gs 1 -1 sc (N) dup sw pop 2 div neg 0 rm  col0 sh gr
/Times-Roman-iso ff 120.00 scf sf
5850 10755 m
gs 1 -1 sc (n.cnt = n.cnt+1) dup sw pop 2 div neg 0 rm  col0 sh gr
/Times-Roman-iso ff 120.00 scf sf
5850 10890 m
gs 1 -1 sc (n.uBE = lp1) dup sw pop 2 div neg 0 rm  col0 sh gr
/Times-Roman-iso ff 120.00 scf sf
5850 11025 m
gs 1 -1 sc (n.gthvoltage = lp1-tp1) dup sw pop 2 div neg 0 rm  col0 sh gr
/Times-Roman-iso ff 120.00 scf sf
5850 11160 m
gs 1 -1 sc (n.current = lp1/680) dup sw pop 2 div neg 0 rm  col0 sh gr
/Times-Roman-iso ff 150.00 scf sf
5715 7965 m
gs 1 -1 sc (Y) dup sw pop 2 div neg 0 rm  col0 sh gr
/Times-Roman-iso ff 120.00 scf sf
6750 7425 m
gs 1 -1 sc (N) dup sw pop 2 div neg 0 rm  col0 sh gr
/Times-Roman-iso ff 150.00 scf sf
5940 7290 m
gs 1 -1 sc (lp2 > \(lp1+599\) ?) dup sw pop 2 div neg 0 rm  col0 sh gr
/Times-Roman-iso ff 150.00 scf sf
8775 9090 m
gs 1 -1 sc (tp2 < 977 ?) dup sw pop 2 div neg 0 rm  col0 sh gr
/Times-Roman-iso ff 120.00 scf sf
8145 9225 m
gs 1 -1 sc (Y) dup sw pop 2 div neg 0 rm  col0 sh gr
/Times-Roman-iso ff 120.00 scf sf
9450 9180 m
gs 1 -1 sc (N) dup sw pop 2 div neg 0 rm  col0 sh gr
/Times-Roman-iso ff 120.00 scf sf
8730 10485 m
gs 1 -1 sc (p.cnt = p.cnt+1) dup sw pop 2 div neg 0 rm  col0 sh gr
/Times-Roman-iso ff 150.00 scf sf
8775 6930 m
gs 1 -1 sc (hp1 > \(hp2+599\) ?) dup sw pop 2 div neg 0 rm  col0 sh gr
/Times-Roman-iso ff 180.00 scf sf
5985 4590 m
gs 1 -1 sc (N-channel) col0 sh gr
/Times-Roman-iso ff 180.00 scf sf
8865 4230 m
gs 1 -1 sc (P-channel) col0 sh gr
/Times-Roman-iso ff 120.00 scf sf
8730 10890 m
gs 1 -1 sc (p.current = \(VCC-hp1\)/680) dup sw pop 2 div neg 0 rm  col0 sh gr
/Times-Roman-iso ff 120.00 scf sf
8730 10755 m
gs 1 -1 sc (p.gthvoltage = tp1-hp1) dup sw pop 2 div neg 0 rm  col0 sh gr
/Times-Roman-iso ff 150.00 scf sf
5625 3555 m
gs 1 -1 sc (checkDiode) dup sw pop 2 div neg 0 rm  col0 sh gr
/Times-Roman-iso ff 120.00 scf sf
5850 11610 m
gs 1 -1 sc (saveNresult) dup sw pop 2 div neg 0 rm  col0 sh gr
/Times-Roman-iso ff 120.00 scf sf
8730 11385 m
gs 1 -1 sc (savePresult) dup sw pop 2 div neg 0 rm  col0 sh gr
/Times-Roman-iso ff 120.00 scf sf
3915 3960 m
gs 1 -1 sc (N) dup sw pop 2 div neg 0 rm  col0 sh gr
/Times-Roman-iso ff 150.00 scf sf
3825 360 m
gs 1 -1 sc (CheckPins) dup sw pop 2 div neg 0 rm  col0 sh gr
/Times-Roman-iso ff 150.00 scf sf
3825 540 m
gs 1 -1 sc (Start) dup sw pop 2 div neg 0 rm  col0 sh gr
/Times-Roman-iso ff 150.00 scf sf
3915 2700 m
gs 1 -1 sc (update_pins = 1) dup sw pop 2 div neg 0 rm  col0 sh gr
/Times-Roman-iso ff 135.00 scf sf
4050 4680 m
gs 1 -1 sc (vCEs > 115 ?) dup sw pop 2 div neg 0 rm  col0 sh gr
/Times-Roman-iso ff 135.00 scf sf
4050 4500 m
gs 1 -1 sc (vCEs*2+20 > lp_otr ?) dup sw pop 2 div neg 0 rm  col0 sh gr
/Times-Roman-iso ff 120.00 scf sf
3915 5040 m
gs 1 -1 sc (N) dup sw pop 2 div neg 0 rm  col0 sh gr
/Times-Roman-iso ff 150.00 scf sf
4860 3645 m
gs 1 -1 sc (Y) dup sw pop 2 div neg 0 rm  col0 sh gr
/Times-Roman-iso ff 135.00 scf sf
4050 3510 m
gs 1 -1 sc (\(n.cnt!=1\)||\(n.b==p.b\)?) dup sw pop 2 div neg 0 rm  col0 sh gr
/Times-Roman-iso ff 135.00 scf sf
4037 3361 m
gs 1 -1 sc (n.cnt+p.cnt>1?) dup sw pop 2 div neg 0 rm  col0 sh gr
/Times-Roman-iso ff 150.00 scf sf
4905 4410 m
gs 1 -1 sc (Y) dup sw pop 2 div neg 0 rm  col0 sh gr
/Times-Roman-iso ff 150.00 scf sf
8145 1530 m
gs 1 -1 sc (Y) dup sw pop 2 div neg 0 rm  col0 sh gr
/Times-Roman-iso ff 150.00 scf sf
8955 2160 m
gs 1 -1 sc (N) dup sw pop 2 div neg 0 rm  col0 sh gr
/Times-Roman-iso ff 120.00 scf sf
10800 405 m
gs 1 -1 sc (saveNresult) dup sw pop 2 div neg 0 rm  col0 sh gr
/Times-Roman-iso ff 150.00 scf sf
11475 1485 m
gs 1 -1 sc (Y) dup sw pop 2 div neg 0 rm  col0 sh gr
/Times-Roman-iso ff 120.00 scf sf
10890 4140 m
gs 1 -1 sc (savePresult) dup sw pop 2 div neg 0 rm  col0 sh gr
/Times-Roman-iso ff 150.00 scf sf
11610 5265 m
gs 1 -1 sc (Y) dup sw pop 2 div neg 0 rm  col0 sh gr
% here ends figure;
% 
% here starts figure with depth 0
% Polyline
0 slj
0 slc
7.500 slw
n 8056 4725 m
 7958 4725 l gs col0 s gr 
% Polyline
n 8348 4680 m 8348 4770 l 8056 4770 l 8056 4680 l
 cp gs col0 s gr 
% Polyline
n 8446 4725 m
 8348 4725 l gs col0 s gr 
% Polyline
n 9177 4500 m
 9079 4500 l gs col0 s gr 
% Polyline
n 9469 4455 m 9469 4545 l 9177 4545 l 9177 4455 l
 cp gs col0 s gr 
% Polyline
n 9567 4500 m
 9469 4500 l gs col0 s gr 
% Ellipse
n 8542 4725 22 20 0 360 DrawEllipse gs 0.00 setgray ef gr gs col0 s gr

% Ellipse
n 9079 4500 22 20 0 360 DrawEllipse gs 0.00 setgray ef gr gs col0 s gr

% Polyline
n 8055 5715 m
 7958 5715 l gs col0 s gr 
% Polyline
n 8348 5670 m 8348 5760 l 8055 5760 l 8055 5670 l
 cp gs col0 s gr 
% Polyline
n 8445 5715 m
 8348 5715 l gs col0 s gr 
% Polyline
n 9176 5490 m
 9079 5490 l gs col0 s gr 
% Polyline
n 9469 5445 m 9469 5535 l 9176 5535 l 9176 5445 l
 cp gs col0 s gr 
% Polyline
n 9566 5490 m
 9469 5490 l gs col0 s gr 
% Ellipse
n 9079 5490 22 20 0 360 DrawEllipse gs 0.00 setgray ef gr gs col0 s gr

% Polyline
n 8055 8055 m
 7958 8055 l gs col0 s gr 
% Polyline
n 8348 8010 m 8348 8100 l 8055 8100 l 8055 8010 l
 cp gs col0 s gr 
% Polyline
n 8445 8055 m
 8348 8055 l gs col0 s gr 
% Ellipse
n 8554 8055 22 20 0 360 DrawEllipse gs 0.00 setgray ef gr gs col0 s gr

% Polyline
n 5175 8415 m
 5078 8415 l gs col0 s gr 
% Polyline
n 5468 8370 m 5468 8460 l 5175 8460 l 5175 8370 l
 cp gs col0 s gr 
% Polyline
n 5565 8415 m
 5468 8415 l gs col0 s gr 
% Polyline
n 6296 8190 m
 6199 8190 l gs col0 s gr 
% Polyline
n 6589 8145 m 6589 8235 l 6296 8235 l 6296 8145 l
 cp gs col0 s gr 
% Polyline
n 6686 8190 m
 6589 8190 l gs col0 s gr 
% Ellipse
n 5663 8415 22 20 0 360 DrawEllipse gs 0.00 setgray ef gr gs col0 s gr

% Polyline
n 6345 6255 m
 6255 6255 l gs col0 s gr 
% Polyline
n 6615 6210 m 6615 6300 l 6345 6300 l 6345 6210 l
 cp gs col0 s gr 
% Polyline
n 6705 6255 m
 6615 6255 l gs col0 s gr 
% Ellipse
n 6255 6255 20 20 0 360 DrawEllipse gs 0.00 setgray ef gr gs col0 s gr

% Polyline
n 5310 6030 m
 5221 6030 l gs col0 s gr 
% Polyline
n 5580 5985 m 5580 6075 l 5310 6075 l 5310 5985 l
 cp gs col0 s gr 
% Polyline
n 5670 6030 m
 5580 6030 l gs col0 s gr 
% Polyline
n 6345 5310 m
 6255 5310 l gs col0 s gr 
% Polyline
n 6615 5265 m 6615 5355 l 6345 5355 l 6345 5265 l
 cp gs col0 s gr 
% Polyline
n 6705 5310 m
 6615 5310 l gs col0 s gr 
% Ellipse
n 6255 5310 20 20 0 360 DrawEllipse gs 0.00 setgray ef gr gs col0 s gr

% Polyline
n 5310 5085 m
 5221 5085 l gs col0 s gr 
% Polyline
n 5580 5040 m 5580 5130 l 5310 5130 l 5310 5040 l
 cp gs col0 s gr 
% Polyline
n 5670 5085 m
 5580 5085 l gs col0 s gr 
% Ellipse
n 5760 5085 20 20 0 360 DrawEllipse gs 0.00 setgray ef gr gs col0 s gr

% Polyline
n 5760 810 m
 5670 810 l gs col0 s gr 
% Polyline
n 6030 765 m 6030 855 l 5760 855 l 5760 765 l
 cp gs col0 s gr 
% Polyline
n 6120 810 m
 6030 810 l gs col0 s gr 
% Polyline
n 4860 585 m
 4770 585 l gs col0 s gr 
% Polyline
n 5130 540 m 5130 630 l 4860 630 l 4860 540 l
 cp gs col0 s gr 
% Polyline
n 5220 585 m
 5130 585 l gs col0 s gr 
% Ellipse
n 5670 810 20 20 0 360 DrawEllipse gs 0.00 setgray ef gr gs col0 s gr

% Polyline
n 7200 810 m
 7110 810 l gs col0 s gr 
% Polyline
n 7470 765 m 7470 855 l 7200 855 l 7200 765 l
 cp gs col0 s gr 
% Polyline
n 7560 810 m
 7470 810 l gs col0 s gr 
% Ellipse
n 7110 810 20 20 0 360 DrawEllipse gs 0.00 setgray ef gr gs col0 s gr

% Polyline
n 9225 810 m
 9135 810 l gs col0 s gr 
% Polyline
n 9495 765 m 9495 855 l 9225 855 l 9225 765 l
 cp gs col0 s gr 
% Polyline
n 9585 810 m
 9495 810 l gs col0 s gr 
% Polyline
n 8325 585 m
 8235 585 l gs col0 s gr 
% Polyline
n 8595 540 m 8595 630 l 8325 630 l 8325 540 l
 cp gs col0 s gr 
% Polyline
n 8685 585 m
 8595 585 l gs col0 s gr 
% Ellipse
n 9135 810 20 20 0 360 DrawEllipse gs 0.00 setgray ef gr gs col0 s gr

% Polyline
n 6480 1665 m
 6390 1665 l gs col0 s gr 
% Polyline
n 6750 1620 m 6750 1710 l 6480 1710 l 6480 1620 l
 cp gs col0 s gr 
% Polyline
n 6840 1665 m
 6750 1665 l gs col0 s gr 
% Polyline
n 7380 1440 m
 7290 1440 l gs col0 s gr 
% Polyline
n 7650 1395 m 7650 1485 l 7380 1485 l 7380 1395 l
 cp gs col0 s gr 
% Polyline
n 7740 1440 m
 7650 1440 l gs col0 s gr 
% Ellipse
n 7290 1440 20 20 0 360 DrawEllipse gs 0.00 setgray ef gr gs col0 s gr

% Polyline
n 5310 1440 m
 5220 1440 l gs col0 s gr 
% Polyline
n 5580 1395 m 5580 1485 l 5310 1485 l 5310 1395 l
 cp gs col0 s gr 
% Polyline
n 5670 1440 m
 5580 1440 l gs col0 s gr 
% Ellipse
n 5220 1440 20 20 0 360 DrawEllipse gs 0.00 setgray ef gr gs col0 s gr

% here ends figure;
pagefooter
showpage
%%Trailer
%EOF

%%EndDocument
 @endspecial Black Black eop end
%%Trailer

userdict /end-hook known{end-hook}if
%%EOF
