%!PS-Adobe-2.0
%%Creator: dvips(k) 5.993 Copyright 2013 Radical Eye Software
%%Title: job-001.dvi
%%CreationDate: Mon Apr  6 22:22:58 2015
%%Pages: 1
%%PageOrder: Ascend
%%BoundingBox: 156 2716 384 3230
%%EndComments
%DVIPSWebPage: (www.radicaleye.com)
%DVIPSCommandLine: dvips job-001.dvi -o job-001.dvips.ps
%DVIPSParameters: dpi=600
%DVIPSSource:  TeX output 2015.04.06:2222
%%BeginProcSet: tex.pro 0 0
%!
/TeXDict 300 dict def TeXDict begin/N{def}def/B{bind def}N/S{exch}N/X{S
N}B/A{dup}B/TR{translate}N/isls false N/vsize 11 72 mul N/hsize 8.5 72
mul N/landplus90{false}def/@rigin{isls{[0 landplus90{1 -1}{-1 1}ifelse 0
0 0]concat}if 72 Resolution div 72 VResolution div neg scale isls{
landplus90{VResolution 72 div vsize mul 0 exch}{Resolution -72 div hsize
mul 0}ifelse TR}if Resolution VResolution vsize -72 div 1 add mul TR[
matrix currentmatrix{A A round sub abs 0.00001 lt{round}if}forall round
exch round exch]setmatrix}N/@landscape{/isls true N}B/@manualfeed{
statusdict/manualfeed true put}B/@copies{/#copies X}B/FMat[1 0 0 -1 0 0]
N/FBB[0 0 0 0]N/nn 0 N/IEn 0 N/ctr 0 N/df-tail{/nn 8 dict N nn begin
/FontType 3 N/FontMatrix fntrx N/FontBBox FBB N string/base X array
/BitMaps X/BuildChar{CharBuilder}N/Encoding IEn N end A{/foo setfont}2
array copy cvx N load 0 nn put/ctr 0 N[}B/sf 0 N/df{/sf 1 N/fntrx FMat N
df-tail}B/dfs{div/sf X/fntrx[sf 0 0 sf neg 0 0]N df-tail}B/E{pop nn A
definefont setfont}B/Cw{Cd A length 5 sub get}B/Ch{Cd A length 4 sub get
}B/Cx{128 Cd A length 3 sub get sub}B/Cy{Cd A length 2 sub get 127 sub}
B/Cdx{Cd A length 1 sub get}B/Ci{Cd A type/stringtype ne{ctr get/ctr ctr
1 add N}if}B/CharBuilder{save 3 1 roll S A/base get 2 index get S
/BitMaps get S get/Cd X pop/ctr 0 N Cdx 0 Cx Cy Ch sub Cx Cw add Cy
setcachedevice Cw Ch true[1 0 0 -1 -.1 Cx sub Cy .1 sub]{Ci}imagemask
restore}B/D{/cc X A type/stringtype ne{]}if nn/base get cc ctr put nn
/BitMaps get S ctr S sf 1 ne{A A length 1 sub A 2 index S get sf div put
}if put/ctr ctr 1 add N}B/I{cc 1 add D}B/bop{userdict/bop-hook known{
bop-hook}if/SI save N @rigin 0 0 moveto/V matrix currentmatrix A 1 get A
mul exch 0 get A mul add .99 lt{/QV}{/RV}ifelse load def pop pop}N/eop{
SI restore userdict/eop-hook known{eop-hook}if showpage}N/@start{
userdict/start-hook known{start-hook}if pop/VResolution X/Resolution X
1000 div/DVImag X/IEn 256 array N 2 string 0 1 255{IEn S A 360 add 36 4
index cvrs cvn put}for pop 65781.76 div/vsize X 65781.76 div/hsize X}N
/dir 0 def/dyy{/dir 0 def}B/dyt{/dir 1 def}B/dty{/dir 2 def}B/dtt{/dir 3
def}B/p{dir 2 eq{-90 rotate show 90 rotate}{dir 3 eq{-90 rotate show 90
rotate}{show}ifelse}ifelse}N/RMat[1 0 0 -1 0 0]N/BDot 260 string N/Rx 0
N/Ry 0 N/V{}B/RV/v{/Ry X/Rx X V}B statusdict begin/product where{pop
false[(Display)(NeXT)(LaserWriter 16/600)]{A length product length le{A
length product exch 0 exch getinterval eq{pop true exit}if}{pop}ifelse}
forall}{false}ifelse end{{gsave TR -.1 .1 TR 1 1 scale Rx Ry false RMat{
BDot}imagemask grestore}}{{gsave TR -.1 .1 TR Rx Ry scale 1 1 false RMat
{BDot}imagemask grestore}}ifelse B/QV{gsave newpath transform round exch
round exch itransform moveto Rx 0 rlineto 0 Ry neg rlineto Rx neg 0
rlineto fill grestore}B/a{moveto}B/delta 0 N/tail{A/delta X 0 rmoveto}B
/M{S p delta add tail}B/b{S p tail}B/c{-4 M}B/d{-3 M}B/e{-2 M}B/f{-1 M}
B/g{0 M}B/h{1 M}B/i{2 M}B/j{3 M}B/k{4 M}B/w{0 rmoveto}B/l{p -4 w}B/m{p
-3 w}B/n{p -2 w}B/o{p -1 w}B/q{p 1 w}B/r{p 2 w}B/s{p 3 w}B/t{p 4 w}B/x{
0 S rmoveto}B/y{3 2 roll p a}B/bos{/SS save N}B/eos{SS restore}B end

%%EndProcSet
%%BeginProcSet: special.pro 0 0
%!
TeXDict begin/SDict 200 dict N SDict begin/@SpecialDefaults{/hs 612 N
/vs 792 N/ho 0 N/vo 0 N/hsc 1 N/vsc 1 N/ang 0 N/CLIP 0 N/rwiSeen false N
/rhiSeen false N/letter{}N/note{}N/a4{}N/legal{}N}B/@scaleunit 100 N
/@hscale{@scaleunit div/hsc X}B/@vscale{@scaleunit div/vsc X}B/@hsize{
/hs X/CLIP 1 N}B/@vsize{/vs X/CLIP 1 N}B/@clip{/CLIP 2 N}B/@hoffset{/ho
X}B/@voffset{/vo X}B/@angle{/ang X}B/@rwi{10 div/rwi X/rwiSeen true N}B
/@rhi{10 div/rhi X/rhiSeen true N}B/@llx{/llx X}B/@lly{/lly X}B/@urx{
/urx X}B/@ury{/ury X}B/magscale true def end/@MacSetUp{userdict/md known
{userdict/md get type/dicttype eq{userdict begin md length 10 add md
maxlength ge{/md md dup length 20 add dict copy def}if end md begin
/letter{}N/note{}N/legal{}N/od{txpose 1 0 mtx defaultmatrix dtransform S
atan/pa X newpath clippath mark{transform{itransform moveto}}{transform{
itransform lineto}}{6 -2 roll transform 6 -2 roll transform 6 -2 roll
transform{itransform 6 2 roll itransform 6 2 roll itransform 6 2 roll
curveto}}{{closepath}}pathforall newpath counttomark array astore/gc xdf
pop ct 39 0 put 10 fz 0 fs 2 F/|______Courier fnt invertflag{PaintBlack}
if}N/txpose{pxs pys scale ppr aload pop por{noflips{pop S neg S TR pop 1
-1 scale}if xflip yflip and{pop S neg S TR 180 rotate 1 -1 scale ppr 3
get ppr 1 get neg sub neg ppr 2 get ppr 0 get neg sub neg TR}if xflip
yflip not and{pop S neg S TR pop 180 rotate ppr 3 get ppr 1 get neg sub
neg 0 TR}if yflip xflip not and{ppr 1 get neg ppr 0 get neg TR}if}{
noflips{TR pop pop 270 rotate 1 -1 scale}if xflip yflip and{TR pop pop
90 rotate 1 -1 scale ppr 3 get ppr 1 get neg sub neg ppr 2 get ppr 0 get
neg sub neg TR}if xflip yflip not and{TR pop pop 90 rotate ppr 3 get ppr
1 get neg sub neg 0 TR}if yflip xflip not and{TR pop pop 270 rotate ppr
2 get ppr 0 get neg sub neg 0 S TR}if}ifelse scaleby96{ppr aload pop 4
-1 roll add 2 div 3 1 roll add 2 div 2 copy TR .96 dup scale neg S neg S
TR}if}N/cp{pop pop showpage pm restore}N end}if}if}N/normalscale{
Resolution 72 div VResolution 72 div neg scale magscale{DVImag dup scale
}if 0 setgray}N/psfts{S 65781.76 div N}N/startTexFig{/psf$SavedState
save N userdict maxlength dict begin/magscale true def normalscale
currentpoint TR/psf$ury psfts/psf$urx psfts/psf$lly psfts/psf$llx psfts
/psf$y psfts/psf$x psfts currentpoint/psf$cy X/psf$cx X/psf$sx psf$x
psf$urx psf$llx sub div N/psf$sy psf$y psf$ury psf$lly sub div N psf$sx
psf$sy scale psf$cx psf$sx div psf$llx sub psf$cy psf$sy div psf$ury sub
TR/showpage{}N/erasepage{}N/setpagedevice{pop}N/copypage{}N/p 3 def
@MacSetUp}N/doclip{psf$llx psf$lly psf$urx psf$ury currentpoint 6 2 roll
newpath 4 copy 4 2 roll moveto 6 -1 roll S lineto S lineto S lineto
closepath clip newpath moveto}N/endTexFig{end psf$SavedState restore}N
/@beginspecial{SDict begin/SpecialSave save N gsave normalscale
currentpoint TR @SpecialDefaults count/ocount X/dcount countdictstack N}
N/@setspecial{CLIP 1 eq{newpath 0 0 moveto hs 0 rlineto 0 vs rlineto hs
neg 0 rlineto closepath clip}if ho vo TR hsc vsc scale ang rotate
rwiSeen{rwi urx llx sub div rhiSeen{rhi ury lly sub div}{dup}ifelse
scale llx neg lly neg TR}{rhiSeen{rhi ury lly sub div dup scale llx neg
lly neg TR}if}ifelse CLIP 2 eq{newpath llx lly moveto urx lly lineto urx
ury lineto llx ury lineto closepath clip}if/showpage{}N/erasepage{}N
/setpagedevice{pop}N/copypage{}N newpath}N/@endspecial{count ocount sub{
pop}repeat countdictstack dcount sub{end}repeat grestore SpecialSave
restore end}N/@defspecial{SDict begin}N/@fedspecial{end}B/li{lineto}B
/rl{rlineto}B/rc{rcurveto}B/np{/SaveX currentpoint/SaveY X N 1
setlinecap newpath}N/st{stroke SaveX SaveY moveto}N/fil{fill SaveX SaveY
moveto}N/ellipse{/endangle X/startangle X/yrad X/xrad X/savematrix
matrix currentmatrix N TR xrad yrad scale 0 0 1 startangle endangle arc
savematrix setmatrix}N end

%%EndProcSet
%%BeginProcSet: color.pro 0 0
%!
TeXDict begin/setcmykcolor where{pop}{/setcmykcolor{dup 10 eq{pop
setrgbcolor}{1 sub 4 1 roll 3{3 index add neg dup 0 lt{pop 0}if 3 1 roll
}repeat setrgbcolor pop}ifelse}B}ifelse/TeXcolorcmyk{setcmykcolor}def
/TeXcolorrgb{setrgbcolor}def/TeXcolorgrey{setgray}def/TeXcolorgray{
setgray}def/TeXcolorhsb{sethsbcolor}def/currentcmykcolor where{pop}{
/currentcmykcolor{currentrgbcolor 10}B}ifelse/DC{exch dup userdict exch
known{pop pop}{X}ifelse}B/GreenYellow{0.15 0 0.69 0 setcmykcolor}DC
/Yellow{0 0 1 0 setcmykcolor}DC/Goldenrod{0 0.10 0.84 0 setcmykcolor}DC
/Dandelion{0 0.29 0.84 0 setcmykcolor}DC/Apricot{0 0.32 0.52 0
setcmykcolor}DC/Peach{0 0.50 0.70 0 setcmykcolor}DC/Melon{0 0.46 0.50 0
setcmykcolor}DC/YellowOrange{0 0.42 1 0 setcmykcolor}DC/Orange{0 0.61
0.87 0 setcmykcolor}DC/BurntOrange{0 0.51 1 0 setcmykcolor}DC
/Bittersweet{0 0.75 1 0.24 setcmykcolor}DC/RedOrange{0 0.77 0.87 0
setcmykcolor}DC/Mahogany{0 0.85 0.87 0.35 setcmykcolor}DC/Maroon{0 0.87
0.68 0.32 setcmykcolor}DC/BrickRed{0 0.89 0.94 0.28 setcmykcolor}DC/Red{
0 1 1 0 setcmykcolor}DC/OrangeRed{0 1 0.50 0 setcmykcolor}DC/RubineRed{
0 1 0.13 0 setcmykcolor}DC/WildStrawberry{0 0.96 0.39 0 setcmykcolor}DC
/Salmon{0 0.53 0.38 0 setcmykcolor}DC/CarnationPink{0 0.63 0 0
setcmykcolor}DC/Magenta{0 1 0 0 setcmykcolor}DC/VioletRed{0 0.81 0 0
setcmykcolor}DC/Rhodamine{0 0.82 0 0 setcmykcolor}DC/Mulberry{0.34 0.90
0 0.02 setcmykcolor}DC/RedViolet{0.07 0.90 0 0.34 setcmykcolor}DC
/Fuchsia{0.47 0.91 0 0.08 setcmykcolor}DC/Lavender{0 0.48 0 0
setcmykcolor}DC/Thistle{0.12 0.59 0 0 setcmykcolor}DC/Orchid{0.32 0.64 0
0 setcmykcolor}DC/DarkOrchid{0.40 0.80 0.20 0 setcmykcolor}DC/Purple{
0.45 0.86 0 0 setcmykcolor}DC/Plum{0.50 1 0 0 setcmykcolor}DC/Violet{
0.79 0.88 0 0 setcmykcolor}DC/RoyalPurple{0.75 0.90 0 0 setcmykcolor}DC
/BlueViolet{0.86 0.91 0 0.04 setcmykcolor}DC/Periwinkle{0.57 0.55 0 0
setcmykcolor}DC/CadetBlue{0.62 0.57 0.23 0 setcmykcolor}DC
/CornflowerBlue{0.65 0.13 0 0 setcmykcolor}DC/MidnightBlue{0.98 0.13 0
0.43 setcmykcolor}DC/NavyBlue{0.94 0.54 0 0 setcmykcolor}DC/RoyalBlue{1
0.50 0 0 setcmykcolor}DC/Blue{1 1 0 0 setcmykcolor}DC/Cerulean{0.94 0.11
0 0 setcmykcolor}DC/Cyan{1 0 0 0 setcmykcolor}DC/ProcessBlue{0.96 0 0 0
setcmykcolor}DC/SkyBlue{0.62 0 0.12 0 setcmykcolor}DC/Turquoise{0.85 0
0.20 0 setcmykcolor}DC/TealBlue{0.86 0 0.34 0.02 setcmykcolor}DC
/Aquamarine{0.82 0 0.30 0 setcmykcolor}DC/BlueGreen{0.85 0 0.33 0
setcmykcolor}DC/Emerald{1 0 0.50 0 setcmykcolor}DC/JungleGreen{0.99 0
0.52 0 setcmykcolor}DC/SeaGreen{0.69 0 0.50 0 setcmykcolor}DC/Green{1 0
1 0 setcmykcolor}DC/ForestGreen{0.91 0 0.88 0.12 setcmykcolor}DC
/PineGreen{0.92 0 0.59 0.25 setcmykcolor}DC/LimeGreen{0.50 0 1 0
setcmykcolor}DC/YellowGreen{0.44 0 0.74 0 setcmykcolor}DC/SpringGreen{
0.26 0 0.76 0 setcmykcolor}DC/OliveGreen{0.64 0 0.95 0.40 setcmykcolor}
DC/RawSienna{0 0.72 1 0.45 setcmykcolor}DC/Sepia{0 0.83 1 0.70
setcmykcolor}DC/Brown{0 0.81 1 0.60 setcmykcolor}DC/Tan{0.14 0.42 0.56 0
setcmykcolor}DC/Gray{0 0 0 0.50 setcmykcolor}DC/Black{0 0 0 1
setcmykcolor}DC/White{0 0 0 0 setcmykcolor}DC end

%%EndProcSet
TeXDict begin 156819571 221710428 1000 600 600 (job-001.dvi)
@start end
%%EndProlog
%%BeginSetup
%%Feature: *Resolution 600dpi
TeXDict begin
 end
%%EndSetup
%%Page: 1 1
TeXDict begin 1 0 bop Black Black 706 4843 a @beginspecial
0 @llx 0 @lly 227 @urx 512 @ury 2270 @rwi @setspecial
%%BeginDocument: job-001.fig2dev.ps
%!PS-Adobe-3.0 EPSF-3.0
%%Title: job-001.fig
%%Creator: fig2dev Version 3.2 Patchlevel 5e
%%CreationDate: Mon Apr  6 22:22:58 2015
%%BoundingBox: 156 2716 384 3230
%Magnification: 0.7500
%%EndComments
%%BeginProlog
/$F2psDict 200 dict def
$F2psDict begin
$F2psDict /mtrx matrix put
/col-1 {0 setgray} bind def
/col0 {0.000 0.000 0.000 srgb} bind def
/col1 {0.000 0.000 1.000 srgb} bind def
/col2 {0.000 1.000 0.000 srgb} bind def
/col3 {0.000 1.000 1.000 srgb} bind def
/col4 {1.000 0.000 0.000 srgb} bind def
/col5 {1.000 0.000 1.000 srgb} bind def
/col6 {1.000 1.000 0.000 srgb} bind def
/col7 {1.000 1.000 1.000 srgb} bind def
/col8 {0.000 0.000 0.560 srgb} bind def
/col9 {0.000 0.000 0.690 srgb} bind def
/col10 {0.000 0.000 0.820 srgb} bind def
/col11 {0.530 0.810 1.000 srgb} bind def
/col12 {0.000 0.560 0.000 srgb} bind def
/col13 {0.000 0.690 0.000 srgb} bind def
/col14 {0.000 0.820 0.000 srgb} bind def
/col15 {0.000 0.560 0.560 srgb} bind def
/col16 {0.000 0.690 0.690 srgb} bind def
/col17 {0.000 0.820 0.820 srgb} bind def
/col18 {0.560 0.000 0.000 srgb} bind def
/col19 {0.690 0.000 0.000 srgb} bind def
/col20 {0.820 0.000 0.000 srgb} bind def
/col21 {0.560 0.000 0.560 srgb} bind def
/col22 {0.690 0.000 0.690 srgb} bind def
/col23 {0.820 0.000 0.820 srgb} bind def
/col24 {0.500 0.190 0.000 srgb} bind def
/col25 {0.630 0.250 0.000 srgb} bind def
/col26 {0.750 0.380 0.000 srgb} bind def
/col27 {1.000 0.500 0.500 srgb} bind def
/col28 {1.000 0.630 0.630 srgb} bind def
/col29 {1.000 0.750 0.750 srgb} bind def
/col30 {1.000 0.880 0.880 srgb} bind def
/col31 {1.000 0.840 0.000 srgb} bind def
/col32 {0.761 0.761 0.761 srgb} bind def
/col33 {0.431 0.431 0.431 srgb} bind def
/col34 {0.267 0.267 0.267 srgb} bind def
/col35 {0.557 0.561 0.557 srgb} bind def
/col36 {0.443 0.443 0.443 srgb} bind def
/col37 {0.682 0.682 0.682 srgb} bind def
/col38 {0.200 0.200 0.200 srgb} bind def
/col39 {0.580 0.576 0.584 srgb} bind def
/col40 {0.455 0.439 0.459 srgb} bind def
/col41 {0.333 0.333 0.333 srgb} bind def
/col42 {0.702 0.702 0.702 srgb} bind def
/col43 {0.765 0.765 0.765 srgb} bind def
/col44 {0.427 0.427 0.427 srgb} bind def
/col45 {0.271 0.271 0.271 srgb} bind def
/col46 {0.557 0.557 0.557 srgb} bind def
/col47 {0.906 0.906 0.906 srgb} bind def
/col48 {0.443 0.459 0.443 srgb} bind def
/col49 {0.851 0.851 0.851 srgb} bind def
/col50 {0.337 0.620 0.690 srgb} bind def
/col51 {0.255 0.271 0.255 srgb} bind def
/col52 {0.753 0.753 0.753 srgb} bind def
/col53 {0.886 0.886 0.933 srgb} bind def
/col54 {0.580 0.580 0.604 srgb} bind def
/col55 {0.859 0.859 0.859 srgb} bind def
/col56 {0.631 0.631 0.718 srgb} bind def
/col57 {0.612 0.000 0.000 srgb} bind def
/col58 {0.929 0.929 0.929 srgb} bind def
/col59 {0.878 0.878 0.878 srgb} bind def
/col60 {0.525 0.675 1.000 srgb} bind def
/col61 {0.439 0.439 1.000 srgb} bind def

end

/cp {closepath} bind def
/ef {eofill} bind def
/gr {grestore} bind def
/gs {gsave} bind def
/sa {save} bind def
/rs {restore} bind def
/l {lineto} bind def
/m {moveto} bind def
/rm {rmoveto} bind def
/n {newpath} bind def
/s {stroke} bind def
/sh {show} bind def
/slc {setlinecap} bind def
/slj {setlinejoin} bind def
/slw {setlinewidth} bind def
/srgb {setrgbcolor} bind def
/rot {rotate} bind def
/sc {scale} bind def
/sd {setdash} bind def
/ff {findfont} bind def
/sf {setfont} bind def
/scf {scalefont} bind def
/sw {stringwidth} bind def
/tr {translate} bind def
/tnt {dup dup currentrgbcolor
  4 -2 roll dup 1 exch sub 3 -1 roll mul add
  4 -2 roll dup 1 exch sub 3 -1 roll mul add
  4 -2 roll dup 1 exch sub 3 -1 roll mul add srgb}
  bind def
/shd {dup dup currentrgbcolor 4 -2 roll mul 4 -2 roll mul
  4 -2 roll mul srgb} bind def
/reencdict 12 dict def /ReEncode { reencdict begin
/newcodesandnames exch def /newfontname exch def /basefontname exch def
/basefontdict basefontname findfont def /newfont basefontdict maxlength dict def
basefontdict { exch dup /FID ne { dup /Encoding eq
{ exch dup length array copy newfont 3 1 roll put }
{ exch newfont 3 1 roll put } ifelse } { pop pop } ifelse } forall
newfont /FontName newfontname put newcodesandnames aload pop
128 1 255 { newfont /Encoding get exch /.notdef put } for
newcodesandnames length 2 idiv { newfont /Encoding get 3 1 roll put } repeat
newfontname newfont definefont pop end } def
/isovec [
8#055 /minus 8#200 /grave 8#201 /acute 8#202 /circumflex 8#203 /tilde
8#204 /macron 8#205 /breve 8#206 /dotaccent 8#207 /dieresis
8#210 /ring 8#211 /cedilla 8#212 /hungarumlaut 8#213 /ogonek 8#214 /caron
8#220 /dotlessi 8#230 /oe 8#231 /OE
8#240 /space 8#241 /exclamdown 8#242 /cent 8#243 /sterling
8#244 /currency 8#245 /yen 8#246 /brokenbar 8#247 /section 8#250 /dieresis
8#251 /copyright 8#252 /ordfeminine 8#253 /guillemotleft 8#254 /logicalnot
8#255 /hyphen 8#256 /registered 8#257 /macron 8#260 /degree 8#261 /plusminus
8#262 /twosuperior 8#263 /threesuperior 8#264 /acute 8#265 /mu 8#266 /paragraph
8#267 /periodcentered 8#270 /cedilla 8#271 /onesuperior 8#272 /ordmasculine
8#273 /guillemotright 8#274 /onequarter 8#275 /onehalf
8#276 /threequarters 8#277 /questiondown 8#300 /Agrave 8#301 /Aacute
8#302 /Acircumflex 8#303 /Atilde 8#304 /Adieresis 8#305 /Aring
8#306 /AE 8#307 /Ccedilla 8#310 /Egrave 8#311 /Eacute
8#312 /Ecircumflex 8#313 /Edieresis 8#314 /Igrave 8#315 /Iacute
8#316 /Icircumflex 8#317 /Idieresis 8#320 /Eth 8#321 /Ntilde 8#322 /Ograve
8#323 /Oacute 8#324 /Ocircumflex 8#325 /Otilde 8#326 /Odieresis 8#327 /multiply
8#330 /Oslash 8#331 /Ugrave 8#332 /Uacute 8#333 /Ucircumflex
8#334 /Udieresis 8#335 /Yacute 8#336 /Thorn 8#337 /germandbls 8#340 /agrave
8#341 /aacute 8#342 /acircumflex 8#343 /atilde 8#344 /adieresis 8#345 /aring
8#346 /ae 8#347 /ccedilla 8#350 /egrave 8#351 /eacute
8#352 /ecircumflex 8#353 /edieresis 8#354 /igrave 8#355 /iacute
8#356 /icircumflex 8#357 /idieresis 8#360 /eth 8#361 /ntilde 8#362 /ograve
8#363 /oacute 8#364 /ocircumflex 8#365 /otilde 8#366 /odieresis 8#367 /divide
8#370 /oslash 8#371 /ugrave 8#372 /uacute 8#373 /ucircumflex
8#374 /udieresis 8#375 /yacute 8#376 /thorn 8#377 /ydieresis] def
/Times-Roman /Times-Roman-iso isovec ReEncode
 /DrawEllipse {
	/endangle exch def
	/startangle exch def
	/yrad exch def
	/xrad exch def
	/y exch def
	/x exch def
	/savematrix mtrx currentmatrix def
	x y tr xrad yrad sc 0 0 1 startangle endangle arc
	closepath
	savematrix setmatrix
	} def

/$F2psBegin {$F2psDict begin /$F2psEnteredState save def} def
/$F2psEnd {$F2psEnteredState restore end} def

/pageheader {
save
newpath 0 512 moveto 0 0 lineto 227 0 lineto 227 512 lineto closepath clip newpath
-7.9 585.2 translate
1 -1 scale
$F2psBegin
10 setmiterlimit
0 slj 0 slc
 0.04724 0.04724 sc
} bind def
/pagefooter {
$F2psEnd
restore
} bind def
%%EndProlog
pageheader
%
% Fig objects follow
%
% 
% here starts figure with depth 80
% Polyline
0 slj
0 slc
7.500 slw
n 3594 4328 m 4408 4900 l 3594 5471 l 2781 4900 l
 cp gs col7 1.00 shd ef gr gs col-1 s gr 
% Polyline
n 3432 6442 m 4048 6882 l 3432 7321 l 2817 6882 l
 cp gs col7 1.00 shd ef gr gs col-1 s gr 
% Polyline
n 3432 8872 m 4048 9312 l 3432 9751 l 2817 9312 l
 cp gs col7 1.00 shd ef gr gs col-1 s gr 
% Polyline
n 3414 11074 m 4012 11515 l 3414 11956 l 2816 11515 l
 cp gs col7 1.00 shd ef gr gs col-1 s gr 
% Polyline
n 3432 7657 m 4048 8097 l 3432 8536 l 2817 8097 l
 cp gs col7 1.00 shd ef gr gs col-1 s gr 
% here ends figure;
% 
% here starts figure with depth 61
/Times-Roman-iso ff 135.00 scf sf
3465 8055 m
gs 1 -1 sc (tpx > 977) dup sw pop 2 div neg 0 rm  col0 sh gr
% Ellipse
7.500 slw
n 2075 2430 68 63 0 360 DrawEllipse gs col0 s gr

% Ellipse
n 2075 2880 68 63 0 360 DrawEllipse gs col0 s gr

% Ellipse
n 4415 2430 68 63 0 360 DrawEllipse gs col0 s gr

% Ellipse
n 4415 2880 68 63 0 360 DrawEllipse gs col0 s gr

% Ellipse
n 2803 2655 68 63 0 360 DrawEllipse gs col0 s gr

% Ellipse
n 2075 3915 68 63 0 360 DrawEllipse gs col0 s gr

% Ellipse
n 4415 3465 68 63 0 360 DrawEllipse gs col0 s gr

% Ellipse
n 4415 3915 68 63 0 360 DrawEllipse gs col0 s gr

% Ellipse
n 2068 6119 68 63 0 360 DrawEllipse gs col0 s gr

% Ellipse
n 2062 6567 68 63 0 360 DrawEllipse gs col0 s gr

% Ellipse
n 463 7515 68 63 0 360 DrawEllipse gs col0 s gr

% Ellipse
n 2066 7293 68 63 0 360 DrawEllipse gs col0 s gr

% Ellipse
n 2072 7738 68 63 0 360 DrawEllipse gs col0 s gr

% Ellipse
n 2066 8508 68 63 0 360 DrawEllipse gs col0 s gr

% Ellipse
n 2072 8953 68 63 0 360 DrawEllipse gs col0 s gr

% Ellipse
n 2066 10758 68 63 0 360 DrawEllipse gs col0 s gr

% Ellipse
n 2072 11203 68 63 0 360 DrawEllipse gs col0 s gr

% Ellipse
n 2072 10168 68 63 0 360 DrawEllipse gs col0 s gr

% Ellipse
n 2064 9721 68 63 0 360 DrawEllipse gs col0 s gr

/Times-Roman-iso ff 135.00 scf sf
3465 8235 m
gs 1 -1 sc (hpx < 733) dup sw pop 2 div neg 0 rm  col0 sh gr
% here ends figure;
% 
% here starts figure with depth 50
% Polyline
0 slj
0 slc
7.500 slw
n 2033 2430 m
 2118 2430 l gs col0 s gr 
% Polyline
n 2075 2392 m
 2075 2468 l gs col0 s gr 
% Polyline
n 2038 2880 m
 2117 2880 l gs col0 s gr 
% Ellipse
n 1324 2655 195 180 0 360 DrawEllipse gs col0 s gr

% Polyline
n 1430 2512 m
 1523 2426 l gs col0 s gr 
% Polyline
n 1433 2801 m
 1525 2886 l gs col0 s gr 
% Polyline
n 1129 2655 m
 1031 2655 l gs col0 s gr 
% Polyline
n 180 2250 m 2250 2250 l 2250 3060 l 180 3060 l
 cp gs col0 s gr 
% Polyline
n 1856 3060 m 1864 3060 l gs col0 s gr
% Polyline
n 1519 2880 m
 2006 2880 l gs col0 s gr 
% Polyline
n 1035 2655 m
 859 2655 l gs col0 s gr 
% Polyline
n 4373 2430 m
 4458 2430 l gs col0 s gr 
% Polyline
n 4415 2392 m
 4415 2468 l gs col0 s gr 
% Polyline
n 4378 2880 m
 4457 2880 l gs col0 s gr 
% Polyline
n 2520 2250 m 4590 2250 l 4590 3060 l 2520 3060 l
 cp gs col0 s gr 
% Polyline
n 2766 2655 m
 2845 2655 l gs col0 s gr 
% Ellipse
n 3664 2655 195 180 0 360 DrawEllipse gs col0 s gr

% Polyline
n 3770 2512 m
 3863 2426 l gs col0 s gr 
% Polyline
n 3773 2801 m
 3865 2886 l gs col0 s gr 
% Polyline
n 3469 2655 m
 3371 2655 l gs col0 s gr 
% Polyline
n 2038 3915 m
 2117 3915 l gs col0 s gr 
% Polyline
n 180 3285 m 2250 3285 l 2250 4095 l 180 4095 l
 cp gs col0 s gr 
% Ellipse
n 1324 3690 195 180 0 360 DrawEllipse gs col0 s gr

% Polyline
n 1430 3547 m
 1523 3461 l gs col0 s gr 
% Polyline
n 1433 3836 m
 1525 3921 l gs col0 s gr 
% Polyline
n 1129 3690 m
 1031 3690 l gs col0 s gr 
% Polyline
n 4373 3465 m
 4458 3465 l gs col0 s gr 
% Polyline
n 4415 3427 m
 4415 3503 l gs col0 s gr 
% Polyline
n 4378 3915 m
 4457 3915 l gs col0 s gr 
% Ellipse
n 3664 3690 195 180 0 360 DrawEllipse gs col0 s gr

% Polyline
n 3770 3547 m
 3863 3461 l gs col0 s gr 
% Polyline
n 3773 3836 m
 3865 3921 l gs col0 s gr 
% Polyline
n 3469 3690 m
 3371 3690 l gs col0 s gr 
% Polyline
n 2520 3285 m 4590 3285 l 4590 4095 l 2520 4095 l
 cp gs col0 s gr 
% Polyline
n 4196 4095 m 4204 4095 l gs col0 s gr
% Polyline
n 3859 3915 m
 4346 3915 l gs col0 s gr 
% Polyline
n 3375 3690 m
 3199 3690 l gs col0 s gr 
% Ellipse
n 1324 6345 195 180 0 360 DrawEllipse gs col0 s gr

% Polyline
n 1430 6202 m
 1523 6116 l gs col0 s gr 
% Polyline
n 1433 6491 m
 1525 6576 l gs col0 s gr 
% Polyline
n 1129 6345 m
 1031 6345 l gs col0 s gr 
% Polyline
n 180 5940 m 2250 5940 l 2250 6750 l 180 6750 l
 cp gs col0 s gr 
% Polyline
n 2031 6119 m
 2110 6119 l gs col0 s gr 
% Polyline
n 2020 6567 m
 2105 6567 l gs col0 s gr 
% Polyline
n 2062 6529 m
 2062 6605 l gs col0 s gr 
% Ellipse
n 1324 7515 195 180 0 360 DrawEllipse gs col0 s gr

% Polyline
n 1430 7372 m
 1523 7286 l gs col0 s gr 
% Polyline
n 1433 7661 m
 1525 7746 l gs col0 s gr 
% Polyline
n 1129 7515 m
 1031 7515 l gs col0 s gr 
% Polyline
n 180 7110 m 2250 7110 l 2250 7920 l 180 7920 l
 cp gs col0 s gr 
% Polyline
n 426 7515 m
 505 7515 l gs col0 s gr 
% Polyline
n 2029 7293 m
 2108 7293 l gs col0 s gr 
% Polyline
n 2030 7738 m
 2115 7738 l gs col0 s gr 
% Polyline
n 2072 7700 m
 2072 7776 l gs col0 s gr 
% Polyline
n 1856 7920 m 1864 7920 l gs col0 s gr
% Polyline
n 1519 7740 m
 2006 7740 l gs col0 s gr 
% Ellipse
n 1324 8730 195 180 0 360 DrawEllipse gs col0 s gr

% Polyline
n 1430 8587 m
 1523 8501 l gs col0 s gr 
% Polyline
n 1433 8876 m
 1525 8961 l gs col0 s gr 
% Polyline
n 1129 8730 m
 1031 8730 l gs col0 s gr 
% Polyline
n 180 8325 m 2250 8325 l 2250 9135 l 180 9135 l
 cp gs col0 s gr 
% Polyline
n 2029 8508 m
 2108 8508 l gs col0 s gr 
% Polyline
n 2030 8953 m
 2115 8953 l gs col0 s gr 
% Polyline
n 2072 8915 m
 2072 8991 l gs col0 s gr 
% Polyline
n 1856 9135 m 1864 9135 l gs col0 s gr
% Polyline
n 1519 8955 m
 2006 8955 l gs col0 s gr 
% Polyline
n 3570 9900 m 3465 9900 3465 10065 105 arcto 4 {pop} repeat
  3465 10170 4440 10170 105 arcto 4 {pop} repeat
  4545 10170 4545 10005 105 arcto 4 {pop} repeat
  4545 9900 3570 9900 105 arcto 4 {pop} repeat
 cp gs col6 1.00 shd ef gr gs col0 s gr 
% Ellipse
n 1324 10980 195 180 0 360 DrawEllipse gs col0 s gr

% Polyline
n 1430 10837 m
 1523 10751 l gs col0 s gr 
% Polyline
n 1433 11126 m
 1525 11211 l gs col0 s gr 
% Polyline
n 1129 10980 m
 1031 10980 l gs col0 s gr 
% Polyline
n 180 10575 m 2250 10575 l 2250 11385 l 180 11385 l
 cp gs col0 s gr 
% Polyline
n 2029 10758 m
 2108 10758 l gs col0 s gr 
% Polyline
n 2030 11203 m
 2115 11203 l gs col0 s gr 
% Polyline
n 2072 11165 m
 2072 11241 l gs col0 s gr 
% Polyline
n 1856 11385 m 1864 11385 l gs col0 s gr
% Polyline
n 1519 11205 m
 2006 11205 l gs col0 s gr 
% Polyline
n 180 9540 m 2250 9540 l 2250 10350 l 180 10350 l
 cp gs col0 s gr 
% Polyline
n 2030 10168 m
 2115 10168 l gs col0 s gr 
% Polyline
n 2072 10130 m
 2072 10206 l gs col0 s gr 
% Ellipse
n 1324 9945 195 180 0 360 DrawEllipse gs col0 s gr

% Polyline
n 1430 9802 m
 1523 9716 l gs col0 s gr 
% Polyline
n 1433 10091 m
 1525 10176 l gs col0 s gr 
% Polyline
n 1129 9945 m
 1031 9945 l gs col0 s gr 
% Polyline
n 2022 9721 m
 2107 9721 l gs col0 s gr 
% Polyline
n 2064 9683 m
 2064 9759 l gs col0 s gr 
% Polyline
gs  clippath
3570 2148 m 3570 2265 l 3630 2265 l 3630 2148 l 3630 2148 l 3600 2238 l 3570 2148 l cp
eoclip
n 3600 2025 m
 3600 2250 l gs col0 s gr gr

% arrowhead
n 3570 2148 m 3600 2238 l 3630 2148 l 3600 2118 l 3570 2148 l 
 cp gs 0.00 setgray ef gr  col0 s
% Polyline
gs  clippath
2352 2580 m 2235 2580 l 2235 2640 l 2352 2640 l 2352 2640 l 2262 2610 l 2352 2580 l cp
eoclip
n 2520 2610 m
 2250 2610 l gs col0 s gr gr

% arrowhead
n 2352 2580 m 2262 2610 l 2352 2640 l 2382 2610 l 2352 2580 l 
 cp gs 0.00 setgray ef gr  col0 s
% Polyline
n 4196 3060 m 4204 3060 l gs col0 s gr
% Polyline
n 3859 2880 m
 4346 2880 l gs col0 s gr 
% Polyline
n 1519 3915 m
 2006 3915 l gs col0 s gr 
% Polyline
n 1035 3690 m
 859 3690 l gs col0 s gr 
% Polyline
gs  clippath
1320 3183 m 1320 3300 l 1380 3300 l 1380 3183 l 1380 3183 l 1350 3273 l 1320 3183 l cp
eoclip
n 1350 3060 m 1350 3105 l 1350 3150 l 1350 3195 l 1350 3240 l
 1350 3285 l gs col0 s gr gr

% arrowhead
n 1320 3183 m 1350 3273 l 1380 3183 l 1350 3153 l 1320 3183 l 
 cp gs 0.00 setgray ef gr  col0 s
% Polyline
gs  clippath
2418 3675 m 2535 3675 l 2535 3615 l 2418 3615 l 2418 3615 l 2508 3645 l 2418 3675 l cp
eoclip
n 2250 3645 m
 2520 3645 l gs col0 s gr gr

% arrowhead
n 2418 3675 m 2508 3645 l 2418 3615 l 2388 3645 l 2418 3675 l 
 cp gs 0.00 setgray ef gr  col0 s
% Polyline
gs  clippath
3570 4218 m 3570 4335 l 3630 4335 l 3630 4218 l 3630 4218 l 3600 4308 l 3570 4218 l cp
eoclip
n 3600 4095 m 3600 4140 l 3600 4185 l 3600 4230 l 3600 4275 l
 3600 4320 l gs col0 s gr gr

% arrowhead
n 3570 4218 m 3600 4308 l 3630 4218 l 3600 4188 l 3570 4218 l 
 cp gs 0.00 setgray ef gr  col0 s
% Polyline
gs  clippath
1320 4983 m 1320 5100 l 1380 5100 l 1380 4983 l 1380 4983 l 1350 5073 l 1320 4983 l cp
eoclip
n 2790 4905 m 1350 4905 l
 1350 5085 l gs col0 s gr gr

% arrowhead
n 1320 4983 m 1350 5073 l 1380 4983 l 1350 4953 l 1320 4983 l 
 cp gs 0.00 setgray ef gr  col0 s
% Polyline
n 986 5940 m 994 5940 l gs col0 s gr
% Polyline
n 180 5085 m 2250 5085 l 2250 5715 l 180 5715 l
 cp gs col0 s gr 
% Polyline
n 1856 6750 m 1864 6750 l gs col0 s gr
% Polyline
n 1519 6570 m
 2006 6570 l gs col0 s gr 
% Polyline
n 1035 6345 m
 859 6345 l gs col0 s gr 
% Polyline
n 4376 4275 m 4384 4275 l gs col0 s gr
% Polyline
gs  clippath
1320 5838 m 1320 5955 l 1380 5955 l 1380 5838 l 1380 5838 l 1350 5928 l 1320 5838 l cp
eoclip
n 1350 5715 m
 1350 5940 l gs col0 s gr gr

% arrowhead
n 1320 5838 m 1350 5928 l 1380 5838 l 1350 5808 l 1320 5838 l 
 cp gs 0.00 setgray ef gr  col0 s
% Polyline
gs  clippath
3390 6333 m 3390 6450 l 3450 6450 l 3450 6333 l 3450 6333 l 3420 6423 l 3390 6333 l cp
eoclip
n 2250 6210 m 3420 6210 l
 3420 6435 l gs col0 s gr gr

% arrowhead
n 3390 6333 m 3420 6423 l 3450 6333 l 3420 6303 l 3390 6333 l 
 cp gs 0.00 setgray ef gr  col0 s
% Polyline
gs  clippath
1320 7008 m 1320 7125 l 1380 7125 l 1380 7008 l 1380 7008 l 1350 7098 l 1320 7008 l cp
eoclip
n 2835 6885 m 1350 6885 l
 1350 7110 l gs col0 s gr gr

% arrowhead
n 1320 7008 m 1350 7098 l 1380 7008 l 1350 6978 l 1320 7008 l 
 cp gs 0.00 setgray ef gr  col0 s
% Polyline
gs  clippath
3390 7548 m 3390 7665 l 3450 7665 l 3450 7548 l 3450 7548 l 3420 7638 l 3390 7548 l cp
eoclip
n 2250 7470 m 3420 7470 l
 3420 7650 l gs col0 s gr gr

% arrowhead
n 3390 7548 m 3420 7638 l 3450 7548 l 3420 7518 l 3390 7548 l 
 cp gs 0.00 setgray ef gr  col0 s
% Polyline
gs  clippath
1320 8223 m 1320 8340 l 1380 8340 l 1380 8223 l 1380 8223 l 1350 8313 l 1320 8223 l cp
eoclip
n 2835 8100 m 1350 8100 l
 1350 8325 l gs col0 s gr gr

% arrowhead
n 1320 8223 m 1350 8313 l 1380 8223 l 1350 8193 l 1320 8223 l 
 cp gs 0.00 setgray ef gr  col0 s
% Polyline
gs  clippath
1320 8223 m 1320 8340 l 1380 8340 l 1380 8223 l 1380 8223 l 1350 8313 l 1320 8223 l cp
eoclip
n 2835 8100 m 1350 8100 l
 1350 8325 l gs col0 s gr gr

% arrowhead
n 1320 8223 m 1350 8313 l 1380 8223 l 1350 8193 l 1320 8223 l 
 cp gs 0.00 setgray ef gr  col0 s
% Polyline
gs  clippath
3390 8763 m 3390 8880 l 3450 8880 l 3450 8763 l 3450 8763 l 3420 8853 l 3390 8763 l cp
eoclip
n 2250 8640 m 3420 8640 l
 3420 8865 l gs col0 s gr gr

% arrowhead
n 3390 8763 m 3420 8853 l 3450 8763 l 3420 8733 l 3390 8763 l 
 cp gs 0.00 setgray ef gr  col0 s
% Polyline
gs  clippath
1320 9438 m 1320 9555 l 1380 9555 l 1380 9438 l 1380 9438 l 1350 9528 l 1320 9438 l cp
eoclip
n 2835 9315 m 1350 9315 l
 1350 9540 l gs col0 s gr gr

% arrowhead
n 1320 9438 m 1350 9528 l 1380 9438 l 1350 9408 l 1320 9438 l 
 cp gs 0.00 setgray ef gr  col0 s
% Polyline
n 1856 10350 m 1864 10350 l gs col0 s gr
% Polyline
n 1519 10170 m
 2006 10170 l gs col0 s gr 
% Polyline
gs  clippath
1320 10473 m 1320 10590 l 1380 10590 l 1380 10473 l 1380 10473 l 1350 10563 l 1320 10473 l cp
eoclip
n 1350 10350 m
 1350 10575 l gs col0 s gr gr

% arrowhead
n 1320 10473 m 1350 10563 l 1380 10473 l 1350 10443 l 1320 10473 l 
 cp gs 0.00 setgray ef gr  col0 s
% Polyline
gs  clippath
3390 10968 m 3390 11085 l 3450 11085 l 3450 10968 l 3450 10968 l 3420 11058 l 3390 10968 l cp
eoclip
n 2250 10845 m 3420 10845 l
 3420 11070 l gs col0 s gr gr

% arrowhead
n 3390 10968 m 3420 11058 l 3450 10968 l 3420 10938 l 3390 10968 l 
 cp gs 0.00 setgray ef gr  col0 s
% Polyline
gs  clippath
1320 11643 m 1320 11760 l 1380 11760 l 1380 11643 l 1380 11643 l 1350 11733 l 1320 11643 l cp
eoclip
n 2835 11520 m 1350 11520 l
 1350 11745 l gs col0 s gr gr

% arrowhead
n 1320 11643 m 1350 11733 l 1380 11643 l 1350 11613 l 1320 11643 l 
 cp gs 0.00 setgray ef gr  col0 s
% Polyline
n 180 11745 m 2250 11745 l 2250 12375 l 180 12375 l
 cp gs col0 s gr 
% Polyline
gs  clippath
4200 9798 m 4200 9915 l 4260 9915 l 4260 9798 l 4260 9798 l 4230 9888 l 4200 9798 l cp
eoclip
n 4050 9315 m 4230 9315 l
 4230 9900 l gs col0 s gr gr

% arrowhead
n 4200 9798 m 4230 9888 l 4260 9798 l 4230 9768 l 4200 9798 l 
 cp gs 0.00 setgray ef gr  col0 s
% Polyline
gs  clippath
4200 9213 m 4200 9330 l 4260 9330 l 4260 9213 l 4260 9213 l 4230 9303 l 4200 9213 l cp
eoclip
n 4050 8100 m 4230 8100 l
 4230 9315 l gs col0 s gr gr

% arrowhead
n 4200 9213 m 4230 9303 l 4260 9213 l 4230 9183 l 4200 9213 l 
 cp gs 0.00 setgray ef gr  col0 s
% Polyline
gs  clippath
4200 7998 m 4200 8115 l 4260 8115 l 4260 7998 l 4260 7998 l 4230 8088 l 4200 7998 l cp
eoclip
n 4050 6885 m 4230 6885 l
 4230 8100 l gs col0 s gr gr

% arrowhead
n 4200 7998 m 4230 8088 l 4260 7998 l 4230 7968 l 4200 7998 l 
 cp gs 0.00 setgray ef gr  col0 s
% Polyline
gs  clippath
4260 10272 m 4260 10155 l 4200 10155 l 4200 10272 l 4200 10272 l 4230 10182 l 4260 10272 l cp
eoclip
n 4005 11520 m 4230 11520 l
 4230 10170 l gs col0 s gr gr

% arrowhead
n 4260 10272 m 4230 10182 l 4200 10272 l 4230 10302 l 4260 10272 l 
 cp gs 0.00 setgray ef gr  col0 s
% Polyline
gs  clippath
4260 11622 m 4260 11505 l 4200 11505 l 4200 11622 l 4200 11622 l 4230 11532 l 4260 11622 l cp
eoclip
n 2250 12240 m 4230 12240 l
 4230 11520 l gs col0 s gr gr

% arrowhead
n 4260 11622 m 4230 11532 l 4200 11622 l 4230 11652 l 4260 11622 l 
 cp gs 0.00 setgray ef gr  col0 s
% Polyline
n 2940 1575 m 2835 1575 2835 1920 105 arcto 4 {pop} repeat
  2835 2025 4215 2025 105 arcto 4 {pop} repeat
  4320 2025 4320 1680 105 arcto 4 {pop} repeat
  4320 1575 2940 1575 105 arcto 4 {pop} repeat
 cp gs col14 1.00 shd ef gr gs col0 s gr 
% Polyline
gs  clippath
4560 5343 m 4560 5460 l 4620 5460 l 4620 5343 l 4620 5343 l 4590 5433 l 4560 5343 l cp
eoclip
n 4410 4905 m 4590 4905 l
 4590 5445 l gs col0 s gr gr

% arrowhead
n 4560 5343 m 4590 5433 l 4620 5343 l 4590 5313 l 4560 5343 l 
 cp gs 0.00 setgray ef gr  col0 s
% Polyline
n 4245 5445 m 4140 5445 4140 5655 105 arcto 4 {pop} repeat
  4140 5760 4845 5760 105 arcto 4 {pop} repeat
  4950 5760 4950 5550 105 arcto 4 {pop} repeat
  4950 5445 4245 5445 105 arcto 4 {pop} repeat
 cp gs col14 1.00 shd ef gr gs col0 s gr 
/Times-Roman-iso ff 105.00 scf sf
1191 2685 m
gs 1 -1 sc (T) dup sw pop 2 div neg 0 rm  col0 sh gr
/Times-Roman-iso ff 105.00 scf sf
1378 2797 m
gs 1 -1 sc (L) dup sw pop 2 div neg 0 rm  col0 sh gr
/Times-Roman-iso ff 105.00 scf sf
1367 2588 m
gs 1 -1 sc (H) dup sw pop 2 div neg 0 rm  col0 sh gr
/Times-Roman-iso ff 105.00 scf sf
1763 2466 m
gs 1 -1 sc (680) dup sw pop 2 div neg 0 rm  col0 sh gr
/Times-Roman-iso ff 135.00 scf sf
1440 2385 m
gs 1 -1 sc (hp3) dup sw pop 2 div neg 0 rm  col0 sh gr
/Times-Roman-iso ff 105.00 scf sf
3124 2691 m
gs 1 -1 sc (680) dup sw pop 2 div neg 0 rm  col0 sh gr
/Times-Roman-iso ff 105.00 scf sf
3531 2685 m
gs 1 -1 sc (T) dup sw pop 2 div neg 0 rm  col0 sh gr
/Times-Roman-iso ff 105.00 scf sf
3718 2797 m
gs 1 -1 sc (L) dup sw pop 2 div neg 0 rm  col0 sh gr
/Times-Roman-iso ff 105.00 scf sf
3707 2588 m
gs 1 -1 sc (H) dup sw pop 2 div neg 0 rm  col0 sh gr
/Times-Roman-iso ff 105.00 scf sf
4103 2466 m
gs 1 -1 sc (680) dup sw pop 2 div neg 0 rm  col0 sh gr
/Times-Roman-iso ff 105.00 scf sf
1191 3720 m
gs 1 -1 sc (T) dup sw pop 2 div neg 0 rm  col0 sh gr
/Times-Roman-iso ff 105.00 scf sf
1378 3832 m
gs 1 -1 sc (L) dup sw pop 2 div neg 0 rm  col0 sh gr
/Times-Roman-iso ff 105.00 scf sf
1367 3623 m
gs 1 -1 sc (H) dup sw pop 2 div neg 0 rm  col0 sh gr
/Times-Roman-iso ff 105.00 scf sf
3531 3720 m
gs 1 -1 sc (T) dup sw pop 2 div neg 0 rm  col0 sh gr
/Times-Roman-iso ff 105.00 scf sf
3718 3832 m
gs 1 -1 sc (L) dup sw pop 2 div neg 0 rm  col0 sh gr
/Times-Roman-iso ff 105.00 scf sf
3707 3623 m
gs 1 -1 sc (H) dup sw pop 2 div neg 0 rm  col0 sh gr
/Times-Roman-iso ff 105.00 scf sf
4103 3501 m
gs 1 -1 sc (680) dup sw pop 2 div neg 0 rm  col0 sh gr
/Times-Roman-iso ff 135.00 scf sf
3780 3420 m
gs 1 -1 sc (hp2) dup sw pop 2 div neg 0 rm  col0 sh gr
/Times-Roman-iso ff 105.00 scf sf
1191 6375 m
gs 1 -1 sc (T) dup sw pop 2 div neg 0 rm  col0 sh gr
/Times-Roman-iso ff 105.00 scf sf
1378 6487 m
gs 1 -1 sc (L) dup sw pop 2 div neg 0 rm  col0 sh gr
/Times-Roman-iso ff 105.00 scf sf
1367 6278 m
gs 1 -1 sc (H) dup sw pop 2 div neg 0 rm  col0 sh gr
/Times-Roman-iso ff 105.00 scf sf
1763 6156 m
gs 1 -1 sc (680) dup sw pop 2 div neg 0 rm  col0 sh gr
/Times-Roman-iso ff 135.00 scf sf
3420 6930 m
gs 1 -1 sc (hpx > 244) dup sw pop 2 div neg 0 rm  col0 sh gr
/Times-Roman-iso ff 105.00 scf sf
1191 7545 m
gs 1 -1 sc (T) dup sw pop 2 div neg 0 rm  col0 sh gr
/Times-Roman-iso ff 105.00 scf sf
1378 7657 m
gs 1 -1 sc (L) dup sw pop 2 div neg 0 rm  col0 sh gr
/Times-Roman-iso ff 105.00 scf sf
1367 7448 m
gs 1 -1 sc (H) dup sw pop 2 div neg 0 rm  col0 sh gr
/Times-Roman-iso ff 105.00 scf sf
1763 7326 m
gs 1 -1 sc (680) dup sw pop 2 div neg 0 rm  col0 sh gr
/Times-Roman-iso ff 105.00 scf sf
773 7551 m
gs 1 -1 sc (680) dup sw pop 2 div neg 0 rm  col0 sh gr
/Times-Roman-iso ff 135.00 scf sf
1440 7245 m
gs 1 -1 sc (hpx) dup sw pop 2 div neg 0 rm  col0 sh gr
/Times-Roman-iso ff 135.00 scf sf
1035 7425 m
gs 1 -1 sc (tpx) dup sw pop 2 div neg 0 rm  col0 sh gr
/Times-Roman-iso ff 105.00 scf sf
1191 8760 m
gs 1 -1 sc (T) dup sw pop 2 div neg 0 rm  col0 sh gr
/Times-Roman-iso ff 105.00 scf sf
1378 8872 m
gs 1 -1 sc (L) dup sw pop 2 div neg 0 rm  col0 sh gr
/Times-Roman-iso ff 105.00 scf sf
1367 8663 m
gs 1 -1 sc (H) dup sw pop 2 div neg 0 rm  col0 sh gr
/Times-Roman-iso ff 105.00 scf sf
1763 8541 m
gs 1 -1 sc (680) dup sw pop 2 div neg 0 rm  col0 sh gr
/Times-Roman-iso ff 135.00 scf sf
1440 8460 m
gs 1 -1 sc (hpx) dup sw pop 2 div neg 0 rm  col0 sh gr
/Times-Roman-iso ff 150.00 scf sf
4005 10080 m
gs 1 -1 sc (saveNresult) dup sw pop 2 div neg 0 rm  col0 sh gr
/Times-Roman-iso ff 105.00 scf sf
1191 11010 m
gs 1 -1 sc (T) dup sw pop 2 div neg 0 rm  col0 sh gr
/Times-Roman-iso ff 105.00 scf sf
1378 11122 m
gs 1 -1 sc (L) dup sw pop 2 div neg 0 rm  col0 sh gr
/Times-Roman-iso ff 105.00 scf sf
1367 10913 m
gs 1 -1 sc (H) dup sw pop 2 div neg 0 rm  col0 sh gr
/Times-Roman-iso ff 105.00 scf sf
1763 10791 m
gs 1 -1 sc (680) dup sw pop 2 div neg 0 rm  col0 sh gr
/Times-Roman-iso ff 135.00 scf sf
1440 10710 m
gs 1 -1 sc (hpx) dup sw pop 2 div neg 0 rm  col0 sh gr
/Times-Roman-iso ff 105.00 scf sf
1191 9975 m
gs 1 -1 sc (T) dup sw pop 2 div neg 0 rm  col0 sh gr
/Times-Roman-iso ff 105.00 scf sf
1378 10087 m
gs 1 -1 sc (L) dup sw pop 2 div neg 0 rm  col0 sh gr
/Times-Roman-iso ff 105.00 scf sf
1367 9878 m
gs 1 -1 sc (H) dup sw pop 2 div neg 0 rm  col0 sh gr
/Times-Roman-iso ff 105.00 scf sf
1763 9756 m
gs 1 -1 sc (680) dup sw pop 2 div neg 0 rm  col0 sh gr
/Times-Roman-iso ff 150.00 scf sf
1260 5220 m
gs 1 -1 sc (Part = THYRISTOR) dup sw pop 2 div neg 0 rm  col0 sh gr
/Times-Roman-iso ff 150.00 scf sf
1260 5355 m
gs 1 -1 sc (n.cnt = n.cnt + 1) dup sw pop 2 div neg 0 rm  col0 sh gr
/Times-Roman-iso ff 150.00 scf sf
1260 5490 m
gs 1 -1 sc (n.uBE = tp2-lp2) dup sw pop 2 div neg 0 rm  col0 sh gr
/Times-Roman-iso ff 150.00 scf sf
1260 5625 m
gs 1 -1 sc (n.gthvoltage = hp1-lp2) dup sw pop 2 div neg 0 rm  col0 sh gr
/Times-Roman-iso ff 135.00 scf sf
1440 6075 m
gs 1 -1 sc (hpx) dup sw pop 2 div neg 0 rm  col0 sh gr
/Times-Roman-iso ff 135.00 scf sf
3465 9360 m
gs 1 -1 sc (hpx < 733) dup sw pop 2 div neg 0 rm  col0 sh gr
/Times-Roman-iso ff 135.00 scf sf
3420 11610 m
gs 1 -1 sc (hpx > 244) dup sw pop 2 div neg 0 rm  col0 sh gr
/Times-Roman-iso ff 150.00 scf sf
1260 11925 m
gs 1 -1 sc (Part = TRIAC) dup sw pop 2 div neg 0 rm  col0 sh gr
/Times-Roman-iso ff 135.00 scf sf
2430 6120 m
gs 1 -1 sc (Non conducting?) col0 sh gr
/Times-Roman-iso ff 135.00 scf sf
2430 7425 m
gs 1 -1 sc (Switched) col0 sh gr
/Times-Roman-iso ff 135.00 scf sf
2475 8595 m
gs 1 -1 sc (Fired) col0 sh gr
/Times-Roman-iso ff 135.00 scf sf
2475 10755 m
gs 1 -1 sc (Cleared again) col0 sh gr
/Times-Roman-iso ff 150.00 scf sf
4455 5130 m
gs 1 -1 sc (N) dup sw pop 2 div neg 0 rm  col0 sh gr
/Times-Roman-iso ff 150.00 scf sf
2790 7065 m
gs 1 -1 sc (N) dup sw pop 2 div neg 0 rm  col0 sh gr
/Times-Roman-iso ff 150.00 scf sf
2790 8280 m
gs 1 -1 sc (N) dup sw pop 2 div neg 0 rm  col0 sh gr
/Times-Roman-iso ff 150.00 scf sf
2790 9495 m
gs 1 -1 sc (N) dup sw pop 2 div neg 0 rm  col0 sh gr
/Times-Roman-iso ff 150.00 scf sf
2745 11700 m
gs 1 -1 sc (N) dup sw pop 2 div neg 0 rm  col0 sh gr
/Times-Roman-iso ff 150.00 scf sf
4095 7065 m
gs 1 -1 sc (Y) dup sw pop 2 div neg 0 rm  col0 sh gr
/Times-Roman-iso ff 150.00 scf sf
4095 8280 m
gs 1 -1 sc (Y) dup sw pop 2 div neg 0 rm  col0 sh gr
/Times-Roman-iso ff 150.00 scf sf
4095 9495 m
gs 1 -1 sc (Y) dup sw pop 2 div neg 0 rm  col0 sh gr
/Times-Roman-iso ff 150.00 scf sf
4050 11475 m
gs 1 -1 sc (Y) dup sw pop 2 div neg 0 rm  col0 sh gr
/Times-Roman-iso ff 135.00 scf sf
3780 2385 m
gs 1 -1 sc (hp4) dup sw pop 2 div neg 0 rm  col0 sh gr
/Times-Roman-iso ff 150.00 scf sf
3600 4770 m
gs 1 -1 sc (hp3 < 1600 ?) dup sw pop 2 div neg 0 rm  col0 sh gr
/Times-Roman-iso ff 150.00 scf sf
3600 5130 m
gs 1 -1 sc (hp2 > 4400 ?) dup sw pop 2 div neg 0 rm  col0 sh gr
/Times-Roman-iso ff 150.00 scf sf
3645 4950 m
gs 1 -1 sc (hp1+150 > hp4 ?) dup sw pop 2 div neg 0 rm  col0 sh gr
/Times-Roman-iso ff 150.00 scf sf
2700 5085 m
gs 1 -1 sc (Y) dup sw pop 2 div neg 0 rm  col0 sh gr
/Times-Roman-iso ff 180.00 scf sf
3555 1890 m
gs 1 -1 sc (ThyristorCheck) dup sw pop 2 div neg 0 rm  col0 sh gr
/Times-Roman-iso ff 180.00 scf sf
4545 5670 m
gs 1 -1 sc (Ntype) dup sw pop 2 div neg 0 rm  col0 sh gr
% here ends figure;
% 
% here starts figure with depth 0
% Polyline
0 slj
0 slc
7.500 slw
n 1616 2430 m
 1519 2430 l gs col0 s gr 
% Polyline
n 1909 2385 m 1909 2475 l 1616 2475 l 1616 2385 l
 cp gs col0 s gr 
% Polyline
n 2006 2430 m
 1909 2430 l gs col0 s gr 
% Ellipse
n 1534 2430 22 20 0 360 DrawEllipse gs 0.00 setgray ef gr gs col0 s gr

% Polyline
n 2977 2655 m
 2880 2655 l gs col0 s gr 
% Polyline
n 3270 2610 m 3270 2700 l 2977 2700 l 2977 2610 l
 cp gs col0 s gr 
% Polyline
n 3367 2655 m
 3270 2655 l gs col0 s gr 
% Polyline
n 3956 2430 m
 3859 2430 l gs col0 s gr 
% Polyline
n 4249 2385 m 4249 2475 l 3956 2475 l 3956 2385 l
 cp gs col0 s gr 
% Polyline
n 4346 2430 m
 4249 2430 l gs col0 s gr 
% Polyline
n 3956 3465 m
 3859 3465 l gs col0 s gr 
% Polyline
n 4249 3420 m 4249 3510 l 3956 3510 l 3956 3420 l
 cp gs col0 s gr 
% Polyline
n 4346 3465 m
 4249 3465 l gs col0 s gr 
% Ellipse
n 3874 3465 22 20 0 360 DrawEllipse gs 0.00 setgray ef gr gs col0 s gr

% Polyline
n 1616 6120 m
 1519 6120 l gs col0 s gr 
% Polyline
n 1909 6075 m 1909 6165 l 1616 6165 l 1616 6075 l
 cp gs col0 s gr 
% Polyline
n 2006 6120 m
 1909 6120 l gs col0 s gr 
% Ellipse
n 1534 6120 22 20 0 360 DrawEllipse gs 0.00 setgray ef gr gs col0 s gr

% Polyline
n 1616 7290 m
 1519 7290 l gs col0 s gr 
% Polyline
n 1909 7245 m 1909 7335 l 1616 7335 l 1616 7245 l
 cp gs col0 s gr 
% Polyline
n 2006 7290 m
 1909 7290 l gs col0 s gr 
% Ellipse
n 1534 7290 22 20 0 360 DrawEllipse gs 0.00 setgray ef gr gs col0 s gr

% Polyline
n 626 7515 m
 529 7515 l gs col0 s gr 
% Polyline
n 919 7470 m 919 7560 l 626 7560 l 626 7470 l
 cp gs col0 s gr 
% Polyline
n 1016 7515 m
 919 7515 l gs col0 s gr 
% Ellipse
n 1039 7515 22 20 0 360 DrawEllipse gs 0.00 setgray ef gr gs col0 s gr

% Polyline
n 1616 8505 m
 1519 8505 l gs col0 s gr 
% Polyline
n 1909 8460 m 1909 8550 l 1616 8550 l 1616 8460 l
 cp gs col0 s gr 
% Polyline
n 2006 8505 m
 1909 8505 l gs col0 s gr 
% Ellipse
n 1534 8505 22 20 0 360 DrawEllipse gs 0.00 setgray ef gr gs col0 s gr

% Polyline
n 1616 10755 m
 1519 10755 l gs col0 s gr 
% Polyline
n 1909 10710 m 1909 10800 l 1616 10800 l 1616 10710 l
 cp gs col0 s gr 
% Polyline
n 2006 10755 m
 1909 10755 l gs col0 s gr 
% Ellipse
n 1534 10755 22 20 0 360 DrawEllipse gs 0.00 setgray ef gr gs col0 s gr

% Polyline
n 1616 9720 m
 1519 9720 l gs col0 s gr 
% Polyline
n 1909 9675 m 1909 9765 l 1616 9765 l 1616 9675 l
 cp gs col0 s gr 
% Polyline
n 2006 9720 m
 1909 9720 l gs col0 s gr 
% Ellipse
n 3867 2430 22 20 0 360 DrawEllipse gs 0.00 setgray ef gr gs col0 s gr

% here ends figure;
pagefooter
showpage
%%Trailer
%EOF

%%EndDocument
 @endspecial Black Black eop end
%%Trailer

userdict /end-hook known{end-hook}if
%%EOF
