%!PS-Adobe-2.0
%%Creator: dvips(k) 5.993 Copyright 2013 Radical Eye Software
%%Title: job-001.dvi
%%CreationDate: Mon Apr  6 22:22:39 2015
%%Pages: 1
%%PageOrder: Ascend
%%BoundingBox: 156 3040 530 3228
%%EndComments
%DVIPSWebPage: (www.radicaleye.com)
%DVIPSCommandLine: dvips job-001.dvi -o job-001.dvips.ps
%DVIPSParameters: dpi=600
%DVIPSSource:  TeX output 2015.04.06:2222
%%BeginProcSet: tex.pro 0 0
%!
/TeXDict 300 dict def TeXDict begin/N{def}def/B{bind def}N/S{exch}N/X{S
N}B/A{dup}B/TR{translate}N/isls false N/vsize 11 72 mul N/hsize 8.5 72
mul N/landplus90{false}def/@rigin{isls{[0 landplus90{1 -1}{-1 1}ifelse 0
0 0]concat}if 72 Resolution div 72 VResolution div neg scale isls{
landplus90{VResolution 72 div vsize mul 0 exch}{Resolution -72 div hsize
mul 0}ifelse TR}if Resolution VResolution vsize -72 div 1 add mul TR[
matrix currentmatrix{A A round sub abs 0.00001 lt{round}if}forall round
exch round exch]setmatrix}N/@landscape{/isls true N}B/@manualfeed{
statusdict/manualfeed true put}B/@copies{/#copies X}B/FMat[1 0 0 -1 0 0]
N/FBB[0 0 0 0]N/nn 0 N/IEn 0 N/ctr 0 N/df-tail{/nn 8 dict N nn begin
/FontType 3 N/FontMatrix fntrx N/FontBBox FBB N string/base X array
/BitMaps X/BuildChar{CharBuilder}N/Encoding IEn N end A{/foo setfont}2
array copy cvx N load 0 nn put/ctr 0 N[}B/sf 0 N/df{/sf 1 N/fntrx FMat N
df-tail}B/dfs{div/sf X/fntrx[sf 0 0 sf neg 0 0]N df-tail}B/E{pop nn A
definefont setfont}B/Cw{Cd A length 5 sub get}B/Ch{Cd A length 4 sub get
}B/Cx{128 Cd A length 3 sub get sub}B/Cy{Cd A length 2 sub get 127 sub}
B/Cdx{Cd A length 1 sub get}B/Ci{Cd A type/stringtype ne{ctr get/ctr ctr
1 add N}if}B/CharBuilder{save 3 1 roll S A/base get 2 index get S
/BitMaps get S get/Cd X pop/ctr 0 N Cdx 0 Cx Cy Ch sub Cx Cw add Cy
setcachedevice Cw Ch true[1 0 0 -1 -.1 Cx sub Cy .1 sub]{Ci}imagemask
restore}B/D{/cc X A type/stringtype ne{]}if nn/base get cc ctr put nn
/BitMaps get S ctr S sf 1 ne{A A length 1 sub A 2 index S get sf div put
}if put/ctr ctr 1 add N}B/I{cc 1 add D}B/bop{userdict/bop-hook known{
bop-hook}if/SI save N @rigin 0 0 moveto/V matrix currentmatrix A 1 get A
mul exch 0 get A mul add .99 lt{/QV}{/RV}ifelse load def pop pop}N/eop{
SI restore userdict/eop-hook known{eop-hook}if showpage}N/@start{
userdict/start-hook known{start-hook}if pop/VResolution X/Resolution X
1000 div/DVImag X/IEn 256 array N 2 string 0 1 255{IEn S A 360 add 36 4
index cvrs cvn put}for pop 65781.76 div/vsize X 65781.76 div/hsize X}N
/dir 0 def/dyy{/dir 0 def}B/dyt{/dir 1 def}B/dty{/dir 2 def}B/dtt{/dir 3
def}B/p{dir 2 eq{-90 rotate show 90 rotate}{dir 3 eq{-90 rotate show 90
rotate}{show}ifelse}ifelse}N/RMat[1 0 0 -1 0 0]N/BDot 260 string N/Rx 0
N/Ry 0 N/V{}B/RV/v{/Ry X/Rx X V}B statusdict begin/product where{pop
false[(Display)(NeXT)(LaserWriter 16/600)]{A length product length le{A
length product exch 0 exch getinterval eq{pop true exit}if}{pop}ifelse}
forall}{false}ifelse end{{gsave TR -.1 .1 TR 1 1 scale Rx Ry false RMat{
BDot}imagemask grestore}}{{gsave TR -.1 .1 TR Rx Ry scale 1 1 false RMat
{BDot}imagemask grestore}}ifelse B/QV{gsave newpath transform round exch
round exch itransform moveto Rx 0 rlineto 0 Ry neg rlineto Rx neg 0
rlineto fill grestore}B/a{moveto}B/delta 0 N/tail{A/delta X 0 rmoveto}B
/M{S p delta add tail}B/b{S p tail}B/c{-4 M}B/d{-3 M}B/e{-2 M}B/f{-1 M}
B/g{0 M}B/h{1 M}B/i{2 M}B/j{3 M}B/k{4 M}B/w{0 rmoveto}B/l{p -4 w}B/m{p
-3 w}B/n{p -2 w}B/o{p -1 w}B/q{p 1 w}B/r{p 2 w}B/s{p 3 w}B/t{p 4 w}B/x{
0 S rmoveto}B/y{3 2 roll p a}B/bos{/SS save N}B/eos{SS restore}B end

%%EndProcSet
%%BeginProcSet: special.pro 0 0
%!
TeXDict begin/SDict 200 dict N SDict begin/@SpecialDefaults{/hs 612 N
/vs 792 N/ho 0 N/vo 0 N/hsc 1 N/vsc 1 N/ang 0 N/CLIP 0 N/rwiSeen false N
/rhiSeen false N/letter{}N/note{}N/a4{}N/legal{}N}B/@scaleunit 100 N
/@hscale{@scaleunit div/hsc X}B/@vscale{@scaleunit div/vsc X}B/@hsize{
/hs X/CLIP 1 N}B/@vsize{/vs X/CLIP 1 N}B/@clip{/CLIP 2 N}B/@hoffset{/ho
X}B/@voffset{/vo X}B/@angle{/ang X}B/@rwi{10 div/rwi X/rwiSeen true N}B
/@rhi{10 div/rhi X/rhiSeen true N}B/@llx{/llx X}B/@lly{/lly X}B/@urx{
/urx X}B/@ury{/ury X}B/magscale true def end/@MacSetUp{userdict/md known
{userdict/md get type/dicttype eq{userdict begin md length 10 add md
maxlength ge{/md md dup length 20 add dict copy def}if end md begin
/letter{}N/note{}N/legal{}N/od{txpose 1 0 mtx defaultmatrix dtransform S
atan/pa X newpath clippath mark{transform{itransform moveto}}{transform{
itransform lineto}}{6 -2 roll transform 6 -2 roll transform 6 -2 roll
transform{itransform 6 2 roll itransform 6 2 roll itransform 6 2 roll
curveto}}{{closepath}}pathforall newpath counttomark array astore/gc xdf
pop ct 39 0 put 10 fz 0 fs 2 F/|______Courier fnt invertflag{PaintBlack}
if}N/txpose{pxs pys scale ppr aload pop por{noflips{pop S neg S TR pop 1
-1 scale}if xflip yflip and{pop S neg S TR 180 rotate 1 -1 scale ppr 3
get ppr 1 get neg sub neg ppr 2 get ppr 0 get neg sub neg TR}if xflip
yflip not and{pop S neg S TR pop 180 rotate ppr 3 get ppr 1 get neg sub
neg 0 TR}if yflip xflip not and{ppr 1 get neg ppr 0 get neg TR}if}{
noflips{TR pop pop 270 rotate 1 -1 scale}if xflip yflip and{TR pop pop
90 rotate 1 -1 scale ppr 3 get ppr 1 get neg sub neg ppr 2 get ppr 0 get
neg sub neg TR}if xflip yflip not and{TR pop pop 90 rotate ppr 3 get ppr
1 get neg sub neg 0 TR}if yflip xflip not and{TR pop pop 270 rotate ppr
2 get ppr 0 get neg sub neg 0 S TR}if}ifelse scaleby96{ppr aload pop 4
-1 roll add 2 div 3 1 roll add 2 div 2 copy TR .96 dup scale neg S neg S
TR}if}N/cp{pop pop showpage pm restore}N end}if}if}N/normalscale{
Resolution 72 div VResolution 72 div neg scale magscale{DVImag dup scale
}if 0 setgray}N/psfts{S 65781.76 div N}N/startTexFig{/psf$SavedState
save N userdict maxlength dict begin/magscale true def normalscale
currentpoint TR/psf$ury psfts/psf$urx psfts/psf$lly psfts/psf$llx psfts
/psf$y psfts/psf$x psfts currentpoint/psf$cy X/psf$cx X/psf$sx psf$x
psf$urx psf$llx sub div N/psf$sy psf$y psf$ury psf$lly sub div N psf$sx
psf$sy scale psf$cx psf$sx div psf$llx sub psf$cy psf$sy div psf$ury sub
TR/showpage{}N/erasepage{}N/setpagedevice{pop}N/copypage{}N/p 3 def
@MacSetUp}N/doclip{psf$llx psf$lly psf$urx psf$ury currentpoint 6 2 roll
newpath 4 copy 4 2 roll moveto 6 -1 roll S lineto S lineto S lineto
closepath clip newpath moveto}N/endTexFig{end psf$SavedState restore}N
/@beginspecial{SDict begin/SpecialSave save N gsave normalscale
currentpoint TR @SpecialDefaults count/ocount X/dcount countdictstack N}
N/@setspecial{CLIP 1 eq{newpath 0 0 moveto hs 0 rlineto 0 vs rlineto hs
neg 0 rlineto closepath clip}if ho vo TR hsc vsc scale ang rotate
rwiSeen{rwi urx llx sub div rhiSeen{rhi ury lly sub div}{dup}ifelse
scale llx neg lly neg TR}{rhiSeen{rhi ury lly sub div dup scale llx neg
lly neg TR}if}ifelse CLIP 2 eq{newpath llx lly moveto urx lly lineto urx
ury lineto llx ury lineto closepath clip}if/showpage{}N/erasepage{}N
/setpagedevice{pop}N/copypage{}N newpath}N/@endspecial{count ocount sub{
pop}repeat countdictstack dcount sub{end}repeat grestore SpecialSave
restore end}N/@defspecial{SDict begin}N/@fedspecial{end}B/li{lineto}B
/rl{rlineto}B/rc{rcurveto}B/np{/SaveX currentpoint/SaveY X N 1
setlinecap newpath}N/st{stroke SaveX SaveY moveto}N/fil{fill SaveX SaveY
moveto}N/ellipse{/endangle X/startangle X/yrad X/xrad X/savematrix
matrix currentmatrix N TR xrad yrad scale 0 0 1 startangle endangle arc
savematrix setmatrix}N end

%%EndProcSet
%%BeginProcSet: color.pro 0 0
%!
TeXDict begin/setcmykcolor where{pop}{/setcmykcolor{dup 10 eq{pop
setrgbcolor}{1 sub 4 1 roll 3{3 index add neg dup 0 lt{pop 0}if 3 1 roll
}repeat setrgbcolor pop}ifelse}B}ifelse/TeXcolorcmyk{setcmykcolor}def
/TeXcolorrgb{setrgbcolor}def/TeXcolorgrey{setgray}def/TeXcolorgray{
setgray}def/TeXcolorhsb{sethsbcolor}def/currentcmykcolor where{pop}{
/currentcmykcolor{currentrgbcolor 10}B}ifelse/DC{exch dup userdict exch
known{pop pop}{X}ifelse}B/GreenYellow{0.15 0 0.69 0 setcmykcolor}DC
/Yellow{0 0 1 0 setcmykcolor}DC/Goldenrod{0 0.10 0.84 0 setcmykcolor}DC
/Dandelion{0 0.29 0.84 0 setcmykcolor}DC/Apricot{0 0.32 0.52 0
setcmykcolor}DC/Peach{0 0.50 0.70 0 setcmykcolor}DC/Melon{0 0.46 0.50 0
setcmykcolor}DC/YellowOrange{0 0.42 1 0 setcmykcolor}DC/Orange{0 0.61
0.87 0 setcmykcolor}DC/BurntOrange{0 0.51 1 0 setcmykcolor}DC
/Bittersweet{0 0.75 1 0.24 setcmykcolor}DC/RedOrange{0 0.77 0.87 0
setcmykcolor}DC/Mahogany{0 0.85 0.87 0.35 setcmykcolor}DC/Maroon{0 0.87
0.68 0.32 setcmykcolor}DC/BrickRed{0 0.89 0.94 0.28 setcmykcolor}DC/Red{
0 1 1 0 setcmykcolor}DC/OrangeRed{0 1 0.50 0 setcmykcolor}DC/RubineRed{
0 1 0.13 0 setcmykcolor}DC/WildStrawberry{0 0.96 0.39 0 setcmykcolor}DC
/Salmon{0 0.53 0.38 0 setcmykcolor}DC/CarnationPink{0 0.63 0 0
setcmykcolor}DC/Magenta{0 1 0 0 setcmykcolor}DC/VioletRed{0 0.81 0 0
setcmykcolor}DC/Rhodamine{0 0.82 0 0 setcmykcolor}DC/Mulberry{0.34 0.90
0 0.02 setcmykcolor}DC/RedViolet{0.07 0.90 0 0.34 setcmykcolor}DC
/Fuchsia{0.47 0.91 0 0.08 setcmykcolor}DC/Lavender{0 0.48 0 0
setcmykcolor}DC/Thistle{0.12 0.59 0 0 setcmykcolor}DC/Orchid{0.32 0.64 0
0 setcmykcolor}DC/DarkOrchid{0.40 0.80 0.20 0 setcmykcolor}DC/Purple{
0.45 0.86 0 0 setcmykcolor}DC/Plum{0.50 1 0 0 setcmykcolor}DC/Violet{
0.79 0.88 0 0 setcmykcolor}DC/RoyalPurple{0.75 0.90 0 0 setcmykcolor}DC
/BlueViolet{0.86 0.91 0 0.04 setcmykcolor}DC/Periwinkle{0.57 0.55 0 0
setcmykcolor}DC/CadetBlue{0.62 0.57 0.23 0 setcmykcolor}DC
/CornflowerBlue{0.65 0.13 0 0 setcmykcolor}DC/MidnightBlue{0.98 0.13 0
0.43 setcmykcolor}DC/NavyBlue{0.94 0.54 0 0 setcmykcolor}DC/RoyalBlue{1
0.50 0 0 setcmykcolor}DC/Blue{1 1 0 0 setcmykcolor}DC/Cerulean{0.94 0.11
0 0 setcmykcolor}DC/Cyan{1 0 0 0 setcmykcolor}DC/ProcessBlue{0.96 0 0 0
setcmykcolor}DC/SkyBlue{0.62 0 0.12 0 setcmykcolor}DC/Turquoise{0.85 0
0.20 0 setcmykcolor}DC/TealBlue{0.86 0 0.34 0.02 setcmykcolor}DC
/Aquamarine{0.82 0 0.30 0 setcmykcolor}DC/BlueGreen{0.85 0 0.33 0
setcmykcolor}DC/Emerald{1 0 0.50 0 setcmykcolor}DC/JungleGreen{0.99 0
0.52 0 setcmykcolor}DC/SeaGreen{0.69 0 0.50 0 setcmykcolor}DC/Green{1 0
1 0 setcmykcolor}DC/ForestGreen{0.91 0 0.88 0.12 setcmykcolor}DC
/PineGreen{0.92 0 0.59 0.25 setcmykcolor}DC/LimeGreen{0.50 0 1 0
setcmykcolor}DC/YellowGreen{0.44 0 0.74 0 setcmykcolor}DC/SpringGreen{
0.26 0 0.76 0 setcmykcolor}DC/OliveGreen{0.64 0 0.95 0.40 setcmykcolor}
DC/RawSienna{0 0.72 1 0.45 setcmykcolor}DC/Sepia{0 0.83 1 0.70
setcmykcolor}DC/Brown{0 0.81 1 0.60 setcmykcolor}DC/Tan{0.14 0.42 0.56 0
setcmykcolor}DC/Gray{0 0 0 0.50 setcmykcolor}DC/Black{0 0 0 1
setcmykcolor}DC/White{0 0 0 0 setcmykcolor}DC end

%%EndProcSet
TeXDict begin 156819571 221710428 1000 600 600 (job-001.dvi)
@start end
%%EndProlog
%%BeginSetup
%%Feature: *Resolution 600dpi
TeXDict begin
 end
%%EndSetup
%%Page: 1 1
TeXDict begin 1 0 bop Black Black 706 2150 a @beginspecial
0 @llx 0 @lly 372 @urx 189 @ury 3720 @rwi @setspecial
%%BeginDocument: job-001.fig2dev.ps
%!PS-Adobe-3.0 EPSF-3.0
%%Title: job-001.fig
%%Creator: fig2dev Version 3.2 Patchlevel 5e
%%CreationDate: Mon Apr  6 22:22:39 2015
%%BoundingBox: 156 3040 530 3228
%Magnification: 1.0000
%%EndComments
%%BeginProlog
/$F2psDict 200 dict def
$F2psDict begin
$F2psDict /mtrx matrix put
/col-1 {0 setgray} bind def
/col0 {0.000 0.000 0.000 srgb} bind def
/col1 {0.000 0.000 1.000 srgb} bind def
/col2 {0.000 1.000 0.000 srgb} bind def
/col3 {0.000 1.000 1.000 srgb} bind def
/col4 {1.000 0.000 0.000 srgb} bind def
/col5 {1.000 0.000 1.000 srgb} bind def
/col6 {1.000 1.000 0.000 srgb} bind def
/col7 {1.000 1.000 1.000 srgb} bind def
/col8 {0.000 0.000 0.560 srgb} bind def
/col9 {0.000 0.000 0.690 srgb} bind def
/col10 {0.000 0.000 0.820 srgb} bind def
/col11 {0.530 0.810 1.000 srgb} bind def
/col12 {0.000 0.560 0.000 srgb} bind def
/col13 {0.000 0.690 0.000 srgb} bind def
/col14 {0.000 0.820 0.000 srgb} bind def
/col15 {0.000 0.560 0.560 srgb} bind def
/col16 {0.000 0.690 0.690 srgb} bind def
/col17 {0.000 0.820 0.820 srgb} bind def
/col18 {0.560 0.000 0.000 srgb} bind def
/col19 {0.690 0.000 0.000 srgb} bind def
/col20 {0.820 0.000 0.000 srgb} bind def
/col21 {0.560 0.000 0.560 srgb} bind def
/col22 {0.690 0.000 0.690 srgb} bind def
/col23 {0.820 0.000 0.820 srgb} bind def
/col24 {0.500 0.190 0.000 srgb} bind def
/col25 {0.630 0.250 0.000 srgb} bind def
/col26 {0.750 0.380 0.000 srgb} bind def
/col27 {1.000 0.500 0.500 srgb} bind def
/col28 {1.000 0.630 0.630 srgb} bind def
/col29 {1.000 0.750 0.750 srgb} bind def
/col30 {1.000 0.880 0.880 srgb} bind def
/col31 {1.000 0.840 0.000 srgb} bind def

end

/cp {closepath} bind def
/ef {eofill} bind def
/gr {grestore} bind def
/gs {gsave} bind def
/sa {save} bind def
/rs {restore} bind def
/l {lineto} bind def
/m {moveto} bind def
/rm {rmoveto} bind def
/n {newpath} bind def
/s {stroke} bind def
/sh {show} bind def
/slc {setlinecap} bind def
/slj {setlinejoin} bind def
/slw {setlinewidth} bind def
/srgb {setrgbcolor} bind def
/rot {rotate} bind def
/sc {scale} bind def
/sd {setdash} bind def
/ff {findfont} bind def
/sf {setfont} bind def
/scf {scalefont} bind def
/sw {stringwidth} bind def
/tr {translate} bind def
/tnt {dup dup currentrgbcolor
  4 -2 roll dup 1 exch sub 3 -1 roll mul add
  4 -2 roll dup 1 exch sub 3 -1 roll mul add
  4 -2 roll dup 1 exch sub 3 -1 roll mul add srgb}
  bind def
/shd {dup dup currentrgbcolor 4 -2 roll mul 4 -2 roll mul
  4 -2 roll mul srgb} bind def
 /DrawEllipse {
	/endangle exch def
	/startangle exch def
	/yrad exch def
	/xrad exch def
	/y exch def
	/x exch def
	/savematrix mtrx currentmatrix def
	x y tr xrad yrad sc 0 0 1 startangle endangle arc
	closepath
	savematrix setmatrix
	} def

/$F2psBegin {$F2psDict begin /$F2psEnteredState save def} def
/$F2psEnd {$F2psEnteredState restore end} def

/pageheader {
save
newpath 0 189 moveto 0 0 lineto 372 0 lineto 372 189 lineto closepath clip newpath
-4.9 192.0 translate
1 -1 scale
$F2psBegin
10 setmiterlimit
0 slj 0 slc
 0.06299 0.06299 sc
} bind def
/pagefooter {
$F2psEnd
restore
} bind def
%%EndProlog
pageheader
%
% Fig objects follow
%
% 
% here starts figure with depth 50
% Polyline
0 slj
0 slc
7.500 slw
n 3150 1485 m 3780 1485 l 3780 1845 l 3150 1845 l
 cp gs col0 s gr 
% Polyline
n 450 270 m 1350 270 l 1350 630 l 450 630 l
 cp gs col0 s gr 
% Polyline
n 1620 720 m 1530 720 l 1530 450 l
 1350 450 l gs col0 s gr 
% Polyline
n 630 810 m 1170 810 l 1170 990 l 630 990 l
 cp gs col0 s gr 
% Polyline
n 1620 900 m
 1170 900 l gs col0 s gr 
% Polyline
n 630 1080 m 1170 1080 l 1170 1260 l 630 1260 l
 cp gs col0 s gr 
% Polyline
n 1620 1170 m
 1170 1170 l gs col0 s gr 
% Polyline
n 1620 1350 m 1620 1530 l
 270 1530 l gs col0 s gr 
% Polyline
gs  clippath
168 1560 m 285 1560 l 285 1500 l 168 1500 l 168 1500 l 258 1530 l 168 1560 l cp
eoclip
n 90 1530 m
 270 1530 l gs col0 s gr gr

% arrowhead
n 168 1560 m 258 1530 l 168 1500 l 138 1530 l 168 1560 l 
 cp gs 0.00 setgray ef gr  col0 s
% Polyline
n 3150 855 m 3780 855 l 3780 1215 l 3150 1215 l
 cp gs col0 s gr 
% Polyline
gs  clippath
3048 1065 m 3165 1065 l 3165 1005 l 3048 1005 l 3048 1005 l 3138 1035 l 3048 1065 l cp
eoclip
n 2970 1035 m
 3150 1035 l gs col0 s gr gr

% arrowhead
n 3048 1065 m 3138 1035 l 3048 1005 l 3018 1035 l 3048 1065 l 
 cp gs 0.00 setgray ef gr  col0 s
% Polyline
gs  clippath
3435 1383 m 3435 1500 l 3495 1500 l 3495 1383 l 3495 1383 l 3465 1473 l 3435 1383 l cp
eoclip
n 3465 1215 m
 3465 1485 l gs col0 s gr gr

% arrowhead
n 3435 1383 m 3465 1473 l 3495 1383 l 3465 1353 l 3435 1383 l 
 cp gs 0.00 setgray ef gr  col0 s
% Polyline
n 3060 270 m 3780 270 l 3780 720 l 3060 720 l
 cp gs col0 s gr 
% Polyline
n 4316 495 m 4324 495 l gs col0 s gr
% Polyline
gs  clippath
4218 345 m 4335 345 l 4335 285 l 4218 285 l 4218 285 l 4308 315 l 4218 345 l cp
eoclip
n 3780 315 m
 4320 315 l gs col0 s gr gr

% arrowhead
n 4218 345 m 4308 315 l 4218 285 l 4188 315 l 4218 345 l 
 cp gs 0.00 setgray ef gr  col0 s
% Polyline
gs  clippath
4218 705 m 4335 705 l 4335 645 l 4218 645 l 4218 645 l 4308 675 l 4218 705 l cp
eoclip
n 3780 675 m
 4320 675 l gs col0 s gr gr

% arrowhead
n 4218 705 m 4308 675 l 4218 645 l 4188 675 l 4218 705 l 
 cp gs 0.00 setgray ef gr  col0 s
% Polyline
gs  clippath
4218 525 m 4335 525 l 4335 465 l 4218 465 l 4218 465 l 4308 495 l 4218 525 l cp
eoclip
n 3780 495 m
 4320 495 l gs col0 s gr gr

% arrowhead
n 4218 525 m 4308 495 l 4218 465 l 4188 495 l 4218 525 l 
 cp gs 0.00 setgray ef gr  col0 s
% Polyline
gs  clippath
2958 480 m 3075 480 l 3075 420 l 2958 420 l 2958 420 l 3048 450 l 2958 480 l cp
eoclip
n 2610 450 m
 3060 450 l gs col0 s gr gr

% arrowhead
n 2958 480 m 3048 450 l 2958 420 l 2928 450 l 2958 480 l 
 cp gs 0.00 setgray ef gr  col0 s
% Polyline
n 4320 270 m 5580 270 l 5580 720 l 4320 720 l
 cp gs col0 s gr 
% Polyline
15.000 slw
n 4410 450 m 5490 450 l 5490 630 l 4410 630 l
 cp gs col0 s gr 
% Polyline
n 4410 1575 m 5490 1575 l 5490 1755 l 4410 1755 l
 cp gs col0 s gr 
% Polyline
7.500 slw
gs  clippath
4920 1473 m 4920 1590 l 4980 1590 l 4980 1473 l 4980 1473 l 4950 1563 l 4920 1473 l cp
eoclip
n 4950 630 m
 4950 1575 l gs col0 s gr gr

% arrowhead
n 4920 1473 m 4950 1563 l 4980 1473 l 4950 1443 l 4920 1473 l 
 cp gs 0.00 setgray ef gr  col0 s
% Polyline
gs  clippath
4308 1695 m 4425 1695 l 4425 1635 l 4308 1635 l 4308 1635 l 4398 1665 l 4308 1695 l cp
eoclip
n 3780 1665 m
 4410 1665 l gs col0 s gr gr

% arrowhead
n 4308 1695 m 4398 1665 l 4308 1635 l 4278 1665 l 4308 1695 l 
 cp gs 0.00 setgray ef gr  col0 s
% Polyline
gs  clippath
4398 2100 m 4515 2100 l 4515 2040 l 4398 2040 l 4398 2040 l 4488 2070 l 4398 2100 l cp
eoclip
n 4050 1665 m 4050 2070 l
 4500 2070 l gs col0 s gr gr

% arrowhead
n 4398 2100 m 4488 2070 l 4398 2040 l 4368 2070 l 4398 2100 l 
 cp gs 0.00 setgray ef gr  col0 s
% Polyline
gs  clippath
5910 1968 m 5910 2085 l 5970 2085 l 5970 1968 l 5970 1968 l 5940 2058 l 5910 1968 l cp
5970 192 m 5970 75 l 5910 75 l 5910 192 l 5910 192 l 5940 102 l 5970 192 l cp
eoclip
n 5940 90 m
 5940 2070 l gs col0 s gr gr

% arrowhead
n 5970 192 m 5940 102 l 5910 192 l 5940 222 l 5970 192 l 
 cp gs 0.00 setgray ef gr  col0 s
% arrowhead
n 5910 1968 m 5940 2058 l 5970 1968 l 5940 1938 l 5910 1968 l 
 cp gs 0.00 setgray ef gr  col0 s
% Polyline
gs  clippath
5838 570 m 5955 570 l 5955 510 l 5838 510 l 5838 510 l 5928 540 l 5838 570 l cp
5592 510 m 5475 510 l 5475 570 l 5592 570 l 5592 570 l 5502 540 l 5592 510 l cp
eoclip
n 5490 540 m
 5940 540 l gs col0 s gr gr

% arrowhead
n 5592 510 m 5502 540 l 5592 570 l 5622 540 l 5592 510 l 
 cp gs 0.00 setgray ef gr  col0 s
% arrowhead
n 5838 570 m 5928 540 l 5838 510 l 5808 540 l 5838 570 l 
 cp gs 0.00 setgray ef gr  col0 s
% Polyline
gs  clippath
5838 1695 m 5955 1695 l 5955 1635 l 5838 1635 l 5838 1635 l 5928 1665 l 5838 1695 l cp
5592 1635 m 5475 1635 l 5475 1695 l 5592 1695 l 5592 1695 l 5502 1665 l 5592 1635 l cp
eoclip
n 5490 1665 m
 5940 1665 l gs col0 s gr gr

% arrowhead
n 5592 1635 m 5502 1665 l 5592 1695 l 5622 1665 l 5592 1635 l 
 cp gs 0.00 setgray ef gr  col0 s
% arrowhead
n 5838 1695 m 5928 1665 l 5838 1635 l 5808 1665 l 5838 1695 l 
 cp gs 0.00 setgray ef gr  col0 s
% Polyline
gs  clippath
4578 165 m 4695 165 l 4695 105 l 4578 105 l 4578 105 l 4668 135 l 4578 165 l cp
eoclip
n 4410 270 m 4410 135 l
 4680 135 l gs col0 s gr gr

% arrowhead
n 4578 165 m 4668 135 l 4578 105 l 4548 135 l 4578 165 l 
 cp gs 0.00 setgray ef gr  col0 s
% Polyline
n 1485 2655 m 1350 2655 l 1350 2565 l
 1035 2565 l gs col0 s gr 
% Polyline
gs  clippath
1020 1992 m 1020 1875 l 960 1875 l 960 1992 l 960 1992 l 990 1902 l 1020 1992 l cp
eoclip
n 990 2250 m
 990 1890 l gs col0 s gr gr

% arrowhead
n 1020 1992 m 990 1902 l 960 1992 l 990 2022 l 1020 1992 l 
 cp gs 0.00 setgray ef gr  col0 s
% Polyline
n 990 1890 m 90 1890 l
 90 1530 l gs col0 s gr 
/Times-Roman ff 135.00 scf sf
3465 1800 m
gs 1 -1 sc (Detector) dup sw pop 2 div neg 0 rm  col0 sh gr
/Times-Roman ff 135.00 scf sf
3465 1620 m
gs 1 -1 sc (Edge) dup sw pop 2 div neg 0 rm  col0 sh gr
/Times-Roman ff 135.00 scf sf
900 405 m
gs 1 -1 sc (Bandgap) dup sw pop 2 div neg 0 rm  col0 sh gr
/Times-Roman ff 135.00 scf sf
900 585 m
gs 1 -1 sc (Reference) dup sw pop 2 div neg 0 rm  col0 sh gr
/Times-Roman ff 135.00 scf sf
900 945 m
gs 1 -1 sc (AIN0) dup sw pop 2 div neg 0 rm  col0 sh gr
/Times-Roman ff 135.00 scf sf
900 1215 m
gs 1 -1 sc (AIN1) dup sw pop 2 div neg 0 rm  col0 sh gr
/Times-Roman ff 135.00 scf sf
135 1485 m
gs 1 -1 sc (From ADC Multiplexor) col0 sh gr
/Times-Roman ff 120.00 scf sf
1890 585 m
gs 1 -1 sc (ACBG) dup sw pop 2 div neg 0 rm  col0 sh gr
/Times-Roman ff 120.00 scf sf
1890 1530 m
gs 1 -1 sc (ACME) dup sw pop 2 div neg 0 rm  col0 sh gr
/Times-Roman ff 135.00 scf sf
3465 990 m
gs 1 -1 sc (Noise) dup sw pop 2 div neg 0 rm  col0 sh gr
/Times-Roman ff 135.00 scf sf
3465 1125 m
gs 1 -1 sc (Canceler) dup sw pop 2 div neg 0 rm  col0 sh gr
/Times-Roman ff 105.00 scf sf
4005 270 m
gs 1 -1 sc (Count) dup sw pop 2 div neg 0 rm  col0 sh gr
/Times-Roman ff 105.00 scf sf
4005 450 m
gs 1 -1 sc (Clear) dup sw pop 2 div neg 0 rm  col0 sh gr
/Times-Roman ff 105.00 scf sf
4050 630 m
gs 1 -1 sc (Direction) dup sw pop 2 div neg 0 rm  col0 sh gr
/Times-Roman ff 135.00 scf sf
3420 405 m
gs 1 -1 sc (Control) dup sw pop 2 div neg 0 rm  col0 sh gr
/Times-Roman ff 135.00 scf sf
3420 570 m
gs 1 -1 sc (Logic) dup sw pop 2 div neg 0 rm  col0 sh gr
/Times-Roman ff 135.00 scf sf
2700 405 m
gs 1 -1 sc (Clock) dup sw pop 2 div neg 0 rm  col0 sh gr
/Times-Roman ff 135.00 scf sf
4545 2115 m
gs 1 -1 sc (ICFn) col0 sh gr
/Times-Roman ff 135.00 scf sf
5895 1440 m
gs 1 -1 sc  90.0 rot (DATA BUS) col0 sh gr
/Times-Roman ff 135.00 scf sf
4725 180 m
gs 1 -1 sc (TOV1) col0 sh gr
/Times-Roman ff 135.00 scf sf
4950 405 m
gs 1 -1 sc (Timer Counter) dup sw pop 2 div neg 0 rm  col0 sh gr
/Times-Roman ff 135.00 scf sf
4950 585 m
gs 1 -1 sc (TCNT1) dup sw pop 2 div neg 0 rm  col0 sh gr
/Times-Roman ff 135.00 scf sf
4950 1710 m
gs 1 -1 sc (ICR1) dup sw pop 2 div neg 0 rm  col0 sh gr
/Times-Roman ff 135.00 scf sf
810 2160 m
gs 1 -1 sc (TP3) dup sw pop 2 div neg 0 rm  col0 sh gr
/Times-Roman ff 135.00 scf sf
810 2790 m
gs 1 -1 sc (TP1) dup sw pop 2 div neg 0 rm  col0 sh gr
/Times-Bold ff 180.00 scf sf
360 2430 m
gs 1 -1 sc (Cx) dup sw pop 2 div neg 0 rm  col0 sh gr
/Times-Roman ff 135.00 scf sf
1260 2160 m
gs 1 -1 sc (470k) dup sw pop 2 div neg 0 rm  col0 sh gr
/Times-Roman ff 150.00 scf sf
1260 2430 m
gs 1 -1 sc (R6) dup sw pop 2 div neg 0 rm  col0 sh gr
% here ends figure;
% 
% here starts figure with depth 0
% Polyline
0 slj
0 slc
7.500 slw
n 2295 810 m
 2160 810 l gs col0 s gr 
% Polyline
n 2295 1260 m
 2160 1260 l gs col0 s gr 
% Polyline
n 2835 1035 m
 2970 1035 l gs col0 s gr 
% Polyline
1 slc
n 2345 855 m
 2425 855 l gs col0 s gr 
% Polyline
n 2385 815 m
 2385 895 l gs col0 s gr 
% Polyline
n 2345 1215 m
 2425 1215 l gs col0 s gr 
% Polyline
1 slj
n 2295 1350 m 2295 720 l 2835 1035 l
 2295 1350 l  cp gs col0 s gr 
% Ellipse
n 1755 900 38 38 0 360 DrawEllipse gs col0 s gr

% Ellipse
n 1755 720 38 38 0 360 DrawEllipse gs col0 s gr

% Ellipse
n 2025 810 38 38 0 360 DrawEllipse gs col0 s gr

% Polyline
0 slj
0 slc
n 1620 900 m
 1710 900 l gs col0 s gr 
% Polyline
n 1620 720 m
 1710 720 l gs col0 s gr 
% Polyline
n 2070 810 m
 2160 810 l gs col0 s gr 
% Polyline
1 slc
n 1980 810 m
 1705 762 l gs col0 s gr 
% Ellipse
n 1755 1170 38 38 0 360 DrawEllipse gs col0 s gr

% Ellipse
n 1755 1350 38 38 0 360 DrawEllipse gs col0 s gr

% Ellipse
n 2025 1260 38 38 0 360 DrawEllipse gs col0 s gr

% Polyline
0 slc
n 1620 1170 m
 1710 1170 l gs col0 s gr 
% Polyline
n 1620 1350 m
 1710 1350 l gs col0 s gr 
% Polyline
n 2070 1260 m
 2160 1260 l gs col0 s gr 
% Polyline
1 slc
n 1980 1260 m
 1705 1308 l gs col0 s gr 
% Ellipse
n 4050 1665 20 20 0 360 DrawEllipse gs 0.00 setgray ef gr gs col0 s gr

% Polyline
0 slc
gs  clippath
2047 1951 m 2047 1830 l 2002 1830 l 2002 1951 l 2002 1951 l 2025 1861 l 2047 1951 l cp
eoclip
n 2025 2160 m
 2025 1845 l gs col0 s gr gr

% arrowhead
n 2047 1951 m 2025 1861 l 2002 1951 l 2047 1951 l  cp gs 0.00 setgray ef gr  col0 s
% Ellipse
n 1890 2340 38 38 0 360 DrawEllipse gs col0 s gr

% Ellipse
n 1890 2160 38 38 0 360 DrawEllipse gs col0 s gr

% Ellipse
n 1620 2250 38 38 0 360 DrawEllipse gs col0 s gr

% Polyline
n 2025 2340 m
 1935 2340 l gs col0 s gr 
% Polyline
n 2025 2160 m
 1935 2160 l gs col0 s gr 
% Polyline
n 1575 2250 m
 1485 2250 l gs col0 s gr 
% Polyline
1 slc
n 1665 2250 m
 1940 2202 l gs col0 s gr 
% Polyline
0 slc
n 855 2205 m 810 2250 l
 855 2295 l gs col0 s gr 
% Polyline
n 810 2205 m 765 2250 l
 810 2295 l gs col0 s gr 
% Polyline
n 765 2250 m
 585 2250 l gs col0 s gr 
% Polyline
n 1035 2250 m
 810 2250 l gs col0 s gr 
% Polyline
n 855 2520 m 810 2565 l
 855 2610 l gs col0 s gr 
% Polyline
n 810 2520 m 765 2565 l
 810 2610 l gs col0 s gr 
% Polyline
n 765 2565 m
 585 2565 l gs col0 s gr 
% Polyline
n 1035 2565 m
 810 2565 l gs col0 s gr 
% Polyline
n 585 2385 m
 585 2250 l gs col0 s gr 
% Polyline
n 585 2430 m
 585 2565 l gs col0 s gr 
% Polyline
n 495 2385 m
 675 2385 l gs col0 s gr 
% Polyline
n 495 2430 m
 675 2430 l gs col0 s gr 
% Ellipse
n 1890 2565 38 38 0 360 DrawEllipse gs col0 s gr

% Ellipse
n 1890 2745 38 38 0 360 DrawEllipse gs col0 s gr

% Ellipse
n 1620 2655 38 38 0 360 DrawEllipse gs col0 s gr

% Polyline
n 2025 2565 m
 1935 2565 l gs col0 s gr 
% Polyline
n 2025 2745 m
 1935 2745 l gs col0 s gr 
% Polyline
n 1575 2655 m
 1485 2655 l gs col0 s gr 
% Polyline
1 slc
n 1665 2655 m
 1940 2703 l gs col0 s gr 
% Polyline
30.000 slw
n 1935 3015 m
 2115 3015 l gs col0 s gr 
% Polyline
0 slc
7.500 slw
n 2025 2745 m
 2025 3015 l gs col0 s gr 
% Ellipse
n 990 2250 20 20 0 360 DrawEllipse gs 0.00 setgray ef gr gs col0 s gr

% Polyline
n 1125 2250 m
 1035 2250 l gs col0 s gr 
% Polyline
n 1395 2205 m 1395 2295 l 1125 2295 l 1125 2205 l
 cp gs col0 s gr 
% Polyline
n 1485 2250 m
 1395 2250 l gs col0 s gr 
/Helvetica ff 90.00 scf sf
2070 1980 m
gs 1 -1 sc (VCC) col0 sh gr
% here ends figure;
pagefooter
showpage
%%Trailer
%EOF

%%EndDocument
 @endspecial Black Black eop end
%%Trailer

userdict /end-hook known{end-hook}if
%%EOF
