%!PS-Adobe-2.0
%%Creator: dvips(k) 5.993 Copyright 2013 Radical Eye Software
%%Title: job-001.dvi
%%CreationDate: Mon Apr  6 22:23:01 2015
%%Pages: 1
%%PageOrder: Ascend
%%BoundingBox: 156 3027 552 3229
%%EndComments
%DVIPSWebPage: (www.radicaleye.com)
%DVIPSCommandLine: dvips job-001.dvi -o job-001.dvips.ps
%DVIPSParameters: dpi=600
%DVIPSSource:  TeX output 2015.04.06:2223
%%BeginProcSet: tex.pro 0 0
%!
/TeXDict 300 dict def TeXDict begin/N{def}def/B{bind def}N/S{exch}N/X{S
N}B/A{dup}B/TR{translate}N/isls false N/vsize 11 72 mul N/hsize 8.5 72
mul N/landplus90{false}def/@rigin{isls{[0 landplus90{1 -1}{-1 1}ifelse 0
0 0]concat}if 72 Resolution div 72 VResolution div neg scale isls{
landplus90{VResolution 72 div vsize mul 0 exch}{Resolution -72 div hsize
mul 0}ifelse TR}if Resolution VResolution vsize -72 div 1 add mul TR[
matrix currentmatrix{A A round sub abs 0.00001 lt{round}if}forall round
exch round exch]setmatrix}N/@landscape{/isls true N}B/@manualfeed{
statusdict/manualfeed true put}B/@copies{/#copies X}B/FMat[1 0 0 -1 0 0]
N/FBB[0 0 0 0]N/nn 0 N/IEn 0 N/ctr 0 N/df-tail{/nn 8 dict N nn begin
/FontType 3 N/FontMatrix fntrx N/FontBBox FBB N string/base X array
/BitMaps X/BuildChar{CharBuilder}N/Encoding IEn N end A{/foo setfont}2
array copy cvx N load 0 nn put/ctr 0 N[}B/sf 0 N/df{/sf 1 N/fntrx FMat N
df-tail}B/dfs{div/sf X/fntrx[sf 0 0 sf neg 0 0]N df-tail}B/E{pop nn A
definefont setfont}B/Cw{Cd A length 5 sub get}B/Ch{Cd A length 4 sub get
}B/Cx{128 Cd A length 3 sub get sub}B/Cy{Cd A length 2 sub get 127 sub}
B/Cdx{Cd A length 1 sub get}B/Ci{Cd A type/stringtype ne{ctr get/ctr ctr
1 add N}if}B/CharBuilder{save 3 1 roll S A/base get 2 index get S
/BitMaps get S get/Cd X pop/ctr 0 N Cdx 0 Cx Cy Ch sub Cx Cw add Cy
setcachedevice Cw Ch true[1 0 0 -1 -.1 Cx sub Cy .1 sub]{Ci}imagemask
restore}B/D{/cc X A type/stringtype ne{]}if nn/base get cc ctr put nn
/BitMaps get S ctr S sf 1 ne{A A length 1 sub A 2 index S get sf div put
}if put/ctr ctr 1 add N}B/I{cc 1 add D}B/bop{userdict/bop-hook known{
bop-hook}if/SI save N @rigin 0 0 moveto/V matrix currentmatrix A 1 get A
mul exch 0 get A mul add .99 lt{/QV}{/RV}ifelse load def pop pop}N/eop{
SI restore userdict/eop-hook known{eop-hook}if showpage}N/@start{
userdict/start-hook known{start-hook}if pop/VResolution X/Resolution X
1000 div/DVImag X/IEn 256 array N 2 string 0 1 255{IEn S A 360 add 36 4
index cvrs cvn put}for pop 65781.76 div/vsize X 65781.76 div/hsize X}N
/dir 0 def/dyy{/dir 0 def}B/dyt{/dir 1 def}B/dty{/dir 2 def}B/dtt{/dir 3
def}B/p{dir 2 eq{-90 rotate show 90 rotate}{dir 3 eq{-90 rotate show 90
rotate}{show}ifelse}ifelse}N/RMat[1 0 0 -1 0 0]N/BDot 260 string N/Rx 0
N/Ry 0 N/V{}B/RV/v{/Ry X/Rx X V}B statusdict begin/product where{pop
false[(Display)(NeXT)(LaserWriter 16/600)]{A length product length le{A
length product exch 0 exch getinterval eq{pop true exit}if}{pop}ifelse}
forall}{false}ifelse end{{gsave TR -.1 .1 TR 1 1 scale Rx Ry false RMat{
BDot}imagemask grestore}}{{gsave TR -.1 .1 TR Rx Ry scale 1 1 false RMat
{BDot}imagemask grestore}}ifelse B/QV{gsave newpath transform round exch
round exch itransform moveto Rx 0 rlineto 0 Ry neg rlineto Rx neg 0
rlineto fill grestore}B/a{moveto}B/delta 0 N/tail{A/delta X 0 rmoveto}B
/M{S p delta add tail}B/b{S p tail}B/c{-4 M}B/d{-3 M}B/e{-2 M}B/f{-1 M}
B/g{0 M}B/h{1 M}B/i{2 M}B/j{3 M}B/k{4 M}B/w{0 rmoveto}B/l{p -4 w}B/m{p
-3 w}B/n{p -2 w}B/o{p -1 w}B/q{p 1 w}B/r{p 2 w}B/s{p 3 w}B/t{p 4 w}B/x{
0 S rmoveto}B/y{3 2 roll p a}B/bos{/SS save N}B/eos{SS restore}B end

%%EndProcSet
%%BeginProcSet: special.pro 0 0
%!
TeXDict begin/SDict 200 dict N SDict begin/@SpecialDefaults{/hs 612 N
/vs 792 N/ho 0 N/vo 0 N/hsc 1 N/vsc 1 N/ang 0 N/CLIP 0 N/rwiSeen false N
/rhiSeen false N/letter{}N/note{}N/a4{}N/legal{}N}B/@scaleunit 100 N
/@hscale{@scaleunit div/hsc X}B/@vscale{@scaleunit div/vsc X}B/@hsize{
/hs X/CLIP 1 N}B/@vsize{/vs X/CLIP 1 N}B/@clip{/CLIP 2 N}B/@hoffset{/ho
X}B/@voffset{/vo X}B/@angle{/ang X}B/@rwi{10 div/rwi X/rwiSeen true N}B
/@rhi{10 div/rhi X/rhiSeen true N}B/@llx{/llx X}B/@lly{/lly X}B/@urx{
/urx X}B/@ury{/ury X}B/magscale true def end/@MacSetUp{userdict/md known
{userdict/md get type/dicttype eq{userdict begin md length 10 add md
maxlength ge{/md md dup length 20 add dict copy def}if end md begin
/letter{}N/note{}N/legal{}N/od{txpose 1 0 mtx defaultmatrix dtransform S
atan/pa X newpath clippath mark{transform{itransform moveto}}{transform{
itransform lineto}}{6 -2 roll transform 6 -2 roll transform 6 -2 roll
transform{itransform 6 2 roll itransform 6 2 roll itransform 6 2 roll
curveto}}{{closepath}}pathforall newpath counttomark array astore/gc xdf
pop ct 39 0 put 10 fz 0 fs 2 F/|______Courier fnt invertflag{PaintBlack}
if}N/txpose{pxs pys scale ppr aload pop por{noflips{pop S neg S TR pop 1
-1 scale}if xflip yflip and{pop S neg S TR 180 rotate 1 -1 scale ppr 3
get ppr 1 get neg sub neg ppr 2 get ppr 0 get neg sub neg TR}if xflip
yflip not and{pop S neg S TR pop 180 rotate ppr 3 get ppr 1 get neg sub
neg 0 TR}if yflip xflip not and{ppr 1 get neg ppr 0 get neg TR}if}{
noflips{TR pop pop 270 rotate 1 -1 scale}if xflip yflip and{TR pop pop
90 rotate 1 -1 scale ppr 3 get ppr 1 get neg sub neg ppr 2 get ppr 0 get
neg sub neg TR}if xflip yflip not and{TR pop pop 90 rotate ppr 3 get ppr
1 get neg sub neg 0 TR}if yflip xflip not and{TR pop pop 270 rotate ppr
2 get ppr 0 get neg sub neg 0 S TR}if}ifelse scaleby96{ppr aload pop 4
-1 roll add 2 div 3 1 roll add 2 div 2 copy TR .96 dup scale neg S neg S
TR}if}N/cp{pop pop showpage pm restore}N end}if}if}N/normalscale{
Resolution 72 div VResolution 72 div neg scale magscale{DVImag dup scale
}if 0 setgray}N/psfts{S 65781.76 div N}N/startTexFig{/psf$SavedState
save N userdict maxlength dict begin/magscale true def normalscale
currentpoint TR/psf$ury psfts/psf$urx psfts/psf$lly psfts/psf$llx psfts
/psf$y psfts/psf$x psfts currentpoint/psf$cy X/psf$cx X/psf$sx psf$x
psf$urx psf$llx sub div N/psf$sy psf$y psf$ury psf$lly sub div N psf$sx
psf$sy scale psf$cx psf$sx div psf$llx sub psf$cy psf$sy div psf$ury sub
TR/showpage{}N/erasepage{}N/setpagedevice{pop}N/copypage{}N/p 3 def
@MacSetUp}N/doclip{psf$llx psf$lly psf$urx psf$ury currentpoint 6 2 roll
newpath 4 copy 4 2 roll moveto 6 -1 roll S lineto S lineto S lineto
closepath clip newpath moveto}N/endTexFig{end psf$SavedState restore}N
/@beginspecial{SDict begin/SpecialSave save N gsave normalscale
currentpoint TR @SpecialDefaults count/ocount X/dcount countdictstack N}
N/@setspecial{CLIP 1 eq{newpath 0 0 moveto hs 0 rlineto 0 vs rlineto hs
neg 0 rlineto closepath clip}if ho vo TR hsc vsc scale ang rotate
rwiSeen{rwi urx llx sub div rhiSeen{rhi ury lly sub div}{dup}ifelse
scale llx neg lly neg TR}{rhiSeen{rhi ury lly sub div dup scale llx neg
lly neg TR}if}ifelse CLIP 2 eq{newpath llx lly moveto urx lly lineto urx
ury lineto llx ury lineto closepath clip}if/showpage{}N/erasepage{}N
/setpagedevice{pop}N/copypage{}N newpath}N/@endspecial{count ocount sub{
pop}repeat countdictstack dcount sub{end}repeat grestore SpecialSave
restore end}N/@defspecial{SDict begin}N/@fedspecial{end}B/li{lineto}B
/rl{rlineto}B/rc{rcurveto}B/np{/SaveX currentpoint/SaveY X N 1
setlinecap newpath}N/st{stroke SaveX SaveY moveto}N/fil{fill SaveX SaveY
moveto}N/ellipse{/endangle X/startangle X/yrad X/xrad X/savematrix
matrix currentmatrix N TR xrad yrad scale 0 0 1 startangle endangle arc
savematrix setmatrix}N end

%%EndProcSet
%%BeginProcSet: color.pro 0 0
%!
TeXDict begin/setcmykcolor where{pop}{/setcmykcolor{dup 10 eq{pop
setrgbcolor}{1 sub 4 1 roll 3{3 index add neg dup 0 lt{pop 0}if 3 1 roll
}repeat setrgbcolor pop}ifelse}B}ifelse/TeXcolorcmyk{setcmykcolor}def
/TeXcolorrgb{setrgbcolor}def/TeXcolorgrey{setgray}def/TeXcolorgray{
setgray}def/TeXcolorhsb{sethsbcolor}def/currentcmykcolor where{pop}{
/currentcmykcolor{currentrgbcolor 10}B}ifelse/DC{exch dup userdict exch
known{pop pop}{X}ifelse}B/GreenYellow{0.15 0 0.69 0 setcmykcolor}DC
/Yellow{0 0 1 0 setcmykcolor}DC/Goldenrod{0 0.10 0.84 0 setcmykcolor}DC
/Dandelion{0 0.29 0.84 0 setcmykcolor}DC/Apricot{0 0.32 0.52 0
setcmykcolor}DC/Peach{0 0.50 0.70 0 setcmykcolor}DC/Melon{0 0.46 0.50 0
setcmykcolor}DC/YellowOrange{0 0.42 1 0 setcmykcolor}DC/Orange{0 0.61
0.87 0 setcmykcolor}DC/BurntOrange{0 0.51 1 0 setcmykcolor}DC
/Bittersweet{0 0.75 1 0.24 setcmykcolor}DC/RedOrange{0 0.77 0.87 0
setcmykcolor}DC/Mahogany{0 0.85 0.87 0.35 setcmykcolor}DC/Maroon{0 0.87
0.68 0.32 setcmykcolor}DC/BrickRed{0 0.89 0.94 0.28 setcmykcolor}DC/Red{
0 1 1 0 setcmykcolor}DC/OrangeRed{0 1 0.50 0 setcmykcolor}DC/RubineRed{
0 1 0.13 0 setcmykcolor}DC/WildStrawberry{0 0.96 0.39 0 setcmykcolor}DC
/Salmon{0 0.53 0.38 0 setcmykcolor}DC/CarnationPink{0 0.63 0 0
setcmykcolor}DC/Magenta{0 1 0 0 setcmykcolor}DC/VioletRed{0 0.81 0 0
setcmykcolor}DC/Rhodamine{0 0.82 0 0 setcmykcolor}DC/Mulberry{0.34 0.90
0 0.02 setcmykcolor}DC/RedViolet{0.07 0.90 0 0.34 setcmykcolor}DC
/Fuchsia{0.47 0.91 0 0.08 setcmykcolor}DC/Lavender{0 0.48 0 0
setcmykcolor}DC/Thistle{0.12 0.59 0 0 setcmykcolor}DC/Orchid{0.32 0.64 0
0 setcmykcolor}DC/DarkOrchid{0.40 0.80 0.20 0 setcmykcolor}DC/Purple{
0.45 0.86 0 0 setcmykcolor}DC/Plum{0.50 1 0 0 setcmykcolor}DC/Violet{
0.79 0.88 0 0 setcmykcolor}DC/RoyalPurple{0.75 0.90 0 0 setcmykcolor}DC
/BlueViolet{0.86 0.91 0 0.04 setcmykcolor}DC/Periwinkle{0.57 0.55 0 0
setcmykcolor}DC/CadetBlue{0.62 0.57 0.23 0 setcmykcolor}DC
/CornflowerBlue{0.65 0.13 0 0 setcmykcolor}DC/MidnightBlue{0.98 0.13 0
0.43 setcmykcolor}DC/NavyBlue{0.94 0.54 0 0 setcmykcolor}DC/RoyalBlue{1
0.50 0 0 setcmykcolor}DC/Blue{1 1 0 0 setcmykcolor}DC/Cerulean{0.94 0.11
0 0 setcmykcolor}DC/Cyan{1 0 0 0 setcmykcolor}DC/ProcessBlue{0.96 0 0 0
setcmykcolor}DC/SkyBlue{0.62 0 0.12 0 setcmykcolor}DC/Turquoise{0.85 0
0.20 0 setcmykcolor}DC/TealBlue{0.86 0 0.34 0.02 setcmykcolor}DC
/Aquamarine{0.82 0 0.30 0 setcmykcolor}DC/BlueGreen{0.85 0 0.33 0
setcmykcolor}DC/Emerald{1 0 0.50 0 setcmykcolor}DC/JungleGreen{0.99 0
0.52 0 setcmykcolor}DC/SeaGreen{0.69 0 0.50 0 setcmykcolor}DC/Green{1 0
1 0 setcmykcolor}DC/ForestGreen{0.91 0 0.88 0.12 setcmykcolor}DC
/PineGreen{0.92 0 0.59 0.25 setcmykcolor}DC/LimeGreen{0.50 0 1 0
setcmykcolor}DC/YellowGreen{0.44 0 0.74 0 setcmykcolor}DC/SpringGreen{
0.26 0 0.76 0 setcmykcolor}DC/OliveGreen{0.64 0 0.95 0.40 setcmykcolor}
DC/RawSienna{0 0.72 1 0.45 setcmykcolor}DC/Sepia{0 0.83 1 0.70
setcmykcolor}DC/Brown{0 0.81 1 0.60 setcmykcolor}DC/Tan{0.14 0.42 0.56 0
setcmykcolor}DC/Gray{0 0 0 0.50 setcmykcolor}DC/Black{0 0 0 1
setcmykcolor}DC/White{0 0 0 0 setcmykcolor}DC end

%%EndProcSet
TeXDict begin 156819571 221710428 1000 600 600 (job-001.dvi)
@start end
%%EndProlog
%%BeginSetup
%%Feature: *Resolution 600dpi
TeXDict begin
 end
%%EndSetup
%%Page: 1 1
TeXDict begin 1 0 bop Black Black 706 2258 a @beginspecial
0 @llx 0 @lly 398 @urx 202 @ury 3980 @rwi @setspecial
%%BeginDocument: job-001.fig2dev.ps
%!PS-Adobe-3.0 EPSF-3.0
%%Title: job-001.fig
%%Creator: fig2dev Version 3.2 Patchlevel 5e
%%CreationDate: Mon Apr  6 22:23:01 2015
%%BoundingBox: 156 3027 552 3229
%Magnification: 1.0000
%%EndComments
%%BeginProlog
/$F2psDict 200 dict def
$F2psDict begin
$F2psDict /mtrx matrix put
/col-1 {0 setgray} bind def
/col0 {0.000 0.000 0.000 srgb} bind def
/col1 {0.000 0.000 1.000 srgb} bind def
/col2 {0.000 1.000 0.000 srgb} bind def
/col3 {0.000 1.000 1.000 srgb} bind def
/col4 {1.000 0.000 0.000 srgb} bind def
/col5 {1.000 0.000 1.000 srgb} bind def
/col6 {1.000 1.000 0.000 srgb} bind def
/col7 {1.000 1.000 1.000 srgb} bind def
/col8 {0.000 0.000 0.560 srgb} bind def
/col9 {0.000 0.000 0.690 srgb} bind def
/col10 {0.000 0.000 0.820 srgb} bind def
/col11 {0.530 0.810 1.000 srgb} bind def
/col12 {0.000 0.560 0.000 srgb} bind def
/col13 {0.000 0.690 0.000 srgb} bind def
/col14 {0.000 0.820 0.000 srgb} bind def
/col15 {0.000 0.560 0.560 srgb} bind def
/col16 {0.000 0.690 0.690 srgb} bind def
/col17 {0.000 0.820 0.820 srgb} bind def
/col18 {0.560 0.000 0.000 srgb} bind def
/col19 {0.690 0.000 0.000 srgb} bind def
/col20 {0.820 0.000 0.000 srgb} bind def
/col21 {0.560 0.000 0.560 srgb} bind def
/col22 {0.690 0.000 0.690 srgb} bind def
/col23 {0.820 0.000 0.820 srgb} bind def
/col24 {0.500 0.190 0.000 srgb} bind def
/col25 {0.630 0.250 0.000 srgb} bind def
/col26 {0.750 0.380 0.000 srgb} bind def
/col27 {1.000 0.500 0.500 srgb} bind def
/col28 {1.000 0.630 0.630 srgb} bind def
/col29 {1.000 0.750 0.750 srgb} bind def
/col30 {1.000 0.880 0.880 srgb} bind def
/col31 {1.000 0.840 0.000 srgb} bind def

end

/cp {closepath} bind def
/ef {eofill} bind def
/gr {grestore} bind def
/gs {gsave} bind def
/sa {save} bind def
/rs {restore} bind def
/l {lineto} bind def
/m {moveto} bind def
/rm {rmoveto} bind def
/n {newpath} bind def
/s {stroke} bind def
/sh {show} bind def
/slc {setlinecap} bind def
/slj {setlinejoin} bind def
/slw {setlinewidth} bind def
/srgb {setrgbcolor} bind def
/rot {rotate} bind def
/sc {scale} bind def
/sd {setdash} bind def
/ff {findfont} bind def
/sf {setfont} bind def
/scf {scalefont} bind def
/sw {stringwidth} bind def
/tr {translate} bind def
/tnt {dup dup currentrgbcolor
  4 -2 roll dup 1 exch sub 3 -1 roll mul add
  4 -2 roll dup 1 exch sub 3 -1 roll mul add
  4 -2 roll dup 1 exch sub 3 -1 roll mul add srgb}
  bind def
/shd {dup dup currentrgbcolor 4 -2 roll mul 4 -2 roll mul
  4 -2 roll mul srgb} bind def
 /DrawEllipse {
	/endangle exch def
	/startangle exch def
	/yrad exch def
	/xrad exch def
	/y exch def
	/x exch def
	/savematrix mtrx currentmatrix def
	x y tr xrad yrad sc 0 0 1 startangle endangle arc
	closepath
	savematrix setmatrix
	} def

/$F2psBegin {$F2psDict begin /$F2psEnteredState save def} def
/$F2psEnd {$F2psEnteredState restore end} def

/pageheader {
save
newpath 0 202 moveto 0 0 lineto 398 0 lineto 398 202 lineto closepath clip newpath
-20.7 214.7 translate
1 -1 scale
$F2psBegin
10 setmiterlimit
0 slj 0 slc
 0.06299 0.06299 sc
} bind def
/pagefooter {
$F2psEnd
restore
} bind def
%%EndProlog
pageheader
%
% Fig objects follow
%
% 
% here starts figure with depth 50
% Polyline
0 slj
0 slc
7.500 slw
n 5040 1125 m 5940 1125 l 5940 1800 l 5040 1800 l
 cp gs col0 s gr 
% Polyline
n 855 2745 m 540 2745 l
 540 2475 l gs col0 s gr 
% Polyline
n 540 1980 m
 540 1125 l gs col0 s gr 
% Polyline
n 540 675 m
 540 540 l gs col0 s gr 
% Polyline
n 1350 2520 m 1350 2745 l
 855 2745 l gs col0 s gr 
% Polyline
gs  clippath
1736 1548 m 1799 1548 l 1799 1421 l 1736 1421 l 1736 1421 l cp
eoclip
n 1350 1485 m
 1800 1485 l gs col0 s gr gr

% arrowhead
n 1736 1545 m 1746 1544 l 1755 1542 l 1764 1538 l 1772 1533 l 
1779 1527 l 1785 1519 l 1790 1511 l 1794 1502 l 1796 1492 l 
1796 1483 l 1795 1473 l 1792 1464 l 1788 1455 l 1782 1447 l 
1776 1440 l 1768 1434 l 1760 1430 l 1750 1427 l 1741 1425 l 
1731 1425 l 1722 1427 l 1712 1430 l 1704 1434 l 1696 1440 l 
1690 1447 l 1684 1455 l 1680 1464 l 1677 1473 l 1676 1483 l 
1676 1492 l 1678 1502 l 1682 1511 l 1687 1519 l 1693 1527 l 
1700 1533 l 1708 1538 l 1717 1542 l 1726 1544 l 1736 1545 l 
 cp gs 0.00 setgray ef gr  col0 s
% Polyline
n 1350 1485 m
 1350 1035 l gs col0 s gr 
% Polyline
n 1350 1845 m
 1350 1980 l gs col0 s gr 
% Polyline
n 1350 1935 m
 1890 1935 l gs col0 s gr 
% Polyline
n 3105 1395 m 3105 1575 l
 3690 1575 l gs col0 s gr 
% Polyline
n 3555 1260 m
 3555 585 l gs col0 s gr 
% Polyline
n 3555 585 m
 2700 585 l gs col0 s gr 
% Polyline
n 3105 585 m
 3105 990 l gs col0 s gr 
% Polyline
n 2700 1035 m
 2700 2115 l gs col0 s gr 
% Polyline
n 2700 2520 m
 2700 2700 l gs col0 s gr 
% Polyline
gs  clippath
2223 1061 m 2160 1061 l 2160 1188 l 2223 1188 l 2223 1188 l cp
eoclip
n 2700 1125 m
 2160 1125 l gs col0 s gr gr

% arrowhead
n 2223 1065 m 2213 1066 l 2204 1068 l 2195 1072 l 2187 1077 l 
2180 1083 l 2174 1091 l 2169 1099 l 2165 1108 l 2163 1118 l 
2163 1127 l 2164 1137 l 2167 1146 l 2171 1155 l 2177 1163 l 
2183 1170 l 2191 1176 l 2199 1180 l 2209 1183 l 2218 1185 l 
2228 1185 l 2237 1183 l 2247 1180 l 2255 1176 l 2263 1170 l 
2269 1163 l 2275 1155 l 2279 1146 l 2282 1137 l 2283 1127 l 
2283 1118 l 2281 1108 l 2277 1099 l 2272 1091 l 2266 1083 l 
2259 1077 l 2251 1072 l 2242 1068 l 2233 1066 l 2223 1065 l 
 cp gs 0.00 setgray ef gr  col0 s
% Polyline
n 2250 1935 m 3510 1935 l
 3510 1575 l gs col0 s gr 
% Polyline
n 5040 1260 m
 4095 1260 l gs col0 s gr 
% Polyline
n 3105 585 m
 3105 405 l gs col0 s gr 
% Polyline
n 3510 3150 m
 3510 2610 l gs col0 s gr 
% Polyline
n 3510 2160 m
 3510 1935 l gs col0 s gr 
% Polyline
n 3510 3105 m 4050 3105 l
 4050 3060 l gs col0 s gr 
% Polyline
n 4050 3105 m 4410 3105 l
 4410 3015 l gs col0 s gr 
% Polyline
n 4410 2700 m 4410 2385 l
 4050 2385 l gs col0 s gr 
% Polyline
n 6345 1260 m
 5940 1260 l gs col0 s gr 
% Polyline
n 5535 1800 m
 5535 2475 l gs col0 s gr 
% Polyline
n 4410 2385 m 4905 2385 l
 4905 2475 l gs col0 s gr 
% Polyline
gs  clippath
5156 3213 m 5219 3213 l 5219 3086 l 5156 3086 l 5156 3086 l cp
eoclip
n 4905 2925 m 4905 3150 l
 5220 3150 l gs col0 s gr gr

% arrowhead
n 5156 3210 m 5166 3209 l 5175 3207 l 5184 3203 l 5192 3198 l 
5199 3192 l 5205 3184 l 5210 3176 l 5214 3167 l 5216 3157 l 
5216 3148 l 5215 3138 l 5212 3129 l 5208 3120 l 5202 3112 l 
5196 3105 l 5188 3099 l 5180 3095 l 5170 3092 l 5161 3090 l 
5151 3090 l 5142 3092 l 5132 3095 l 5124 3099 l 5116 3105 l 
5110 3112 l 5104 3120 l 5100 3129 l 5097 3138 l 5096 3148 l 
5096 3157 l 5098 3167 l 5102 3176 l 5107 3184 l 5113 3192 l 
5120 3198 l 5128 3203 l 5137 3207 l 5146 3209 l 5156 3210 l 
 cp gs 0.00 setgray ef gr  col0 s
% Polyline
gs  clippath
701 1593 m 764 1593 l 764 1466 l 701 1466 l 701 1466 l cp
eoclip
n 540 1530 m
 765 1530 l gs col0 s gr gr

% arrowhead
n 701 1590 m 711 1589 l 720 1587 l 729 1583 l 737 1578 l 
744 1572 l 750 1564 l 755 1556 l 759 1547 l 761 1537 l 
761 1528 l 760 1518 l 757 1509 l 753 1500 l 747 1492 l 
741 1485 l 733 1479 l 725 1475 l 715 1472 l 706 1470 l 
696 1470 l 687 1472 l 677 1475 l 669 1479 l 661 1485 l 
655 1492 l 649 1500 l 645 1509 l 642 1518 l 641 1528 l 
641 1537 l 643 1547 l 647 1556 l 652 1564 l 658 1572 l 
665 1578 l 673 1583 l 682 1587 l 691 1589 l 701 1590 l 
 cp gs 0.00 setgray ef gr  col0 s
% Polyline
n 4050 2610 m 4050 2385 l
 3960 2385 l gs col0 s gr 
/Times-Roman ff 150.00 scf sf
5085 1350 m
gs 1 -1 sc (INP) col0 sh gr
/Times-Roman ff 150.00 scf sf
5535 1350 m
gs 1 -1 sc (OUT) col0 sh gr
/Times-Roman ff 150.00 scf sf
5355 1755 m
gs 1 -1 sc (GND) col0 sh gr
/Times-Roman ff 150.00 scf sf
450 945 m
gs 1 -1 sc  90.0 rot (R7) col0 sh gr
/Times-Roman ff 150.00 scf sf
765 945 m
gs 1 -1 sc  90.0 rot (10k) col0 sh gr
/Times-Roman ff 150.00 scf sf
450 2340 m
gs 1 -1 sc  90.0 rot (OFF) col0 sh gr
/Times-Roman ff 150.00 scf sf
1260 945 m
gs 1 -1 sc  90.0 rot (R9) col0 sh gr
/Times-Roman ff 150.00 scf sf
1575 945 m
gs 1 -1 sc  90.0 rot (27k) col0 sh gr
/Times-Roman ff 150.00 scf sf
1935 1845 m
gs 1 -1 sc (D5) col0 sh gr
/Times-Roman ff 150.00 scf sf
3735 1080 m
gs 1 -1 sc (Q1) col0 sh gr
/Times-Roman ff 150.00 scf sf
2925 945 m
gs 1 -1 sc  90.0 rot (47k) col0 sh gr
/Times-Roman ff 150.00 scf sf
3330 1305 m
gs 1 -1 sc  90.0 rot (47k) col0 sh gr
/Times-Roman ff 150.00 scf sf
2925 2475 m
gs 1 -1 sc  90.0 rot (47k) col0 sh gr
/Times-Roman ff 150.00 scf sf
2610 900 m
gs 1 -1 sc  90.0 rot (R15) col0 sh gr
/Times-Roman ff 150.00 scf sf
3015 1260 m
gs 1 -1 sc  90.0 rot (R17) col0 sh gr
/Times-Roman ff 150.00 scf sf
2610 2430 m
gs 1 -1 sc  90.0 rot (R8) col0 sh gr
/Times-Roman ff 150.00 scf sf
2970 360 m
gs 1 -1 sc (+9V) col0 sh gr
/Times-Roman ff 150.00 scf sf
4230 2790 m
gs 1 -1 sc  90.0 rot (100k) col0 sh gr
/Times-Roman ff 150.00 scf sf
3960 2835 m
gs 1 -1 sc  90.0 rot (R20) col0 sh gr
/Times-Roman ff 150.00 scf sf
4320 3060 m
gs 1 -1 sc  90.0 rot (C24) col0 sh gr
/Times-Roman ff 150.00 scf sf
4815 2835 m
gs 1 -1 sc  90.0 rot (R18) col0 sh gr
/Times-Roman ff 150.00 scf sf
5130 2790 m
gs 1 -1 sc  90.0 rot (27k) col0 sh gr
/Times-Roman ff 210.00 scf sf
5265 3330 m
gs 1 -1 sc (PD6) col0 sh gr
/Times-Roman ff 150.00 scf sf
3285 2565 m
gs 1 -1 sc (Q2) col0 sh gr
/Times-Roman ff 150.00 scf sf
1260 2475 m
gs 1 -1 sc  90.0 rot (TEST) col0 sh gr
/Times-Roman ff 150.00 scf sf
1440 1755 m
gs 1 -1 sc (D6) col0 sh gr
/Times-Roman ff 210.00 scf sf
1575 1395 m
gs 1 -1 sc (PD7) col0 sh gr
/Times-Roman ff 210.00 scf sf
2070 1350 m
gs 1 -1 sc (ADC5) col0 sh gr
/Times-Roman ff 210.00 scf sf
2025 1035 m
gs 1 -1 sc (PC5) col0 sh gr
/Times-Roman ff 210.00 scf sf
630 1800 m
gs 1 -1 sc (Reset) col0 sh gr
/Times-Roman ff 210.00 scf sf
630 1440 m
gs 1 -1 sc (PC6) col0 sh gr
% here ends figure;
% 
% here starts figure with depth 0
% Polyline
0 slj
0 slc
7.500 slw
gs  clippath
562 331 m 562 210 l 517 210 l 517 331 l 517 331 l 540 241 l 562 331 l cp
eoclip
n 540 540 m
 540 225 l gs col0 s gr gr

% arrowhead
n 562 331 m 540 241 l 517 331 l 562 331 l  cp gs 0.00 setgray ef gr  col0 s
% Polyline
n 540 1035 m
 540 1125 l gs col0 s gr 
% Polyline
n 495 765 m 585 765 l 585 1035 l 495 1035 l
 cp gs col0 s gr 
% Polyline
n 540 675 m
 540 765 l gs col0 s gr 
% Ellipse
gs
540 2115 tr
-270.001 rot
n 0 0 38 38 0 360 DrawEllipse 270.001 rot
gs col0 s gr
gr

% Ellipse
gs
540 2385 tr
-270.001 rot
n 0 0 38 38 0 360 DrawEllipse 270.001 rot
gs col0 s gr
gr

% Polyline
n 540 2070 m
 540 1980 l gs col0 s gr 
% Polyline
n 540 2430 m
 540 2520 l gs col0 s gr 
% Polyline
n 630 2250 m
 720 2250 l gs col0 s gr 
% Polyline
1 slc
n 630 2115 m
 630 2385 l gs col0 s gr 
% Polyline
n 720 2205 m
 720 2295 l gs col0 s gr 
% Polyline
30.000 slw
n 765 3015 m
 945 3015 l gs col0 s gr 
% Polyline
0 slc
7.500 slw
n 855 2745 m
 855 3015 l gs col0 s gr 
% Ellipse
n 540 1530 20 20 0 360 DrawEllipse gs 0.00 setgray ef gr gs col0 s gr

% Ellipse
gs
1350 2115 tr
-270.001 rot
n 0 0 38 38 0 360 DrawEllipse 270.001 rot
gs col0 s gr
gr

% Ellipse
gs
1350 2385 tr
-270.001 rot
n 0 0 38 38 0 360 DrawEllipse 270.001 rot
gs col0 s gr
gr

% Polyline
n 1350 2070 m
 1350 1980 l gs col0 s gr 
% Polyline
n 1350 2430 m
 1350 2520 l gs col0 s gr 
% Polyline
n 1440 2250 m
 1530 2250 l gs col0 s gr 
% Polyline
1 slc
n 1440 2115 m
 1440 2385 l gs col0 s gr 
% Polyline
n 1530 2205 m
 1530 2295 l gs col0 s gr 
% Ellipse
n 855 2745 20 20 0 360 DrawEllipse gs 0.00 setgray ef gr gs col0 s gr

% Polyline
0 slc
n 1350 945 m
 1350 1035 l gs col0 s gr 
% Polyline
n 1305 675 m 1395 675 l 1395 945 l 1305 945 l
 cp gs col0 s gr 
% Polyline
n 1350 585 m
 1350 675 l gs col0 s gr 
% Polyline
gs  clippath
1372 376 m 1372 255 l 1327 255 l 1327 376 l 1327 376 l 1350 286 l 1372 376 l cp
eoclip
n 1350 585 m
 1350 270 l gs col0 s gr gr

% arrowhead
n 1372 376 m 1350 286 l 1327 376 l 1372 376 l  cp gs 0.00 setgray ef gr  col0 s
% Polyline
1 slj
n 1350 1710 m 1305 1620 l 1395 1620 l
 1350 1710 l  cp gs 0.00 setgray ef gr gs col0 s gr 
% Polyline
0 slj
n 1395 1710 m
 1305 1710 l gs col0 s gr 
% Polyline
n 1350 1620 m
 1350 1485 l gs col0 s gr 
% Polyline
n 1350 1710 m
 1350 1845 l gs col0 s gr 
% Ellipse
n 1350 1485 20 20 0 360 DrawEllipse gs 0.00 setgray ef gr gs col0 s gr

% Polyline
n 2700 945 m
 2700 1035 l gs col0 s gr 
% Polyline
n 2655 675 m 2745 675 l 2745 945 l 2655 945 l
 cp gs col0 s gr 
% Polyline
n 2700 585 m
 2700 675 l gs col0 s gr 
% Polyline
1 slj
n 2025 1935 m 2115 1890 l 2115 1980 l
 2025 1935 l  cp gs 0.00 setgray ef gr gs col0 s gr 
% Polyline
0 slj
n 2025 1980 m
 2025 1890 l gs col0 s gr 
% Polyline
n 2115 1935 m
 2250 1935 l gs col0 s gr 
% Polyline
n 2025 1935 m
 1890 1935 l gs col0 s gr 
% Polyline
n 2700 2475 m
 2700 2565 l gs col0 s gr 
% Polyline
n 2655 2205 m 2745 2205 l 2745 2475 l 2655 2475 l
 cp gs col0 s gr 
% Polyline
n 2700 2115 m
 2700 2205 l gs col0 s gr 
% Ellipse
gs
3825 1340 tr
-270.001 rot
n 0 0 191 191 0 360 DrawEllipse 270.001 rot
gs col0 s gr
gr

% Polyline
n 3825 1280 m 3805 1325 l 3845 1325 l
 cp gs 0.00 setgray ef gr gs col0 s gr 
% Polyline
n 3735 1350 m 3735 1260 l
 3555 1260 l gs col0 s gr 
% Polyline
n 3825 1350 m 3825 1260 l
 3735 1260 l gs col0 s gr 
% Polyline
n 3915 1350 m 3915 1260 l
 4095 1260 l gs col0 s gr 
% Polyline
n 3960 1395 m 3690 1395 l
 3690 1575 l gs col0 s gr 
% Polyline
1 slc
n 3760 1350 m
 3705 1350 l gs col0 s gr 
% Polyline
n 3854 1350 m
 3793 1350 l gs col0 s gr 
% Polyline
n 3946 1350 m
 3887 1350 l gs col0 s gr 
% Polyline
0 slc
n 3105 1305 m
 3105 1395 l gs col0 s gr 
% Polyline
n 3060 1035 m 3150 1035 l 3150 1305 l 3060 1305 l
 cp gs col0 s gr 
% Polyline
n 3105 945 m
 3105 1035 l gs col0 s gr 
% Polyline
1 slc
30.000 slw
n 2610 2970 m
 2790 2970 l gs col0 s gr 
% Polyline
0 slc
7.500 slw
n 2700 2700 m
 2700 2970 l gs col0 s gr 
% Ellipse
n 2700 1125 20 20 0 360 DrawEllipse gs 0.00 setgray ef gr gs col0 s gr

% Ellipse
n 3510 1575 20 20 0 360 DrawEllipse gs 0.00 setgray ef gr gs col0 s gr

% Ellipse
n 3105 585 20 20 0 360 DrawEllipse gs 0.00 setgray ef gr gs col0 s gr

% Ellipse
n 1350 1935 20 20 0 360 DrawEllipse gs 0.00 setgray ef gr gs col0 s gr

% Ellipse
n 3690 2385 186 186 0 360 DrawEllipse gs col0 s gr

% Polyline
n 3590 2530 m 3635 2440 l 3680 2485 l
 3590 2530 l  cp gs 0.00 setgray ef gr gs col0 s gr 
% Polyline
n 3735 2385 m
 3510 2610 l gs col0 s gr 
% Polyline
n 3735 2385 m
 3510 2160 l gs col0 s gr 
% Polyline
n 3735 2250 m
 3735 2520 l gs col0 s gr 
% Polyline
n 3735 2385 m
 3960 2385 l gs col0 s gr 
% Polyline
1 slc
30.000 slw
n 3420 3375 m
 3600 3375 l gs col0 s gr 
% Polyline
0 slc
7.500 slw
n 3510 3105 m
 3510 3375 l gs col0 s gr 
% Polyline
n 4050 2970 m
 4050 3060 l gs col0 s gr 
% Polyline
n 4005 2700 m 4095 2700 l 4095 2970 l 4005 2970 l
 cp gs col0 s gr 
% Polyline
n 4050 2610 m
 4050 2700 l gs col0 s gr 
% Polyline
n 4410 2835 m
 4410 2700 l gs col0 s gr 
% Polyline
n 4410 2880 m
 4410 3015 l gs col0 s gr 
% Polyline
n 4320 2835 m
 4500 2835 l gs col0 s gr 
% Polyline
n 4320 2880 m
 4500 2880 l gs col0 s gr 
% Polyline
gs  clippath
6367 1051 m 6367 930 l 6322 930 l 6322 1051 l 6322 1051 l 6345 961 l 6367 1051 l cp
eoclip
n 6345 1260 m
 6345 945 l gs col0 s gr gr

% arrowhead
n 6367 1051 m 6345 961 l 6322 1051 l 6367 1051 l  cp gs 0.00 setgray ef gr  col0 s
% Polyline
1 slc
30.000 slw
n 5445 2745 m
 5625 2745 l gs col0 s gr 
% Polyline
0 slc
7.500 slw
n 5535 2475 m
 5535 2745 l gs col0 s gr 
% Ellipse
n 3510 3105 20 20 0 360 DrawEllipse gs 0.00 setgray ef gr gs col0 s gr

% Ellipse
n 4050 3105 20 20 0 360 DrawEllipse gs 0.00 setgray ef gr gs col0 s gr

% Ellipse
n 4050 2385 20 20 0 360 DrawEllipse gs 0.00 setgray ef gr gs col0 s gr

% Ellipse
n 4410 2385 20 20 0 360 DrawEllipse gs 0.00 setgray ef gr gs col0 s gr

% Polyline
n 4905 2835 m
 4905 2925 l gs col0 s gr 
% Polyline
n 4860 2565 m 4950 2565 l 4950 2835 l 4860 2835 l
 cp gs col0 s gr 
% Polyline
n 4905 2475 m
 4905 2565 l gs col0 s gr 
% Ellipse
n 3510 1935 20 20 0 360 DrawEllipse gs 0.00 setgray ef gr gs col0 s gr

/Helvetica ff 90.00 scf sf
585 360 m
gs 1 -1 sc (VCC) col0 sh gr
/Helvetica ff 90.00 scf sf
1395 405 m
gs 1 -1 sc (VCC) col0 sh gr
/Helvetica ff 90.00 scf sf
6390 1080 m
gs 1 -1 sc (VCC) col0 sh gr
% here ends figure;
pagefooter
showpage
%%Trailer
%EOF

%%EndDocument
 @endspecial Black Black eop end
%%Trailer

userdict /end-hook known{end-hook}if
%%EOF
