%!PS-Adobe-2.0
%%Creator: dvips(k) 5.993 Copyright 2013 Radical Eye Software
%%Title: job-001.dvi
%%CreationDate: Mon Apr  6 22:22:52 2015
%%Pages: 1
%%PageOrder: Ascend
%%BoundingBox: 156 2921 561 3229
%%EndComments
%DVIPSWebPage: (www.radicaleye.com)
%DVIPSCommandLine: dvips job-001.dvi -o job-001.dvips.ps
%DVIPSParameters: dpi=600
%DVIPSSource:  TeX output 2015.04.06:2222
%%BeginProcSet: tex.pro 0 0
%!
/TeXDict 300 dict def TeXDict begin/N{def}def/B{bind def}N/S{exch}N/X{S
N}B/A{dup}B/TR{translate}N/isls false N/vsize 11 72 mul N/hsize 8.5 72
mul N/landplus90{false}def/@rigin{isls{[0 landplus90{1 -1}{-1 1}ifelse 0
0 0]concat}if 72 Resolution div 72 VResolution div neg scale isls{
landplus90{VResolution 72 div vsize mul 0 exch}{Resolution -72 div hsize
mul 0}ifelse TR}if Resolution VResolution vsize -72 div 1 add mul TR[
matrix currentmatrix{A A round sub abs 0.00001 lt{round}if}forall round
exch round exch]setmatrix}N/@landscape{/isls true N}B/@manualfeed{
statusdict/manualfeed true put}B/@copies{/#copies X}B/FMat[1 0 0 -1 0 0]
N/FBB[0 0 0 0]N/nn 0 N/IEn 0 N/ctr 0 N/df-tail{/nn 8 dict N nn begin
/FontType 3 N/FontMatrix fntrx N/FontBBox FBB N string/base X array
/BitMaps X/BuildChar{CharBuilder}N/Encoding IEn N end A{/foo setfont}2
array copy cvx N load 0 nn put/ctr 0 N[}B/sf 0 N/df{/sf 1 N/fntrx FMat N
df-tail}B/dfs{div/sf X/fntrx[sf 0 0 sf neg 0 0]N df-tail}B/E{pop nn A
definefont setfont}B/Cw{Cd A length 5 sub get}B/Ch{Cd A length 4 sub get
}B/Cx{128 Cd A length 3 sub get sub}B/Cy{Cd A length 2 sub get 127 sub}
B/Cdx{Cd A length 1 sub get}B/Ci{Cd A type/stringtype ne{ctr get/ctr ctr
1 add N}if}B/CharBuilder{save 3 1 roll S A/base get 2 index get S
/BitMaps get S get/Cd X pop/ctr 0 N Cdx 0 Cx Cy Ch sub Cx Cw add Cy
setcachedevice Cw Ch true[1 0 0 -1 -.1 Cx sub Cy .1 sub]{Ci}imagemask
restore}B/D{/cc X A type/stringtype ne{]}if nn/base get cc ctr put nn
/BitMaps get S ctr S sf 1 ne{A A length 1 sub A 2 index S get sf div put
}if put/ctr ctr 1 add N}B/I{cc 1 add D}B/bop{userdict/bop-hook known{
bop-hook}if/SI save N @rigin 0 0 moveto/V matrix currentmatrix A 1 get A
mul exch 0 get A mul add .99 lt{/QV}{/RV}ifelse load def pop pop}N/eop{
SI restore userdict/eop-hook known{eop-hook}if showpage}N/@start{
userdict/start-hook known{start-hook}if pop/VResolution X/Resolution X
1000 div/DVImag X/IEn 256 array N 2 string 0 1 255{IEn S A 360 add 36 4
index cvrs cvn put}for pop 65781.76 div/vsize X 65781.76 div/hsize X}N
/dir 0 def/dyy{/dir 0 def}B/dyt{/dir 1 def}B/dty{/dir 2 def}B/dtt{/dir 3
def}B/p{dir 2 eq{-90 rotate show 90 rotate}{dir 3 eq{-90 rotate show 90
rotate}{show}ifelse}ifelse}N/RMat[1 0 0 -1 0 0]N/BDot 260 string N/Rx 0
N/Ry 0 N/V{}B/RV/v{/Ry X/Rx X V}B statusdict begin/product where{pop
false[(Display)(NeXT)(LaserWriter 16/600)]{A length product length le{A
length product exch 0 exch getinterval eq{pop true exit}if}{pop}ifelse}
forall}{false}ifelse end{{gsave TR -.1 .1 TR 1 1 scale Rx Ry false RMat{
BDot}imagemask grestore}}{{gsave TR -.1 .1 TR Rx Ry scale 1 1 false RMat
{BDot}imagemask grestore}}ifelse B/QV{gsave newpath transform round exch
round exch itransform moveto Rx 0 rlineto 0 Ry neg rlineto Rx neg 0
rlineto fill grestore}B/a{moveto}B/delta 0 N/tail{A/delta X 0 rmoveto}B
/M{S p delta add tail}B/b{S p tail}B/c{-4 M}B/d{-3 M}B/e{-2 M}B/f{-1 M}
B/g{0 M}B/h{1 M}B/i{2 M}B/j{3 M}B/k{4 M}B/w{0 rmoveto}B/l{p -4 w}B/m{p
-3 w}B/n{p -2 w}B/o{p -1 w}B/q{p 1 w}B/r{p 2 w}B/s{p 3 w}B/t{p 4 w}B/x{
0 S rmoveto}B/y{3 2 roll p a}B/bos{/SS save N}B/eos{SS restore}B end

%%EndProcSet
%%BeginProcSet: special.pro 0 0
%!
TeXDict begin/SDict 200 dict N SDict begin/@SpecialDefaults{/hs 612 N
/vs 792 N/ho 0 N/vo 0 N/hsc 1 N/vsc 1 N/ang 0 N/CLIP 0 N/rwiSeen false N
/rhiSeen false N/letter{}N/note{}N/a4{}N/legal{}N}B/@scaleunit 100 N
/@hscale{@scaleunit div/hsc X}B/@vscale{@scaleunit div/vsc X}B/@hsize{
/hs X/CLIP 1 N}B/@vsize{/vs X/CLIP 1 N}B/@clip{/CLIP 2 N}B/@hoffset{/ho
X}B/@voffset{/vo X}B/@angle{/ang X}B/@rwi{10 div/rwi X/rwiSeen true N}B
/@rhi{10 div/rhi X/rhiSeen true N}B/@llx{/llx X}B/@lly{/lly X}B/@urx{
/urx X}B/@ury{/ury X}B/magscale true def end/@MacSetUp{userdict/md known
{userdict/md get type/dicttype eq{userdict begin md length 10 add md
maxlength ge{/md md dup length 20 add dict copy def}if end md begin
/letter{}N/note{}N/legal{}N/od{txpose 1 0 mtx defaultmatrix dtransform S
atan/pa X newpath clippath mark{transform{itransform moveto}}{transform{
itransform lineto}}{6 -2 roll transform 6 -2 roll transform 6 -2 roll
transform{itransform 6 2 roll itransform 6 2 roll itransform 6 2 roll
curveto}}{{closepath}}pathforall newpath counttomark array astore/gc xdf
pop ct 39 0 put 10 fz 0 fs 2 F/|______Courier fnt invertflag{PaintBlack}
if}N/txpose{pxs pys scale ppr aload pop por{noflips{pop S neg S TR pop 1
-1 scale}if xflip yflip and{pop S neg S TR 180 rotate 1 -1 scale ppr 3
get ppr 1 get neg sub neg ppr 2 get ppr 0 get neg sub neg TR}if xflip
yflip not and{pop S neg S TR pop 180 rotate ppr 3 get ppr 1 get neg sub
neg 0 TR}if yflip xflip not and{ppr 1 get neg ppr 0 get neg TR}if}{
noflips{TR pop pop 270 rotate 1 -1 scale}if xflip yflip and{TR pop pop
90 rotate 1 -1 scale ppr 3 get ppr 1 get neg sub neg ppr 2 get ppr 0 get
neg sub neg TR}if xflip yflip not and{TR pop pop 90 rotate ppr 3 get ppr
1 get neg sub neg 0 TR}if yflip xflip not and{TR pop pop 270 rotate ppr
2 get ppr 0 get neg sub neg 0 S TR}if}ifelse scaleby96{ppr aload pop 4
-1 roll add 2 div 3 1 roll add 2 div 2 copy TR .96 dup scale neg S neg S
TR}if}N/cp{pop pop showpage pm restore}N end}if}if}N/normalscale{
Resolution 72 div VResolution 72 div neg scale magscale{DVImag dup scale
}if 0 setgray}N/psfts{S 65781.76 div N}N/startTexFig{/psf$SavedState
save N userdict maxlength dict begin/magscale true def normalscale
currentpoint TR/psf$ury psfts/psf$urx psfts/psf$lly psfts/psf$llx psfts
/psf$y psfts/psf$x psfts currentpoint/psf$cy X/psf$cx X/psf$sx psf$x
psf$urx psf$llx sub div N/psf$sy psf$y psf$ury psf$lly sub div N psf$sx
psf$sy scale psf$cx psf$sx div psf$llx sub psf$cy psf$sy div psf$ury sub
TR/showpage{}N/erasepage{}N/setpagedevice{pop}N/copypage{}N/p 3 def
@MacSetUp}N/doclip{psf$llx psf$lly psf$urx psf$ury currentpoint 6 2 roll
newpath 4 copy 4 2 roll moveto 6 -1 roll S lineto S lineto S lineto
closepath clip newpath moveto}N/endTexFig{end psf$SavedState restore}N
/@beginspecial{SDict begin/SpecialSave save N gsave normalscale
currentpoint TR @SpecialDefaults count/ocount X/dcount countdictstack N}
N/@setspecial{CLIP 1 eq{newpath 0 0 moveto hs 0 rlineto 0 vs rlineto hs
neg 0 rlineto closepath clip}if ho vo TR hsc vsc scale ang rotate
rwiSeen{rwi urx llx sub div rhiSeen{rhi ury lly sub div}{dup}ifelse
scale llx neg lly neg TR}{rhiSeen{rhi ury lly sub div dup scale llx neg
lly neg TR}if}ifelse CLIP 2 eq{newpath llx lly moveto urx lly lineto urx
ury lineto llx ury lineto closepath clip}if/showpage{}N/erasepage{}N
/setpagedevice{pop}N/copypage{}N newpath}N/@endspecial{count ocount sub{
pop}repeat countdictstack dcount sub{end}repeat grestore SpecialSave
restore end}N/@defspecial{SDict begin}N/@fedspecial{end}B/li{lineto}B
/rl{rlineto}B/rc{rcurveto}B/np{/SaveX currentpoint/SaveY X N 1
setlinecap newpath}N/st{stroke SaveX SaveY moveto}N/fil{fill SaveX SaveY
moveto}N/ellipse{/endangle X/startangle X/yrad X/xrad X/savematrix
matrix currentmatrix N TR xrad yrad scale 0 0 1 startangle endangle arc
savematrix setmatrix}N end

%%EndProcSet
%%BeginProcSet: color.pro 0 0
%!
TeXDict begin/setcmykcolor where{pop}{/setcmykcolor{dup 10 eq{pop
setrgbcolor}{1 sub 4 1 roll 3{3 index add neg dup 0 lt{pop 0}if 3 1 roll
}repeat setrgbcolor pop}ifelse}B}ifelse/TeXcolorcmyk{setcmykcolor}def
/TeXcolorrgb{setrgbcolor}def/TeXcolorgrey{setgray}def/TeXcolorgray{
setgray}def/TeXcolorhsb{sethsbcolor}def/currentcmykcolor where{pop}{
/currentcmykcolor{currentrgbcolor 10}B}ifelse/DC{exch dup userdict exch
known{pop pop}{X}ifelse}B/GreenYellow{0.15 0 0.69 0 setcmykcolor}DC
/Yellow{0 0 1 0 setcmykcolor}DC/Goldenrod{0 0.10 0.84 0 setcmykcolor}DC
/Dandelion{0 0.29 0.84 0 setcmykcolor}DC/Apricot{0 0.32 0.52 0
setcmykcolor}DC/Peach{0 0.50 0.70 0 setcmykcolor}DC/Melon{0 0.46 0.50 0
setcmykcolor}DC/YellowOrange{0 0.42 1 0 setcmykcolor}DC/Orange{0 0.61
0.87 0 setcmykcolor}DC/BurntOrange{0 0.51 1 0 setcmykcolor}DC
/Bittersweet{0 0.75 1 0.24 setcmykcolor}DC/RedOrange{0 0.77 0.87 0
setcmykcolor}DC/Mahogany{0 0.85 0.87 0.35 setcmykcolor}DC/Maroon{0 0.87
0.68 0.32 setcmykcolor}DC/BrickRed{0 0.89 0.94 0.28 setcmykcolor}DC/Red{
0 1 1 0 setcmykcolor}DC/OrangeRed{0 1 0.50 0 setcmykcolor}DC/RubineRed{
0 1 0.13 0 setcmykcolor}DC/WildStrawberry{0 0.96 0.39 0 setcmykcolor}DC
/Salmon{0 0.53 0.38 0 setcmykcolor}DC/CarnationPink{0 0.63 0 0
setcmykcolor}DC/Magenta{0 1 0 0 setcmykcolor}DC/VioletRed{0 0.81 0 0
setcmykcolor}DC/Rhodamine{0 0.82 0 0 setcmykcolor}DC/Mulberry{0.34 0.90
0 0.02 setcmykcolor}DC/RedViolet{0.07 0.90 0 0.34 setcmykcolor}DC
/Fuchsia{0.47 0.91 0 0.08 setcmykcolor}DC/Lavender{0 0.48 0 0
setcmykcolor}DC/Thistle{0.12 0.59 0 0 setcmykcolor}DC/Orchid{0.32 0.64 0
0 setcmykcolor}DC/DarkOrchid{0.40 0.80 0.20 0 setcmykcolor}DC/Purple{
0.45 0.86 0 0 setcmykcolor}DC/Plum{0.50 1 0 0 setcmykcolor}DC/Violet{
0.79 0.88 0 0 setcmykcolor}DC/RoyalPurple{0.75 0.90 0 0 setcmykcolor}DC
/BlueViolet{0.86 0.91 0 0.04 setcmykcolor}DC/Periwinkle{0.57 0.55 0 0
setcmykcolor}DC/CadetBlue{0.62 0.57 0.23 0 setcmykcolor}DC
/CornflowerBlue{0.65 0.13 0 0 setcmykcolor}DC/MidnightBlue{0.98 0.13 0
0.43 setcmykcolor}DC/NavyBlue{0.94 0.54 0 0 setcmykcolor}DC/RoyalBlue{1
0.50 0 0 setcmykcolor}DC/Blue{1 1 0 0 setcmykcolor}DC/Cerulean{0.94 0.11
0 0 setcmykcolor}DC/Cyan{1 0 0 0 setcmykcolor}DC/ProcessBlue{0.96 0 0 0
setcmykcolor}DC/SkyBlue{0.62 0 0.12 0 setcmykcolor}DC/Turquoise{0.85 0
0.20 0 setcmykcolor}DC/TealBlue{0.86 0 0.34 0.02 setcmykcolor}DC
/Aquamarine{0.82 0 0.30 0 setcmykcolor}DC/BlueGreen{0.85 0 0.33 0
setcmykcolor}DC/Emerald{1 0 0.50 0 setcmykcolor}DC/JungleGreen{0.99 0
0.52 0 setcmykcolor}DC/SeaGreen{0.69 0 0.50 0 setcmykcolor}DC/Green{1 0
1 0 setcmykcolor}DC/ForestGreen{0.91 0 0.88 0.12 setcmykcolor}DC
/PineGreen{0.92 0 0.59 0.25 setcmykcolor}DC/LimeGreen{0.50 0 1 0
setcmykcolor}DC/YellowGreen{0.44 0 0.74 0 setcmykcolor}DC/SpringGreen{
0.26 0 0.76 0 setcmykcolor}DC/OliveGreen{0.64 0 0.95 0.40 setcmykcolor}
DC/RawSienna{0 0.72 1 0.45 setcmykcolor}DC/Sepia{0 0.83 1 0.70
setcmykcolor}DC/Brown{0 0.81 1 0.60 setcmykcolor}DC/Tan{0.14 0.42 0.56 0
setcmykcolor}DC/Gray{0 0 0 0.50 setcmykcolor}DC/Black{0 0 0 1
setcmykcolor}DC/White{0 0 0 0 setcmykcolor}DC end

%%EndProcSet
TeXDict begin 156819571 221710428 1000 600 600 (job-001.dvi)
@start end
%%EndProlog
%%BeginSetup
%%Feature: *Resolution 600dpi
TeXDict begin
 end
%%EndSetup
%%Page: 1 1
TeXDict begin 1 0 bop Black Black 706 3139 a @beginspecial
0 @llx 0 @lly 405 @urx 307 @ury 4050 @rwi @setspecial
%%BeginDocument: job-001.fig2dev.ps
%!PS-Adobe-3.0 EPSF-3.0
%%Title: job-001.fig
%%Creator: fig2dev Version 3.2 Patchlevel 5e
%%CreationDate: Mon Apr  6 22:22:52 2015
%%BoundingBox: 156 2921 561 3229
%Magnification: 1.0000
%%EndComments
%%BeginProlog
/$F2psDict 200 dict def
$F2psDict begin
$F2psDict /mtrx matrix put
/col-1 {0 setgray} bind def
/col0 {0.000 0.000 0.000 srgb} bind def
/col1 {0.000 0.000 1.000 srgb} bind def
/col2 {0.000 1.000 0.000 srgb} bind def
/col3 {0.000 1.000 1.000 srgb} bind def
/col4 {1.000 0.000 0.000 srgb} bind def
/col5 {1.000 0.000 1.000 srgb} bind def
/col6 {1.000 1.000 0.000 srgb} bind def
/col7 {1.000 1.000 1.000 srgb} bind def
/col8 {0.000 0.000 0.560 srgb} bind def
/col9 {0.000 0.000 0.690 srgb} bind def
/col10 {0.000 0.000 0.820 srgb} bind def
/col11 {0.530 0.810 1.000 srgb} bind def
/col12 {0.000 0.560 0.000 srgb} bind def
/col13 {0.000 0.690 0.000 srgb} bind def
/col14 {0.000 0.820 0.000 srgb} bind def
/col15 {0.000 0.560 0.560 srgb} bind def
/col16 {0.000 0.690 0.690 srgb} bind def
/col17 {0.000 0.820 0.820 srgb} bind def
/col18 {0.560 0.000 0.000 srgb} bind def
/col19 {0.690 0.000 0.000 srgb} bind def
/col20 {0.820 0.000 0.000 srgb} bind def
/col21 {0.560 0.000 0.560 srgb} bind def
/col22 {0.690 0.000 0.690 srgb} bind def
/col23 {0.820 0.000 0.820 srgb} bind def
/col24 {0.500 0.190 0.000 srgb} bind def
/col25 {0.630 0.250 0.000 srgb} bind def
/col26 {0.750 0.380 0.000 srgb} bind def
/col27 {1.000 0.500 0.500 srgb} bind def
/col28 {1.000 0.630 0.630 srgb} bind def
/col29 {1.000 0.750 0.750 srgb} bind def
/col30 {1.000 0.880 0.880 srgb} bind def
/col31 {1.000 0.840 0.000 srgb} bind def
/col32 {0.255 0.271 0.255 srgb} bind def
/col33 {0.753 0.753 0.753 srgb} bind def
/col34 {0.776 0.718 0.592 srgb} bind def
/col35 {0.937 0.973 1.000 srgb} bind def
/col36 {0.502 0.502 0.502 srgb} bind def
/col37 {0.878 0.878 0.878 srgb} bind def
/col38 {0.557 0.561 0.557 srgb} bind def
/col39 {0.667 0.667 0.667 srgb} bind def
/col40 {0.333 0.333 0.333 srgb} bind def
/col41 {0.251 0.251 0.251 srgb} bind def
/col42 {0.863 0.796 0.651 srgb} bind def
/col43 {0.780 0.765 0.780 srgb} bind def
/col44 {0.337 0.318 0.318 srgb} bind def
/col45 {0.557 0.557 0.557 srgb} bind def
/col46 {0.843 0.843 0.843 srgb} bind def
/col47 {0.522 0.502 0.490 srgb} bind def
/col48 {0.824 0.824 0.824 srgb} bind def
/col49 {0.227 0.227 0.227 srgb} bind def
/col50 {0.271 0.451 0.667 srgb} bind def
/col51 {0.682 0.682 0.682 srgb} bind def
/col52 {0.482 0.475 0.647 srgb} bind def
/col53 {0.267 0.267 0.267 srgb} bind def
/col54 {0.451 0.459 0.549 srgb} bind def
/col55 {0.969 0.969 0.969 srgb} bind def
/col56 {0.388 0.365 0.808 srgb} bind def
/col57 {0.745 0.745 0.745 srgb} bind def
/col58 {0.318 0.318 0.318 srgb} bind def
/col59 {0.906 0.890 0.906 srgb} bind def
/col60 {0.000 0.000 0.286 srgb} bind def
/col61 {0.475 0.475 0.475 srgb} bind def
/col62 {0.188 0.204 0.188 srgb} bind def
/col63 {0.255 0.255 0.255 srgb} bind def
/col64 {0.780 0.714 0.588 srgb} bind def
/col65 {0.761 0.761 0.761 srgb} bind def
/col66 {0.431 0.431 0.431 srgb} bind def
/col67 {0.443 0.443 0.443 srgb} bind def
/col68 {0.200 0.200 0.200 srgb} bind def
/col69 {0.580 0.576 0.584 srgb} bind def
/col70 {0.455 0.439 0.459 srgb} bind def
/col71 {0.702 0.702 0.702 srgb} bind def
/col72 {0.765 0.765 0.765 srgb} bind def
/col73 {0.427 0.427 0.427 srgb} bind def
/col74 {0.271 0.271 0.271 srgb} bind def
/col75 {0.612 0.000 0.000 srgb} bind def
/col76 {0.549 0.549 0.549 srgb} bind def
/col77 {0.259 0.259 0.259 srgb} bind def
/col78 {0.549 0.549 0.549 srgb} bind def
/col79 {0.259 0.259 0.259 srgb} bind def
/col80 {0.549 0.549 0.549 srgb} bind def
/col81 {0.259 0.259 0.259 srgb} bind def
/col82 {0.549 0.549 0.549 srgb} bind def
/col83 {0.259 0.259 0.259 srgb} bind def
/col84 {0.549 0.549 0.549 srgb} bind def
/col85 {0.259 0.259 0.259 srgb} bind def
/col86 {0.549 0.549 0.549 srgb} bind def
/col87 {0.259 0.259 0.259 srgb} bind def

end

/cp {closepath} bind def
/ef {eofill} bind def
/gr {grestore} bind def
/gs {gsave} bind def
/sa {save} bind def
/rs {restore} bind def
/l {lineto} bind def
/m {moveto} bind def
/rm {rmoveto} bind def
/n {newpath} bind def
/s {stroke} bind def
/sh {show} bind def
/slc {setlinecap} bind def
/slj {setlinejoin} bind def
/slw {setlinewidth} bind def
/srgb {setrgbcolor} bind def
/rot {rotate} bind def
/sc {scale} bind def
/sd {setdash} bind def
/ff {findfont} bind def
/sf {setfont} bind def
/scf {scalefont} bind def
/sw {stringwidth} bind def
/tr {translate} bind def
/tnt {dup dup currentrgbcolor
  4 -2 roll dup 1 exch sub 3 -1 roll mul add
  4 -2 roll dup 1 exch sub 3 -1 roll mul add
  4 -2 roll dup 1 exch sub 3 -1 roll mul add srgb}
  bind def
/shd {dup dup currentrgbcolor 4 -2 roll mul 4 -2 roll mul
  4 -2 roll mul srgb} bind def
 /DrawEllipse {
	/endangle exch def
	/startangle exch def
	/yrad exch def
	/xrad exch def
	/y exch def
	/x exch def
	/savematrix mtrx currentmatrix def
	x y tr xrad yrad sc 0 0 1 startangle endangle arc
	closepath
	savematrix setmatrix
	} def

/$F2psBegin {$F2psDict begin /$F2psEnteredState save def} def
/$F2psEnd {$F2psEnteredState restore end} def

/pageheader {
save
newpath 0 307 moveto 0 0 lineto 405 0 lineto 405 307 lineto closepath clip newpath
-24.8 321.1 translate
1 -1 scale
$F2psBegin
10 setmiterlimit
0 slj 0 slc
 0.06299 0.06299 sc
} bind def
/pagefooter {
$F2psEnd
restore
} bind def
%%EndProlog
pageheader
%
% Fig objects follow
%
% 
% here starts figure with depth 50
% Polyline
0 slj
0 slc
7.500 slw
n 4275 1575 m
 4500 1575 l gs col0 s gr 
% Polyline
n 5625 1575 m
 5400 1575 l gs col0 s gr 
% Polyline
n 6480 1575 m
 6300 1575 l gs col0 s gr 
% Polyline
gs  clippath
4623 1605 m 4740 1605 l 4740 1545 l 4623 1545 l 4623 1545 l 4713 1575 l 4623 1605 l cp
eoclip
n 4500 1575 m 4680 1575 l
 4725 1575 l gs col0 s gr gr

% arrowhead
n 4623 1605 m 4713 1575 l 4623 1545 l 4593 1575 l 4623 1605 l 
 cp gs 0.00 setgray ef gr  col0 s
% Polyline
n 4500 2025 m
 4500 2475 l gs col0 s gr 
% Polyline
n 6300 2475 m
 4500 2475 l gs col0 s gr 
% Polyline
n 720 585 m
 6120 585 l gs col0 s gr 
% Polyline
n 1080 585 m 1080 495 l 6480 495 l
 6480 585 l gs col0 s gr 
% Polyline
n 4680 585 m
 4680 495 l gs col0 s gr 
% Polyline
n 5580 585 m
 5580 495 l gs col0 s gr 
% Polyline
n 720 4140 m
 900 4140 l gs col0 s gr 
% Polyline
n 2025 4140 m
 1800 4140 l gs col0 s gr 
% Polyline
n 2925 4140 m
 2700 4140 l gs col0 s gr 
% Polyline
gs  clippath
1023 4170 m 1140 4170 l 1140 4110 l 1023 4110 l 1023 4110 l 1113 4140 l 1023 4170 l cp
eoclip
n 900 4140 m 1080 4140 l
 1125 4140 l gs col0 s gr gr

% arrowhead
n 1023 4170 m 1113 4140 l 1023 4110 l 993 4140 l 1023 4170 l 
 cp gs 0.00 setgray ef gr  col0 s
% Polyline
n 900 4590 m
 900 5040 l gs col0 s gr 
% Polyline
n 900 5040 m
 2700 5040 l gs col0 s gr 
% Polyline
n 2925 5040 m
 2700 5040 l gs col0 s gr 
% Polyline
n 1980 3150 m
 1980 3060 l gs col0 s gr 
% Polyline
n 2880 3150 m
 2880 3060 l gs col0 s gr 
% Polyline
n 2880 3060 m 1080 3060 l
 1080 3150 l gs col0 s gr 
% Polyline
n 720 3150 m
 3150 3150 l gs col0 s gr 
% Polyline
n 3375 5040 m 3662 5040 l
 3662 2825 l gs col0 s gr 
% Polyline
n 720 1575 m
 900 1575 l gs col0 s gr 
% Polyline
n 2025 1575 m
 1800 1575 l gs col0 s gr 
% Polyline
n 2925 1575 m
 2700 1575 l gs col0 s gr 
% Polyline
gs  clippath
1023 1605 m 1140 1605 l 1140 1545 l 1023 1545 l 1023 1545 l 1113 1575 l 1023 1605 l cp
eoclip
n 900 1575 m 1080 1575 l
 1125 1575 l gs col0 s gr gr

% arrowhead
n 1023 1605 m 1113 1575 l 1023 1545 l 993 1575 l 1023 1605 l 
 cp gs 0.00 setgray ef gr  col0 s
% Polyline
n 900 2025 m
 900 2475 l gs col0 s gr 
% Polyline
n 900 2475 m
 2700 2475 l gs col0 s gr 
% Polyline
n 2925 2475 m
 2700 2475 l gs col0 s gr 
% Polyline
n 1980 585 m
 1980 495 l gs col0 s gr 
% Polyline
n 2880 585 m
 2880 495 l gs col0 s gr 
% Polyline
n 4242 2475 m
 4500 2475 l gs col0 s gr 
/Times-Roman ff 120.00 scf sf
4545 1935 m
gs 1 -1 sc (PC2) col1 sh gr
/Times-Roman ff 120.00 scf sf
4635 1710 m
gs 1 -1 sc (ADCMUX) col1 sh gr
/Times-Roman ff 120.00 scf sf
6345 1935 m
gs 1 -1 sc (PB5) col0 sh gr
/Times-Roman ff 120.00 scf sf
5445 1935 m
gs 1 -1 sc (PB4) col4 sh gr
/Times-Roman ff 120.00 scf sf
4230 810 m
gs 1 -1 sc  90.0 rot (19) dup sw pop 2 div neg 0 rm  col0 sh gr
/Times-Roman ff 120.00 scf sf
4590 810 m
gs 1 -1 sc  90.0 rot (22) dup sw pop 2 div neg 0 rm  col0 sh gr
/Times-Roman ff 120.00 scf sf
6030 810 m
gs 1 -1 sc  90.0 rot (19) dup sw pop 2 div neg 0 rm  col0 sh gr
/Times-Roman ff 120.00 scf sf
6390 810 m
gs 1 -1 sc  90.0 rot (22) dup sw pop 2 div neg 0 rm  col0 sh gr
/Times-Roman ff 150.00 scf sf
4050 2385 m
gs 1 -1 sc (TP3) dup sw pop 2 div neg 0 rm  col0 sh gr
/Times-Bold ff 150.00 scf sf
5310 2250 m
gs 1 -1 sc  90.0 rot (680) dup sw pop 2 div neg 0 rm  col4 sh gr
/Times-Roman ff 120.00 scf sf
6210 2250 m
gs 1 -1 sc  90.0 rot (470k) dup sw pop 2 div neg 0 rm  col0 sh gr
/Times-Roman ff 120.00 scf sf
1845 4500 m
gs 1 -1 sc (PB2) col0 sh gr
/Times-Roman ff 120.00 scf sf
1035 4275 m
gs 1 -1 sc (ADCMUX) col1 sh gr
/Times-Roman ff 120.00 scf sf
990 3375 m
gs 1 -1 sc  90.0 rot (22) dup sw pop 2 div neg 0 rm  col0 sh gr
/Times-Roman ff 120.00 scf sf
1890 3375 m
gs 1 -1 sc  90.0 rot (22) dup sw pop 2 div neg 0 rm  col0 sh gr
/Times-Bold ff 120.00 scf sf
2430 3375 m
gs 1 -1 sc  90.0 rot (19) dup sw pop 2 div neg 0 rm  col0 sh gr
/Times-Roman ff 120.00 scf sf
2790 3375 m
gs 1 -1 sc  90.0 rot (22) dup sw pop 2 div neg 0 rm  col0 sh gr
/Times-Bold ff 120.00 scf sf
1710 4815 m
gs 1 -1 sc  90.0 rot (680) dup sw pop 2 div neg 0 rm  col0 sh gr
/Times-Roman ff 120.00 scf sf
2610 4815 m
gs 1 -1 sc  90.0 rot (470k) dup sw pop 2 div neg 0 rm  col0 sh gr
/Helvetica ff 90.00 scf sf
3150 3510 m
gs 1 -1 sc (GND) dup sw pop 2 div neg 0 rm  col0 sh gr
/Times-Roman ff 120.00 scf sf
630 3375 m
gs 1 -1 sc  90.0 rot (19) dup sw pop 2 div neg 0 rm  col0 sh gr
/Times-Roman ff 120.00 scf sf
1530 3375 m
gs 1 -1 sc  90.0 rot (19) dup sw pop 2 div neg 0 rm  col0 sh gr
/Times-Roman ff 120.00 scf sf
945 1935 m
gs 1 -1 sc (PC0) col4 sh gr
/Times-Roman ff 120.00 scf sf
1845 1935 m
gs 1 -1 sc (PB0) col0 sh gr
/Times-Roman ff 120.00 scf sf
1035 1710 m
gs 1 -1 sc (ADCMUX) col4 sh gr
/Times-Roman ff 120.00 scf sf
2745 1935 m
gs 1 -1 sc (PB1) col0 sh gr
/Times-Roman ff 120.00 scf sf
1530 810 m
gs 1 -1 sc  90.0 rot (19) dup sw pop 2 div neg 0 rm  col0 sh gr
/Times-Roman ff 120.00 scf sf
1890 810 m
gs 1 -1 sc  90.0 rot (22) dup sw pop 2 div neg 0 rm  col0 sh gr
/Times-Roman ff 120.00 scf sf
2430 810 m
gs 1 -1 sc  90.0 rot (19) dup sw pop 2 div neg 0 rm  col0 sh gr
/Times-Roman ff 120.00 scf sf
2790 810 m
gs 1 -1 sc  90.0 rot (22) dup sw pop 2 div neg 0 rm  col0 sh gr
/Times-Roman ff 120.00 scf sf
1710 2250 m
gs 1 -1 sc  90.0 rot (680) dup sw pop 2 div neg 0 rm  col0 sh gr
/Times-Roman ff 120.00 scf sf
2610 2250 m
gs 1 -1 sc  90.0 rot (470k) dup sw pop 2 div neg 0 rm  col0 sh gr
/Times-Roman ff 150.00 scf sf
3150 2385 m
gs 1 -1 sc (TP1) dup sw pop 2 div neg 0 rm  col0 sh gr
/Helvetica ff 90.00 scf sf
3510 945 m
gs 1 -1 sc (GND) dup sw pop 2 div neg 0 rm  col0 sh gr
/Times-Roman ff 150.00 scf sf
3150 4950 m
gs 1 -1 sc (TP2) dup sw pop 2 div neg 0 rm  col0 sh gr
/Times-Roman ff 120.00 scf sf
2745 4500 m
gs 1 -1 sc (PB3) col0 sh gr
/Times-Roman ff 120.00 scf sf
945 4500 m
gs 1 -1 sc (PC1) col1 sh gr
/Times-Roman ff 150.00 scf sf
1980 2250 m
gs 1 -1 sc  90.0 rot (R1) dup sw pop 2 div neg 0 rm  col0 sh gr
/Times-Roman ff 150.00 scf sf
2880 2250 m
gs 1 -1 sc  90.0 rot (R2) dup sw pop 2 div neg 0 rm  col0 sh gr
/Times-Roman ff 150.00 scf sf
5580 2250 m
gs 1 -1 sc  90.0 rot (R5) dup sw pop 2 div neg 0 rm  col4 sh gr
/Times-Roman ff 150.00 scf sf
6480 2250 m
gs 1 -1 sc  90.0 rot (R6) dup sw pop 2 div neg 0 rm  col0 sh gr
/Times-Roman ff 120.00 scf sf
1980 4815 m
gs 1 -1 sc  90.0 rot (R3) dup sw pop 2 div neg 0 rm  col0 sh gr
/Times-Roman ff 150.00 scf sf
2880 4815 m
gs 1 -1 sc  90.0 rot (R4) dup sw pop 2 div neg 0 rm  col0 sh gr
/Times-Bold ff 150.00 scf sf
5130 810 m
gs 1 -1 sc  90.0 rot (19) dup sw pop 2 div neg 0 rm  col4 sh gr
/Times-Roman ff 120.00 scf sf
5490 810 m
gs 1 -1 sc  90.0 rot (22) dup sw pop 2 div neg 0 rm  col0 sh gr
/Times-Bold ff 150.00 scf sf
990 810 m
gs 1 -1 sc  90.0 rot (22) dup sw pop 2 div neg 0 rm  col4 sh gr
/Times-Roman ff 120.00 scf sf
630 810 m
gs 1 -1 sc  90.0 rot (19) dup sw pop 2 div neg 0 rm  col0 sh gr
/Times-Roman ff 150.00 scf sf
3690 2385 m
gs 1 -1 sc (S) col0 sh gr
/Times-Roman ff 150.00 scf sf
3375 2385 m
gs 1 -1 sc (D) col0 sh gr
/Times-Roman ff 150.00 scf sf
3465 2880 m
gs 1 -1 sc (G) col0 sh gr
% here ends figure;
% 
% here starts figure with depth 0
% Polyline
0 slj
0 slc
7.500 slw
n 5580 945 m
 5580 1035 l gs col0 s gr 
% Polyline
n 5535 675 m 5625 675 l 5625 945 l 5535 945 l
 cp gs col0 s gr 
% Polyline
n 5580 585 m
 5580 675 l gs col0 s gr 
% Polyline
n 6480 945 m
 6480 1035 l gs col0 s gr 
% Polyline
n 6435 675 m 6525 675 l 6525 945 l 6435 945 l
 cp gs col0 s gr 
% Polyline
n 6480 585 m
 6480 675 l gs col0 s gr 
% Polyline
n 4320 945 m
 4320 1035 l gs col0 s gr 
% Polyline
n 4275 675 m 4365 675 l 4365 945 l 4275 945 l
 cp gs col0 s gr 
% Polyline
n 4320 585 m
 4320 675 l gs col0 s gr 
% Polyline
n 4680 945 m
 4680 1035 l gs col0 s gr 
% Polyline
n 4635 675 m 4725 675 l 4725 945 l 4635 945 l
 cp gs col0 s gr 
% Polyline
n 4680 585 m
 4680 675 l gs col0 s gr 
% Polyline
n 5220 945 m
 5220 1035 l gs col0 s gr 
% Polyline
n 5175 675 m 5265 675 l 5265 945 l 5175 945 l
 cp gs col0 s gr 
% Polyline
n 5220 585 m
 5220 675 l gs col0 s gr 
% Polyline
n 6120 945 m
 6120 1035 l gs col0 s gr 
% Polyline
n 6075 675 m 6165 675 l 6165 945 l 6075 945 l
 cp gs col0 s gr 
% Polyline
n 6120 585 m
 6120 675 l gs col0 s gr 
% Polyline
1 slj
n 5965 1575 m 5715 1440 l 5715 1710 l
 5965 1575 l  cp gs col0 s gr 
% Polyline
0 slj
n 5965 1575 m
 6030 1575 l gs col0 s gr 
% Polyline
n 5828 1541 m 5798 1541 l 5798 1611 l
 5768 1611 l gs col0 s gr 
% Polyline
n 5807 1541 m 5777 1541 l 5777 1611 l
 5747 1611 l gs col0 s gr 
% Polyline
n 5715 1575 m
 5625 1575 l gs col0 s gr 
% Polyline
1 slj
n 3935 1575 m 4185 1710 l 4185 1440 l
 3935 1575 l  cp gs col0 s gr 
% Polyline
0 slj
n 3935 1575 m
 3870 1575 l gs col0 s gr 
% Polyline
n 4072 1609 m 4102 1609 l 4102 1539 l
 4132 1539 l gs col0 s gr 
% Polyline
n 4093 1609 m 4123 1609 l 4123 1539 l
 4153 1539 l gs col0 s gr 
% Polyline
n 4185 1575 m
 4275 1575 l gs col0 s gr 
% Ellipse
n 4498 1573 20 20 0 360 DrawEllipse gs 0.00 setgray ef gr gs col0 s gr

% Ellipse
n 5401 1573 20 20 0 360 DrawEllipse gs 0.00 setgray ef gr gs col0 s gr

% Ellipse
n 6298 1571 20 20 0 360 DrawEllipse gs 0.00 setgray ef gr gs col0 s gr

% Ellipse
n 4500 2475 20 20 0 360 DrawEllipse gs 0.00 setgray ef gr gs col0 s gr

% Ellipse
n 5400 2475 20 20 0 360 DrawEllipse gs 0.00 setgray ef gr gs col0 s gr

% Polyline
n 5400 2385 m
 5400 2475 l gs col0 s gr 
% Polyline
n 5355 2115 m 5445 2115 l 5445 2385 l 5355 2385 l
 cp gs col0 s gr 
% Polyline
n 5400 2025 m
 5400 2115 l gs col0 s gr 
% Polyline
n 6300 2385 m
 6300 2475 l gs col0 s gr 
% Polyline
n 6255 2115 m 6345 2115 l 6345 2385 l 6255 2385 l
 cp gs col0 s gr 
% Polyline
n 6300 2025 m
 6300 2115 l gs col0 s gr 
% Ellipse
n 4500 2475 20 20 0 360 DrawEllipse gs 0.00 setgray ef gr gs col0 s gr

% Polyline
n 6345 1755 m 6300 1800 l
 6255 1755 l gs col0 s gr 
% Polyline
n 6345 1800 m 6300 1845 l
 6255 1800 l gs col0 s gr 
% Polyline
n 6300 1845 m
 6300 2025 l gs col0 s gr 
% Polyline
n 6300 1575 m
 6300 1800 l gs col0 s gr 
% Polyline
n 4545 1755 m 4500 1800 l
 4455 1755 l gs col0 s gr 
% Polyline
n 4545 1800 m 4500 1845 l
 4455 1800 l gs col0 s gr 
% Polyline
n 4500 1845 m
 4500 2025 l gs col0 s gr 
% Polyline
n 4500 1575 m
 4500 1800 l gs col0 s gr 
% Polyline
n 5445 1755 m 5400 1800 l
 5355 1755 l gs col0 s gr 
% Polyline
n 5445 1800 m 5400 1845 l
 5355 1800 l gs col0 s gr 
% Polyline
n 5400 1845 m
 5400 2025 l gs col0 s gr 
% Polyline
n 5400 1575 m
 5400 1800 l gs col0 s gr 
% Ellipse
n 5085 1890 135 135 0 360 DrawEllipse gs col0 s gr

% Polyline
n 5040 1835 m 5085 1935 l
 5130 1835 l gs col0 s gr 
% Ellipse
n 4320 585 20 20 0 360 DrawEllipse gs 0.00 setgray ef gr gs col0 s gr

% Ellipse
n 5220 585 20 20 0 360 DrawEllipse gs 0.00 setgray ef gr gs col0 s gr

% Ellipse
n 4680 495 20 20 0 360 DrawEllipse gs 0.00 setgray ef gr gs col0 s gr

% Ellipse
n 5580 495 20 20 0 360 DrawEllipse gs 0.00 setgray ef gr gs col0 s gr

% Polyline
1 slj
n 6730 1575 m 6480 1440 l 6480 1710 l
 6730 1575 l  cp gs col0 s gr 
% Polyline
0 slj
n 6730 1575 m
 6795 1575 l gs col0 s gr 
% Polyline
n 6593 1541 m 6563 1541 l 6563 1611 l
 6533 1611 l gs col0 s gr 
% Polyline
n 6572 1541 m 6542 1541 l 6542 1611 l
 6512 1611 l gs col0 s gr 
% Polyline
n 6480 1575 m
 6390 1575 l gs col0 s gr 
% Polyline
n 1980 3510 m
 1980 3600 l gs col0 s gr 
% Polyline
n 1935 3240 m 2025 3240 l 2025 3510 l 1935 3510 l
 cp gs col0 s gr 
% Polyline
n 1980 3150 m
 1980 3240 l gs col0 s gr 
% Polyline
n 2880 3510 m
 2880 3600 l gs col0 s gr 
% Polyline
n 2835 3240 m 2925 3240 l 2925 3510 l 2835 3510 l
 cp gs col0 s gr 
% Polyline
n 2880 3150 m
 2880 3240 l gs col0 s gr 
% Polyline
n 720 3510 m
 720 3600 l gs col0 s gr 
% Polyline
n 675 3240 m 765 3240 l 765 3510 l 675 3510 l
 cp gs col0 s gr 
% Polyline
n 720 3150 m
 720 3240 l gs col0 s gr 
% Polyline
n 1080 3510 m
 1080 3600 l gs col0 s gr 
% Polyline
n 1035 3240 m 1125 3240 l 1125 3510 l 1035 3510 l
 cp gs col0 s gr 
% Polyline
n 1080 3150 m
 1080 3240 l gs col0 s gr 
% Polyline
n 2520 3510 m
 2520 3600 l gs col0 s gr 
% Polyline
n 2475 3240 m 2565 3240 l 2565 3510 l 2475 3510 l
 cp gs col0 s gr 
% Polyline
n 2520 3150 m
 2520 3240 l gs col0 s gr 
% Polyline
1 slj
n 2365 4140 m 2115 4005 l 2115 4275 l
 2365 4140 l  cp gs col0 s gr 
% Polyline
0 slj
n 2365 4140 m
 2430 4140 l gs col0 s gr 
% Polyline
n 2228 4106 m 2198 4106 l 2198 4176 l
 2168 4176 l gs col0 s gr 
% Polyline
n 2207 4106 m 2177 4106 l 2177 4176 l
 2147 4176 l gs col0 s gr 
% Polyline
n 2115 4140 m
 2025 4140 l gs col0 s gr 
% Polyline
1 slj
n 3265 4140 m 3015 4005 l 3015 4275 l
 3265 4140 l  cp gs col0 s gr 
% Polyline
0 slj
n 3265 4140 m
 3330 4140 l gs col0 s gr 
% Polyline
n 3128 4106 m 3098 4106 l 3098 4176 l
 3068 4176 l gs col0 s gr 
% Polyline
n 3107 4106 m 3077 4106 l 3077 4176 l
 3047 4176 l gs col0 s gr 
% Polyline
n 3015 4140 m
 2925 4140 l gs col0 s gr 
% Ellipse
n 898 4138 20 20 0 360 DrawEllipse gs 0.00 setgray ef gr gs col0 s gr

% Ellipse
n 1801 4138 20 20 0 360 DrawEllipse gs 0.00 setgray ef gr gs col0 s gr

% Ellipse
n 2698 4136 20 20 0 360 DrawEllipse gs 0.00 setgray ef gr gs col0 s gr

% Ellipse
n 1800 5040 20 20 0 360 DrawEllipse gs 0.00 setgray ef gr gs col0 s gr

% Ellipse
n 2700 5040 20 20 0 360 DrawEllipse gs 0.00 setgray ef gr gs col0 s gr

% Polyline
n 1800 4950 m
 1800 5040 l gs col0 s gr 
% Polyline
n 1755 4680 m 1845 4680 l 1845 4950 l 1755 4950 l
 cp gs col0 s gr 
% Polyline
n 1800 4590 m
 1800 4680 l gs col0 s gr 
% Polyline
n 2700 4950 m
 2700 5040 l gs col0 s gr 
% Polyline
n 2655 4680 m 2745 4680 l 2745 4950 l 2655 4950 l
 cp gs col0 s gr 
% Polyline
n 2700 4590 m
 2700 4680 l gs col0 s gr 
% Polyline
n 2745 4320 m 2700 4365 l
 2655 4320 l gs col0 s gr 
% Polyline
n 2745 4365 m 2700 4410 l
 2655 4365 l gs col0 s gr 
% Polyline
n 2700 4410 m
 2700 4590 l gs col0 s gr 
% Polyline
n 2700 4140 m
 2700 4365 l gs col0 s gr 
% Polyline
n 945 4320 m 900 4365 l
 855 4320 l gs col0 s gr 
% Polyline
n 945 4365 m 900 4410 l
 855 4365 l gs col0 s gr 
% Polyline
n 900 4410 m
 900 4590 l gs col0 s gr 
% Polyline
n 900 4140 m
 900 4365 l gs col0 s gr 
% Polyline
n 1845 4320 m 1800 4365 l
 1755 4320 l gs col0 s gr 
% Polyline
n 1845 4365 m 1800 4410 l
 1755 4365 l gs col0 s gr 
% Polyline
n 1800 4410 m
 1800 4590 l gs col0 s gr 
% Polyline
n 1800 4140 m
 1800 4365 l gs col0 s gr 
% Polyline
n 3195 4995 m 3150 5040 l
 3195 5085 l gs col0 s gr 
% Polyline
n 3150 4995 m 3105 5040 l
 3150 5085 l gs col0 s gr 
% Polyline
n 3105 5040 m
 2925 5040 l gs col0 s gr 
% Polyline
n 3375 5040 m
 3150 5040 l gs col0 s gr 
% Ellipse
n 1440 4455 135 135 0 360 DrawEllipse gs col0 s gr

% Polyline
n 1395 4400 m 1440 4500 l
 1485 4400 l gs col0 s gr 
% Ellipse
n 1620 3150 20 20 0 360 DrawEllipse gs 0.00 setgray ef gr gs col0 s gr

% Ellipse
n 2520 3150 20 20 0 360 DrawEllipse gs 0.00 setgray ef gr gs col0 s gr

% Ellipse
n 1980 3060 20 20 0 360 DrawEllipse gs 0.00 setgray ef gr gs col0 s gr

% Polyline
1 slj
n 470 4140 m 720 4275 l 720 4005 l
 470 4140 l  cp gs col0 s gr 
% Polyline
0 slj
n 470 4140 m
 405 4140 l gs col0 s gr 
% Polyline
n 607 4174 m 637 4174 l 637 4104 l
 667 4104 l gs col0 s gr 
% Polyline
n 628 4174 m 658 4174 l 658 4104 l
 688 4104 l gs col0 s gr 
% Polyline
n 720 4140 m
 810 4140 l gs col0 s gr 
% Ellipse
n 1080 3060 20 20 0 360 DrawEllipse gs 0.00 setgray ef gr gs col0 s gr

% Polyline
n 1620 3510 m
 1620 3600 l gs col0 s gr 
% Polyline
n 1575 3240 m 1665 3240 l 1665 3510 l 1575 3510 l
 cp gs col0 s gr 
% Polyline
n 1620 3150 m
 1620 3240 l gs col0 s gr 
% Polyline
n 1980 945 m
 1980 1035 l gs col0 s gr 
% Polyline
n 1935 675 m 2025 675 l 2025 945 l 1935 945 l
 cp gs col0 s gr 
% Polyline
n 1980 585 m
 1980 675 l gs col0 s gr 
% Polyline
n 2880 945 m
 2880 1035 l gs col0 s gr 
% Polyline
n 2835 675 m 2925 675 l 2925 945 l 2835 945 l
 cp gs col0 s gr 
% Polyline
n 2880 585 m
 2880 675 l gs col0 s gr 
% Polyline
n 720 945 m
 720 1035 l gs col0 s gr 
% Polyline
n 675 675 m 765 675 l 765 945 l 675 945 l
 cp gs col0 s gr 
% Polyline
n 720 585 m
 720 675 l gs col0 s gr 
% Polyline
n 1080 945 m
 1080 1035 l gs col0 s gr 
% Polyline
n 1035 675 m 1125 675 l 1125 945 l 1035 945 l
 cp gs col0 s gr 
% Polyline
n 1080 585 m
 1080 675 l gs col0 s gr 
% Polyline
n 1620 945 m
 1620 1035 l gs col0 s gr 
% Polyline
n 1575 675 m 1665 675 l 1665 945 l 1575 945 l
 cp gs col0 s gr 
% Polyline
n 1620 585 m
 1620 675 l gs col0 s gr 
% Polyline
n 2520 945 m
 2520 1035 l gs col0 s gr 
% Polyline
n 2475 675 m 2565 675 l 2565 945 l 2475 945 l
 cp gs col0 s gr 
% Polyline
n 2520 585 m
 2520 675 l gs col0 s gr 
% Polyline
1 slj
n 2365 1575 m 2115 1440 l 2115 1710 l
 2365 1575 l  cp gs col0 s gr 
% Polyline
0 slj
n 2365 1575 m
 2430 1575 l gs col0 s gr 
% Polyline
n 2228 1541 m 2198 1541 l 2198 1611 l
 2168 1611 l gs col0 s gr 
% Polyline
n 2207 1541 m 2177 1541 l 2177 1611 l
 2147 1611 l gs col0 s gr 
% Polyline
n 2115 1575 m
 2025 1575 l gs col0 s gr 
% Polyline
1 slj
n 3265 1575 m 3015 1440 l 3015 1710 l
 3265 1575 l  cp gs col0 s gr 
% Polyline
0 slj
n 3265 1575 m
 3330 1575 l gs col0 s gr 
% Polyline
n 3128 1541 m 3098 1541 l 3098 1611 l
 3068 1611 l gs col0 s gr 
% Polyline
n 3107 1541 m 3077 1541 l 3077 1611 l
 3047 1611 l gs col0 s gr 
% Polyline
n 3015 1575 m
 2925 1575 l gs col0 s gr 
% Ellipse
n 898 1573 20 20 0 360 DrawEllipse gs 0.00 setgray ef gr gs col0 s gr

% Ellipse
n 1801 1573 20 20 0 360 DrawEllipse gs 0.00 setgray ef gr gs col0 s gr

% Ellipse
n 2698 1571 20 20 0 360 DrawEllipse gs 0.00 setgray ef gr gs col0 s gr

% Ellipse
n 1800 2475 20 20 0 360 DrawEllipse gs 0.00 setgray ef gr gs col0 s gr

% Ellipse
n 2700 2475 20 20 0 360 DrawEllipse gs 0.00 setgray ef gr gs col0 s gr

% Polyline
n 1800 2385 m
 1800 2475 l gs col0 s gr 
% Polyline
n 1755 2115 m 1845 2115 l 1845 2385 l 1755 2385 l
 cp gs col0 s gr 
% Polyline
n 1800 2025 m
 1800 2115 l gs col0 s gr 
% Polyline
n 2700 2385 m
 2700 2475 l gs col0 s gr 
% Polyline
n 2655 2115 m 2745 2115 l 2745 2385 l 2655 2385 l
 cp gs col0 s gr 
% Polyline
n 2700 2025 m
 2700 2115 l gs col0 s gr 
% Polyline
n 2745 1755 m 2700 1800 l
 2655 1755 l gs col0 s gr 
% Polyline
n 2745 1800 m 2700 1845 l
 2655 1800 l gs col0 s gr 
% Polyline
n 2700 1845 m
 2700 2025 l gs col0 s gr 
% Polyline
n 2700 1575 m
 2700 1800 l gs col0 s gr 
% Polyline
n 945 1755 m 900 1800 l
 855 1755 l gs col0 s gr 
% Polyline
n 945 1800 m 900 1845 l
 855 1800 l gs col0 s gr 
% Polyline
n 900 1845 m
 900 2025 l gs col0 s gr 
% Polyline
n 900 1575 m
 900 1800 l gs col0 s gr 
% Polyline
n 1845 1755 m 1800 1800 l
 1755 1755 l gs col0 s gr 
% Polyline
n 1845 1800 m 1800 1845 l
 1755 1800 l gs col0 s gr 
% Polyline
n 1800 1845 m
 1800 2025 l gs col0 s gr 
% Polyline
n 1800 1575 m
 1800 1800 l gs col0 s gr 
% Polyline
n 3195 2430 m 3150 2475 l
 3195 2520 l gs col0 s gr 
% Polyline
n 3150 2430 m 3105 2475 l
 3150 2520 l gs col0 s gr 
% Polyline
n 3105 2475 m
 2925 2475 l gs col0 s gr 
% Polyline
n 3375 2475 m
 3150 2475 l gs col0 s gr 
% Ellipse
n 1620 585 20 20 0 360 DrawEllipse gs 0.00 setgray ef gr gs col0 s gr

% Ellipse
n 2520 585 20 20 0 360 DrawEllipse gs 0.00 setgray ef gr gs col0 s gr

% Ellipse
n 3510 585 20 20 0 360 DrawEllipse gs 0.00 setgray ef gr gs col0 s gr

% Ellipse
n 3690 495 20 20 0 360 DrawEllipse gs 0.00 setgray ef gr gs col0 s gr

% Ellipse
n 2880 495 20 20 0 360 DrawEllipse gs 0.00 setgray ef gr gs col0 s gr

% Ellipse
n 1980 495 20 20 0 360 DrawEllipse gs 0.00 setgray ef gr gs col0 s gr

% Polyline
1 slj
n 470 1575 m 720 1710 l 720 1440 l
 470 1575 l  cp gs col0 s gr 
% Polyline
0 slj
n 470 1575 m
 405 1575 l gs col0 s gr 
% Polyline
n 607 1609 m 637 1609 l 637 1539 l
 667 1539 l gs col0 s gr 
% Polyline
n 628 1609 m 658 1609 l 658 1539 l
 688 1539 l gs col0 s gr 
% Polyline
n 720 1575 m
 810 1575 l gs col0 s gr 
% Polyline
n 3447 2617 m
 3732 2617 l gs col-1 s gr 
% Polyline
n 3661 2617 m 3661 2474 l
 3804 2474 l gs col-1 s gr 
% Polyline
n 3518 2617 m 3518 2474 l
 3375 2474 l gs col-1 s gr 
% Polyline
gs  clippath
3682 2702 m 3682 2602 l 3639 2602 l 3639 2702 l 3639 2702 l 3661 2631 l 3682 2702 l cp
eoclip
n 3661 2831 m
 3661 2617 l gs col-1 s gr gr

% arrowhead
n 3682 2702 m 3661 2631 l 3639 2702 l 3682 2702 l  cp gs 0.00 setgray ef gr  col-1 s
% Polyline
n 3979 2429 m 4024 2474 l
 3979 2519 l gs col0 s gr 
% Polyline
n 4024 2429 m 4069 2474 l
 4024 2519 l gs col0 s gr 
% Polyline
n 4069 2474 m
 4249 2474 l gs col0 s gr 
% Polyline
n 3799 2474 m
 4024 2474 l gs col0 s gr 
% Ellipse
n 4500 1170 30 30 0 360 DrawEllipse gs col0 s gr

% Ellipse
n 4680 1260 30 30 0 360 DrawEllipse gs col0 s gr

% Ellipse
n 4320 1260 30 30 0 360 DrawEllipse gs col0 s gr

% Ellipse
n 5400 1170 30 30 0 360 DrawEllipse gs col0 s gr

% Ellipse
n 5580 1260 30 30 0 360 DrawEllipse gs col0 s gr

% Ellipse
n 5220 1260 30 30 0 360 DrawEllipse gs col0 s gr

% Ellipse
n 5400 1440 30 30 0 360 DrawEllipse gs col0 s gr

% Ellipse
n 6300 1170 30 30 0 360 DrawEllipse gs col0 s gr

% Ellipse
n 6480 1260 30 30 0 360 DrawEllipse gs col0 s gr

% Ellipse
n 6120 1260 30 30 0 360 DrawEllipse gs col0 s gr

% Ellipse
n 6300 1440 30 30 0 360 DrawEllipse gs col0 s gr

% Ellipse
n 4500 1440 30 30 0 360 DrawEllipse gs col0 s gr

% Ellipse
n 900 3735 30 30 0 360 DrawEllipse gs col0 s gr

% Ellipse
n 1080 3825 30 30 0 360 DrawEllipse gs col0 s gr

% Ellipse
n 720 3825 30 30 0 360 DrawEllipse gs col0 s gr

% Ellipse
n 1800 3735 30 30 0 360 DrawEllipse gs col0 s gr

% Ellipse
n 1980 3825 30 30 0 360 DrawEllipse gs col0 s gr

% Ellipse
n 1620 3825 30 30 0 360 DrawEllipse gs col0 s gr

% Ellipse
n 1800 4005 30 30 0 360 DrawEllipse gs col0 s gr

% Ellipse
n 2700 3735 30 30 0 360 DrawEllipse gs col0 s gr

% Ellipse
n 2880 3825 30 30 0 360 DrawEllipse gs col0 s gr

% Ellipse
n 2520 3825 30 30 0 360 DrawEllipse gs col0 s gr

% Ellipse
n 2700 4005 30 30 0 360 DrawEllipse gs col0 s gr

% Ellipse
gs
900 4005 tr
-135.000 rot
n 0 0 30 30 0 360 DrawEllipse 135.000 rot
gs col0 s gr
gr

% Ellipse
n 900 1170 30 30 0 360 DrawEllipse gs col0 s gr

% Ellipse
n 1080 1260 30 30 0 360 DrawEllipse gs col0 s gr

% Ellipse
n 720 1260 30 30 0 360 DrawEllipse gs col0 s gr

% Ellipse
n 1800 1170 30 30 0 360 DrawEllipse gs col0 s gr

% Ellipse
n 1980 1260 30 30 0 360 DrawEllipse gs col0 s gr

% Ellipse
n 1620 1260 30 30 0 360 DrawEllipse gs col0 s gr

% Ellipse
n 1800 1440 30 30 0 360 DrawEllipse gs col0 s gr

% Ellipse
n 2700 1170 30 30 0 360 DrawEllipse gs col0 s gr

% Ellipse
n 2880 1260 30 30 0 360 DrawEllipse gs col0 s gr

% Ellipse
n 2520 1260 30 30 0 360 DrawEllipse gs col0 s gr

% Ellipse
n 2700 1440 30 30 0 360 DrawEllipse gs col0 s gr

% Ellipse
gs
900 1440 tr
-135.000 rot
n 0 0 30 30 0 360 DrawEllipse 135.000 rot
gs col0 s gr
gr

% Polyline
n 4500 1140 m
 4500 1035 l gs col0 s gr 
% Polyline
n 4680 1230 m
 4680 1035 l gs col0 s gr 
% Polyline
n 4320 1230 m
 4320 1035 l gs col0 s gr 
% Polyline
n 4500 1470 m
 4500 1575 l gs col0 s gr 
% Polyline
n 5400 1140 m
 5400 1035 l gs col0 s gr 
% Polyline
n 5580 1230 m
 5580 1035 l gs col0 s gr 
% Polyline
n 5220 1230 m
 5220 1035 l gs col0 s gr 
% Polyline
n 5400 1470 m
 5400 1575 l gs col0 s gr 
% Polyline
n 6300 1140 m
 6300 1035 l gs col0 s gr 
% Polyline
n 6480 1230 m
 6480 1035 l gs col0 s gr 
% Polyline
n 6120 1230 m
 6120 1035 l gs col0 s gr 
% Polyline
n 6300 1470 m
 6300 1575 l gs col0 s gr 
% Polyline
gs  clippath
4521 1297 m 4521 1193 l 4476 1193 l 4476 1297 l 4476 1297 l 4499 1222 l 4521 1297 l cp
eoclip
n 4499 1406 m
 4499 1208 l gs col0 s gr gr

% arrowhead
n 4521 1297 m 4499 1222 l 4476 1297 l 4521 1297 l  cp gs 0.00 setgray ef gr  col0 s
% Polyline
gs  clippath
6322 1297 m 6322 1193 l 6277 1193 l 6277 1297 l 6277 1297 l 6300 1222 l 6322 1297 l cp
eoclip
n 6300 1406 m
 6300 1208 l gs col0 s gr gr

% arrowhead
n 6322 1297 m 6300 1222 l 6277 1297 l 6322 1297 l  cp gs 0.00 setgray ef gr  col0 s
% Polyline
n 900 3705 m
 900 3600 l gs col0 s gr 
% Polyline
n 1080 3795 m
 1080 3600 l gs col0 s gr 
% Polyline
n 720 3795 m
 720 3600 l gs col0 s gr 
% Polyline
n 900 4035 m
 900 4140 l gs col0 s gr 
% Polyline
n 1800 3705 m
 1800 3600 l gs col0 s gr 
% Polyline
n 1980 3795 m
 1980 3600 l gs col0 s gr 
% Polyline
n 1620 3795 m
 1620 3600 l gs col0 s gr 
% Polyline
n 1800 4035 m
 1800 4140 l gs col0 s gr 
% Polyline
n 2700 3705 m
 2700 3600 l gs col0 s gr 
% Polyline
n 2880 3795 m
 2880 3600 l gs col0 s gr 
% Polyline
n 2520 3795 m
 2520 3600 l gs col0 s gr 
% Polyline
n 2700 4035 m
 2700 4140 l gs col0 s gr 
% Polyline
1 slc
30.000 slw
n 3240 3375 m
 3060 3375 l gs col0 s gr 
% Polyline
0 slc
7.500 slw
gs  clippath
1102 2941 m 1102 2820 l 1057 2820 l 1057 2941 l 1057 2941 l 1080 2851 l 1102 2941 l cp
eoclip
n 1080 3060 m
 1080 2835 l gs col0 s gr gr

% arrowhead
n 1102 2941 m 1080 2851 l 1057 2941 l 1102 2941 l  cp gs 0.00 setgray ef gr  col0 s
% Polyline
n 3150 3150 m
 3150 3375 l gs col0 s gr 
% Polyline
gs  clippath
922 3857 m 922 3753 l 877 3753 l 877 3857 l 877 3857 l 900 3782 l 922 3857 l cp
eoclip
n 900 3966 m
 900 3768 l gs col0 s gr gr

% arrowhead
n 922 3857 m 900 3782 l 877 3857 l 922 3857 l  cp gs 0.00 setgray ef gr  col0 s
% Polyline
n 900 1140 m
 900 1035 l gs col0 s gr 
% Polyline
n 1080 1230 m
 1080 1035 l gs col0 s gr 
% Polyline
n 720 1230 m
 720 1035 l gs col0 s gr 
% Polyline
n 900 1470 m
 900 1575 l gs col0 s gr 
% Polyline
n 1800 1140 m
 1800 1035 l gs col0 s gr 
% Polyline
n 1980 1230 m
 1980 1035 l gs col0 s gr 
% Polyline
n 1620 1230 m
 1620 1035 l gs col0 s gr 
% Polyline
n 1800 1470 m
 1800 1575 l gs col0 s gr 
% Polyline
n 2700 1140 m
 2700 1035 l gs col0 s gr 
% Polyline
n 2880 1230 m
 2880 1035 l gs col0 s gr 
% Polyline
n 2520 1230 m
 2520 1035 l gs col0 s gr 
% Polyline
n 2700 1470 m
 2700 1575 l gs col0 s gr 
% Polyline
gs  clippath
1821 1292 m 1821 1188 l 1776 1188 l 1776 1292 l 1776 1292 l 1799 1217 l 1821 1292 l cp
eoclip
n 1799 1401 m
 1799 1203 l gs col0 s gr gr

% arrowhead
n 1821 1292 m 1799 1217 l 1776 1292 l 1821 1292 l  cp gs 0.00 setgray ef gr  col0 s
% Polyline
gs  clippath
2721 1298 m 2721 1194 l 2676 1194 l 2676 1298 l 2676 1298 l 2699 1223 l 2721 1298 l cp
eoclip
n 2699 1407 m
 2699 1209 l gs col0 s gr gr

% arrowhead
n 2721 1298 m 2699 1223 l 2676 1298 l 2721 1298 l  cp gs 0.00 setgray ef gr  col0 s
% Polyline
n 3510 585 m
 3510 810 l gs col0 s gr 
% Polyline
1 slc
30.000 slw
n 3600 810 m
 3420 810 l gs col0 s gr 
% Polyline
0 slc
7.500 slw
gs  clippath
3712 376 m 3712 255 l 3667 255 l 3667 376 l 3667 376 l 3690 286 l 3712 376 l cp
eoclip
n 3690 495 m
 3690 270 l gs col0 s gr gr

% arrowhead
n 3712 376 m 3690 286 l 3667 376 l 3712 376 l  cp gs 0.00 setgray ef gr  col0 s
% Polyline
gs  clippath
5320 1329 m 5247 1255 l 5215 1287 l 5289 1360 l 5289 1360 l 5252 1292 l 5320 1329 l cp
eoclip
n 5382 1422 m
 5242 1282 l gs col0 s gr gr

% arrowhead
n 5320 1329 m 5252 1292 l 5289 1360 l 5320 1329 l  cp gs 0.00 setgray ef gr  col0 s
% Polyline
gs  clippath
1012 1358 m 1086 1285 l 1054 1253 l 981 1327 l 981 1327 l 1050 1290 l 1012 1358 l cp
eoclip
n 920 1420 m
 1060 1280 l gs col0 s gr gr

% arrowhead
n 1012 1358 m 1050 1290 l 981 1327 l 1012 1358 l  cp gs 0.00 setgray ef gr  col0 s
% Polyline
gs  clippath
1822 3863 m 1822 3759 l 1777 3759 l 1777 3863 l 1777 3863 l 1800 3788 l 1822 3863 l cp
eoclip
n 1800 3972 m
 1800 3774 l gs col0 s gr gr

% arrowhead
n 1822 3863 m 1800 3788 l 1777 3863 l 1822 3863 l  cp gs 0.00 setgray ef gr  col0 s
% Polyline
gs  clippath
2617 3891 m 2544 3817 l 2512 3849 l 2586 3922 l 2586 3922 l 2549 3854 l 2617 3891 l cp
eoclip
n 2679 3984 m
 2539 3844 l gs col0 s gr gr

% arrowhead
n 2617 3891 m 2549 3854 l 2586 3922 l 2617 3891 l  cp gs 0.00 setgray ef gr  col0 s
/Helvetica ff 90.00 scf sf
3825 315 m
gs 1 -1 sc (VCC) dup sw pop 2 div neg 0 rm  col0 sh gr
/Helvetica ff 90.00 scf sf
1215 2880 m
gs 1 -1 sc (VCC) dup sw pop 2 div neg 0 rm  col0 sh gr
% here ends figure;
pagefooter
showpage
%%Trailer
%EOF

%%EndDocument
 @endspecial Black Black eop end
%%Trailer

userdict /end-hook known{end-hook}if
%%EOF
