%!PS-Adobe-2.0
%%Creator: dvips(k) 5.993 Copyright 2013 Radical Eye Software
%%Title: job-001.dvi
%%CreationDate: Mon Apr  6 22:23:05 2015
%%Pages: 1
%%PageOrder: Ascend
%%BoundingBox: 155 2922 560 3229
%%EndComments
%DVIPSWebPage: (www.radicaleye.com)
%DVIPSCommandLine: dvips job-001.dvi -o job-001.dvips.ps
%DVIPSParameters: dpi=600
%DVIPSSource:  TeX output 2015.04.06:2223
%%BeginProcSet: tex.pro 0 0
%!
/TeXDict 300 dict def TeXDict begin/N{def}def/B{bind def}N/S{exch}N/X{S
N}B/A{dup}B/TR{translate}N/isls false N/vsize 11 72 mul N/hsize 8.5 72
mul N/landplus90{false}def/@rigin{isls{[0 landplus90{1 -1}{-1 1}ifelse 0
0 0]concat}if 72 Resolution div 72 VResolution div neg scale isls{
landplus90{VResolution 72 div vsize mul 0 exch}{Resolution -72 div hsize
mul 0}ifelse TR}if Resolution VResolution vsize -72 div 1 add mul TR[
matrix currentmatrix{A A round sub abs 0.00001 lt{round}if}forall round
exch round exch]setmatrix}N/@landscape{/isls true N}B/@manualfeed{
statusdict/manualfeed true put}B/@copies{/#copies X}B/FMat[1 0 0 -1 0 0]
N/FBB[0 0 0 0]N/nn 0 N/IEn 0 N/ctr 0 N/df-tail{/nn 8 dict N nn begin
/FontType 3 N/FontMatrix fntrx N/FontBBox FBB N string/base X array
/BitMaps X/BuildChar{CharBuilder}N/Encoding IEn N end A{/foo setfont}2
array copy cvx N load 0 nn put/ctr 0 N[}B/sf 0 N/df{/sf 1 N/fntrx FMat N
df-tail}B/dfs{div/sf X/fntrx[sf 0 0 sf neg 0 0]N df-tail}B/E{pop nn A
definefont setfont}B/Cw{Cd A length 5 sub get}B/Ch{Cd A length 4 sub get
}B/Cx{128 Cd A length 3 sub get sub}B/Cy{Cd A length 2 sub get 127 sub}
B/Cdx{Cd A length 1 sub get}B/Ci{Cd A type/stringtype ne{ctr get/ctr ctr
1 add N}if}B/CharBuilder{save 3 1 roll S A/base get 2 index get S
/BitMaps get S get/Cd X pop/ctr 0 N Cdx 0 Cx Cy Ch sub Cx Cw add Cy
setcachedevice Cw Ch true[1 0 0 -1 -.1 Cx sub Cy .1 sub]{Ci}imagemask
restore}B/D{/cc X A type/stringtype ne{]}if nn/base get cc ctr put nn
/BitMaps get S ctr S sf 1 ne{A A length 1 sub A 2 index S get sf div put
}if put/ctr ctr 1 add N}B/I{cc 1 add D}B/bop{userdict/bop-hook known{
bop-hook}if/SI save N @rigin 0 0 moveto/V matrix currentmatrix A 1 get A
mul exch 0 get A mul add .99 lt{/QV}{/RV}ifelse load def pop pop}N/eop{
SI restore userdict/eop-hook known{eop-hook}if showpage}N/@start{
userdict/start-hook known{start-hook}if pop/VResolution X/Resolution X
1000 div/DVImag X/IEn 256 array N 2 string 0 1 255{IEn S A 360 add 36 4
index cvrs cvn put}for pop 65781.76 div/vsize X 65781.76 div/hsize X}N
/dir 0 def/dyy{/dir 0 def}B/dyt{/dir 1 def}B/dty{/dir 2 def}B/dtt{/dir 3
def}B/p{dir 2 eq{-90 rotate show 90 rotate}{dir 3 eq{-90 rotate show 90
rotate}{show}ifelse}ifelse}N/RMat[1 0 0 -1 0 0]N/BDot 260 string N/Rx 0
N/Ry 0 N/V{}B/RV/v{/Ry X/Rx X V}B statusdict begin/product where{pop
false[(Display)(NeXT)(LaserWriter 16/600)]{A length product length le{A
length product exch 0 exch getinterval eq{pop true exit}if}{pop}ifelse}
forall}{false}ifelse end{{gsave TR -.1 .1 TR 1 1 scale Rx Ry false RMat{
BDot}imagemask grestore}}{{gsave TR -.1 .1 TR Rx Ry scale 1 1 false RMat
{BDot}imagemask grestore}}ifelse B/QV{gsave newpath transform round exch
round exch itransform moveto Rx 0 rlineto 0 Ry neg rlineto Rx neg 0
rlineto fill grestore}B/a{moveto}B/delta 0 N/tail{A/delta X 0 rmoveto}B
/M{S p delta add tail}B/b{S p tail}B/c{-4 M}B/d{-3 M}B/e{-2 M}B/f{-1 M}
B/g{0 M}B/h{1 M}B/i{2 M}B/j{3 M}B/k{4 M}B/w{0 rmoveto}B/l{p -4 w}B/m{p
-3 w}B/n{p -2 w}B/o{p -1 w}B/q{p 1 w}B/r{p 2 w}B/s{p 3 w}B/t{p 4 w}B/x{
0 S rmoveto}B/y{3 2 roll p a}B/bos{/SS save N}B/eos{SS restore}B end

%%EndProcSet
%%BeginProcSet: special.pro 0 0
%!
TeXDict begin/SDict 200 dict N SDict begin/@SpecialDefaults{/hs 612 N
/vs 792 N/ho 0 N/vo 0 N/hsc 1 N/vsc 1 N/ang 0 N/CLIP 0 N/rwiSeen false N
/rhiSeen false N/letter{}N/note{}N/a4{}N/legal{}N}B/@scaleunit 100 N
/@hscale{@scaleunit div/hsc X}B/@vscale{@scaleunit div/vsc X}B/@hsize{
/hs X/CLIP 1 N}B/@vsize{/vs X/CLIP 1 N}B/@clip{/CLIP 2 N}B/@hoffset{/ho
X}B/@voffset{/vo X}B/@angle{/ang X}B/@rwi{10 div/rwi X/rwiSeen true N}B
/@rhi{10 div/rhi X/rhiSeen true N}B/@llx{/llx X}B/@lly{/lly X}B/@urx{
/urx X}B/@ury{/ury X}B/magscale true def end/@MacSetUp{userdict/md known
{userdict/md get type/dicttype eq{userdict begin md length 10 add md
maxlength ge{/md md dup length 20 add dict copy def}if end md begin
/letter{}N/note{}N/legal{}N/od{txpose 1 0 mtx defaultmatrix dtransform S
atan/pa X newpath clippath mark{transform{itransform moveto}}{transform{
itransform lineto}}{6 -2 roll transform 6 -2 roll transform 6 -2 roll
transform{itransform 6 2 roll itransform 6 2 roll itransform 6 2 roll
curveto}}{{closepath}}pathforall newpath counttomark array astore/gc xdf
pop ct 39 0 put 10 fz 0 fs 2 F/|______Courier fnt invertflag{PaintBlack}
if}N/txpose{pxs pys scale ppr aload pop por{noflips{pop S neg S TR pop 1
-1 scale}if xflip yflip and{pop S neg S TR 180 rotate 1 -1 scale ppr 3
get ppr 1 get neg sub neg ppr 2 get ppr 0 get neg sub neg TR}if xflip
yflip not and{pop S neg S TR pop 180 rotate ppr 3 get ppr 1 get neg sub
neg 0 TR}if yflip xflip not and{ppr 1 get neg ppr 0 get neg TR}if}{
noflips{TR pop pop 270 rotate 1 -1 scale}if xflip yflip and{TR pop pop
90 rotate 1 -1 scale ppr 3 get ppr 1 get neg sub neg ppr 2 get ppr 0 get
neg sub neg TR}if xflip yflip not and{TR pop pop 90 rotate ppr 3 get ppr
1 get neg sub neg 0 TR}if yflip xflip not and{TR pop pop 270 rotate ppr
2 get ppr 0 get neg sub neg 0 S TR}if}ifelse scaleby96{ppr aload pop 4
-1 roll add 2 div 3 1 roll add 2 div 2 copy TR .96 dup scale neg S neg S
TR}if}N/cp{pop pop showpage pm restore}N end}if}if}N/normalscale{
Resolution 72 div VResolution 72 div neg scale magscale{DVImag dup scale
}if 0 setgray}N/psfts{S 65781.76 div N}N/startTexFig{/psf$SavedState
save N userdict maxlength dict begin/magscale true def normalscale
currentpoint TR/psf$ury psfts/psf$urx psfts/psf$lly psfts/psf$llx psfts
/psf$y psfts/psf$x psfts currentpoint/psf$cy X/psf$cx X/psf$sx psf$x
psf$urx psf$llx sub div N/psf$sy psf$y psf$ury psf$lly sub div N psf$sx
psf$sy scale psf$cx psf$sx div psf$llx sub psf$cy psf$sy div psf$ury sub
TR/showpage{}N/erasepage{}N/setpagedevice{pop}N/copypage{}N/p 3 def
@MacSetUp}N/doclip{psf$llx psf$lly psf$urx psf$ury currentpoint 6 2 roll
newpath 4 copy 4 2 roll moveto 6 -1 roll S lineto S lineto S lineto
closepath clip newpath moveto}N/endTexFig{end psf$SavedState restore}N
/@beginspecial{SDict begin/SpecialSave save N gsave normalscale
currentpoint TR @SpecialDefaults count/ocount X/dcount countdictstack N}
N/@setspecial{CLIP 1 eq{newpath 0 0 moveto hs 0 rlineto 0 vs rlineto hs
neg 0 rlineto closepath clip}if ho vo TR hsc vsc scale ang rotate
rwiSeen{rwi urx llx sub div rhiSeen{rhi ury lly sub div}{dup}ifelse
scale llx neg lly neg TR}{rhiSeen{rhi ury lly sub div dup scale llx neg
lly neg TR}if}ifelse CLIP 2 eq{newpath llx lly moveto urx lly lineto urx
ury lineto llx ury lineto closepath clip}if/showpage{}N/erasepage{}N
/setpagedevice{pop}N/copypage{}N newpath}N/@endspecial{count ocount sub{
pop}repeat countdictstack dcount sub{end}repeat grestore SpecialSave
restore end}N/@defspecial{SDict begin}N/@fedspecial{end}B/li{lineto}B
/rl{rlineto}B/rc{rcurveto}B/np{/SaveX currentpoint/SaveY X N 1
setlinecap newpath}N/st{stroke SaveX SaveY moveto}N/fil{fill SaveX SaveY
moveto}N/ellipse{/endangle X/startangle X/yrad X/xrad X/savematrix
matrix currentmatrix N TR xrad yrad scale 0 0 1 startangle endangle arc
savematrix setmatrix}N end

%%EndProcSet
%%BeginProcSet: color.pro 0 0
%!
TeXDict begin/setcmykcolor where{pop}{/setcmykcolor{dup 10 eq{pop
setrgbcolor}{1 sub 4 1 roll 3{3 index add neg dup 0 lt{pop 0}if 3 1 roll
}repeat setrgbcolor pop}ifelse}B}ifelse/TeXcolorcmyk{setcmykcolor}def
/TeXcolorrgb{setrgbcolor}def/TeXcolorgrey{setgray}def/TeXcolorgray{
setgray}def/TeXcolorhsb{sethsbcolor}def/currentcmykcolor where{pop}{
/currentcmykcolor{currentrgbcolor 10}B}ifelse/DC{exch dup userdict exch
known{pop pop}{X}ifelse}B/GreenYellow{0.15 0 0.69 0 setcmykcolor}DC
/Yellow{0 0 1 0 setcmykcolor}DC/Goldenrod{0 0.10 0.84 0 setcmykcolor}DC
/Dandelion{0 0.29 0.84 0 setcmykcolor}DC/Apricot{0 0.32 0.52 0
setcmykcolor}DC/Peach{0 0.50 0.70 0 setcmykcolor}DC/Melon{0 0.46 0.50 0
setcmykcolor}DC/YellowOrange{0 0.42 1 0 setcmykcolor}DC/Orange{0 0.61
0.87 0 setcmykcolor}DC/BurntOrange{0 0.51 1 0 setcmykcolor}DC
/Bittersweet{0 0.75 1 0.24 setcmykcolor}DC/RedOrange{0 0.77 0.87 0
setcmykcolor}DC/Mahogany{0 0.85 0.87 0.35 setcmykcolor}DC/Maroon{0 0.87
0.68 0.32 setcmykcolor}DC/BrickRed{0 0.89 0.94 0.28 setcmykcolor}DC/Red{
0 1 1 0 setcmykcolor}DC/OrangeRed{0 1 0.50 0 setcmykcolor}DC/RubineRed{
0 1 0.13 0 setcmykcolor}DC/WildStrawberry{0 0.96 0.39 0 setcmykcolor}DC
/Salmon{0 0.53 0.38 0 setcmykcolor}DC/CarnationPink{0 0.63 0 0
setcmykcolor}DC/Magenta{0 1 0 0 setcmykcolor}DC/VioletRed{0 0.81 0 0
setcmykcolor}DC/Rhodamine{0 0.82 0 0 setcmykcolor}DC/Mulberry{0.34 0.90
0 0.02 setcmykcolor}DC/RedViolet{0.07 0.90 0 0.34 setcmykcolor}DC
/Fuchsia{0.47 0.91 0 0.08 setcmykcolor}DC/Lavender{0 0.48 0 0
setcmykcolor}DC/Thistle{0.12 0.59 0 0 setcmykcolor}DC/Orchid{0.32 0.64 0
0 setcmykcolor}DC/DarkOrchid{0.40 0.80 0.20 0 setcmykcolor}DC/Purple{
0.45 0.86 0 0 setcmykcolor}DC/Plum{0.50 1 0 0 setcmykcolor}DC/Violet{
0.79 0.88 0 0 setcmykcolor}DC/RoyalPurple{0.75 0.90 0 0 setcmykcolor}DC
/BlueViolet{0.86 0.91 0 0.04 setcmykcolor}DC/Periwinkle{0.57 0.55 0 0
setcmykcolor}DC/CadetBlue{0.62 0.57 0.23 0 setcmykcolor}DC
/CornflowerBlue{0.65 0.13 0 0 setcmykcolor}DC/MidnightBlue{0.98 0.13 0
0.43 setcmykcolor}DC/NavyBlue{0.94 0.54 0 0 setcmykcolor}DC/RoyalBlue{1
0.50 0 0 setcmykcolor}DC/Blue{1 1 0 0 setcmykcolor}DC/Cerulean{0.94 0.11
0 0 setcmykcolor}DC/Cyan{1 0 0 0 setcmykcolor}DC/ProcessBlue{0.96 0 0 0
setcmykcolor}DC/SkyBlue{0.62 0 0.12 0 setcmykcolor}DC/Turquoise{0.85 0
0.20 0 setcmykcolor}DC/TealBlue{0.86 0 0.34 0.02 setcmykcolor}DC
/Aquamarine{0.82 0 0.30 0 setcmykcolor}DC/BlueGreen{0.85 0 0.33 0
setcmykcolor}DC/Emerald{1 0 0.50 0 setcmykcolor}DC/JungleGreen{0.99 0
0.52 0 setcmykcolor}DC/SeaGreen{0.69 0 0.50 0 setcmykcolor}DC/Green{1 0
1 0 setcmykcolor}DC/ForestGreen{0.91 0 0.88 0.12 setcmykcolor}DC
/PineGreen{0.92 0 0.59 0.25 setcmykcolor}DC/LimeGreen{0.50 0 1 0
setcmykcolor}DC/YellowGreen{0.44 0 0.74 0 setcmykcolor}DC/SpringGreen{
0.26 0 0.76 0 setcmykcolor}DC/OliveGreen{0.64 0 0.95 0.40 setcmykcolor}
DC/RawSienna{0 0.72 1 0.45 setcmykcolor}DC/Sepia{0 0.83 1 0.70
setcmykcolor}DC/Brown{0 0.81 1 0.60 setcmykcolor}DC/Tan{0.14 0.42 0.56 0
setcmykcolor}DC/Gray{0 0 0 0.50 setcmykcolor}DC/Black{0 0 0 1
setcmykcolor}DC/White{0 0 0 0 setcmykcolor}DC end

%%EndProcSet
TeXDict begin 156819571 221710428 1000 600 600 (job-001.dvi)
@start end
%%EndProlog
%%BeginSetup
%%Feature: *Resolution 600dpi
TeXDict begin
 end
%%EndSetup
%%Page: 1 1
TeXDict begin 1 0 bop Black Black 706 3134 a @beginspecial
0 @llx 0 @lly 403 @urx 307 @ury 4030 @rwi @setspecial
%%BeginDocument: job-001.fig2dev.ps
%!PS-Adobe-3.0 EPSF-3.0
%%Title: job-001.fig
%%Creator: fig2dev Version 3.2 Patchlevel 5e
%%CreationDate: Mon Apr  6 22:23:05 2015
%%BoundingBox: 155 2922 560 3229
%Magnification: 1.0000
%%EndComments
%%BeginProlog
/$F2psDict 200 dict def
$F2psDict begin
$F2psDict /mtrx matrix put
/col-1 {0 setgray} bind def
/col0 {0.000 0.000 0.000 srgb} bind def
/col1 {0.000 0.000 1.000 srgb} bind def
/col2 {0.000 1.000 0.000 srgb} bind def
/col3 {0.000 1.000 1.000 srgb} bind def
/col4 {1.000 0.000 0.000 srgb} bind def
/col5 {1.000 0.000 1.000 srgb} bind def
/col6 {1.000 1.000 0.000 srgb} bind def
/col7 {1.000 1.000 1.000 srgb} bind def
/col8 {0.000 0.000 0.560 srgb} bind def
/col9 {0.000 0.000 0.690 srgb} bind def
/col10 {0.000 0.000 0.820 srgb} bind def
/col11 {0.530 0.810 1.000 srgb} bind def
/col12 {0.000 0.560 0.000 srgb} bind def
/col13 {0.000 0.690 0.000 srgb} bind def
/col14 {0.000 0.820 0.000 srgb} bind def
/col15 {0.000 0.560 0.560 srgb} bind def
/col16 {0.000 0.690 0.690 srgb} bind def
/col17 {0.000 0.820 0.820 srgb} bind def
/col18 {0.560 0.000 0.000 srgb} bind def
/col19 {0.690 0.000 0.000 srgb} bind def
/col20 {0.820 0.000 0.000 srgb} bind def
/col21 {0.560 0.000 0.560 srgb} bind def
/col22 {0.690 0.000 0.690 srgb} bind def
/col23 {0.820 0.000 0.820 srgb} bind def
/col24 {0.500 0.190 0.000 srgb} bind def
/col25 {0.630 0.250 0.000 srgb} bind def
/col26 {0.750 0.380 0.000 srgb} bind def
/col27 {1.000 0.500 0.500 srgb} bind def
/col28 {1.000 0.630 0.630 srgb} bind def
/col29 {1.000 0.750 0.750 srgb} bind def
/col30 {1.000 0.880 0.880 srgb} bind def
/col31 {1.000 0.840 0.000 srgb} bind def

end

/cp {closepath} bind def
/ef {eofill} bind def
/gr {grestore} bind def
/gs {gsave} bind def
/sa {save} bind def
/rs {restore} bind def
/l {lineto} bind def
/m {moveto} bind def
/rm {rmoveto} bind def
/n {newpath} bind def
/s {stroke} bind def
/sh {show} bind def
/slc {setlinecap} bind def
/slj {setlinejoin} bind def
/slw {setlinewidth} bind def
/srgb {setrgbcolor} bind def
/rot {rotate} bind def
/sc {scale} bind def
/sd {setdash} bind def
/ff {findfont} bind def
/sf {setfont} bind def
/scf {scalefont} bind def
/sw {stringwidth} bind def
/tr {translate} bind def
/tnt {dup dup currentrgbcolor
  4 -2 roll dup 1 exch sub 3 -1 roll mul add
  4 -2 roll dup 1 exch sub 3 -1 roll mul add
  4 -2 roll dup 1 exch sub 3 -1 roll mul add srgb}
  bind def
/shd {dup dup currentrgbcolor 4 -2 roll mul 4 -2 roll mul
  4 -2 roll mul srgb} bind def
 /DrawEllipse {
	/endangle exch def
	/startangle exch def
	/yrad exch def
	/xrad exch def
	/y exch def
	/x exch def
	/savematrix mtrx currentmatrix def
	x y tr xrad yrad sc 0 0 1 startangle endangle arc
	closepath
	savematrix setmatrix
	} def

/$F2psBegin {$F2psDict begin /$F2psEnteredState save def} def
/$F2psEnd {$F2psEnteredState restore end} def

/pageheader {
save
newpath 0 307 moveto 0 0 lineto 403 0 lineto 403 307 lineto closepath clip newpath
-80.1 330.9 translate
1 -1 scale
$F2psBegin
10 setmiterlimit
0 slj 0 slc
 0.06299 0.06299 sc
} bind def
/pagefooter {
$F2psEnd
restore
} bind def
%%EndProlog
pageheader
%
% Fig objects follow
%
% 
% here starts figure with depth 50
% Polyline
0 slj
0 slc
7.500 slw
n 6525 675 m
 6075 675 l gs col0 s gr 
% Polyline
n 6525 900 m
 6075 900 l gs col0 s gr 
% Polyline
n 6525 1125 m
 6075 1125 l gs col0 s gr 
% Polyline
n 6525 1350 m
 6075 1350 l gs col0 s gr 
% Polyline
n 6525 1575 m
 6075 1575 l gs col0 s gr 
% Polyline
n 6525 1800 m
 6075 1800 l gs col0 s gr 
% Polyline
n 6525 2025 m
 6075 2025 l gs col0 s gr 
% Polyline
n 6525 2250 m
 6075 2250 l gs col0 s gr 
% Polyline
n 6525 2475 m
 6075 2475 l gs col0 s gr 
% Polyline
n 6525 2700 m
 6075 2700 l gs col0 s gr 
% Polyline
n 6525 2925 m
 6075 2925 l gs col0 s gr 
% Polyline
n 6525 3150 m
 6075 3150 l gs col0 s gr 
% Polyline
n 6525 3375 m
 6075 3375 l gs col0 s gr 
% Polyline
n 6525 3600 m
 6075 3600 l gs col0 s gr 
% Polyline
n 6525 3825 m
 6075 3825 l gs col0 s gr 
% Polyline
n 6525 4050 m
 6075 4050 l gs col0 s gr 
% Polyline
n 6525 4275 m
 6075 4275 l gs col0 s gr 
% Polyline
n 6525 4500 m
 6075 4500 l gs col0 s gr 
% Polyline
n 6525 4725 m
 6075 4725 l gs col0 s gr 
% Polyline
n 6525 4950 m
 6075 4950 l gs col0 s gr 
% Polyline
n 6525 450 m 7650 450 l 7650 5220 l 6525 5220 l
 cp gs col0 s gr 
% Polyline
n 1395 4140 m
 1395 4275 l gs col0 s gr 
% Polyline
n 1395 4590 m
 1395 4725 l gs col0 s gr 
% Polyline
n 1980 4590 m 1980 4725 l
 1395 4725 l gs col0 s gr 
% Polyline
n 1980 4275 m 1980 4140 l
 1395 4140 l gs col0 s gr 
% Polyline
n 6075 900 m
 5265 900 l gs col0 s gr 
% Polyline
n 6075 675 m
 5445 675 l gs col0 s gr 
% Polyline
n 4770 2520 m 4860 2520 l 4860 2025 l
 6075 2025 l gs col0 s gr 
% Polyline
n 6075 2250 m 4950 2250 l 4950 2655 l
 4770 2655 l gs col0 s gr 
% Polyline
n 6075 2475 m 5040 2475 l 5040 2790 l
 4770 2790 l gs col0 s gr 
% Polyline
n 6075 2700 m 5130 2700 l 5130 2925 l
 4770 2925 l gs col0 s gr 
% Polyline
n 6075 2925 m 5220 2925 l 5220 3060 l
 4770 3060 l gs col0 s gr 
% Polyline
n 6075 3150 m 5130 3150 l 4860 3150 l 4860 3195 l
 4770 3195 l gs col0 s gr 
% Polyline
n 6075 1575 m 5085 1575 l
 5085 450 l gs col0 s gr 
% Polyline
n 3195 3735 m
 3195 4275 l gs col0 s gr 
% Polyline
n 3195 4275 m 3195 4725 l
 3420 4725 l gs col0 s gr 
% Polyline
n 6075 4950 m
 5805 4950 l gs col0 s gr 
% Polyline
n 2880 2655 m
 2430 2655 l gs col0 s gr 
% Polyline
n 2475 2655 m 2475 1350 l
 6075 1350 l gs col0 s gr 
% Polyline
n 6075 3375 m 5760 3375 l 5760 3330 l 5220 3330 l
 4770 3330 l gs col0 s gr 
% Polyline
n 6075 4050 m 5400 4050 l 5400 5040 l 2700 5040 l 2700 3375 l
 2430 3375 l gs col0 s gr 
% Polyline
n 2880 2655 m 3285 2655 l 3285 2700 l
 3690 2700 l gs col0 s gr 
% Polyline
n 3690 3780 m
 3195 3780 l gs col0 s gr 
% Polyline
n 6075 3600 m 5625 3600 l 5625 3465 l
 4770 3465 l gs col0 s gr 
% Polyline
n 2700 2025 m 2700 2115 l
 2790 2115 l gs col0 s gr 
% Polyline
n 3240 2115 m
 3690 2115 l gs col0 s gr 
% Polyline
n 3690 2520 m 3375 2520 l
 3375 2115 l gs col0 s gr 
% Polyline
n 3420 4275 m
 3195 4275 l gs col0 s gr 
% Polyline
n 3870 4275 m
 6075 4275 l gs col0 s gr 
% Polyline
n 3690 2250 m
 2430 2250 l gs col0 s gr 
% Polyline
n 5490 675 m 5445 675 l 5445 450 l
 2430 450 l gs col0 s gr 
% Polyline
n 5265 900 m
 2430 900 l gs col0 s gr 
% Polyline
n 6075 1800 m 4860 1800 l 4860 1575 l
 2430 1575 l gs col0 s gr 
% Polyline
n 5625 4500 m 5490 4500 l 5490 4950 l
 5805 4950 l gs col0 s gr 
% Polyline
n 6075 1125 m
 5535 1125 l gs col0 s gr 
% Polyline
n 2430 1125 m 5265 1125 l 5265 990 l
 5535 990 l gs col0 s gr 
% Polyline
n 5850 4365 m 5850 1260 l
 5535 1260 l gs col0 s gr 
% Polyline
n 5535 1125 m
 5535 1305 l gs col0 s gr 
% Polyline
n 3870 4725 m
 6075 4725 l gs col0 s gr 
% Polyline
n 6075 3825 m 5175 3825 l 5175 4905 l 2880 4905 l 2880 3015 l
 2430 3015 l gs col0 s gr 
/Times-Roman ff 150.00 scf sf
6300 630 m
gs 1 -1 sc (1) col0 sh gr
/Times-Roman ff 150.00 scf sf
6300 855 m
gs 1 -1 sc (2) col0 sh gr
/Times-Roman ff 150.00 scf sf
6300 1080 m
gs 1 -1 sc (3) col0 sh gr
/Times-Roman ff 150.00 scf sf
6300 1305 m
gs 1 -1 sc (4) col0 sh gr
/Times-Roman ff 150.00 scf sf
6300 1530 m
gs 1 -1 sc (5) col0 sh gr
/Times-Roman ff 150.00 scf sf
6300 1755 m
gs 1 -1 sc (6) col0 sh gr
/Times-Roman ff 150.00 scf sf
6300 1980 m
gs 1 -1 sc (7) col0 sh gr
/Times-Roman ff 150.00 scf sf
6300 2205 m
gs 1 -1 sc (8) col0 sh gr
/Times-Roman ff 150.00 scf sf
6300 2430 m
gs 1 -1 sc (9) col0 sh gr
/Times-Roman ff 150.00 scf sf
6300 2655 m
gs 1 -1 sc (10) col0 sh gr
/Times-Roman ff 150.00 scf sf
6300 2880 m
gs 1 -1 sc (11) col0 sh gr
/Times-Roman ff 150.00 scf sf
6300 3105 m
gs 1 -1 sc (12) col0 sh gr
/Times-Roman ff 150.00 scf sf
6300 3330 m
gs 1 -1 sc (13) col0 sh gr
/Times-Roman ff 150.00 scf sf
6300 3555 m
gs 1 -1 sc (14) col0 sh gr
/Times-Roman ff 150.00 scf sf
6300 3780 m
gs 1 -1 sc (15) col0 sh gr
/Times-Roman ff 150.00 scf sf
6300 4005 m
gs 1 -1 sc (16) col0 sh gr
/Times-Roman ff 150.00 scf sf
6300 4230 m
gs 1 -1 sc (17) col0 sh gr
/Times-Roman ff 150.00 scf sf
6300 4455 m
gs 1 -1 sc (18) col0 sh gr
/Times-Roman ff 150.00 scf sf
6300 4680 m
gs 1 -1 sc (19) col0 sh gr
/Times-Roman ff 150.00 scf sf
6300 4905 m
gs 1 -1 sc (20) col0 sh gr
/Times-Roman ff 180.00 scf sf
6615 765 m
gs 1 -1 sc (VSS) col0 sh gr
/Times-Roman ff 180.00 scf sf
6615 990 m
gs 1 -1 sc (VDD) col0 sh gr
/Times-Roman ff 180.00 scf sf
6615 1215 m
gs 1 -1 sc (VO) col0 sh gr
/Times-Roman ff 180.00 scf sf
6615 1440 m
gs 1 -1 sc (RS) col0 sh gr
/Times-Roman ff 180.00 scf sf
6615 1665 m
gs 1 -1 sc (R/W) col0 sh gr
/Times-Roman ff 180.00 scf sf
6615 1890 m
gs 1 -1 sc (E) col0 sh gr
/Times-Roman ff 180.00 scf sf
6615 2115 m
gs 1 -1 sc (DB0) col0 sh gr
/Times-Roman ff 180.00 scf sf
6615 2295 m
gs 1 -1 sc (DB1) col0 sh gr
/Times-Roman ff 180.00 scf sf
6615 2520 m
gs 1 -1 sc (DB2) col0 sh gr
/Times-Roman ff 180.00 scf sf
6615 2790 m
gs 1 -1 sc (DB3) col0 sh gr
/Times-Roman ff 180.00 scf sf
6615 3015 m
gs 1 -1 sc (DB4) col0 sh gr
/Times-Roman ff 180.00 scf sf
6615 3240 m
gs 1 -1 sc (DB5) col0 sh gr
/Times-Roman ff 180.00 scf sf
6615 3465 m
gs 1 -1 sc (DB6) col0 sh gr
/Times-Roman ff 180.00 scf sf
6615 3690 m
gs 1 -1 sc (DB7) col0 sh gr
/Times-Roman ff 180.00 scf sf
6615 3915 m
gs 1 -1 sc (CS1) col0 sh gr
/Times-Roman ff 180.00 scf sf
6615 4140 m
gs 1 -1 sc (CS2) col0 sh gr
/Times-Roman ff 180.00 scf sf
6615 4365 m
gs 1 -1 sc (/RST) col0 sh gr
/Times-Roman ff 180.00 scf sf
6615 4590 m
gs 1 -1 sc (VOUT) col0 sh gr
/Times-Roman ff 180.00 scf sf
6615 4815 m
gs 1 -1 sc (BLA) col0 sh gr
/Times-Roman ff 180.00 scf sf
6615 5040 m
gs 1 -1 sc (BLK) col0 sh gr
/Times-Roman ff 240.00 scf sf
7560 2745 m
gs 1 -1 sc  90.0 rot (LM12864 \(ST7108\)) dup sw pop 2 div neg 0 rm  col0 sh gr
/Times-Roman ff 150.00 scf sf
1485 4635 m
gs 1 -1 sc (100nF) col0 sh gr
/Times-Roman ff 150.00 scf sf
2070 4635 m
gs 1 -1 sc (100nF) col0 sh gr
/Times-Roman ff 150.00 scf sf
5850 4680 m
gs 1 -1 sc (25k) dup sw pop 2 div neg 0 rm  col0 sh gr
/Times-Roman ff 150.00 scf sf
3645 4455 m
gs 1 -1 sc (10k) dup sw pop 2 div neg 0 rm  col0 sh gr
/Times-Roman ff 150.00 scf sf
3015 2025 m
gs 1 -1 sc (10k) dup sw pop 2 div neg 0 rm  col0 sh gr
/Times-Roman ff 180.00 scf sf
2025 2745 m
gs 1 -1 sc (PB2) dup sw pop neg 0 rm  col0 sh gr
/Times-Roman ff 180.00 scf sf
2025 1665 m
gs 1 -1 sc (PB3) dup sw pop neg 0 rm  col0 sh gr
/Times-Roman ff 180.00 scf sf
2025 945 m
gs 1 -1 sc (VCC) dup sw pop neg 0 rm  col0 sh gr
/Times-Roman ff 180.00 scf sf
2025 1215 m
gs 1 -1 sc (VEE) dup sw pop neg 0 rm  col0 sh gr
/Times-Roman ff 180.00 scf sf
2025 540 m
gs 1 -1 sc (GND) dup sw pop neg 0 rm  col0 sh gr
/Times-Roman ff 180.00 scf sf
1440 2115 m
gs 1 -1 sc  90.0 rot (from ATmega ports) dup sw pop 2 div neg 0 rm  col0 sh gr
/Times-Roman ff 180.00 scf sf
2025 2340 m
gs 1 -1 sc (PB6) dup sw pop neg 0 rm  col0 sh gr
/Times-Roman ff 180.00 scf sf
2025 3465 m
gs 1 -1 sc (PB5) dup sw pop neg 0 rm  col0 sh gr
/Times-Roman ff 180.00 scf sf
2025 3105 m
gs 1 -1 sc (PB7) dup sw pop neg 0 rm  col0 sh gr
% here ends figure;
% 
% here starts figure with depth 20
% Polyline
0 slj
0 slc
7.500 slw
n 4200 2055 m
 3997 2055 l gs col0 s gr 
/Helvetica ff 90.00 scf sf
3993 2152 m
gs 1 -1 sc (CLR) col0 sh gr
/Helvetica ff 90.00 scf sf
4090 2284 m
gs 1 -1 sc (CLK) col0 sh gr
/Helvetica ff 90.00 scf sf
4338 2549 m
gs 1 -1 sc (QA) col0 sh gr
/Helvetica ff 90.00 scf sf
4342 2684 m
gs 1 -1 sc (QB) col0 sh gr
/Helvetica ff 90.00 scf sf
4343 2822 m
gs 1 -1 sc (QC) col0 sh gr
/Helvetica ff 90.00 scf sf
4346 3092 m
gs 1 -1 sc (QE) col0 sh gr
/Helvetica ff 90.00 scf sf
4343 2950 m
gs 1 -1 sc (QD) col0 sh gr
/Helvetica ff 90.00 scf sf
4346 3228 m
gs 1 -1 sc (QF) col0 sh gr
/Helvetica ff 90.00 scf sf
4343 3355 m
gs 1 -1 sc (QG) col0 sh gr
/Helvetica ff 90.00 scf sf
4342 3494 m
gs 1 -1 sc (QH) col0 sh gr
/Helvetica ff 90.00 scf sf
4005 2549 m
gs 1 -1 sc (A) col0 sh gr
/Helvetica ff 90.00 scf sf
4005 2706 m
gs 1 -1 sc (B) col0 sh gr
/Helvetica ff 120.00 scf sf
4095 1845 m
gs 1 -1 sc (74164) col0 sh gr
% here ends figure;
% 
% here starts figure with depth 10
% Polyline
0 slj
0 slc
7.500 slw
n 4770 3780 m
 4500 3780 l gs col0 s gr 
/Helvetica ff 90.00 scf sf
4665 3748 m
gs 1 -1 sc (7) col0 sh gr
/Helvetica ff 90.00 scf sf
4275 3780 m
gs 1 -1 sc (GND) col0 sh gr
% here ends figure;
% 
% here starts figure with depth 7
% Polyline
0 slj
0 slc
7.500 slw
n 3690 3780 m
 3960 3780 l gs col0 s gr 
/Helvetica ff 90.00 scf sf
3772 3734 m
gs 1 -1 sc (14) col0 sh gr
/Helvetica ff 90.00 scf sf
4005 3780 m
gs 1 -1 sc (VCC) col0 sh gr
% here ends figure;
% 
% here starts figure with depth 0
% Polyline
0 slj
0 slc
7.500 slw
n 3510 4725 m
 3420 4725 l gs col0 s gr 
% Polyline
n 3780 4680 m 3780 4770 l 3510 4770 l 3510 4680 l
 cp gs col0 s gr 
% Polyline
n 3870 4725 m
 3780 4725 l gs col0 s gr 
% Polyline
1 slc
30.000 slw
n 5715 5220 m
 5895 5220 l gs col0 s gr 
% Polyline
0 slc
7.500 slw
n 5805 4950 m
 5805 5220 l gs col0 s gr 
% Ellipse
n 3195 4275 20 20 0 360 DrawEllipse gs 0.00 setgray ef gr gs col0 s gr

% Ellipse
n 2475 2655 20 20 0 360 DrawEllipse gs 0.00 setgray ef gr gs col0 s gr

% Polyline
1 slc
30.000 slw
n 4680 4050 m
 4860 4050 l gs col0 s gr 
% Polyline
0 slc
7.500 slw
n 4770 3780 m
 4770 4050 l gs col0 s gr 
% Polyline
gs  clippath
3217 3526 m 3217 3405 l 3172 3405 l 3172 3526 l 3172 3526 l 3195 3436 l 3217 3526 l cp
eoclip
n 3195 3735 m
 3195 3420 l gs col0 s gr gr

% arrowhead
n 3217 3526 m 3195 3436 l 3172 3526 l 3217 3526 l  cp gs 0.00 setgray ef gr  col0 s
% Ellipse
n 3915 2115 45 45 0 360 DrawEllipse gs col0 s gr

% Polyline
n 3690 2520 m
 3960 2520 l gs col0 s gr 
% Polyline
n 3690 2700 m
 3960 2700 l gs col0 s gr 
% Polyline
n 4770 2520 m
 4500 2520 l gs col0 s gr 
% Polyline
n 4770 2655 m
 4500 2655 l gs col0 s gr 
% Polyline
n 4770 2790 m
 4500 2790 l gs col0 s gr 
% Polyline
n 4770 2925 m
 4500 2925 l gs col0 s gr 
% Polyline
n 4770 3060 m
 4500 3060 l gs col0 s gr 
% Polyline
n 4770 3195 m
 4500 3195 l gs col0 s gr 
% Polyline
n 4770 3330 m
 4500 3330 l gs col0 s gr 
% Polyline
n 4770 3465 m
 4500 3465 l gs col0 s gr 
% Polyline
n 4500 3600 m 4500 1935 l 3960 1935 l 3960 3600 l
 4500 3600 l  cp gs col0 s gr 
% Polyline
n 3690 2115 m
 3870 2115 l gs col0 s gr 
% Polyline
n 3690 2250 m
 3960 2250 l gs col0 s gr 
% Polyline
n 4073 2248 m
 3964 2212 l gs col0 s gr 
% Polyline
n 3964 2284 m
 4073 2248 l gs col0 s gr 
% Ellipse
n 3195 3780 20 20 0 360 DrawEllipse gs 0.00 setgray ef gr gs col0 s gr

% Polyline
n 2880 2115 m
 2790 2115 l gs col0 s gr 
% Polyline
n 3150 2070 m 3150 2160 l 2880 2160 l 2880 2070 l
 cp gs col0 s gr 
% Polyline
n 3240 2115 m
 3150 2115 l gs col0 s gr 
% Polyline
n 3510 4275 m
 3420 4275 l gs col0 s gr 
% Polyline
n 3780 4230 m 3780 4320 l 3510 4320 l 3510 4230 l
 cp gs col0 s gr 
% Polyline
n 3870 4275 m
 3780 4275 l gs col0 s gr 
% Ellipse
n 3375 2115 20 20 0 360 DrawEllipse gs 0.00 setgray ef gr gs col0 s gr

% Polyline
gs  clippath
2722 1816 m 2722 1695 l 2677 1695 l 2677 1816 l 2677 1816 l 2700 1726 l 2722 1816 l cp
eoclip
n 2700 2025 m
 2700 1710 l gs col0 s gr gr

% arrowhead
n 2722 1816 m 2700 1726 l 2677 1816 l 2722 1816 l  cp gs 0.00 setgray ef gr  col0 s
% Polyline
gs  clippath
2857 691 m 2857 570 l 2812 570 l 2812 691 l 2812 691 l 2835 601 l 2857 691 l cp
eoclip
n 2835 900 m
 2835 585 l gs col0 s gr gr

% arrowhead
n 2857 691 m 2835 601 l 2812 691 l 2857 691 l  cp gs 0.00 setgray ef gr  col0 s
% Polyline
1 slc
30.000 slw
n 4140 720 m
 4320 720 l gs col0 s gr 
% Polyline
0 slc
7.500 slw
n 4230 450 m
 4230 720 l gs col0 s gr 
% Ellipse
n 4230 450 20 20 0 360 DrawEllipse gs 0.00 setgray ef gr gs col0 s gr

% Ellipse
n 2835 900 20 20 0 360 DrawEllipse gs 0.00 setgray ef gr gs col0 s gr

% Ellipse
n 5805 4950 20 20 0 360 DrawEllipse gs 0.00 setgray ef gr gs col0 s gr

% Ellipse
n 5535 990 30 30 0 360 DrawEllipse gs 0.00 setgray ef gr gs col0 s gr

% Ellipse
n 5535 1260 30 30 0 360 DrawEllipse gs 0.00 setgray ef gr gs col0 s gr

% Ellipse
n 5535 1125 30 30 0 360 DrawEllipse gs 0.00 setgray ef gr gs col0 s gr

% Polyline
n 5850 4445 m 5885 4375 l 5815 4375 l
 5850 4445 l  cp gs 0.00 setgray ef gr gs col0 s gr 
% Polyline
n 5850 4320 m
 5850 4410 l gs col0 s gr 
% Polyline
n 5985 4455 m 5985 4545 l 5715 4545 l 5715 4455 l
 cp gs col0 s gr 
% Polyline
n 6075 4500 m
 5985 4500 l gs col0 s gr 
% Polyline
n 5715 4500 m
 5625 4500 l gs col0 s gr 
% Polyline
gs  clippath
1417 3931 m 1417 3810 l 1372 3810 l 1372 3931 l 1372 3931 l 1395 3841 l 1417 3931 l cp
eoclip
n 1395 4140 m
 1395 3825 l gs col0 s gr gr

% arrowhead
n 1417 3931 m 1395 3841 l 1372 3931 l 1417 3931 l  cp gs 0.00 setgray ef gr  col0 s
% Polyline
1 slc
30.000 slw
n 1305 4995 m
 1485 4995 l gs col0 s gr 
% Polyline
0 slc
7.500 slw
n 1395 4725 m
 1395 4995 l gs col0 s gr 
% Polyline
n 1395 4410 m
 1395 4275 l gs col0 s gr 
% Polyline
n 1395 4455 m
 1395 4590 l gs col0 s gr 
% Polyline
n 1305 4410 m
 1485 4410 l gs col0 s gr 
% Polyline
n 1305 4455 m
 1485 4455 l gs col0 s gr 
% Polyline
n 1980 4410 m
 1980 4275 l gs col0 s gr 
% Polyline
n 1980 4455 m
 1980 4590 l gs col0 s gr 
% Polyline
n 1890 4410 m
 2070 4410 l gs col0 s gr 
% Polyline
n 1890 4455 m
 2070 4455 l gs col0 s gr 
% Ellipse
n 1395 4140 20 20 0 360 DrawEllipse gs 0.00 setgray ef gr gs col0 s gr

% Ellipse
n 1395 4725 20 20 0 360 DrawEllipse gs 0.00 setgray ef gr gs col0 s gr

% Polyline
n 2115 3330 m 2160 3375 l
 2115 3420 l gs col0 s gr 
% Polyline
n 2160 3375 m
 2430 3375 l gs col0 s gr 
% Polyline
n 2115 405 m 2160 450 l
 2115 495 l gs col0 s gr 
% Polyline
n 2160 450 m
 2430 450 l gs col0 s gr 
% Polyline
n 2115 2970 m 2160 3015 l
 2115 3060 l gs col0 s gr 
% Polyline
n 2160 3015 m
 2430 3015 l gs col0 s gr 
% Polyline
n 2115 2610 m 2160 2655 l
 2115 2700 l gs col0 s gr 
% Polyline
n 2160 2655 m
 2430 2655 l gs col0 s gr 
% Polyline
n 2115 2205 m 2160 2250 l
 2115 2295 l gs col0 s gr 
% Polyline
n 2160 2250 m
 2430 2250 l gs col0 s gr 
% Polyline
n 2115 1530 m 2160 1575 l
 2115 1620 l gs col0 s gr 
% Polyline
n 2160 1575 m
 2430 1575 l gs col0 s gr 
% Polyline
n 2115 1080 m 2160 1125 l
 2115 1170 l gs col0 s gr 
% Polyline
n 2160 1125 m
 2430 1125 l gs col0 s gr 
% Polyline
n 2115 855 m 2160 900 l
 2115 945 l gs col0 s gr 
% Polyline
n 2160 900 m
 2430 900 l gs col0 s gr 
% Ellipse
n 5085 450 20 20 0 360 DrawEllipse gs 0.00 setgray ef gr gs col0 s gr

/Helvetica ff 90.00 scf sf
3240 3555 m
gs 1 -1 sc (VCC) col0 sh gr
/Helvetica ff 90.00 scf sf
3780 2222 m
gs 1 -1 sc (8) col0 sh gr
/Helvetica ff 90.00 scf sf
3779 2076 m
gs 1 -1 sc (9) col0 sh gr
/Helvetica ff 90.00 scf sf
3784 2481 m
gs 1 -1 sc (1) col0 sh gr
/Helvetica ff 90.00 scf sf
3792 2665 m
gs 1 -1 sc (2) col0 sh gr
/Helvetica ff 90.00 scf sf
4650 2473 m
gs 1 -1 sc (3) col0 sh gr
/Helvetica ff 90.00 scf sf
4650 2616 m
gs 1 -1 sc (4) col0 sh gr
/Helvetica ff 90.00 scf sf
4650 2762 m
gs 1 -1 sc (5) col0 sh gr
/Helvetica ff 90.00 scf sf
4650 2897 m
gs 1 -1 sc (6) col0 sh gr
/Helvetica ff 90.00 scf sf
4628 3036 m
gs 1 -1 sc (10) col0 sh gr
/Helvetica ff 90.00 scf sf
4632 3168 m
gs 1 -1 sc (11) col0 sh gr
/Helvetica ff 90.00 scf sf
4635 3302 m
gs 1 -1 sc (12) col0 sh gr
/Helvetica ff 90.00 scf sf
4635 3437 m
gs 1 -1 sc (13) col0 sh gr
/Helvetica ff 90.00 scf sf
2745 1845 m
gs 1 -1 sc (VCC) col0 sh gr
/Helvetica ff 90.00 scf sf
2880 720 m
gs 1 -1 sc (VCC) col0 sh gr
/Helvetica ff 90.00 scf sf
1440 3960 m
gs 1 -1 sc (VCC) col0 sh gr
% here ends figure;
pagefooter
showpage
%%Trailer
%EOF

%%EndDocument
 @endspecial Black Black eop end
%%Trailer

userdict /end-hook known{end-hook}if
%%EOF
