%!PS-Adobe-2.0
%%Creator: dvips(k) 5.993 Copyright 2013 Radical Eye Software
%%Title: job-001.dvi
%%CreationDate: Mon Apr  6 22:23:03 2015
%%Pages: 1
%%PageOrder: Ascend
%%BoundingBox: 162 2861 697 3229
%%EndComments
%DVIPSWebPage: (www.radicaleye.com)
%DVIPSCommandLine: dvips job-001.dvi -o job-001.dvips.ps
%DVIPSParameters: dpi=600
%DVIPSSource:  TeX output 2015.04.06:2223
%%BeginProcSet: tex.pro 0 0
%!
/TeXDict 300 dict def TeXDict begin/N{def}def/B{bind def}N/S{exch}N/X{S
N}B/A{dup}B/TR{translate}N/isls false N/vsize 11 72 mul N/hsize 8.5 72
mul N/landplus90{false}def/@rigin{isls{[0 landplus90{1 -1}{-1 1}ifelse 0
0 0]concat}if 72 Resolution div 72 VResolution div neg scale isls{
landplus90{VResolution 72 div vsize mul 0 exch}{Resolution -72 div hsize
mul 0}ifelse TR}if Resolution VResolution vsize -72 div 1 add mul TR[
matrix currentmatrix{A A round sub abs 0.00001 lt{round}if}forall round
exch round exch]setmatrix}N/@landscape{/isls true N}B/@manualfeed{
statusdict/manualfeed true put}B/@copies{/#copies X}B/FMat[1 0 0 -1 0 0]
N/FBB[0 0 0 0]N/nn 0 N/IEn 0 N/ctr 0 N/df-tail{/nn 8 dict N nn begin
/FontType 3 N/FontMatrix fntrx N/FontBBox FBB N string/base X array
/BitMaps X/BuildChar{CharBuilder}N/Encoding IEn N end A{/foo setfont}2
array copy cvx N load 0 nn put/ctr 0 N[}B/sf 0 N/df{/sf 1 N/fntrx FMat N
df-tail}B/dfs{div/sf X/fntrx[sf 0 0 sf neg 0 0]N df-tail}B/E{pop nn A
definefont setfont}B/Cw{Cd A length 5 sub get}B/Ch{Cd A length 4 sub get
}B/Cx{128 Cd A length 3 sub get sub}B/Cy{Cd A length 2 sub get 127 sub}
B/Cdx{Cd A length 1 sub get}B/Ci{Cd A type/stringtype ne{ctr get/ctr ctr
1 add N}if}B/CharBuilder{save 3 1 roll S A/base get 2 index get S
/BitMaps get S get/Cd X pop/ctr 0 N Cdx 0 Cx Cy Ch sub Cx Cw add Cy
setcachedevice Cw Ch true[1 0 0 -1 -.1 Cx sub Cy .1 sub]{Ci}imagemask
restore}B/D{/cc X A type/stringtype ne{]}if nn/base get cc ctr put nn
/BitMaps get S ctr S sf 1 ne{A A length 1 sub A 2 index S get sf div put
}if put/ctr ctr 1 add N}B/I{cc 1 add D}B/bop{userdict/bop-hook known{
bop-hook}if/SI save N @rigin 0 0 moveto/V matrix currentmatrix A 1 get A
mul exch 0 get A mul add .99 lt{/QV}{/RV}ifelse load def pop pop}N/eop{
SI restore userdict/eop-hook known{eop-hook}if showpage}N/@start{
userdict/start-hook known{start-hook}if pop/VResolution X/Resolution X
1000 div/DVImag X/IEn 256 array N 2 string 0 1 255{IEn S A 360 add 36 4
index cvrs cvn put}for pop 65781.76 div/vsize X 65781.76 div/hsize X}N
/dir 0 def/dyy{/dir 0 def}B/dyt{/dir 1 def}B/dty{/dir 2 def}B/dtt{/dir 3
def}B/p{dir 2 eq{-90 rotate show 90 rotate}{dir 3 eq{-90 rotate show 90
rotate}{show}ifelse}ifelse}N/RMat[1 0 0 -1 0 0]N/BDot 260 string N/Rx 0
N/Ry 0 N/V{}B/RV/v{/Ry X/Rx X V}B statusdict begin/product where{pop
false[(Display)(NeXT)(LaserWriter 16/600)]{A length product length le{A
length product exch 0 exch getinterval eq{pop true exit}if}{pop}ifelse}
forall}{false}ifelse end{{gsave TR -.1 .1 TR 1 1 scale Rx Ry false RMat{
BDot}imagemask grestore}}{{gsave TR -.1 .1 TR Rx Ry scale 1 1 false RMat
{BDot}imagemask grestore}}ifelse B/QV{gsave newpath transform round exch
round exch itransform moveto Rx 0 rlineto 0 Ry neg rlineto Rx neg 0
rlineto fill grestore}B/a{moveto}B/delta 0 N/tail{A/delta X 0 rmoveto}B
/M{S p delta add tail}B/b{S p tail}B/c{-4 M}B/d{-3 M}B/e{-2 M}B/f{-1 M}
B/g{0 M}B/h{1 M}B/i{2 M}B/j{3 M}B/k{4 M}B/w{0 rmoveto}B/l{p -4 w}B/m{p
-3 w}B/n{p -2 w}B/o{p -1 w}B/q{p 1 w}B/r{p 2 w}B/s{p 3 w}B/t{p 4 w}B/x{
0 S rmoveto}B/y{3 2 roll p a}B/bos{/SS save N}B/eos{SS restore}B end

%%EndProcSet
%%BeginProcSet: special.pro 0 0
%!
TeXDict begin/SDict 200 dict N SDict begin/@SpecialDefaults{/hs 612 N
/vs 792 N/ho 0 N/vo 0 N/hsc 1 N/vsc 1 N/ang 0 N/CLIP 0 N/rwiSeen false N
/rhiSeen false N/letter{}N/note{}N/a4{}N/legal{}N}B/@scaleunit 100 N
/@hscale{@scaleunit div/hsc X}B/@vscale{@scaleunit div/vsc X}B/@hsize{
/hs X/CLIP 1 N}B/@vsize{/vs X/CLIP 1 N}B/@clip{/CLIP 2 N}B/@hoffset{/ho
X}B/@voffset{/vo X}B/@angle{/ang X}B/@rwi{10 div/rwi X/rwiSeen true N}B
/@rhi{10 div/rhi X/rhiSeen true N}B/@llx{/llx X}B/@lly{/lly X}B/@urx{
/urx X}B/@ury{/ury X}B/magscale true def end/@MacSetUp{userdict/md known
{userdict/md get type/dicttype eq{userdict begin md length 10 add md
maxlength ge{/md md dup length 20 add dict copy def}if end md begin
/letter{}N/note{}N/legal{}N/od{txpose 1 0 mtx defaultmatrix dtransform S
atan/pa X newpath clippath mark{transform{itransform moveto}}{transform{
itransform lineto}}{6 -2 roll transform 6 -2 roll transform 6 -2 roll
transform{itransform 6 2 roll itransform 6 2 roll itransform 6 2 roll
curveto}}{{closepath}}pathforall newpath counttomark array astore/gc xdf
pop ct 39 0 put 10 fz 0 fs 2 F/|______Courier fnt invertflag{PaintBlack}
if}N/txpose{pxs pys scale ppr aload pop por{noflips{pop S neg S TR pop 1
-1 scale}if xflip yflip and{pop S neg S TR 180 rotate 1 -1 scale ppr 3
get ppr 1 get neg sub neg ppr 2 get ppr 0 get neg sub neg TR}if xflip
yflip not and{pop S neg S TR pop 180 rotate ppr 3 get ppr 1 get neg sub
neg 0 TR}if yflip xflip not and{ppr 1 get neg ppr 0 get neg TR}if}{
noflips{TR pop pop 270 rotate 1 -1 scale}if xflip yflip and{TR pop pop
90 rotate 1 -1 scale ppr 3 get ppr 1 get neg sub neg ppr 2 get ppr 0 get
neg sub neg TR}if xflip yflip not and{TR pop pop 90 rotate ppr 3 get ppr
1 get neg sub neg 0 TR}if yflip xflip not and{TR pop pop 270 rotate ppr
2 get ppr 0 get neg sub neg 0 S TR}if}ifelse scaleby96{ppr aload pop 4
-1 roll add 2 div 3 1 roll add 2 div 2 copy TR .96 dup scale neg S neg S
TR}if}N/cp{pop pop showpage pm restore}N end}if}if}N/normalscale{
Resolution 72 div VResolution 72 div neg scale magscale{DVImag dup scale
}if 0 setgray}N/psfts{S 65781.76 div N}N/startTexFig{/psf$SavedState
save N userdict maxlength dict begin/magscale true def normalscale
currentpoint TR/psf$ury psfts/psf$urx psfts/psf$lly psfts/psf$llx psfts
/psf$y psfts/psf$x psfts currentpoint/psf$cy X/psf$cx X/psf$sx psf$x
psf$urx psf$llx sub div N/psf$sy psf$y psf$ury psf$lly sub div N psf$sx
psf$sy scale psf$cx psf$sx div psf$llx sub psf$cy psf$sy div psf$ury sub
TR/showpage{}N/erasepage{}N/setpagedevice{pop}N/copypage{}N/p 3 def
@MacSetUp}N/doclip{psf$llx psf$lly psf$urx psf$ury currentpoint 6 2 roll
newpath 4 copy 4 2 roll moveto 6 -1 roll S lineto S lineto S lineto
closepath clip newpath moveto}N/endTexFig{end psf$SavedState restore}N
/@beginspecial{SDict begin/SpecialSave save N gsave normalscale
currentpoint TR @SpecialDefaults count/ocount X/dcount countdictstack N}
N/@setspecial{CLIP 1 eq{newpath 0 0 moveto hs 0 rlineto 0 vs rlineto hs
neg 0 rlineto closepath clip}if ho vo TR hsc vsc scale ang rotate
rwiSeen{rwi urx llx sub div rhiSeen{rhi ury lly sub div}{dup}ifelse
scale llx neg lly neg TR}{rhiSeen{rhi ury lly sub div dup scale llx neg
lly neg TR}if}ifelse CLIP 2 eq{newpath llx lly moveto urx lly lineto urx
ury lineto llx ury lineto closepath clip}if/showpage{}N/erasepage{}N
/setpagedevice{pop}N/copypage{}N newpath}N/@endspecial{count ocount sub{
pop}repeat countdictstack dcount sub{end}repeat grestore SpecialSave
restore end}N/@defspecial{SDict begin}N/@fedspecial{end}B/li{lineto}B
/rl{rlineto}B/rc{rcurveto}B/np{/SaveX currentpoint/SaveY X N 1
setlinecap newpath}N/st{stroke SaveX SaveY moveto}N/fil{fill SaveX SaveY
moveto}N/ellipse{/endangle X/startangle X/yrad X/xrad X/savematrix
matrix currentmatrix N TR xrad yrad scale 0 0 1 startangle endangle arc
savematrix setmatrix}N end

%%EndProcSet
%%BeginProcSet: color.pro 0 0
%!
TeXDict begin/setcmykcolor where{pop}{/setcmykcolor{dup 10 eq{pop
setrgbcolor}{1 sub 4 1 roll 3{3 index add neg dup 0 lt{pop 0}if 3 1 roll
}repeat setrgbcolor pop}ifelse}B}ifelse/TeXcolorcmyk{setcmykcolor}def
/TeXcolorrgb{setrgbcolor}def/TeXcolorgrey{setgray}def/TeXcolorgray{
setgray}def/TeXcolorhsb{sethsbcolor}def/currentcmykcolor where{pop}{
/currentcmykcolor{currentrgbcolor 10}B}ifelse/DC{exch dup userdict exch
known{pop pop}{X}ifelse}B/GreenYellow{0.15 0 0.69 0 setcmykcolor}DC
/Yellow{0 0 1 0 setcmykcolor}DC/Goldenrod{0 0.10 0.84 0 setcmykcolor}DC
/Dandelion{0 0.29 0.84 0 setcmykcolor}DC/Apricot{0 0.32 0.52 0
setcmykcolor}DC/Peach{0 0.50 0.70 0 setcmykcolor}DC/Melon{0 0.46 0.50 0
setcmykcolor}DC/YellowOrange{0 0.42 1 0 setcmykcolor}DC/Orange{0 0.61
0.87 0 setcmykcolor}DC/BurntOrange{0 0.51 1 0 setcmykcolor}DC
/Bittersweet{0 0.75 1 0.24 setcmykcolor}DC/RedOrange{0 0.77 0.87 0
setcmykcolor}DC/Mahogany{0 0.85 0.87 0.35 setcmykcolor}DC/Maroon{0 0.87
0.68 0.32 setcmykcolor}DC/BrickRed{0 0.89 0.94 0.28 setcmykcolor}DC/Red{
0 1 1 0 setcmykcolor}DC/OrangeRed{0 1 0.50 0 setcmykcolor}DC/RubineRed{
0 1 0.13 0 setcmykcolor}DC/WildStrawberry{0 0.96 0.39 0 setcmykcolor}DC
/Salmon{0 0.53 0.38 0 setcmykcolor}DC/CarnationPink{0 0.63 0 0
setcmykcolor}DC/Magenta{0 1 0 0 setcmykcolor}DC/VioletRed{0 0.81 0 0
setcmykcolor}DC/Rhodamine{0 0.82 0 0 setcmykcolor}DC/Mulberry{0.34 0.90
0 0.02 setcmykcolor}DC/RedViolet{0.07 0.90 0 0.34 setcmykcolor}DC
/Fuchsia{0.47 0.91 0 0.08 setcmykcolor}DC/Lavender{0 0.48 0 0
setcmykcolor}DC/Thistle{0.12 0.59 0 0 setcmykcolor}DC/Orchid{0.32 0.64 0
0 setcmykcolor}DC/DarkOrchid{0.40 0.80 0.20 0 setcmykcolor}DC/Purple{
0.45 0.86 0 0 setcmykcolor}DC/Plum{0.50 1 0 0 setcmykcolor}DC/Violet{
0.79 0.88 0 0 setcmykcolor}DC/RoyalPurple{0.75 0.90 0 0 setcmykcolor}DC
/BlueViolet{0.86 0.91 0 0.04 setcmykcolor}DC/Periwinkle{0.57 0.55 0 0
setcmykcolor}DC/CadetBlue{0.62 0.57 0.23 0 setcmykcolor}DC
/CornflowerBlue{0.65 0.13 0 0 setcmykcolor}DC/MidnightBlue{0.98 0.13 0
0.43 setcmykcolor}DC/NavyBlue{0.94 0.54 0 0 setcmykcolor}DC/RoyalBlue{1
0.50 0 0 setcmykcolor}DC/Blue{1 1 0 0 setcmykcolor}DC/Cerulean{0.94 0.11
0 0 setcmykcolor}DC/Cyan{1 0 0 0 setcmykcolor}DC/ProcessBlue{0.96 0 0 0
setcmykcolor}DC/SkyBlue{0.62 0 0.12 0 setcmykcolor}DC/Turquoise{0.85 0
0.20 0 setcmykcolor}DC/TealBlue{0.86 0 0.34 0.02 setcmykcolor}DC
/Aquamarine{0.82 0 0.30 0 setcmykcolor}DC/BlueGreen{0.85 0 0.33 0
setcmykcolor}DC/Emerald{1 0 0.50 0 setcmykcolor}DC/JungleGreen{0.99 0
0.52 0 setcmykcolor}DC/SeaGreen{0.69 0 0.50 0 setcmykcolor}DC/Green{1 0
1 0 setcmykcolor}DC/ForestGreen{0.91 0 0.88 0.12 setcmykcolor}DC
/PineGreen{0.92 0 0.59 0.25 setcmykcolor}DC/LimeGreen{0.50 0 1 0
setcmykcolor}DC/YellowGreen{0.44 0 0.74 0 setcmykcolor}DC/SpringGreen{
0.26 0 0.76 0 setcmykcolor}DC/OliveGreen{0.64 0 0.95 0.40 setcmykcolor}
DC/RawSienna{0 0.72 1 0.45 setcmykcolor}DC/Sepia{0 0.83 1 0.70
setcmykcolor}DC/Brown{0 0.81 1 0.60 setcmykcolor}DC/Tan{0.14 0.42 0.56 0
setcmykcolor}DC/Gray{0 0 0 0.50 setcmykcolor}DC/Black{0 0 0 1
setcmykcolor}DC/White{0 0 0 0 setcmykcolor}DC end

%%EndProcSet
TeXDict begin 156819571 221710428 1000 600 600 (job-001.dvi)
@start end
%%EndProlog
%%BeginSetup
%%Feature: *Resolution 600dpi
TeXDict begin
 end
%%EndSetup
%%Page: 1 1
TeXDict begin 1 0 bop Black Black 706 3643 a @beginspecial
0 @llx 0 @lly 540 @urx 368 @ury 5400 @rwi @setspecial
%%BeginDocument: job-001.fig2dev.ps
%!PS-Adobe-3.0 EPSF-3.0
%%Title: job-001.fig
%%Creator: fig2dev Version 3.2 Patchlevel 5e
%%CreationDate: Mon Apr  6 22:23:03 2015
%%BoundingBox: 162 2861 697 3229
%Magnification: 1.0000
%%EndComments
%%BeginProlog
/$F2psDict 200 dict def
$F2psDict begin
$F2psDict /mtrx matrix put
/col-1 {0 setgray} bind def
/col0 {0.000 0.000 0.000 srgb} bind def
/col1 {0.000 0.000 1.000 srgb} bind def
/col2 {0.000 1.000 0.000 srgb} bind def
/col3 {0.000 1.000 1.000 srgb} bind def
/col4 {1.000 0.000 0.000 srgb} bind def
/col5 {1.000 0.000 1.000 srgb} bind def
/col6 {1.000 1.000 0.000 srgb} bind def
/col7 {1.000 1.000 1.000 srgb} bind def
/col8 {0.000 0.000 0.560 srgb} bind def
/col9 {0.000 0.000 0.690 srgb} bind def
/col10 {0.000 0.000 0.820 srgb} bind def
/col11 {0.530 0.810 1.000 srgb} bind def
/col12 {0.000 0.560 0.000 srgb} bind def
/col13 {0.000 0.690 0.000 srgb} bind def
/col14 {0.000 0.820 0.000 srgb} bind def
/col15 {0.000 0.560 0.560 srgb} bind def
/col16 {0.000 0.690 0.690 srgb} bind def
/col17 {0.000 0.820 0.820 srgb} bind def
/col18 {0.560 0.000 0.000 srgb} bind def
/col19 {0.690 0.000 0.000 srgb} bind def
/col20 {0.820 0.000 0.000 srgb} bind def
/col21 {0.560 0.000 0.560 srgb} bind def
/col22 {0.690 0.000 0.690 srgb} bind def
/col23 {0.820 0.000 0.820 srgb} bind def
/col24 {0.500 0.190 0.000 srgb} bind def
/col25 {0.630 0.250 0.000 srgb} bind def
/col26 {0.750 0.380 0.000 srgb} bind def
/col27 {1.000 0.500 0.500 srgb} bind def
/col28 {1.000 0.630 0.630 srgb} bind def
/col29 {1.000 0.750 0.750 srgb} bind def
/col30 {1.000 0.880 0.880 srgb} bind def
/col31 {1.000 0.840 0.000 srgb} bind def

end

/cp {closepath} bind def
/ef {eofill} bind def
/gr {grestore} bind def
/gs {gsave} bind def
/sa {save} bind def
/rs {restore} bind def
/l {lineto} bind def
/m {moveto} bind def
/rm {rmoveto} bind def
/n {newpath} bind def
/s {stroke} bind def
/sh {show} bind def
/slc {setlinecap} bind def
/slj {setlinejoin} bind def
/slw {setlinewidth} bind def
/srgb {setrgbcolor} bind def
/rot {rotate} bind def
/sc {scale} bind def
/sd {setdash} bind def
/ff {findfont} bind def
/sf {setfont} bind def
/scf {scalefont} bind def
/sw {stringwidth} bind def
/tr {translate} bind def
/tnt {dup dup currentrgbcolor
  4 -2 roll dup 1 exch sub 3 -1 roll mul add
  4 -2 roll dup 1 exch sub 3 -1 roll mul add
  4 -2 roll dup 1 exch sub 3 -1 roll mul add srgb}
  bind def
/shd {dup dup currentrgbcolor 4 -2 roll mul 4 -2 roll mul
  4 -2 roll mul srgb} bind def
/reencdict 12 dict def /ReEncode { reencdict begin
/newcodesandnames exch def /newfontname exch def /basefontname exch def
/basefontdict basefontname findfont def /newfont basefontdict maxlength dict def
basefontdict { exch dup /FID ne { dup /Encoding eq
{ exch dup length array copy newfont 3 1 roll put }
{ exch newfont 3 1 roll put } ifelse } { pop pop } ifelse } forall
newfont /FontName newfontname put newcodesandnames aload pop
128 1 255 { newfont /Encoding get exch /.notdef put } for
newcodesandnames length 2 idiv { newfont /Encoding get 3 1 roll put } repeat
newfontname newfont definefont pop end } def
/isovec [
8#055 /minus 8#200 /grave 8#201 /acute 8#202 /circumflex 8#203 /tilde
8#204 /macron 8#205 /breve 8#206 /dotaccent 8#207 /dieresis
8#210 /ring 8#211 /cedilla 8#212 /hungarumlaut 8#213 /ogonek 8#214 /caron
8#220 /dotlessi 8#230 /oe 8#231 /OE
8#240 /space 8#241 /exclamdown 8#242 /cent 8#243 /sterling
8#244 /currency 8#245 /yen 8#246 /brokenbar 8#247 /section 8#250 /dieresis
8#251 /copyright 8#252 /ordfeminine 8#253 /guillemotleft 8#254 /logicalnot
8#255 /hyphen 8#256 /registered 8#257 /macron 8#260 /degree 8#261 /plusminus
8#262 /twosuperior 8#263 /threesuperior 8#264 /acute 8#265 /mu 8#266 /paragraph
8#267 /periodcentered 8#270 /cedilla 8#271 /onesuperior 8#272 /ordmasculine
8#273 /guillemotright 8#274 /onequarter 8#275 /onehalf
8#276 /threequarters 8#277 /questiondown 8#300 /Agrave 8#301 /Aacute
8#302 /Acircumflex 8#303 /Atilde 8#304 /Adieresis 8#305 /Aring
8#306 /AE 8#307 /Ccedilla 8#310 /Egrave 8#311 /Eacute
8#312 /Ecircumflex 8#313 /Edieresis 8#314 /Igrave 8#315 /Iacute
8#316 /Icircumflex 8#317 /Idieresis 8#320 /Eth 8#321 /Ntilde 8#322 /Ograve
8#323 /Oacute 8#324 /Ocircumflex 8#325 /Otilde 8#326 /Odieresis 8#327 /multiply
8#330 /Oslash 8#331 /Ugrave 8#332 /Uacute 8#333 /Ucircumflex
8#334 /Udieresis 8#335 /Yacute 8#336 /Thorn 8#337 /germandbls 8#340 /agrave
8#341 /aacute 8#342 /acircumflex 8#343 /atilde 8#344 /adieresis 8#345 /aring
8#346 /ae 8#347 /ccedilla 8#350 /egrave 8#351 /eacute
8#352 /ecircumflex 8#353 /edieresis 8#354 /igrave 8#355 /iacute
8#356 /icircumflex 8#357 /idieresis 8#360 /eth 8#361 /ntilde 8#362 /ograve
8#363 /oacute 8#364 /ocircumflex 8#365 /otilde 8#366 /odieresis 8#367 /divide
8#370 /oslash 8#371 /ugrave 8#372 /uacute 8#373 /ucircumflex
8#374 /udieresis 8#375 /yacute 8#376 /thorn 8#377 /ydieresis] def
/Times-Roman /Times-Roman-iso isovec ReEncode
 /DrawEllipse {
	/endangle exch def
	/startangle exch def
	/yrad exch def
	/xrad exch def
	/y exch def
	/x exch def
	/savematrix mtrx currentmatrix def
	x y tr xrad yrad sc 0 0 1 startangle endangle arc
	closepath
	savematrix setmatrix
	} def

/$F2psBegin {$F2psDict begin /$F2psEnteredState save def} def
/$F2psEnd {$F2psEnteredState restore end} def

/pageheader {
save
newpath 0 368 moveto 0 0 lineto 540 0 lineto 540 368 lineto closepath clip newpath
-28.4 386.5 translate
1 -1 scale
$F2psBegin
10 setmiterlimit
0 slj 0 slc
 0.06299 0.06299 sc
} bind def
/pagefooter {
$F2psEnd
restore
} bind def
%%EndProlog
pageheader
%
% Fig objects follow
%
% 
% here starts figure with depth 50
% Polyline
0 slj
0 slc
7.500 slw
n 7425 675 m
 7875 675 l gs col0 s gr 
% Polyline
n 7425 900 m
 7875 900 l gs col0 s gr 
% Polyline
n 7425 1125 m
 7875 1125 l gs col0 s gr 
% Polyline
n 7425 1350 m
 7875 1350 l gs col0 s gr 
% Polyline
n 7425 1575 m
 7875 1575 l gs col0 s gr 
% Polyline
n 7425 1800 m
 7875 1800 l gs col0 s gr 
% Polyline
n 7425 2025 m
 7875 2025 l gs col0 s gr 
% Polyline
n 7425 2250 m
 7875 2250 l gs col0 s gr 
% Polyline
n 7425 2475 m
 7875 2475 l gs col0 s gr 
% Polyline
n 7425 2700 m
 7875 2700 l gs col0 s gr 
% Polyline
n 7425 2925 m
 7875 2925 l gs col0 s gr 
% Polyline
n 7425 3150 m
 7875 3150 l gs col0 s gr 
% Polyline
n 7425 3375 m
 7875 3375 l gs col0 s gr 
% Polyline
n 7425 3600 m
 7875 3600 l gs col0 s gr 
% Polyline
n 7425 3825 m
 7875 3825 l gs col0 s gr 
% Polyline
n 7425 4050 m
 7875 4050 l gs col0 s gr 
% Polyline
n 7425 4275 m
 7875 4275 l gs col0 s gr 
% Polyline
n 7425 4500 m
 7875 4500 l gs col0 s gr 
% Polyline
n 7425 4725 m
 7875 4725 l gs col0 s gr 
% Polyline
n 7425 4950 m
 7875 4950 l gs col0 s gr 
% Polyline
n 7875 450 m 9000 450 l 9000 5175 l 7875 5175 l
 cp gs col0 s gr 
% Polyline
n 2925 675 m
 3375 675 l gs col0 s gr 
% Polyline
n 2925 900 m
 3375 900 l gs col0 s gr 
% Polyline
n 2925 1125 m
 3375 1125 l gs col0 s gr 
% Polyline
n 2925 1350 m
 3375 1350 l gs col0 s gr 
% Polyline
n 2925 1575 m
 3375 1575 l gs col0 s gr 
% Polyline
n 2925 1800 m
 3375 1800 l gs col0 s gr 
% Polyline
n 2925 2025 m
 3375 2025 l gs col0 s gr 
% Polyline
n 2925 2250 m
 3375 2250 l gs col0 s gr 
% Polyline
n 2925 2475 m
 3375 2475 l gs col0 s gr 
% Polyline
n 2925 2700 m
 3375 2700 l gs col0 s gr 
% Polyline
n 2925 2925 m
 3375 2925 l gs col0 s gr 
% Polyline
n 2925 3150 m
 3375 3150 l gs col0 s gr 
% Polyline
n 2925 3375 m
 3375 3375 l gs col0 s gr 
% Polyline
n 2925 3600 m
 3375 3600 l gs col0 s gr 
% Polyline
n 2925 3825 m
 3375 3825 l gs col0 s gr 
% Polyline
n 2925 4050 m
 3375 4050 l gs col0 s gr 
% Polyline
n 2925 4275 m
 3375 4275 l gs col0 s gr 
% Polyline
n 2925 4500 m
 3375 4500 l gs col0 s gr 
% Polyline
n 2925 4725 m
 3375 4725 l gs col0 s gr 
% Polyline
n 2925 4950 m
 3375 4950 l gs col0 s gr 
% Polyline
n 3375 450 m 4500 450 l 4500 5175 l 3375 5175 l
 cp gs col0 s gr 
% Polyline
n 2925 1800 m
 1890 1800 l gs col0 s gr 
% Polyline
n 2925 1575 m
 1890 1575 l gs col0 s gr 
% Polyline
n 2925 1350 m 2250 1350 l 2250 900 l
 2925 900 l gs col0 s gr 
% Polyline
n 2925 3825 m
 2700 3825 l gs col0 s gr 
% Polyline
n 1890 675 m
 2700 675 l gs col0 s gr 
% Polyline
n 2925 675 m
 2700 675 l gs col0 s gr 
% Polyline
n 2700 675 m
 2700 3825 l gs col0 s gr 
% Polyline
n 2250 900 m
 1890 900 l gs col0 s gr 
% Polyline
n 2925 4725 m
 1890 4725 l gs col0 s gr 
% Polyline
n 2925 1125 m
 1890 1125 l gs col0 s gr 
% Polyline
n 1305 5175 m 1305 4950 l
 1530 4950 l gs col0 s gr 
% Polyline
n 2925 4950 m
 1890 4950 l gs col0 s gr 
% Polyline
n 2250 1350 m 2250 4275 l
 2925 4275 l gs col0 s gr 
% Polyline
n 7425 1125 m
 6390 1125 l gs col0 s gr 
% Polyline
n 7425 900 m
 6390 900 l gs col0 s gr 
% Polyline
n 7425 675 m
 6390 675 l gs col0 s gr 
% Polyline
n 7425 4950 m
 6390 4950 l gs col0 s gr 
% Polyline
n 7425 4725 m
 6390 4725 l gs col0 s gr 
% Polyline
n 6750 3825 m
 7425 3825 l gs col0 s gr 
% Polyline
n 6750 900 m 6750 4275 l
 7425 4275 l gs col0 s gr 
% Polyline
n 7425 1350 m
 6390 1350 l gs col0 s gr 
% Polyline
n 7425 1800 m
 6390 1800 l gs col0 s gr 
% Polyline
n 7425 2925 m
 6390 2925 l gs col0 s gr 
% Polyline
n 7425 3150 m
 6390 3150 l gs col0 s gr 
% Polyline
n 7425 3375 m
 6390 3375 l gs col0 s gr 
% Polyline
n 7425 3600 m
 6390 3600 l gs col0 s gr 
% Polyline
n 7425 1575 m
 6390 1575 l gs col0 s gr 
% Polyline
n 5850 5175 m 5850 4950 l
 6075 4950 l gs col0 s gr 
% Polyline
 [60] 0 sd
n 4815 315 m
 4815 6075 l gs col0 s gr  [] 0 sd
/Times-Roman-iso ff 180.00 scf sf
7650 630 m
gs 1 -1 sc (1) col0 sh gr
/Times-Roman-iso ff 180.00 scf sf
7650 855 m
gs 1 -1 sc (2) col0 sh gr
/Times-Roman-iso ff 180.00 scf sf
7650 1080 m
gs 1 -1 sc (3) col0 sh gr
/Times-Roman-iso ff 180.00 scf sf
7650 1305 m
gs 1 -1 sc (4) col0 sh gr
/Times-Roman-iso ff 180.00 scf sf
7650 1530 m
gs 1 -1 sc (5) col0 sh gr
/Times-Roman-iso ff 180.00 scf sf
7650 1755 m
gs 1 -1 sc (6) col0 sh gr
/Times-Roman-iso ff 180.00 scf sf
7650 1980 m
gs 1 -1 sc (7) col0 sh gr
/Times-Roman-iso ff 180.00 scf sf
7650 2205 m
gs 1 -1 sc (8) col0 sh gr
/Times-Roman-iso ff 180.00 scf sf
7650 2430 m
gs 1 -1 sc (9) col0 sh gr
/Times-Roman-iso ff 210.00 scf sf
7965 720 m
gs 1 -1 sc (VSS) col0 sh gr
/Times-Roman-iso ff 210.00 scf sf
7965 2970 m
gs 1 -1 sc (DB4) col0 sh gr
/Times-Roman-iso ff 210.00 scf sf
7965 3195 m
gs 1 -1 sc (DB5) col0 sh gr
/Times-Roman-iso ff 210.00 scf sf
7965 3645 m
gs 1 -1 sc (DB7) col0 sh gr
/Times-Roman-iso ff 210.00 scf sf
7965 3420 m
gs 1 -1 sc (DB6) col0 sh gr
/Times-Roman-iso ff 210.00 scf sf
7965 2070 m
gs 1 -1 sc (DB0) col0 sh gr
/Times-Roman-iso ff 210.00 scf sf
7965 2295 m
gs 1 -1 sc (DB1) col0 sh gr
/Times-Roman-iso ff 210.00 scf sf
7965 2520 m
gs 1 -1 sc (BB2) col0 sh gr
/Times-Roman-iso ff 210.00 scf sf
7965 2745 m
gs 1 -1 sc (DB3) col0 sh gr
/Times-Roman-iso ff 210.00 scf sf
7965 945 m
gs 1 -1 sc (VDD) col0 sh gr
/Times-Roman-iso ff 210.00 scf sf
7965 1170 m
gs 1 -1 sc (VO) col0 sh gr
/Times-Roman-iso ff 210.00 scf sf
7965 1395 m
gs 1 -1 sc (RS) col0 sh gr
/Times-Roman-iso ff 210.00 scf sf
7965 1620 m
gs 1 -1 sc (R/W) col0 sh gr
/Times-Roman-iso ff 210.00 scf sf
7965 1845 m
gs 1 -1 sc (E) col0 sh gr
/Times-Roman-iso ff 180.00 scf sf
7650 2655 m
gs 1 -1 sc (10) col0 sh gr
/Times-Roman-iso ff 180.00 scf sf
7650 2880 m
gs 1 -1 sc (11) col0 sh gr
/Times-Roman-iso ff 180.00 scf sf
7650 3105 m
gs 1 -1 sc (12) col0 sh gr
/Times-Roman-iso ff 180.00 scf sf
7650 3330 m
gs 1 -1 sc (13) col0 sh gr
/Times-Roman-iso ff 180.00 scf sf
7650 3555 m
gs 1 -1 sc (14) col0 sh gr
/Times-Roman-iso ff 180.00 scf sf
7650 3780 m
gs 1 -1 sc (15) col0 sh gr
/Times-Roman-iso ff 180.00 scf sf
7650 4005 m
gs 1 -1 sc (16) col0 sh gr
/Times-Roman-iso ff 180.00 scf sf
7650 4230 m
gs 1 -1 sc (17) col0 sh gr
/Times-Roman-iso ff 180.00 scf sf
7650 4455 m
gs 1 -1 sc (18) col0 sh gr
/Times-Roman-iso ff 180.00 scf sf
7650 4680 m
gs 1 -1 sc (19) col0 sh gr
/Times-Roman-iso ff 180.00 scf sf
7650 4905 m
gs 1 -1 sc (20) col0 sh gr
/Times-Roman-iso ff 180.00 scf sf
7965 4095 m
gs 1 -1 sc (NC) col0 sh gr
/Times-Roman-iso ff 210.00 scf sf
7965 3870 m
gs 1 -1 sc (PSB) col0 sh gr
/Times-Roman-iso ff 210.00 scf sf
7965 4320 m
gs 1 -1 sc (RST) col0 sh gr
/Times-Roman-iso ff 210.00 scf sf
7965 4545 m
gs 1 -1 sc (VOUT) col0 sh gr
/Times-Roman-iso ff 210.00 scf sf
7965 4995 m
gs 1 -1 sc (BLK) col0 sh gr
/Times-Roman-iso ff 210.00 scf sf
7965 4770 m
gs 1 -1 sc (BLA) col0 sh gr
/Times-Roman-iso ff 270.00 scf sf
8865 2475 m
gs 1 -1 sc  90.0 rot (ST7920 Graphic Display) dup sw pop 2 div neg 0 rm  col0 sh gr
/Times-Roman-iso ff 180.00 scf sf
3150 630 m
gs 1 -1 sc (1) col0 sh gr
/Times-Roman-iso ff 180.00 scf sf
3150 855 m
gs 1 -1 sc (2) col0 sh gr
/Times-Roman-iso ff 180.00 scf sf
3150 1080 m
gs 1 -1 sc (3) col0 sh gr
/Times-Roman-iso ff 180.00 scf sf
3150 1305 m
gs 1 -1 sc (4) col0 sh gr
/Times-Roman-iso ff 180.00 scf sf
3150 1530 m
gs 1 -1 sc (5) col0 sh gr
/Times-Roman-iso ff 180.00 scf sf
3150 1755 m
gs 1 -1 sc (6) col0 sh gr
/Times-Roman-iso ff 180.00 scf sf
3150 1980 m
gs 1 -1 sc (7) col0 sh gr
/Times-Roman-iso ff 180.00 scf sf
3150 2205 m
gs 1 -1 sc (8) col0 sh gr
/Times-Roman-iso ff 180.00 scf sf
3150 2430 m
gs 1 -1 sc (9) col0 sh gr
/Times-Roman-iso ff 210.00 scf sf
3465 720 m
gs 1 -1 sc (VSS) col0 sh gr
/Times-Roman-iso ff 210.00 scf sf
3465 2970 m
gs 1 -1 sc (DB4) col0 sh gr
/Times-Roman-iso ff 210.00 scf sf
3465 3195 m
gs 1 -1 sc (DB5) col0 sh gr
/Times-Roman-iso ff 210.00 scf sf
3465 3645 m
gs 1 -1 sc (DB7) col0 sh gr
/Times-Roman-iso ff 210.00 scf sf
3465 3420 m
gs 1 -1 sc (DB6) col0 sh gr
/Times-Roman-iso ff 210.00 scf sf
3465 2070 m
gs 1 -1 sc (DB0) col0 sh gr
/Times-Roman-iso ff 210.00 scf sf
3465 2295 m
gs 1 -1 sc (DB1) col0 sh gr
/Times-Roman-iso ff 210.00 scf sf
3465 2520 m
gs 1 -1 sc (BB2) col0 sh gr
/Times-Roman-iso ff 210.00 scf sf
3465 2745 m
gs 1 -1 sc (DB3) col0 sh gr
/Times-Roman-iso ff 210.00 scf sf
3465 945 m
gs 1 -1 sc (VDD) col0 sh gr
/Times-Roman-iso ff 210.00 scf sf
3465 1170 m
gs 1 -1 sc (VO) col0 sh gr
/Times-Roman-iso ff 210.00 scf sf
3465 1395 m
gs 1 -1 sc (RS) col0 sh gr
/Times-Roman-iso ff 210.00 scf sf
3465 1620 m
gs 1 -1 sc (R/W) col0 sh gr
/Times-Roman-iso ff 210.00 scf sf
3465 1845 m
gs 1 -1 sc (E) col0 sh gr
/Times-Roman-iso ff 180.00 scf sf
3150 2655 m
gs 1 -1 sc (10) col0 sh gr
/Times-Roman-iso ff 180.00 scf sf
3150 2880 m
gs 1 -1 sc (11) col0 sh gr
/Times-Roman-iso ff 180.00 scf sf
3150 3105 m
gs 1 -1 sc (12) col0 sh gr
/Times-Roman-iso ff 180.00 scf sf
3150 3330 m
gs 1 -1 sc (13) col0 sh gr
/Times-Roman-iso ff 180.00 scf sf
3150 3555 m
gs 1 -1 sc (14) col0 sh gr
/Times-Roman-iso ff 180.00 scf sf
3150 3780 m
gs 1 -1 sc (15) col0 sh gr
/Times-Roman-iso ff 180.00 scf sf
3150 4005 m
gs 1 -1 sc (16) col0 sh gr
/Times-Roman-iso ff 180.00 scf sf
3150 4230 m
gs 1 -1 sc (17) col0 sh gr
/Times-Roman-iso ff 180.00 scf sf
3150 4455 m
gs 1 -1 sc (18) col0 sh gr
/Times-Roman-iso ff 180.00 scf sf
3150 4680 m
gs 1 -1 sc (19) col0 sh gr
/Times-Roman-iso ff 180.00 scf sf
3150 4905 m
gs 1 -1 sc (20) col0 sh gr
/Times-Roman-iso ff 180.00 scf sf
3465 4095 m
gs 1 -1 sc (NC) col0 sh gr
/Times-Roman-iso ff 210.00 scf sf
3465 3870 m
gs 1 -1 sc (PSB) col0 sh gr
/Times-Roman-iso ff 210.00 scf sf
3465 4320 m
gs 1 -1 sc (RST) col0 sh gr
/Times-Roman-iso ff 210.00 scf sf
3465 4545 m
gs 1 -1 sc (VOUT) col0 sh gr
/Times-Roman-iso ff 210.00 scf sf
3465 4995 m
gs 1 -1 sc (BLK) col0 sh gr
/Times-Roman-iso ff 210.00 scf sf
3465 4770 m
gs 1 -1 sc (BLA) col0 sh gr
/Times-Roman-iso ff 270.00 scf sf
4365 2475 m
gs 1 -1 sc  90.0 rot (ST7920 Graphic Display) dup sw pop 2 div neg 0 rm  col0 sh gr
/Times-Roman-iso ff 210.00 scf sf
1530 1665 m
gs 1 -1 sc (PD2) dup sw pop neg 0 rm  col0 sh gr
/Times-Roman-iso ff 210.00 scf sf
1530 1950 m
gs 1 -1 sc (PD5) dup sw pop neg 0 rm  col0 sh gr
/Times-Roman-iso ff 210.00 scf sf
1530 765 m
gs 1 -1 sc (GND) dup sw pop neg 0 rm  col0 sh gr
/Times-Roman-iso ff 210.00 scf sf
1530 990 m
gs 1 -1 sc (VCC) dup sw pop neg 0 rm  col0 sh gr
/Times-Roman-iso ff 210.00 scf sf
990 4815 m
gs 1 -1 sc (VCC) dup sw pop neg 0 rm  col0 sh gr
/Times-Roman-iso ff 180.00 scf sf
1530 1215 m
gs 1 -1 sc (VEE) dup sw pop neg 0 rm  col0 sh gr
/Times-Roman-iso ff 180.00 scf sf
6030 1215 m
gs 1 -1 sc (VEE) dup sw pop neg 0 rm  col0 sh gr
/Times-Roman-iso ff 210.00 scf sf
6030 765 m
gs 1 -1 sc (GND) dup sw pop neg 0 rm  col0 sh gr
/Times-Roman-iso ff 210.00 scf sf
5985 990 m
gs 1 -1 sc (VCC) dup sw pop neg 0 rm  col0 sh gr
/Times-Roman-iso ff 210.00 scf sf
6030 3015 m
gs 1 -1 sc (PD0) dup sw pop neg 0 rm  col0 sh gr
/Times-Roman-iso ff 210.00 scf sf
6030 3465 m
gs 1 -1 sc (PD2) dup sw pop neg 0 rm  col0 sh gr
/Times-Roman-iso ff 210.00 scf sf
6030 3690 m
gs 1 -1 sc (PD3) dup sw pop neg 0 rm  col0 sh gr
/Times-Roman-iso ff 210.00 scf sf
6030 3240 m
gs 1 -1 sc (PD1) dup sw pop neg 0 rm  col0 sh gr
/Times-Roman-iso ff 210.00 scf sf
6030 1665 m
gs 1 -1 sc (GND) dup sw pop neg 0 rm  col0 sh gr
/Times-Roman-iso ff 210.00 scf sf
6030 1440 m
gs 1 -1 sc (PD4) dup sw pop neg 0 rm  col0 sh gr
/Times-Roman-iso ff 210.00 scf sf
6030 1890 m
gs 1 -1 sc (PD5) dup sw pop neg 0 rm  col0 sh gr
/Times-Roman-iso ff 210.00 scf sf
5535 4815 m
gs 1 -1 sc (VCC) dup sw pop neg 0 rm  col0 sh gr
/Times-Roman-iso ff 210.00 scf sf
2205 6120 m
gs 1 -1 sc (serial mode) dup sw pop 2 div neg 0 rm  col0 sh gr
/Times-Roman-iso ff 210.00 scf sf
7335 6030 m
gs 1 -1 sc (4-bit parallel mode) dup sw pop 2 div neg 0 rm  col0 sh gr
% here ends figure;
% 
% here starts figure with depth 0
% Ellipse
7.500 slw
n 2700 675 20 20 0 360 DrawEllipse gs 0.00 setgray ef gr gs col0 s gr

% Ellipse
n 2250 900 20 20 0 360 DrawEllipse gs 0.00 setgray ef gr gs col0 s gr

% Polyline
0 slj
0 slc
n 1440 4725 m
 1530 4725 l gs col0 s gr 
% Polyline
n 1170 4770 m 1170 4680 l 1440 4680 l 1440 4770 l
 cp gs col0 s gr 
% Polyline
n 1080 4725 m
 1170 4725 l gs col0 s gr 
% Polyline
n 1575 630 m 1620 675 l
 1575 720 l gs col0 s gr 
% Polyline
n 1620 675 m
 1890 675 l gs col0 s gr 
% Polyline
n 1575 855 m 1620 900 l
 1575 945 l gs col0 s gr 
% Polyline
n 1620 900 m
 1890 900 l gs col0 s gr 
% Polyline
n 1575 1080 m 1620 1125 l
 1575 1170 l gs col0 s gr 
% Polyline
n 1620 1125 m
 1890 1125 l gs col0 s gr 
% Polyline
n 1575 1530 m 1620 1575 l
 1575 1620 l gs col0 s gr 
% Polyline
n 1620 1575 m
 1890 1575 l gs col0 s gr 
% Polyline
n 1575 1755 m 1620 1800 l
 1575 1845 l gs col0 s gr 
% Polyline
n 1620 1800 m
 1890 1800 l gs col0 s gr 
% Polyline
n 1575 4680 m 1620 4725 l
 1575 4770 l gs col0 s gr 
% Polyline
n 1620 4725 m
 1890 4725 l gs col0 s gr 
% Polyline
1 slc
30.000 slw
n 1215 5445 m
 1395 5445 l gs col0 s gr 
% Polyline
0 slc
7.500 slw
n 1305 5175 m
 1305 5445 l gs col0 s gr 
% Polyline
n 1575 4905 m 1620 4950 l
 1575 4995 l gs col0 s gr 
% Polyline
n 1620 4950 m
 1890 4950 l gs col0 s gr 
% Ellipse
n 2250 1350 20 20 0 360 DrawEllipse gs 0.00 setgray ef gr gs col0 s gr

% Polyline
n 6075 1080 m 6120 1125 l
 6075 1170 l gs col0 s gr 
% Polyline
n 6120 1125 m
 6390 1125 l gs col0 s gr 
% Polyline
n 6075 855 m 6120 900 l
 6075 945 l gs col0 s gr 
% Polyline
n 6120 900 m
 6390 900 l gs col0 s gr 
% Polyline
n 6075 630 m 6120 675 l
 6075 720 l gs col0 s gr 
% Polyline
n 6120 675 m
 6390 675 l gs col0 s gr 
% Polyline
n 6075 4680 m 6120 4725 l
 6075 4770 l gs col0 s gr 
% Polyline
n 6120 4725 m
 6390 4725 l gs col0 s gr 
% Polyline
n 6075 4905 m 6120 4950 l
 6075 4995 l gs col0 s gr 
% Polyline
n 6120 4950 m
 6390 4950 l gs col0 s gr 
% Ellipse
n 6750 900 20 20 0 360 DrawEllipse gs 0.00 setgray ef gr gs col0 s gr

% Ellipse
n 6750 3825 20 20 0 360 DrawEllipse gs 0.00 setgray ef gr gs col0 s gr

% Polyline
n 6075 2880 m 6120 2925 l
 6075 2970 l gs col0 s gr 
% Polyline
n 6120 2925 m
 6390 2925 l gs col0 s gr 
% Polyline
n 6075 3105 m 6120 3150 l
 6075 3195 l gs col0 s gr 
% Polyline
n 6120 3150 m
 6390 3150 l gs col0 s gr 
% Polyline
n 6075 3330 m 6120 3375 l
 6075 3420 l gs col0 s gr 
% Polyline
n 6120 3375 m
 6390 3375 l gs col0 s gr 
% Polyline
n 6075 3555 m 6120 3600 l
 6075 3645 l gs col0 s gr 
% Polyline
n 6120 3600 m
 6390 3600 l gs col0 s gr 
% Polyline
n 6075 1305 m 6120 1350 l
 6075 1395 l gs col0 s gr 
% Polyline
n 6120 1350 m
 6390 1350 l gs col0 s gr 
% Polyline
n 6075 1755 m 6120 1800 l
 6075 1845 l gs col0 s gr 
% Polyline
n 6120 1800 m
 6390 1800 l gs col0 s gr 
% Polyline
n 6075 1530 m 6120 1575 l
 6075 1620 l gs col0 s gr 
% Polyline
n 6120 1575 m
 6390 1575 l gs col0 s gr 
% Polyline
n 5940 4725 m
 6030 4725 l gs col0 s gr 
% Polyline
n 5670 4770 m 5670 4680 l 5940 4680 l 5940 4770 l
 cp gs col0 s gr 
% Polyline
n 5580 4725 m
 5670 4725 l gs col0 s gr 
% Polyline
1 slc
30.000 slw
n 5760 5445 m
 5940 5445 l gs col0 s gr 
% Polyline
0 slc
7.500 slw
n 5850 5175 m
 5850 5445 l gs col0 s gr 
% here ends figure;
pagefooter
showpage
%%Trailer
%EOF

%%EndDocument
 @endspecial Black Black eop end
%%Trailer

userdict /end-hook known{end-hook}if
%%EOF
