%!PS-Adobe-2.0
%%Creator: dvips(k) 5.993 Copyright 2013 Radical Eye Software
%%Title: job-001.dvi
%%CreationDate: Mon Apr  6 22:22:51 2015
%%Pages: 1
%%PageOrder: Ascend
%%BoundingBox: 156 2741 725 3229
%%EndComments
%DVIPSWebPage: (www.radicaleye.com)
%DVIPSCommandLine: dvips job-001.dvi -o job-001.dvips.ps
%DVIPSParameters: dpi=600
%DVIPSSource:  TeX output 2015.04.06:2222
%%BeginProcSet: tex.pro 0 0
%!
/TeXDict 300 dict def TeXDict begin/N{def}def/B{bind def}N/S{exch}N/X{S
N}B/A{dup}B/TR{translate}N/isls false N/vsize 11 72 mul N/hsize 8.5 72
mul N/landplus90{false}def/@rigin{isls{[0 landplus90{1 -1}{-1 1}ifelse 0
0 0]concat}if 72 Resolution div 72 VResolution div neg scale isls{
landplus90{VResolution 72 div vsize mul 0 exch}{Resolution -72 div hsize
mul 0}ifelse TR}if Resolution VResolution vsize -72 div 1 add mul TR[
matrix currentmatrix{A A round sub abs 0.00001 lt{round}if}forall round
exch round exch]setmatrix}N/@landscape{/isls true N}B/@manualfeed{
statusdict/manualfeed true put}B/@copies{/#copies X}B/FMat[1 0 0 -1 0 0]
N/FBB[0 0 0 0]N/nn 0 N/IEn 0 N/ctr 0 N/df-tail{/nn 8 dict N nn begin
/FontType 3 N/FontMatrix fntrx N/FontBBox FBB N string/base X array
/BitMaps X/BuildChar{CharBuilder}N/Encoding IEn N end A{/foo setfont}2
array copy cvx N load 0 nn put/ctr 0 N[}B/sf 0 N/df{/sf 1 N/fntrx FMat N
df-tail}B/dfs{div/sf X/fntrx[sf 0 0 sf neg 0 0]N df-tail}B/E{pop nn A
definefont setfont}B/Cw{Cd A length 5 sub get}B/Ch{Cd A length 4 sub get
}B/Cx{128 Cd A length 3 sub get sub}B/Cy{Cd A length 2 sub get 127 sub}
B/Cdx{Cd A length 1 sub get}B/Ci{Cd A type/stringtype ne{ctr get/ctr ctr
1 add N}if}B/CharBuilder{save 3 1 roll S A/base get 2 index get S
/BitMaps get S get/Cd X pop/ctr 0 N Cdx 0 Cx Cy Ch sub Cx Cw add Cy
setcachedevice Cw Ch true[1 0 0 -1 -.1 Cx sub Cy .1 sub]{Ci}imagemask
restore}B/D{/cc X A type/stringtype ne{]}if nn/base get cc ctr put nn
/BitMaps get S ctr S sf 1 ne{A A length 1 sub A 2 index S get sf div put
}if put/ctr ctr 1 add N}B/I{cc 1 add D}B/bop{userdict/bop-hook known{
bop-hook}if/SI save N @rigin 0 0 moveto/V matrix currentmatrix A 1 get A
mul exch 0 get A mul add .99 lt{/QV}{/RV}ifelse load def pop pop}N/eop{
SI restore userdict/eop-hook known{eop-hook}if showpage}N/@start{
userdict/start-hook known{start-hook}if pop/VResolution X/Resolution X
1000 div/DVImag X/IEn 256 array N 2 string 0 1 255{IEn S A 360 add 36 4
index cvrs cvn put}for pop 65781.76 div/vsize X 65781.76 div/hsize X}N
/dir 0 def/dyy{/dir 0 def}B/dyt{/dir 1 def}B/dty{/dir 2 def}B/dtt{/dir 3
def}B/p{dir 2 eq{-90 rotate show 90 rotate}{dir 3 eq{-90 rotate show 90
rotate}{show}ifelse}ifelse}N/RMat[1 0 0 -1 0 0]N/BDot 260 string N/Rx 0
N/Ry 0 N/V{}B/RV/v{/Ry X/Rx X V}B statusdict begin/product where{pop
false[(Display)(NeXT)(LaserWriter 16/600)]{A length product length le{A
length product exch 0 exch getinterval eq{pop true exit}if}{pop}ifelse}
forall}{false}ifelse end{{gsave TR -.1 .1 TR 1 1 scale Rx Ry false RMat{
BDot}imagemask grestore}}{{gsave TR -.1 .1 TR Rx Ry scale 1 1 false RMat
{BDot}imagemask grestore}}ifelse B/QV{gsave newpath transform round exch
round exch itransform moveto Rx 0 rlineto 0 Ry neg rlineto Rx neg 0
rlineto fill grestore}B/a{moveto}B/delta 0 N/tail{A/delta X 0 rmoveto}B
/M{S p delta add tail}B/b{S p tail}B/c{-4 M}B/d{-3 M}B/e{-2 M}B/f{-1 M}
B/g{0 M}B/h{1 M}B/i{2 M}B/j{3 M}B/k{4 M}B/w{0 rmoveto}B/l{p -4 w}B/m{p
-3 w}B/n{p -2 w}B/o{p -1 w}B/q{p 1 w}B/r{p 2 w}B/s{p 3 w}B/t{p 4 w}B/x{
0 S rmoveto}B/y{3 2 roll p a}B/bos{/SS save N}B/eos{SS restore}B end

%%EndProcSet
%%BeginProcSet: special.pro 0 0
%!
TeXDict begin/SDict 200 dict N SDict begin/@SpecialDefaults{/hs 612 N
/vs 792 N/ho 0 N/vo 0 N/hsc 1 N/vsc 1 N/ang 0 N/CLIP 0 N/rwiSeen false N
/rhiSeen false N/letter{}N/note{}N/a4{}N/legal{}N}B/@scaleunit 100 N
/@hscale{@scaleunit div/hsc X}B/@vscale{@scaleunit div/vsc X}B/@hsize{
/hs X/CLIP 1 N}B/@vsize{/vs X/CLIP 1 N}B/@clip{/CLIP 2 N}B/@hoffset{/ho
X}B/@voffset{/vo X}B/@angle{/ang X}B/@rwi{10 div/rwi X/rwiSeen true N}B
/@rhi{10 div/rhi X/rhiSeen true N}B/@llx{/llx X}B/@lly{/lly X}B/@urx{
/urx X}B/@ury{/ury X}B/magscale true def end/@MacSetUp{userdict/md known
{userdict/md get type/dicttype eq{userdict begin md length 10 add md
maxlength ge{/md md dup length 20 add dict copy def}if end md begin
/letter{}N/note{}N/legal{}N/od{txpose 1 0 mtx defaultmatrix dtransform S
atan/pa X newpath clippath mark{transform{itransform moveto}}{transform{
itransform lineto}}{6 -2 roll transform 6 -2 roll transform 6 -2 roll
transform{itransform 6 2 roll itransform 6 2 roll itransform 6 2 roll
curveto}}{{closepath}}pathforall newpath counttomark array astore/gc xdf
pop ct 39 0 put 10 fz 0 fs 2 F/|______Courier fnt invertflag{PaintBlack}
if}N/txpose{pxs pys scale ppr aload pop por{noflips{pop S neg S TR pop 1
-1 scale}if xflip yflip and{pop S neg S TR 180 rotate 1 -1 scale ppr 3
get ppr 1 get neg sub neg ppr 2 get ppr 0 get neg sub neg TR}if xflip
yflip not and{pop S neg S TR pop 180 rotate ppr 3 get ppr 1 get neg sub
neg 0 TR}if yflip xflip not and{ppr 1 get neg ppr 0 get neg TR}if}{
noflips{TR pop pop 270 rotate 1 -1 scale}if xflip yflip and{TR pop pop
90 rotate 1 -1 scale ppr 3 get ppr 1 get neg sub neg ppr 2 get ppr 0 get
neg sub neg TR}if xflip yflip not and{TR pop pop 90 rotate ppr 3 get ppr
1 get neg sub neg 0 TR}if yflip xflip not and{TR pop pop 270 rotate ppr
2 get ppr 0 get neg sub neg 0 S TR}if}ifelse scaleby96{ppr aload pop 4
-1 roll add 2 div 3 1 roll add 2 div 2 copy TR .96 dup scale neg S neg S
TR}if}N/cp{pop pop showpage pm restore}N end}if}if}N/normalscale{
Resolution 72 div VResolution 72 div neg scale magscale{DVImag dup scale
}if 0 setgray}N/psfts{S 65781.76 div N}N/startTexFig{/psf$SavedState
save N userdict maxlength dict begin/magscale true def normalscale
currentpoint TR/psf$ury psfts/psf$urx psfts/psf$lly psfts/psf$llx psfts
/psf$y psfts/psf$x psfts currentpoint/psf$cy X/psf$cx X/psf$sx psf$x
psf$urx psf$llx sub div N/psf$sy psf$y psf$ury psf$lly sub div N psf$sx
psf$sy scale psf$cx psf$sx div psf$llx sub psf$cy psf$sy div psf$ury sub
TR/showpage{}N/erasepage{}N/setpagedevice{pop}N/copypage{}N/p 3 def
@MacSetUp}N/doclip{psf$llx psf$lly psf$urx psf$ury currentpoint 6 2 roll
newpath 4 copy 4 2 roll moveto 6 -1 roll S lineto S lineto S lineto
closepath clip newpath moveto}N/endTexFig{end psf$SavedState restore}N
/@beginspecial{SDict begin/SpecialSave save N gsave normalscale
currentpoint TR @SpecialDefaults count/ocount X/dcount countdictstack N}
N/@setspecial{CLIP 1 eq{newpath 0 0 moveto hs 0 rlineto 0 vs rlineto hs
neg 0 rlineto closepath clip}if ho vo TR hsc vsc scale ang rotate
rwiSeen{rwi urx llx sub div rhiSeen{rhi ury lly sub div}{dup}ifelse
scale llx neg lly neg TR}{rhiSeen{rhi ury lly sub div dup scale llx neg
lly neg TR}if}ifelse CLIP 2 eq{newpath llx lly moveto urx lly lineto urx
ury lineto llx ury lineto closepath clip}if/showpage{}N/erasepage{}N
/setpagedevice{pop}N/copypage{}N newpath}N/@endspecial{count ocount sub{
pop}repeat countdictstack dcount sub{end}repeat grestore SpecialSave
restore end}N/@defspecial{SDict begin}N/@fedspecial{end}B/li{lineto}B
/rl{rlineto}B/rc{rcurveto}B/np{/SaveX currentpoint/SaveY X N 1
setlinecap newpath}N/st{stroke SaveX SaveY moveto}N/fil{fill SaveX SaveY
moveto}N/ellipse{/endangle X/startangle X/yrad X/xrad X/savematrix
matrix currentmatrix N TR xrad yrad scale 0 0 1 startangle endangle arc
savematrix setmatrix}N end

%%EndProcSet
%%BeginProcSet: color.pro 0 0
%!
TeXDict begin/setcmykcolor where{pop}{/setcmykcolor{dup 10 eq{pop
setrgbcolor}{1 sub 4 1 roll 3{3 index add neg dup 0 lt{pop 0}if 3 1 roll
}repeat setrgbcolor pop}ifelse}B}ifelse/TeXcolorcmyk{setcmykcolor}def
/TeXcolorrgb{setrgbcolor}def/TeXcolorgrey{setgray}def/TeXcolorgray{
setgray}def/TeXcolorhsb{sethsbcolor}def/currentcmykcolor where{pop}{
/currentcmykcolor{currentrgbcolor 10}B}ifelse/DC{exch dup userdict exch
known{pop pop}{X}ifelse}B/GreenYellow{0.15 0 0.69 0 setcmykcolor}DC
/Yellow{0 0 1 0 setcmykcolor}DC/Goldenrod{0 0.10 0.84 0 setcmykcolor}DC
/Dandelion{0 0.29 0.84 0 setcmykcolor}DC/Apricot{0 0.32 0.52 0
setcmykcolor}DC/Peach{0 0.50 0.70 0 setcmykcolor}DC/Melon{0 0.46 0.50 0
setcmykcolor}DC/YellowOrange{0 0.42 1 0 setcmykcolor}DC/Orange{0 0.61
0.87 0 setcmykcolor}DC/BurntOrange{0 0.51 1 0 setcmykcolor}DC
/Bittersweet{0 0.75 1 0.24 setcmykcolor}DC/RedOrange{0 0.77 0.87 0
setcmykcolor}DC/Mahogany{0 0.85 0.87 0.35 setcmykcolor}DC/Maroon{0 0.87
0.68 0.32 setcmykcolor}DC/BrickRed{0 0.89 0.94 0.28 setcmykcolor}DC/Red{
0 1 1 0 setcmykcolor}DC/OrangeRed{0 1 0.50 0 setcmykcolor}DC/RubineRed{
0 1 0.13 0 setcmykcolor}DC/WildStrawberry{0 0.96 0.39 0 setcmykcolor}DC
/Salmon{0 0.53 0.38 0 setcmykcolor}DC/CarnationPink{0 0.63 0 0
setcmykcolor}DC/Magenta{0 1 0 0 setcmykcolor}DC/VioletRed{0 0.81 0 0
setcmykcolor}DC/Rhodamine{0 0.82 0 0 setcmykcolor}DC/Mulberry{0.34 0.90
0 0.02 setcmykcolor}DC/RedViolet{0.07 0.90 0 0.34 setcmykcolor}DC
/Fuchsia{0.47 0.91 0 0.08 setcmykcolor}DC/Lavender{0 0.48 0 0
setcmykcolor}DC/Thistle{0.12 0.59 0 0 setcmykcolor}DC/Orchid{0.32 0.64 0
0 setcmykcolor}DC/DarkOrchid{0.40 0.80 0.20 0 setcmykcolor}DC/Purple{
0.45 0.86 0 0 setcmykcolor}DC/Plum{0.50 1 0 0 setcmykcolor}DC/Violet{
0.79 0.88 0 0 setcmykcolor}DC/RoyalPurple{0.75 0.90 0 0 setcmykcolor}DC
/BlueViolet{0.86 0.91 0 0.04 setcmykcolor}DC/Periwinkle{0.57 0.55 0 0
setcmykcolor}DC/CadetBlue{0.62 0.57 0.23 0 setcmykcolor}DC
/CornflowerBlue{0.65 0.13 0 0 setcmykcolor}DC/MidnightBlue{0.98 0.13 0
0.43 setcmykcolor}DC/NavyBlue{0.94 0.54 0 0 setcmykcolor}DC/RoyalBlue{1
0.50 0 0 setcmykcolor}DC/Blue{1 1 0 0 setcmykcolor}DC/Cerulean{0.94 0.11
0 0 setcmykcolor}DC/Cyan{1 0 0 0 setcmykcolor}DC/ProcessBlue{0.96 0 0 0
setcmykcolor}DC/SkyBlue{0.62 0 0.12 0 setcmykcolor}DC/Turquoise{0.85 0
0.20 0 setcmykcolor}DC/TealBlue{0.86 0 0.34 0.02 setcmykcolor}DC
/Aquamarine{0.82 0 0.30 0 setcmykcolor}DC/BlueGreen{0.85 0 0.33 0
setcmykcolor}DC/Emerald{1 0 0.50 0 setcmykcolor}DC/JungleGreen{0.99 0
0.52 0 setcmykcolor}DC/SeaGreen{0.69 0 0.50 0 setcmykcolor}DC/Green{1 0
1 0 setcmykcolor}DC/ForestGreen{0.91 0 0.88 0.12 setcmykcolor}DC
/PineGreen{0.92 0 0.59 0.25 setcmykcolor}DC/LimeGreen{0.50 0 1 0
setcmykcolor}DC/YellowGreen{0.44 0 0.74 0 setcmykcolor}DC/SpringGreen{
0.26 0 0.76 0 setcmykcolor}DC/OliveGreen{0.64 0 0.95 0.40 setcmykcolor}
DC/RawSienna{0 0.72 1 0.45 setcmykcolor}DC/Sepia{0 0.83 1 0.70
setcmykcolor}DC/Brown{0 0.81 1 0.60 setcmykcolor}DC/Tan{0.14 0.42 0.56 0
setcmykcolor}DC/Gray{0 0 0 0.50 setcmykcolor}DC/Black{0 0 0 1
setcmykcolor}DC/White{0 0 0 0 setcmykcolor}DC end

%%EndProcSet
TeXDict begin 156819571 221710428 1000 600 600 (job-001.dvi)
@start end
%%EndProlog
%%BeginSetup
%%Feature: *Resolution 600dpi
TeXDict begin
 end
%%EndSetup
%%Page: 1 1
TeXDict begin 1 0 bop Black Black 706 4644 a @beginspecial
0 @llx 0 @lly 567 @urx 488 @ury 5670 @rwi @setspecial
%%BeginDocument: job-001.fig2dev.ps
%!PS-Adobe-3.0 EPSF-3.0
%%Title: job-001.fig
%%Creator: fig2dev Version 3.2 Patchlevel 5e
%%CreationDate: Mon Apr  6 22:22:50 2015
%%BoundingBox: 156 2741 725 3229
%Magnification: 1.0000
%%EndComments
%%BeginProlog
/$F2psDict 200 dict def
$F2psDict begin
$F2psDict /mtrx matrix put
/col-1 {0 setgray} bind def
/col0 {0.000 0.000 0.000 srgb} bind def
/col1 {0.000 0.000 1.000 srgb} bind def
/col2 {0.000 1.000 0.000 srgb} bind def
/col3 {0.000 1.000 1.000 srgb} bind def
/col4 {1.000 0.000 0.000 srgb} bind def
/col5 {1.000 0.000 1.000 srgb} bind def
/col6 {1.000 1.000 0.000 srgb} bind def
/col7 {1.000 1.000 1.000 srgb} bind def
/col8 {0.000 0.000 0.560 srgb} bind def
/col9 {0.000 0.000 0.690 srgb} bind def
/col10 {0.000 0.000 0.820 srgb} bind def
/col11 {0.530 0.810 1.000 srgb} bind def
/col12 {0.000 0.560 0.000 srgb} bind def
/col13 {0.000 0.690 0.000 srgb} bind def
/col14 {0.000 0.820 0.000 srgb} bind def
/col15 {0.000 0.560 0.560 srgb} bind def
/col16 {0.000 0.690 0.690 srgb} bind def
/col17 {0.000 0.820 0.820 srgb} bind def
/col18 {0.560 0.000 0.000 srgb} bind def
/col19 {0.690 0.000 0.000 srgb} bind def
/col20 {0.820 0.000 0.000 srgb} bind def
/col21 {0.560 0.000 0.560 srgb} bind def
/col22 {0.690 0.000 0.690 srgb} bind def
/col23 {0.820 0.000 0.820 srgb} bind def
/col24 {0.500 0.190 0.000 srgb} bind def
/col25 {0.630 0.250 0.000 srgb} bind def
/col26 {0.750 0.380 0.000 srgb} bind def
/col27 {1.000 0.500 0.500 srgb} bind def
/col28 {1.000 0.630 0.630 srgb} bind def
/col29 {1.000 0.750 0.750 srgb} bind def
/col30 {1.000 0.880 0.880 srgb} bind def
/col31 {1.000 0.840 0.000 srgb} bind def
/col32 {0.906 0.906 0.906 srgb} bind def
/col33 {0.443 0.459 0.443 srgb} bind def
/col34 {0.851 0.851 0.851 srgb} bind def
/col35 {0.337 0.620 0.690 srgb} bind def
/col36 {0.255 0.271 0.255 srgb} bind def
/col37 {0.753 0.753 0.753 srgb} bind def

end

/cp {closepath} bind def
/ef {eofill} bind def
/gr {grestore} bind def
/gs {gsave} bind def
/sa {save} bind def
/rs {restore} bind def
/l {lineto} bind def
/m {moveto} bind def
/rm {rmoveto} bind def
/n {newpath} bind def
/s {stroke} bind def
/sh {show} bind def
/slc {setlinecap} bind def
/slj {setlinejoin} bind def
/slw {setlinewidth} bind def
/srgb {setrgbcolor} bind def
/rot {rotate} bind def
/sc {scale} bind def
/sd {setdash} bind def
/ff {findfont} bind def
/sf {setfont} bind def
/scf {scalefont} bind def
/sw {stringwidth} bind def
/tr {translate} bind def
/tnt {dup dup currentrgbcolor
  4 -2 roll dup 1 exch sub 3 -1 roll mul add
  4 -2 roll dup 1 exch sub 3 -1 roll mul add
  4 -2 roll dup 1 exch sub 3 -1 roll mul add srgb}
  bind def
/shd {dup dup currentrgbcolor 4 -2 roll mul 4 -2 roll mul
  4 -2 roll mul srgb} bind def
/reencdict 12 dict def /ReEncode { reencdict begin
/newcodesandnames exch def /newfontname exch def /basefontname exch def
/basefontdict basefontname findfont def /newfont basefontdict maxlength dict def
basefontdict { exch dup /FID ne { dup /Encoding eq
{ exch dup length array copy newfont 3 1 roll put }
{ exch newfont 3 1 roll put } ifelse } { pop pop } ifelse } forall
newfont /FontName newfontname put newcodesandnames aload pop
128 1 255 { newfont /Encoding get exch /.notdef put } for
newcodesandnames length 2 idiv { newfont /Encoding get 3 1 roll put } repeat
newfontname newfont definefont pop end } def
/isovec [
8#055 /minus 8#200 /grave 8#201 /acute 8#202 /circumflex 8#203 /tilde
8#204 /macron 8#205 /breve 8#206 /dotaccent 8#207 /dieresis
8#210 /ring 8#211 /cedilla 8#212 /hungarumlaut 8#213 /ogonek 8#214 /caron
8#220 /dotlessi 8#230 /oe 8#231 /OE
8#240 /space 8#241 /exclamdown 8#242 /cent 8#243 /sterling
8#244 /currency 8#245 /yen 8#246 /brokenbar 8#247 /section 8#250 /dieresis
8#251 /copyright 8#252 /ordfeminine 8#253 /guillemotleft 8#254 /logicalnot
8#255 /hyphen 8#256 /registered 8#257 /macron 8#260 /degree 8#261 /plusminus
8#262 /twosuperior 8#263 /threesuperior 8#264 /acute 8#265 /mu 8#266 /paragraph
8#267 /periodcentered 8#270 /cedilla 8#271 /onesuperior 8#272 /ordmasculine
8#273 /guillemotright 8#274 /onequarter 8#275 /onehalf
8#276 /threequarters 8#277 /questiondown 8#300 /Agrave 8#301 /Aacute
8#302 /Acircumflex 8#303 /Atilde 8#304 /Adieresis 8#305 /Aring
8#306 /AE 8#307 /Ccedilla 8#310 /Egrave 8#311 /Eacute
8#312 /Ecircumflex 8#313 /Edieresis 8#314 /Igrave 8#315 /Iacute
8#316 /Icircumflex 8#317 /Idieresis 8#320 /Eth 8#321 /Ntilde 8#322 /Ograve
8#323 /Oacute 8#324 /Ocircumflex 8#325 /Otilde 8#326 /Odieresis 8#327 /multiply
8#330 /Oslash 8#331 /Ugrave 8#332 /Uacute 8#333 /Ucircumflex
8#334 /Udieresis 8#335 /Yacute 8#336 /Thorn 8#337 /germandbls 8#340 /agrave
8#341 /aacute 8#342 /acircumflex 8#343 /atilde 8#344 /adieresis 8#345 /aring
8#346 /ae 8#347 /ccedilla 8#350 /egrave 8#351 /eacute
8#352 /ecircumflex 8#353 /edieresis 8#354 /igrave 8#355 /iacute
8#356 /icircumflex 8#357 /idieresis 8#360 /eth 8#361 /ntilde 8#362 /ograve
8#363 /oacute 8#364 /ocircumflex 8#365 /otilde 8#366 /odieresis 8#367 /divide
8#370 /oslash 8#371 /ugrave 8#372 /uacute 8#373 /ucircumflex
8#374 /udieresis 8#375 /yacute 8#376 /thorn 8#377 /ydieresis] def
/Times-Roman /Times-Roman-iso isovec ReEncode
/Helvetica /Helvetica-iso isovec ReEncode
 /DrawEllipse {
	/endangle exch def
	/startangle exch def
	/yrad exch def
	/xrad exch def
	/y exch def
	/x exch def
	/savematrix mtrx currentmatrix def
	x y tr xrad yrad sc 0 0 1 startangle endangle arc
	closepath
	savematrix setmatrix
	} def

/$F2psBegin {$F2psDict begin /$F2psEnteredState save def} def
/$F2psEnd {$F2psEnteredState restore end} def

/pageheader {
save
newpath 0 488 moveto 0 0 lineto 567 0 lineto 567 488 lineto closepath clip newpath
-224.7 512.3 translate
1 -1 scale
$F2psBegin
10 setmiterlimit
0 slj 0 slc
 0.06299 0.06299 sc
} bind def
/pagefooter {
$F2psEnd
restore
} bind def
%%EndProlog
pageheader
%
% Fig objects follow
%
% 
% here starts figure with depth 50
% Polyline
0 slj
0 slc
7.500 slw
n 10665 7605 m
 10395 7605 l gs col0 s gr 
% Polyline
n 10665 7380 m
 10395 7380 l gs col0 s gr 
% Polyline
n 10665 7830 m
 10395 7830 l gs col0 s gr 
% Polyline
n 11655 7380 m
 11385 7380 l gs col0 s gr 
% Polyline
n 11655 7605 m
 11385 7605 l gs col0 s gr 
% Polyline
n 11655 7830 m
 11385 7830 l gs col0 s gr 
% Polyline
n 10665 7245 m 11385 7245 l 11385 7965 l 10665 7965 l
 cp gs col0 s gr 
% Ellipse
n 6030 1305 45 45 0 360 DrawEllipse gs col0 s gr

% Polyline
n 8325 1305 m
 8775 1305 l gs col0 s gr 
% Polyline
n 8325 1665 m
 8775 1665 l gs col0 s gr 
% Polyline
n 8325 2025 m
 8775 2025 l gs col0 s gr 
% Polyline
n 8325 2205 m
 8775 2205 l gs col0 s gr 
% Polyline
n 8325 2745 m
 8775 2745 l gs col0 s gr 
% Polyline
n 8325 2925 m
 8775 2925 l gs col0 s gr 
% Polyline
n 8325 3105 m
 8775 3105 l gs col0 s gr 
% Polyline
n 8325 3645 m
 8775 3645 l gs col0 s gr 
% Polyline
n 8325 4005 m
 8775 4005 l gs col0 s gr 
% Polyline
n 8325 4185 m
 8775 4185 l gs col0 s gr 
% Polyline
n 8325 4545 m
 8775 4545 l gs col0 s gr 
% Polyline
n 8325 4725 m
 8775 4725 l gs col0 s gr 
% Polyline
n 8325 5085 m
 8775 5085 l gs col0 s gr 
% Polyline
n 8325 5265 m
 8640 5265 l gs col0 s gr 
% Polyline
n 5625 2025 m
 6075 2025 l gs col0 s gr 
% Polyline
n 5625 2385 m
 6075 2385 l gs col0 s gr 
% Polyline
n 5625 3420 m
 6075 3420 l gs col0 s gr 
% Polyline
n 5625 4905 m
 6075 4905 l gs col0 s gr 
% Polyline
n 8325 4905 m
 8775 4905 l gs col0 s gr 
% Polyline
n 5985 1305 m
 5625 1305 l gs col0 s gr 
% Polyline
n 5625 4365 m
 5400 4365 l gs col0 s gr 
% Polyline
n 5625 4905 m
 5400 4905 l gs col0 s gr 
% Polyline
n 5400 4815 m
 5400 5040 l gs col0 s gr 
% Polyline
n 5040 3960 m 5085 3960 l 5085 4365 l
 5400 4365 l gs col0 s gr 
% Polyline
n 5670 2925 m 5175 2925 l
 5175 2970 l gs col0 s gr 
% Polyline
n 5625 3420 m
 5175 3420 l gs col0 s gr 
% Polyline
n 4095 3150 m 4455 3150 l 4455 2925 l
 4500 2925 l gs col0 s gr 
% Polyline
n 4455 3150 m 4455 3420 l
 4500 3420 l gs col0 s gr 
% Polyline
n 4815 2925 m
 5175 2925 l gs col0 s gr 
% Polyline
n 4815 3420 m
 5175 3420 l gs col0 s gr 
% Polyline
n 5625 1665 m
 6075 1665 l gs col0 s gr 
% Polyline
n 5625 2385 m 4455 2385 l
 4455 2925 l gs col0 s gr 
% Polyline
n 4455 2385 m 4455 2025 l
 4950 2025 l gs col0 s gr 
% Polyline
n 5265 2025 m
 5625 2025 l gs col0 s gr 
% Polyline
n 4545 1665 m 4455 1665 l
 4455 2025 l gs col0 s gr 
% Polyline
n 5625 1665 m
 4860 1665 l gs col0 s gr 
% Polyline
n 8775 3645 m 11250 3645 l
 11250 2250 l gs col0 s gr 
% Polyline
n 8775 3465 m 11025 3465 l
 11025 2700 l gs col0 s gr 
% Polyline
n 8775 3285 m 10800 3285 l
 10800 2250 l gs col0 s gr 
% Polyline
n 8775 3105 m 10575 3105 l
 10575 2700 l gs col0 s gr 
% Polyline
n 8775 2925 m 10350 2925 l
 10350 2250 l gs col0 s gr 
% Polyline
n 9090 2340 m 9000 2340 l 9000 2205 l
 8775 2205 l gs col0 s gr 
% Polyline
n 5625 1305 m 5400 1305 l
 5400 1215 l gs col0 s gr 
% Polyline
n 9000 2205 m
 9000 1170 l gs col0 s gr 
% Polyline
gs  clippath
9030 620 m 9030 435 l 8970 435 l 8970 620 l 8970 620 l 9000 470 l 9030 620 l cp
eoclip
n 9000 720 m
 9000 450 l gs col0 s gr gr

% arrowhead
n 9030 620 m 9000 470 l 8970 620 l 9000 590 l 9030 620 l 
 cp gs col7 1.00 shd ef gr  col0 s
% Polyline
n 5400 765 m 5085 765 l
 5085 1350 l gs col0 s gr 
% Polyline
n 5085 1350 m
 5085 1665 l gs col0 s gr 
% Polyline
n 11880 6300 m
 11565 6300 l gs col0 s gr 
% Polyline
n 11880 5940 m
 11565 5940 l gs col0 s gr 
% Polyline
n 11880 5760 m
 11565 5760 l gs col0 s gr 
% Polyline
n 11880 5220 m
 11565 5220 l gs col0 s gr 
% Polyline
n 11880 5040 m
 11565 5040 l gs col0 s gr 
% Polyline
n 11880 4680 m
 11565 4680 l gs col0 s gr 
% Polyline
n 11880 4320 m
 11565 4320 l gs col0 s gr 
% Polyline
n 11880 3960 m
 11565 3960 l gs col0 s gr 
% Polyline
n 11880 6480 m
 11565 6480 l gs col0 s gr 
% Polyline
n 11880 6120 m
 11565 6120 l gs col0 s gr 
% Polyline
n 11880 4140 m
 11565 4140 l gs col0 s gr 
% Polyline
n 11880 4500 m
 11565 4500 l gs col0 s gr 
% Polyline
n 11880 4860 m
 11565 4860 l gs col0 s gr 
% Polyline
n 11880 5400 m
 11565 5400 l gs col0 s gr 
% Polyline
n 11880 6615 m 11880 3645 l 12555 3645 l 12555 6615 l
 cp gs col0 s gr 
% Polyline
n 11880 6300 m 11970 6300 l 11970 6390 l
 12015 6390 l gs col0 s gr 
% Polyline
n 11880 6480 m 11970 6480 l 11970 6525 l 12465 6525 l 12465 6390 l
 12375 6390 l gs col0 s gr 
% Polyline
n 9315 1170 m 9315 2025 l
 9360 2025 l gs col0 s gr 
% Polyline
n 9810 2340 m
 9540 2340 l gs col0 s gr 
% Polyline
n 9810 2340 m 9810 2025 l
 9720 2025 l gs col0 s gr 
% Polyline
n 10125 2250 m
 10125 1305 l gs col0 s gr 
% Polyline
n 10350 1800 m
 10350 1305 l gs col0 s gr 
% Polyline
n 8775 1305 m
 11700 1305 l gs col0 s gr 
% Polyline
n 8775 2745 m 10125 2745 l
 10125 2700 l gs col0 s gr 
% Polyline
n 10575 2250 m
 10575 1485 l gs col0 s gr 
% Polyline
n 10800 1800 m
 10800 1485 l gs col0 s gr 
% Polyline
n 8775 1485 m
 11700 1485 l gs col0 s gr 
% Polyline
n 11025 2250 m
 11025 1665 l gs col0 s gr 
% Polyline
n 11250 1665 m
 11250 1800 l gs col0 s gr 
% Polyline
n 8775 1665 m
 11700 1665 l gs col0 s gr 
% Polyline
n 11880 3780 m
 11565 3780 l gs col0 s gr 
% Polyline
n 11070 4185 m 11160 4185 l 11160 4140 l
 11565 4140 l gs col0 s gr 
% Polyline
n 10935 4320 m
 10620 4320 l gs col0 s gr 
% Polyline
n 11565 4500 m 10935 4500 l
 10935 4320 l gs col0 s gr 
% Polyline
n 10620 4275 m 10620 3780 l
 11565 3780 l gs col0 s gr 
% Polyline
n 11565 6480 m
 11430 6480 l gs col0 s gr 
% Polyline
n 11520 3105 m 11385 3105 l 11385 3870 l
 10935 3870 l gs col0 s gr 
% Polyline
n 11970 3105 m
 12105 3105 l gs col0 s gr 
% Polyline
n 12105 3105 m 12105 3510 l 11520 3510 l 11520 3960 l
 11565 3960 l gs col0 s gr 
% Polyline
n 9315 2025 m
 8775 2025 l gs col0 s gr 
% Polyline
gs  clippath
5823 873 m 5823 810 l 5696 810 l 5696 873 l 5696 873 l cp
eoclip
n 5760 1305 m
 5760 810 l gs col0 s gr gr

% arrowhead
n 5820 873 m 5819 863 l 5817 854 l 5813 845 l 5808 837 l 
5802 830 l 5794 824 l 5786 819 l 5777 815 l 5767 813 l 
5758 813 l 5748 814 l 5739 817 l 5730 821 l 5722 827 l 
5715 833 l 5709 841 l 5705 849 l 5702 859 l 5700 868 l 
5700 878 l 5702 887 l 5705 897 l 5709 905 l 5715 913 l 
5722 919 l 5730 925 l 5739 929 l 5748 932 l 5758 933 l 
5767 933 l 5777 931 l 5786 927 l 5794 922 l 5802 916 l 
5808 909 l 5813 901 l 5817 892 l 5819 883 l 5820 873 l 
 cp gs 0.00 setgray ef gr  col0 s
% Polyline
n 5085 765 m 4455 765 l
 4455 945 l gs col0 s gr 
% Polyline
n 4455 1350 m
 4455 1665 l gs col0 s gr 
% Polyline
n 8685 1845 m 8685 990 l
 8145 990 l gs col0 s gr 
% Polyline
n 8325 1485 m
 8775 1485 l gs col0 s gr 
% Polyline
n 8325 1845 m
 8685 1845 l gs col0 s gr 
% Polyline
n 5625 2925 m
 6075 2925 l gs col0 s gr 
% Polyline
n 5625 4365 m
 6075 4365 l gs col0 s gr 
% Polyline
n 5085 4365 m 5085 5400 l
 6075 5400 l gs col0 s gr 
% Polyline
n 5085 5400 m 5085 5985 l
 6075 5985 l gs col0 s gr 
% Polyline
n 5400 6300 m
 6075 6300 l gs col0 s gr 
% Polyline
n 5400 5715 m
 6075 5715 l gs col0 s gr 
% Polyline
n 6075 3960 m
 5670 3960 l gs col0 s gr 
% Polyline
n 8325 3285 m
 8775 3285 l gs col0 s gr 
% Polyline
n 8325 3465 m
 8775 3465 l gs col0 s gr 
% Polyline
n 11880 5580 m
 11565 5580 l gs col0 s gr 
% Polyline
n 8775 4365 m 10215 4365 l 10215 4860 l 11340 4860 l 11340 4680 l
 11610 4680 l gs col0 s gr 
% Polyline
n 8325 4365 m
 8775 4365 l gs col0 s gr 
% Polyline
n 8550 6390 m 8775 6390 l 8775 6885 l 12060 6885 l 12060 7605 l
 11610 7605 l gs col0 s gr 
% Polyline
n 11565 5760 m 9945 5760 l 9945 5085 l
 8775 5085 l gs col0 s gr 
% Polyline
n 11565 6120 m 9675 6120 l 9675 4725 l
 8775 4725 l gs col0 s gr 
% Polyline
n 11565 4320 m 11205 4320 l 11205 4725 l 9900 4725 l 9900 4545 l
 8775 4545 l gs col0 s gr 
% Polyline
n 4500 3960 m 4500 7245 l
 5040 7245 l gs col0 s gr 
% Polyline
n 5175 5400 m 4725 5400 l
 4725 5355 l gs col0 s gr 
% Polyline
n 5400 4500 m
 5400 4365 l gs col0 s gr 
% Polyline
n 4590 3960 m
 4230 3960 l gs col0 s gr 
% Polyline
n 11565 5580 m 10080 5580 l 10080 5265 l
 8640 5265 l gs col0 s gr 
% Polyline
n 5220 4905 m 5220 3960 l
 5670 3960 l gs col0 s gr 
% Polyline
n 5220 4905 m
 5400 4905 l gs col0 s gr 
% Polyline
n 5220 4905 m
 5220 6300 l gs col0 s gr 
% Polyline
n 5400 6300 m
 5220 6300 l gs col0 s gr 
% Polyline
n 5400 5715 m
 5220 5715 l gs col0 s gr 
% Polyline
n 6075 3645 m 5085 3645 l
 5085 3960 l gs col0 s gr 
% Polyline
n 11565 5940 m 9810 5940 l 9810 4905 l
 8730 4905 l gs col0 s gr 
% Polyline
n 8325 5535 m
 8550 5535 l gs col0 s gr 
% Polyline
n 8550 5535 m
 8955 5535 l gs col0 s gr 
% Polyline
n 9495 7830 m
 10395 7830 l gs col0 s gr 
% Polyline
n 8550 6615 m 8685 6615 l 8685 7380 l 9945 7380 l 10170 7380 l
 10395 7380 l gs col0 s gr 
% Polyline
n 8550 6840 m 8550 7605 l 9720 7605 l 9990 7605 l
 10395 7605 l gs col0 s gr 
% Polyline
gs  clippath
9063 7766 m 9000 7766 l 9000 7893 l 9063 7893 l 9063 7893 l cp
eoclip
n 9495 7830 m
 9000 7830 l gs col0 s gr gr

% arrowhead
n 9063 7770 m 9053 7771 l 9044 7773 l 9035 7777 l 9027 7782 l 
9020 7788 l 9014 7796 l 9009 7804 l 9005 7813 l 9003 7823 l 
9003 7832 l 9004 7842 l 9007 7851 l 9011 7860 l 9017 7868 l 
9023 7875 l 9031 7881 l 9039 7885 l 9049 7888 l 9058 7890 l 
9068 7890 l 9077 7888 l 9087 7885 l 9095 7881 l 9103 7875 l 
9109 7868 l 9115 7860 l 9119 7851 l 9122 7842 l 9123 7832 l 
9123 7823 l 9121 7813 l 9117 7804 l 9112 7796 l 9106 7788 l 
9099 7782 l 9091 7777 l 9082 7773 l 9073 7771 l 9063 7770 l 
 cp gs 0.00 setgray ef gr  col0 s
% Polyline
n 8325 6840 m
 8550 6840 l gs col0 s gr 
% Polyline
n 8325 6615 m
 8550 6615 l gs col0 s gr 
% Polyline
n 8325 6390 m
 8550 6390 l gs col0 s gr 
% Polyline
n 8325 5715 m
 8550 5715 l gs col0 s gr 
% Polyline
n 8550 5715 m 8595 5715 l
 8595 5535 l gs col0 s gr 
% Polyline
n 8775 4005 m
 9405 4005 l gs col0 s gr 
% Polyline
n 8325 6030 m
 8550 6030 l gs col0 s gr 
% Polyline
n 8910 6030 m
 8505 6030 l gs col0 s gr 
% Polyline
n 6075 1125 m 8325 1125 l 8325 7065 l 6075 7065 l
 cp gs col0 s gr 
% Polyline
n 11565 6300 m 10890 6300 l 10890 6525 l
 10665 6525 l gs col0 s gr 
/Times-Roman-iso ff 120.00 scf sf
10530 7560 m
gs 1 -1 sc (3) dup sw pop 2 div neg 0 rm  col0 sh gr
/Times-Roman-iso ff 120.00 scf sf
10530 7785 m
gs 1 -1 sc (5) dup sw pop 2 div neg 0 rm  col0 sh gr
/Times-Roman-iso ff 120.00 scf sf
10530 7335 m
gs 1 -1 sc (1) dup sw pop 2 div neg 0 rm  col0 sh gr
/Times-Roman-iso ff 90.00 scf sf
10710 7425 m
gs 1 -1 sc (MISO) col0 sh gr
/Times-Roman-iso ff 90.00 scf sf
10710 7650 m
gs 1 -1 sc (SCK) col0 sh gr
/Times-Roman-iso ff 90.00 scf sf
10710 7875 m
gs 1 -1 sc (RESET) col0 sh gr
/Times-Roman-iso ff 120.00 scf sf
11520 7335 m
gs 1 -1 sc (2) dup sw pop 2 div neg 0 rm  col0 sh gr
/Times-Roman-iso ff 120.00 scf sf
11520 7560 m
gs 1 -1 sc (4) dup sw pop 2 div neg 0 rm  col0 sh gr
/Times-Roman-iso ff 120.00 scf sf
11520 7785 m
gs 1 -1 sc (6) dup sw pop 2 div neg 0 rm  col0 sh gr
/Times-Roman-iso ff 90.00 scf sf
11340 7425 m
gs 1 -1 sc (VCC) dup sw pop neg 0 rm  col0 sh gr
/Times-Roman-iso ff 90.00 scf sf
11340 7650 m
gs 1 -1 sc (MOSI) dup sw pop neg 0 rm  col0 sh gr
/Times-Roman-iso ff 90.00 scf sf
11340 7875 m
gs 1 -1 sc (GND) dup sw pop neg 0 rm  col0 sh gr
/Times-Roman-iso ff 150.00 scf sf
11025 7200 m
gs 1 -1 sc (ISP) dup sw pop 2 div neg 0 rm  col4 sh gr
/Times-Roman-iso ff 120.00 scf sf
6120 3465 m
gs 1 -1 sc (XTAL2) col0 sh gr
/Times-Roman-iso ff 120.00 scf sf
8280 3330 m
gs 1 -1 sc (PK3\(ADC11/PCINT19\)) dup sw pop neg 0 rm  col0 sh gr
/Times-Roman-iso ff 120.00 scf sf
8280 3150 m
gs 1 -1 sc (PK2\(ADC10/PCINT18\)) dup sw pop neg 0 rm  col0 sh gr
/Times-Roman-iso ff 120.00 scf sf
8280 2790 m
gs 1 -1 sc (PK0\(ADC8/PCINT16\)) dup sw pop neg 0 rm  col0 sh gr
/Times-Roman-iso ff 120.00 scf sf
8280 1530 m
gs 1 -1 sc (PF1\(ADC1\)) dup sw pop neg 0 rm  col0 sh gr
/Times-Roman-iso ff 120.00 scf sf
8280 1710 m
gs 1 -1 sc (PF2\(ADC2\)) dup sw pop neg 0 rm  col0 sh gr
/Times-Roman-iso ff 120.00 scf sf
8280 1890 m
gs 1 -1 sc (PF3\(ADC3\)) dup sw pop neg 0 rm  col0 sh gr
/Times-Roman-iso ff 120.00 scf sf
8280 2070 m
gs 1 -1 sc (PF4\(ADC4\)) dup sw pop neg 0 rm  col0 sh gr
/Times-Roman-iso ff 120.00 scf sf
8280 2250 m
gs 1 -1 sc (PF5\(ADC5\)) dup sw pop neg 0 rm  col0 sh gr
/Times-Roman-iso ff 120.00 scf sf
6120 2070 m
gs 1 -1 sc (AREF) col0 sh gr
/Times-Roman-iso ff 120.00 scf sf
6120 2970 m
gs 1 -1 sc (XTAL1) col0 sh gr
/Times-Roman-iso ff 150.00 scf sf
7200 1035 m
gs 1 -1 sc (ATmega1280/2560) dup sw pop 2 div neg 0 rm  col0 sh gr
/Times-Roman-iso ff 120.00 scf sf
8415 1260 m
gs 1 -1 sc (97) col0 sh gr
/Times-Roman-iso ff 120.00 scf sf
8415 1440 m
gs 1 -1 sc (96) col0 sh gr
/Times-Roman-iso ff 120.00 scf sf
8415 1620 m
gs 1 -1 sc (95) col0 sh gr
/Times-Roman-iso ff 120.00 scf sf
8415 1800 m
gs 1 -1 sc (94) col0 sh gr
/Times-Roman-iso ff 120.00 scf sf
8415 1980 m
gs 1 -1 sc (93) col0 sh gr
/Times-Roman-iso ff 120.00 scf sf
8415 2160 m
gs 1 -1 sc (92) col0 sh gr
/Times-Roman-iso ff 120.00 scf sf
8415 2700 m
gs 1 -1 sc (89) col0 sh gr
/Times-Roman-iso ff 120.00 scf sf
8415 2880 m
gs 1 -1 sc (88) col0 sh gr
/Times-Roman-iso ff 120.00 scf sf
8415 3060 m
gs 1 -1 sc (87) col0 sh gr
/Times-Roman-iso ff 120.00 scf sf
8415 3240 m
gs 1 -1 sc (86) col0 sh gr
/Times-Roman-iso ff 120.00 scf sf
8415 3420 m
gs 1 -1 sc (85) col0 sh gr
/Times-Roman-iso ff 120.00 scf sf
8415 3600 m
gs 1 -1 sc (84) col0 sh gr
/Times-Roman-iso ff 120.00 scf sf
8460 4320 m
gs 1 -1 sc (73) col0 sh gr
/Times-Roman-iso ff 120.00 scf sf
8460 3960 m
gs 1 -1 sc (71) col0 sh gr
/Times-Roman-iso ff 120.00 scf sf
8460 4680 m
gs 1 -1 sc (75) col0 sh gr
/Times-Roman-iso ff 120.00 scf sf
8415 4860 m
gs 1 -1 sc (76) col0 sh gr
/Times-Roman-iso ff 120.00 scf sf
8415 5040 m
gs 1 -1 sc (77) col0 sh gr
/Times-Roman-iso ff 120.00 scf sf
8415 5220 m
gs 1 -1 sc (78) col0 sh gr
/Times-Roman-iso ff 120.00 scf sf
6120 1710 m
gs 1 -1 sc (AVCC) col0 sh gr
/Times-Roman-iso ff 120.00 scf sf
4815 4140 m
gs 1 -1 sc (27k) dup sw pop 2 div neg 0 rm  col0 sh gr
/Times-Roman-iso ff 150.00 scf sf
4725 3600 m
gs 1 -1 sc (22p) col0 sh gr
/Times-Roman-iso ff 150.00 scf sf
5355 3195 m
gs 1 -1 sc (16MHz) col0 sh gr
/Times-Roman-iso ff 120.00 scf sf
5535 4725 m
gs 1 -1 sc (100n) col0 sh gr
/Times-Roman-iso ff 120.00 scf sf
11745 5175 m
gs 1 -1 sc (9) dup sw pop neg 0 rm  col0 sh gr
/Times-Roman-iso ff 150.00 scf sf
12360 4950 m
gs 1 -1 sc  90.0 rot (LCD 2x16, 4x20) dup sw pop 2 div neg 0 rm  col0 sh gr
/Times-Roman-iso ff 120.00 scf sf
11745 3735 m
gs 1 -1 sc (1) dup sw pop neg 0 rm  col0 sh gr
/Times-Roman-iso ff 120.00 scf sf
11745 3915 m
gs 1 -1 sc (2) dup sw pop neg 0 rm  col0 sh gr
/Times-Roman-iso ff 120.00 scf sf
11790 6435 m
gs 1 -1 sc (16) dup sw pop neg 0 rm  col0 sh gr
/Times-Roman-iso ff 120.00 scf sf
11790 6255 m
gs 1 -1 sc (15) dup sw pop neg 0 rm  col0 sh gr
/Times-Roman-iso ff 120.00 scf sf
11925 6165 m
gs 1 -1 sc (D7) col0 sh gr
/Times-Roman-iso ff 120.00 scf sf
11925 5985 m
gs 1 -1 sc (D6) col0 sh gr
/Times-Roman-iso ff 120.00 scf sf
11925 5805 m
gs 1 -1 sc (D5) col0 sh gr
/Times-Roman-iso ff 120.00 scf sf
11745 4095 m
gs 1 -1 sc (3) dup sw pop neg 0 rm  col0 sh gr
/Times-Roman-iso ff 120.00 scf sf
11790 6075 m
gs 1 -1 sc (14) dup sw pop neg 0 rm  col0 sh gr
/Times-Roman-iso ff 120.00 scf sf
11745 4275 m
gs 1 -1 sc (4) dup sw pop neg 0 rm  col0 sh gr
/Times-Roman-iso ff 120.00 scf sf
11745 4455 m
gs 1 -1 sc (5) dup sw pop neg 0 rm  col0 sh gr
/Times-Roman-iso ff 120.00 scf sf
11790 5895 m
gs 1 -1 sc (13) dup sw pop neg 0 rm  col0 sh gr
/Times-Roman-iso ff 120.00 scf sf
11790 5715 m
gs 1 -1 sc (12) dup sw pop neg 0 rm  col0 sh gr
/Times-Roman-iso ff 120.00 scf sf
11745 4635 m
gs 1 -1 sc (6) dup sw pop neg 0 rm  col0 sh gr
/Times-Roman-iso ff 120.00 scf sf
11745 4815 m
gs 1 -1 sc (7) dup sw pop neg 0 rm  col0 sh gr
/Times-Roman-iso ff 120.00 scf sf
11790 5535 m
gs 1 -1 sc (11) dup sw pop neg 0 rm  col0 sh gr
/Times-Roman-iso ff 120.00 scf sf
11790 5355 m
gs 1 -1 sc (10) dup sw pop neg 0 rm  col0 sh gr
/Times-Roman-iso ff 120.00 scf sf
11745 4995 m
gs 1 -1 sc (8) dup sw pop neg 0 rm  col0 sh gr
/Times-Roman-iso ff 120.00 scf sf
11925 5625 m
gs 1 -1 sc (D4) col0 sh gr
/Times-Roman-iso ff 120.00 scf sf
11925 5445 m
gs 1 -1 sc (D3) col0 sh gr
/Times-Roman-iso ff 120.00 scf sf
11925 5265 m
gs 1 -1 sc (D2) col0 sh gr
/Times-Roman-iso ff 120.00 scf sf
11925 5085 m
gs 1 -1 sc (D1) col0 sh gr
/Times-Roman-iso ff 120.00 scf sf
11925 4905 m
gs 1 -1 sc (D0) col0 sh gr
/Times-Roman-iso ff 120.00 scf sf
11925 4725 m
gs 1 -1 sc (E) col0 sh gr
/Times-Roman-iso ff 120.00 scf sf
11925 4545 m
gs 1 -1 sc (R/W) col0 sh gr
/Times-Roman-iso ff 120.00 scf sf
11925 4365 m
gs 1 -1 sc (RS) col0 sh gr
/Times-Roman-iso ff 120.00 scf sf
11925 4185 m
gs 1 -1 sc (VEE) col0 sh gr
/Times-Roman-iso ff 120.00 scf sf
11925 3825 m
gs 1 -1 sc (GND) col0 sh gr
/Times-Roman-iso ff 120.00 scf sf
11925 4005 m
gs 1 -1 sc (+5V) col0 sh gr
/Times-Roman-iso ff 150.00 scf sf
8865 585 m
gs 1 -1 sc (Ubat) dup sw pop neg 0 rm  col4 sh gr
/Times-Roman-iso ff 150.00 scf sf
9495 945 m
gs 1 -1 sc  90.0 rot (2k2) dup sw pop 2 div neg 0 rm  col0 sh gr
/Times-Roman-iso ff 150.00 scf sf
11070 4050 m
gs 1 -1 sc (10k) col0 sh gr
/Times-Roman-iso ff 150.00 scf sf
12240 1530 m
gs 1 -1 sc (TP2) col0 sh gr
/Times-Roman-iso ff 150.00 scf sf
12240 1710 m
gs 1 -1 sc (TP3) col0 sh gr
/Times-Roman-iso ff 150.00 scf sf
12240 1350 m
gs 1 -1 sc (TP1) col0 sh gr
/Times-Roman-iso ff 150.00 scf sf
11745 3285 m
gs 1 -1 sc (10k) dup sw pop 2 div neg 0 rm  col0 sh gr
/Times-Roman-iso ff 120.00 scf sf
10035 2475 m
gs 1 -1 sc  90.0 rot (R1) dup sw pop 2 div neg 0 rm  col0 sh gr
/Times-Roman-iso ff 135.00 scf sf
10305 2475 m
gs 1 -1 sc  90.0 rot (680) dup sw pop 2 div neg 0 rm  col0 sh gr
/Times-Roman-iso ff 120.00 scf sf
10485 2475 m
gs 1 -1 sc  90.0 rot (R3) dup sw pop 2 div neg 0 rm  col0 sh gr
/Times-Roman-iso ff 135.00 scf sf
10755 2475 m
gs 1 -1 sc  90.0 rot (680) dup sw pop 2 div neg 0 rm  col0 sh gr
/Times-Roman-iso ff 120.00 scf sf
10935 2475 m
gs 1 -1 sc  90.0 rot (R5) dup sw pop 2 div neg 0 rm  col0 sh gr
/Times-Roman-iso ff 135.00 scf sf
11205 2475 m
gs 1 -1 sc  90.0 rot (680) dup sw pop 2 div neg 0 rm  col0 sh gr
/Times-Roman-iso ff 120.00 scf sf
10260 2025 m
gs 1 -1 sc  90.0 rot (R2) dup sw pop 2 div neg 0 rm  col0 sh gr
/Times-Roman-iso ff 135.00 scf sf
10530 2025 m
gs 1 -1 sc  90.0 rot (470k) dup sw pop 2 div neg 0 rm  col0 sh gr
/Times-Roman-iso ff 120.00 scf sf
10710 2025 m
gs 1 -1 sc  90.0 rot (R4) dup sw pop 2 div neg 0 rm  col0 sh gr
/Times-Roman-iso ff 135.00 scf sf
10980 2025 m
gs 1 -1 sc  90.0 rot (470k) dup sw pop 2 div neg 0 rm  col0 sh gr
/Times-Roman-iso ff 120.00 scf sf
11160 2025 m
gs 1 -1 sc  90.0 rot (R6) dup sw pop 2 div neg 0 rm  col0 sh gr
/Times-Roman-iso ff 135.00 scf sf
11430 2025 m
gs 1 -1 sc  90.0 rot (470k) dup sw pop 2 div neg 0 rm  col0 sh gr
/Times-Roman-iso ff 120.00 scf sf
5580 990 m
gs 1 -1 sc  90.0 rot (10k) dup sw pop 2 div neg 0 rm  col0 sh gr
/Times-Roman-iso ff 150.00 scf sf
5715 765 m
gs 1 -1 sc (Reset) col0 sh gr
/Times-Roman-iso ff 150.00 scf sf
4725 3105 m
gs 1 -1 sc (22p) col0 sh gr
/Times-Roman-iso ff 150.00 scf sf
5175 2205 m
gs 1 -1 sc (1n) col0 sh gr
/Times-Roman-iso ff 150.00 scf sf
4770 1845 m
gs 1 -1 sc (100n) col0 sh gr
/Times-Roman-iso ff 150.00 scf sf
9180 945 m
gs 1 -1 sc  90.0 rot (10k) dup sw pop 2 div neg 0 rm  col4 sh gr
/Times-Roman-iso ff 150.00 scf sf
9630 2250 m
gs 1 -1 sc (2.5V) dup sw pop 2 div neg 0 rm  col4 sh gr
/Times-Roman-iso ff 150.00 scf sf
9630 1890 m
gs 1 -1 sc (LT1004) dup sw pop 2 div neg 0 rm  col4 sh gr
/Times-Roman-iso ff 135.00 scf sf
9315 2520 m
gs 1 -1 sc (3k3) dup sw pop 2 div neg 0 rm  col4 sh gr
/Times-Roman-iso ff 150.00 scf sf
4545 990 m
gs 1 -1 sc (10u) col0 sh gr
/Times-Roman-iso ff 180.00 scf sf
8145 945 m
gs 1 -1 sc (serial) col4 sh gr
/Times-Roman-iso ff 150.00 scf sf
4050 4185 m
gs 1 -1 sc (Test) dup sw pop 2 div neg 0 rm  col0 sh gr
/Times-Roman-iso ff 120.00 scf sf
8280 1350 m
gs 1 -1 sc (PF0\(ADC0\)) dup sw pop neg 0 rm  col0 sh gr
/Times-Roman-iso ff 120.00 scf sf
6120 2430 m
gs 1 -1 sc (GND) col0 sh gr
/Times-Roman-iso ff 120.00 scf sf
6120 5445 m
gs 1 -1 sc (VCC) col0 sh gr
/Times-Roman-iso ff 120.00 scf sf
6120 5760 m
gs 1 -1 sc (GND) col0 sh gr
/Times-Roman-iso ff 120.00 scf sf
6120 6345 m
gs 1 -1 sc (GND) col0 sh gr
/Times-Roman-iso ff 120.00 scf sf
6120 6030 m
gs 1 -1 sc (VCC) col0 sh gr
/Times-Roman-iso ff 120.00 scf sf
5985 4860 m
gs 1 -1 sc (81) dup sw pop neg 0 rm  col0 sh gr
/Times-Roman-iso ff 120.00 scf sf
5985 4320 m
gs 1 -1 sc (80) dup sw pop neg 0 rm  col0 sh gr
/Times-Roman-iso ff 120.00 scf sf
5985 3375 m
gs 1 -1 sc (33) dup sw pop neg 0 rm  col0 sh gr
/Times-Roman-iso ff 120.00 scf sf
5985 2880 m
gs 1 -1 sc (34) dup sw pop neg 0 rm  col0 sh gr
/Times-Roman-iso ff 120.00 scf sf
5985 2340 m
gs 1 -1 sc (99) dup sw pop neg 0 rm  col0 sh gr
/Times-Roman-iso ff 120.00 scf sf
6120 4410 m
gs 1 -1 sc (VCC) col0 sh gr
/Times-Roman-iso ff 120.00 scf sf
6120 4950 m
gs 1 -1 sc (GND) col0 sh gr
/Times-Roman-iso ff 120.00 scf sf
5985 5355 m
gs 1 -1 sc (61) dup sw pop neg 0 rm  col0 sh gr
/Times-Roman-iso ff 120.00 scf sf
5985 5940 m
gs 1 -1 sc (31) dup sw pop neg 0 rm  col0 sh gr
/Times-Roman-iso ff 120.00 scf sf
5985 6255 m
gs 1 -1 sc (32) dup sw pop neg 0 rm  col0 sh gr
/Times-Roman-iso ff 120.00 scf sf
5985 5670 m
gs 1 -1 sc (62) dup sw pop neg 0 rm  col0 sh gr
/Times-Roman-iso ff 120.00 scf sf
6120 3735 m
gs 1 -1 sc (VCC) col0 sh gr
/Times-Roman-iso ff 120.00 scf sf
6120 4005 m
gs 1 -1 sc (GND) col0 sh gr
/Times-Roman-iso ff 120.00 scf sf
5985 3915 m
gs 1 -1 sc (11) dup sw pop neg 0 rm  col0 sh gr
/Times-Roman-iso ff 120.00 scf sf
5985 3600 m
gs 1 -1 sc (10) dup sw pop neg 0 rm  col0 sh gr
/Times-Roman-iso ff 120.00 scf sf
5985 1980 m
gs 1 -1 sc (98) dup sw pop neg 0 rm  col0 sh gr
/Times-Roman-iso ff 120.00 scf sf
5985 1620 m
gs 1 -1 sc (100) dup sw pop neg 0 rm  col0 sh gr
/Times-Roman-iso ff 120.00 scf sf
5940 1260 m
gs 1 -1 sc (30) dup sw pop neg 0 rm  col0 sh gr
/Times-Roman-iso ff 120.00 scf sf
8280 2970 m
gs 1 -1 sc (PK1\(ADC9/PCINT17\)) dup sw pop neg 0 rm  col0 sh gr
/Times-Roman-iso ff 120.00 scf sf
8280 3510 m
gs 1 -1 sc (PK4\(ADC12/PCINT20\)) dup sw pop neg 0 rm  col0 sh gr
/Times-Roman-iso ff 120.00 scf sf
8280 3690 m
gs 1 -1 sc (PK5\(ADC13/PCINT21\)) dup sw pop neg 0 rm  col0 sh gr
/Times-Roman-iso ff 120.00 scf sf
6120 1350 m
gs 1 -1 sc (RESET) col0 sh gr
/Times-Roman-iso ff 120.00 scf sf
8280 4770 m
gs 1 -1 sc (PA3\(AD3\)) dup sw pop neg 0 rm  col0 sh gr
/Times-Roman-iso ff 120.00 scf sf
8280 4590 m
gs 1 -1 sc (PA4\(AD4\)) dup sw pop neg 0 rm  col0 sh gr
/Times-Roman-iso ff 120.00 scf sf
8280 4410 m
gs 1 -1 sc (PA5\(AD5\)) dup sw pop neg 0 rm  col0 sh gr
/Times-Roman-iso ff 120.00 scf sf
8280 4230 m
gs 1 -1 sc (PA6\(AD6\)) dup sw pop neg 0 rm  col0 sh gr
/Times-Roman-iso ff 120.00 scf sf
8280 4050 m
gs 1 -1 sc (PA7\(AD7\)) dup sw pop neg 0 rm  col0 sh gr
/Times-Roman-iso ff 120.00 scf sf
8460 4500 m
gs 1 -1 sc (74) col0 sh gr
/Times-Roman-iso ff 120.00 scf sf
8460 4140 m
gs 1 -1 sc (72) col0 sh gr
/Times-Roman-iso ff 120.00 scf sf
8280 5310 m
gs 1 -1 sc (PA0\(AD0\)) dup sw pop neg 0 rm  col0 sh gr
/Times-Roman-iso ff 120.00 scf sf
8280 5130 m
gs 1 -1 sc (PA1\(AD1\)) dup sw pop neg 0 rm  col0 sh gr
/Times-Roman-iso ff 120.00 scf sf
8280 4950 m
gs 1 -1 sc (PA2\(AD2\)) dup sw pop neg 0 rm  col0 sh gr
/Times-Roman-iso ff 120.00 scf sf
9000 5220 m
gs 1 -1 sc (JP1-22) col12 sh gr
/Times-Roman-iso ff 120.00 scf sf
9000 5040 m
gs 1 -1 sc (JP1-23) col12 sh gr
/Times-Roman-iso ff 120.00 scf sf
9000 4860 m
gs 1 -1 sc (JP1-24) col12 sh gr
/Times-Roman-iso ff 120.00 scf sf
9000 4680 m
gs 1 -1 sc (JP1-25) col12 sh gr
/Times-Roman-iso ff 120.00 scf sf
9000 4500 m
gs 1 -1 sc (JP1-26) col12 sh gr
/Times-Roman-iso ff 120.00 scf sf
9000 4320 m
gs 1 -1 sc (JP1-27) col12 sh gr
/Times-Roman-iso ff 120.00 scf sf
5535 6165 m
gs 1 -1 sc (100n) col0 sh gr
/Times-Roman-iso ff 120.00 scf sf
5535 5580 m
gs 1 -1 sc (100n) col0 sh gr
/Times-Roman-iso ff 120.00 scf sf
5535 3825 m
gs 1 -1 sc (100n) col0 sh gr
/Times-Roman-iso ff 120.00 scf sf
8280 6885 m
gs 1 -1 sc (PB1\(SCK\)) dup sw pop neg 0 rm  col0 sh gr
/Times-Roman-iso ff 120.00 scf sf
8280 6660 m
gs 1 -1 sc (PB3\(MISO\)) dup sw pop neg 0 rm  col0 sh gr
/Times-Roman-iso ff 120.00 scf sf
8370 6795 m
gs 1 -1 sc (20) col0 sh gr
/Times-Roman-iso ff 120.00 scf sf
8370 6570 m
gs 1 -1 sc (22) col0 sh gr
/Times-Roman-iso ff 120.00 scf sf
8370 6345 m
gs 1 -1 sc (21) col0 sh gr
/Times-Roman-iso ff 120.00 scf sf
8280 6435 m
gs 1 -1 sc (PB2\(MOSI\)) dup sw pop neg 0 rm  col0 sh gr
/Times-Roman-iso ff 120.00 scf sf
8280 5760 m
gs 1 -1 sc (PE6\(T3/INT6\)) dup sw pop neg 0 rm  col0 sh gr
/Times-Roman-iso ff 120.00 scf sf
8415 5670 m
gs 1 -1 sc (8) col0 sh gr
/Times-Roman-iso ff 120.00 scf sf
8415 5490 m
gs 1 -1 sc (7) col0 sh gr
/Times-Roman-iso ff 120.00 scf sf
8280 5580 m
gs 1 -1 sc (PE5\(OC3C/INT5\)) dup sw pop neg 0 rm  col0 sh gr
/Times-Roman-iso ff 180.00 scf sf
5085 7290 m
gs 1 -1 sc (Button) col0 sh gr
/Times-Roman-iso ff 180.00 scf sf
9495 4005 m
gs 1 -1 sc (Button) col0 sh gr
/Times-Roman-iso ff 120.00 scf sf
8955 3960 m
gs 1 -1 sc (JP1-29) col12 sh gr
/Times-Roman-iso ff 120.00 scf sf
8280 6075 m
gs 1 -1 sc (PB6\(OC1B/PCINT6\)) dup sw pop neg 0 rm  col0 sh gr
/Times-Roman-iso ff 120.00 scf sf
8370 5985 m
gs 1 -1 sc (25) col0 sh gr
/Times-Roman-iso ff 120.00 scf sf
8955 5805 m
gs 1 -1 sc (Frequency) col0 sh gr
/Times-Roman-iso ff 150.00 scf sf
10485 6705 m
gs 1 -1 sc (33-270) dup sw pop 2 div neg 0 rm  col0 sh gr
/Times-Roman-iso ff 120.00 scf sf
9270 6075 m
gs 1 -1 sc (Output) col0 sh gr
/Times-Roman-iso ff 120.00 scf sf
9315 5580 m
gs 1 -1 sc (Input) col0 sh gr
/Times-Roman-iso ff 120.00 scf sf
8730 5490 m
gs 1 -1 sc (PWM-3) col12 sh gr
/Times-Roman-iso ff 120.00 scf sf
8640 5985 m
gs 1 -1 sc (PWM-12) col12 sh gr
% here ends figure;
% 
% here starts figure with depth 0
% Polyline
0 slj
1 slc
30.000 slw
n 5310 5265 m
 5490 5265 l gs col0 s gr 
% Polyline
0 slc
7.500 slw
n 5400 4995 m
 5400 5265 l gs col0 s gr 
% Ellipse
n 5400 4365 20 20 0 360 DrawEllipse gs 0.00 setgray ef gr gs col0 s gr

% Ellipse
n 5400 4905 20 20 0 360 DrawEllipse gs 0.00 setgray ef gr gs col0 s gr

% Polyline
n 4680 3960 m
 4590 3960 l gs col0 s gr 
% Polyline
n 4950 4005 m 4950 3915 l 4680 3915 l 4680 4005 l
 cp gs col0 s gr 
% Polyline
n 5040 3960 m
 4950 3960 l gs col0 s gr 
% Ellipse
n 4500 3960 20 20 0 360 DrawEllipse gs 0.00 setgray ef gr gs col0 s gr

% Polyline
n 5175 3285 m
 5175 3420 l gs col0 s gr 
% Polyline
n 5085 3285 m
 5265 3285 l gs col0 s gr 
% Polyline
n 5065 3150 m 5285 3150 l 5285 3240 l 5065 3240 l
 cp gs col0 s gr 
% Polyline
n 5085 3105 m
 5265 3105 l gs col0 s gr 
% Polyline
n 5175 3105 m
 5175 2970 l gs col0 s gr 
% Polyline
n 4635 3420 m
 4500 3420 l gs col0 s gr 
% Polyline
n 4680 3420 m
 4815 3420 l gs col0 s gr 
% Polyline
n 4635 3510 m
 4635 3330 l gs col0 s gr 
% Polyline
n 4680 3510 m
 4680 3330 l gs col0 s gr 
% Polyline
1 slc
30.000 slw
n 4005 3420 m
 4185 3420 l gs col0 s gr 
% Polyline
0 slc
7.500 slw
n 4095 3150 m
 4095 3420 l gs col0 s gr 
% Ellipse
n 4455 3150 20 20 0 360 DrawEllipse gs 0.00 setgray ef gr gs col0 s gr

% Ellipse
n 5175 2925 20 20 0 360 DrawEllipse gs 0.00 setgray ef gr gs col0 s gr

% Ellipse
n 5175 3420 20 20 0 360 DrawEllipse gs 0.00 setgray ef gr gs col0 s gr

% Polyline
n 5130 2025 m
 5265 2025 l gs col0 s gr 
% Polyline
n 5085 2025 m
 4950 2025 l gs col0 s gr 
% Polyline
n 5130 1935 m
 5130 2115 l gs col0 s gr 
% Polyline
n 5085 1935 m
 5085 2115 l gs col0 s gr 
% Ellipse
n 4455 2925 20 20 0 360 DrawEllipse gs 0.00 setgray ef gr gs col0 s gr

% Ellipse
n 4455 2385 20 20 0 360 DrawEllipse gs 0.00 setgray ef gr gs col0 s gr

% Ellipse
n 4455 2025 20 20 0 360 DrawEllipse gs 0.00 setgray ef gr gs col0 s gr

% Polyline
n 11880 1260 m 11925 1305 l
 11880 1350 l gs col0 s gr 
% Polyline
n 11925 1260 m 11970 1305 l
 11925 1350 l gs col0 s gr 
% Polyline
n 11970 1305 m
 12150 1305 l gs col0 s gr 
% Polyline
n 11700 1305 m
 11925 1305 l gs col0 s gr 
% Polyline
n 11880 1440 m 11925 1485 l
 11880 1530 l gs col0 s gr 
% Polyline
n 11925 1440 m 11970 1485 l
 11925 1530 l gs col0 s gr 
% Polyline
n 11970 1485 m
 12150 1485 l gs col0 s gr 
% Polyline
n 11700 1485 m
 11925 1485 l gs col0 s gr 
% Polyline
n 11880 1620 m 11925 1665 l
 11880 1710 l gs col0 s gr 
% Polyline
n 11925 1620 m 11970 1665 l
 11925 1710 l gs col0 s gr 
% Polyline
n 11970 1665 m
 12150 1665 l gs col0 s gr 
% Polyline
n 11700 1665 m
 11925 1665 l gs col0 s gr 
% Polyline
gs  clippath
5422 601 m 5422 480 l 5377 480 l 5377 601 l 5377 601 l 5400 511 l 5422 601 l cp
eoclip
n 5400 810 m
 5400 495 l gs col0 s gr gr

% arrowhead
n 5422 601 m 5400 511 l 5377 601 l 5422 601 l  cp gs 0.00 setgray ef gr  col0 s
% Polyline
n 5400 1125 m
 5400 1215 l gs col0 s gr 
% Polyline
n 5355 855 m 5445 855 l 5445 1125 l 5355 1125 l
 cp gs col0 s gr 
% Polyline
n 5400 765 m
 5400 855 l gs col0 s gr 
% Ellipse
n 9000 2205 20 20 0 360 DrawEllipse gs 0.00 setgray ef gr gs col0 s gr

% Polyline
n 9000 1080 m
 9000 1170 l gs col0 s gr 
% Polyline
n 8955 810 m 9045 810 l 9045 1080 l 8955 1080 l
 cp gs col0 s gr 
% Polyline
n 9000 720 m
 9000 810 l gs col0 s gr 
% Ellipse
n 5400 765 20 20 0 360 DrawEllipse gs 0.00 setgray ef gr gs col0 s gr

% Polyline
n 4725 1665 m
 4860 1665 l gs col0 s gr 
% Polyline
n 4680 1665 m
 4545 1665 l gs col0 s gr 
% Polyline
n 4725 1575 m
 4725 1755 l gs col0 s gr 
% Polyline
n 4680 1575 m
 4680 1755 l gs col0 s gr 
% Ellipse
n 5085 1665 20 20 0 360 DrawEllipse gs 0.00 setgray ef gr gs col0 s gr

% Polyline
n 12240 6390 m 12150 6345 l 12150 6435 l
 12240 6390 l  cp gs 0.00 setgray ef gr gs col0 s gr 
% Polyline
n 12240 6390 m
 12375 6390 l gs col0 s gr 
% Polyline
n 12240 6445 m
 12240 6335 l gs col0 s gr 
% Polyline
n 12195 6255 m
 12240 6300 l gs col0 s gr 
% Polyline
n 12240 6255 m 12195 6255 l
 12195 6300 l gs col0 s gr 
% Polyline
n 12150 6255 m 12105 6255 l
 12105 6300 l gs col0 s gr 
% Polyline
n 12105 6255 m
 12150 6300 l gs col0 s gr 
% Polyline
n 12015 6390 m
 12150 6390 l gs col0 s gr 
% Polyline
n 9315 1080 m
 9315 1170 l gs col0 s gr 
% Polyline
n 9270 810 m 9360 810 l 9360 1080 l 9270 1080 l
 cp gs col0 s gr 
% Polyline
n 9315 720 m
 9315 810 l gs col0 s gr 
% Polyline
gs  clippath
9337 511 m 9337 390 l 9292 390 l 9292 511 l 9292 511 l 9315 421 l 9337 511 l cp
eoclip
n 9315 720 m
 9315 405 l gs col0 s gr gr

% arrowhead
n 9337 511 m 9315 421 l 9292 511 l 9337 511 l  cp gs 0.00 setgray ef gr  col0 s
% Polyline
1 slj
n 9620 2085 m 9620 1965 l 9500 2025 l
 9620 2085 l  cp gs 0.00 setgray ef gr gs col0 s gr 
% Polyline
0 slj
n 9360 2025 m
 9765 2025 l gs 1.00 setgray ef gr gs col0 s gr 
% Polyline
1 slc
n 9495 1955 m
 9540 1955 l gs 1.00 setgray ef gr gs col0 s gr 
% Polyline
n 9495 2095 m
 9495 1955 l gs 1.00 setgray ef gr gs col0 s gr 
% Polyline
n 9495 2095 m
 9450 2095 l gs 1.00 setgray ef gr gs col0 s gr 
% Polyline
30.000 slw
n 9720 2610 m
 9900 2610 l gs col0 s gr 
% Polyline
0 slc
7.500 slw
n 9810 2340 m
 9810 2610 l gs col0 s gr 
% Ellipse
n 9810 2340 20 20 0 360 DrawEllipse gs 0.00 setgray ef gr gs col0 s gr

% Polyline
n 10125 2610 m
 10125 2700 l gs col0 s gr 
% Polyline
n 10080 2340 m 10170 2340 l 10170 2610 l 10080 2610 l
 cp gs col0 s gr 
% Polyline
n 10125 2250 m
 10125 2340 l gs col0 s gr 
% Ellipse
n 10125 1305 20 20 0 360 DrawEllipse gs 0.00 setgray ef gr gs col0 s gr

% Polyline
n 10350 2160 m
 10350 2250 l gs col0 s gr 
% Polyline
n 10305 1890 m 10395 1890 l 10395 2160 l 10305 2160 l
 cp gs col0 s gr 
% Polyline
n 10350 1800 m
 10350 1890 l gs col0 s gr 
% Ellipse
n 10350 1305 20 20 0 360 DrawEllipse gs 0.00 setgray ef gr gs col0 s gr

% Polyline
n 10575 2610 m
 10575 2700 l gs col0 s gr 
% Polyline
n 10530 2340 m 10620 2340 l 10620 2610 l 10530 2610 l
 cp gs col0 s gr 
% Polyline
n 10575 2250 m
 10575 2340 l gs col0 s gr 
% Polyline
n 10800 2160 m
 10800 2250 l gs col0 s gr 
% Polyline
n 10755 1890 m 10845 1890 l 10845 2160 l 10755 2160 l
 cp gs col0 s gr 
% Polyline
n 10800 1800 m
 10800 1890 l gs col0 s gr 
% Ellipse
n 10575 1485 20 20 0 360 DrawEllipse gs 0.00 setgray ef gr gs col0 s gr

% Ellipse
n 10800 1485 20 20 0 360 DrawEllipse gs 0.00 setgray ef gr gs col0 s gr

% Polyline
n 11250 2160 m
 11250 2250 l gs col0 s gr 
% Polyline
n 11205 1890 m 11295 1890 l 11295 2160 l 11205 2160 l
 cp gs col0 s gr 
% Polyline
n 11250 1800 m
 11250 1890 l gs col0 s gr 
% Ellipse
n 11025 1665 20 20 0 360 DrawEllipse gs 0.00 setgray ef gr gs col0 s gr

% Ellipse
n 11250 1665 20 20 0 360 DrawEllipse gs 0.00 setgray ef gr gs col0 s gr

% Polyline
1 slc
30.000 slw
n 10530 4545 m
 10710 4545 l gs col0 s gr 
% Polyline
0 slc
7.500 slw
n 10620 4275 m
 10620 4545 l gs col0 s gr 
% Polyline
n 10935 4230 m
 10935 4320 l gs col0 s gr 
% Polyline
n 10980 3960 m 10890 3960 l 10890 4230 l 10980 4230 l
 cp gs col0 s gr 
% Polyline
n 10800 4005 m
 11070 4185 l gs col0 s gr 
% Polyline
n 10935 3870 m
 10935 3960 l gs col0 s gr 
% Polyline
1 slc
n 10827 3972 m
 10785 4047 l gs col0 s gr 
% Ellipse
n 10620 4320 20 20 0 360 DrawEllipse gs 0.00 setgray ef gr gs col0 s gr

% Ellipse
n 10935 4320 20 20 0 360 DrawEllipse gs 0.00 setgray ef gr gs col0 s gr

% Polyline
30.000 slw
n 11340 6750 m
 11520 6750 l gs col0 s gr 
% Polyline
0 slc
7.500 slw
n 11430 6480 m
 11430 6750 l gs col0 s gr 
% Polyline
gs  clippath
12127 2896 m 12127 2775 l 12082 2775 l 12082 2896 l 12082 2896 l 12105 2806 l 12127 2896 l cp
eoclip
n 12105 3105 m
 12105 2790 l gs col0 s gr gr

% arrowhead
n 12127 2896 m 12105 2806 l 12082 2896 l 12127 2896 l  cp gs 0.00 setgray ef gr  col0 s
% Polyline
n 11610 3105 m
 11520 3105 l gs col0 s gr 
% Polyline
n 11880 3150 m 11880 3060 l 11610 3060 l 11610 3150 l
 cp gs col0 s gr 
% Polyline
n 11970 3105 m
 11880 3105 l gs col0 s gr 
% Ellipse
n 12105 3105 20 20 0 360 DrawEllipse gs 0.00 setgray ef gr gs col0 s gr

% Ellipse
n 9315 2025 20 20 0 360 DrawEllipse gs 0.00 setgray ef gr gs col0 s gr

% Polyline
n 11025 2610 m
 11025 2700 l gs col0 s gr 
% Polyline
n 10980 2340 m 11070 2340 l 11070 2610 l 10980 2610 l
 cp gs col0 s gr 
% Polyline
n 11025 2250 m
 11025 2340 l gs col0 s gr 
% Ellipse
n 5760 1305 20 20 0 360 DrawEllipse gs 0.00 setgray ef gr gs col0 s gr

% Polyline
n 4635 2925 m
 4500 2925 l gs col0 s gr 
% Polyline
n 4680 2925 m
 4815 2925 l gs col0 s gr 
% Polyline
n 4635 3015 m
 4635 2835 l gs col0 s gr 
% Polyline
n 4680 3015 m
 4680 2835 l gs col0 s gr 
% Polyline
n 9180 2340 m
 9090 2340 l gs col0 s gr 
% Polyline
n 9450 2385 m 9450 2295 l 9180 2295 l 9180 2385 l
 cp gs col0 s gr 
% Polyline
n 9540 2340 m
 9450 2340 l gs col0 s gr 
% Polyline
n 4455 1215 m
 4455 1350 l gs col0 s gr 
% Polyline
n 4375 1080 m 4535 1080 l 4535 1125 l 4375 1125 l
 cp gs col0 s gr 
% Polyline
n 4455 945 m
 4455 1080 l gs col0 s gr 
% Polyline
n 4375 1170 m 4535 1170 l 4535 1215 l 4375 1215 l
 cp gs 0.00 setgray ef gr gs col0 s gr 
% Ellipse
n 4455 1665 20 20 0 360 DrawEllipse gs 0.00 setgray ef gr gs col0 s gr

% Ellipse
n 5085 765 20 20 0 360 DrawEllipse gs 0.00 setgray ef gr gs col0 s gr

% Ellipse
n 3825 3960 38 38 0 360 DrawEllipse gs col0 s gr

% Ellipse
n 4095 3960 38 38 0 360 DrawEllipse gs col0 s gr

% Polyline
n 3780 3960 m
 3690 3960 l gs col0 s gr 
% Polyline
n 4140 3960 m
 4230 3960 l gs col0 s gr 
% Polyline
n 3960 3870 m
 3960 3780 l gs col0 s gr 
% Polyline
1 slc
n 3825 3870 m
 4095 3870 l gs col0 s gr 
% Polyline
n 3915 3780 m
 4005 3780 l gs col0 s gr 
% Polyline
30.000 slw
n 3600 4230 m
 3780 4230 l gs col0 s gr 
% Polyline
0 slc
7.500 slw
n 3690 3960 m
 3690 4230 l gs col0 s gr 
% Polyline
n 5400 4635 m
 5400 4500 l gs col0 s gr 
% Polyline
n 5400 4680 m
 5400 4815 l gs col0 s gr 
% Polyline
n 5310 4635 m
 5490 4635 l gs col0 s gr 
% Polyline
n 5310 4680 m
 5490 4680 l gs col0 s gr 
% Polyline
n 5400 5535 m
 5400 5400 l gs col0 s gr 
% Polyline
n 5400 5580 m
 5400 5715 l gs col0 s gr 
% Polyline
n 5310 5535 m
 5490 5535 l gs col0 s gr 
% Polyline
n 5310 5580 m
 5490 5580 l gs col0 s gr 
% Polyline
n 5400 6120 m
 5400 5985 l gs col0 s gr 
% Polyline
n 5400 6165 m
 5400 6300 l gs col0 s gr 
% Polyline
n 5310 6120 m
 5490 6120 l gs col0 s gr 
% Polyline
n 5310 6165 m
 5490 6165 l gs col0 s gr 
% Ellipse
n 5400 5985 20 20 0 360 DrawEllipse gs 0.00 setgray ef gr gs col0 s gr

% Ellipse
n 5400 5400 20 20 0 360 DrawEllipse gs 0.00 setgray ef gr gs col0 s gr

% Polyline
gs  clippath
4747 5146 m 4747 5025 l 4702 5025 l 4702 5146 l 4702 5146 l 4725 5056 l 4747 5146 l cp
eoclip
n 4725 5355 m
 4725 5040 l gs col0 s gr gr

% arrowhead
n 4747 5146 m 4725 5056 l 4702 5146 l 4747 5146 l  cp gs 0.00 setgray ef gr  col0 s
% Ellipse
n 5085 5400 20 20 0 360 DrawEllipse gs 0.00 setgray ef gr gs col0 s gr

% Ellipse
n 5085 4365 20 20 0 360 DrawEllipse gs 0.00 setgray ef gr gs col0 s gr

% Ellipse
n 5085 3960 20 20 0 360 DrawEllipse gs 0.00 setgray ef gr gs col0 s gr

% Ellipse
n 5220 4905 20 20 0 360 DrawEllipse gs 0.00 setgray ef gr gs col0 s gr

% Ellipse
n 5220 5715 20 20 0 360 DrawEllipse gs 0.00 setgray ef gr gs col0 s gr

% Ellipse
n 5400 6300 20 20 0 360 DrawEllipse gs 0.00 setgray ef gr gs col0 s gr

% Ellipse
n 5400 5715 20 20 0 360 DrawEllipse gs 0.00 setgray ef gr gs col0 s gr

% Ellipse
n 5400 3960 20 20 0 360 DrawEllipse gs 0.00 setgray ef gr gs col0 s gr

% Ellipse
n 5400 3645 20 20 0 360 DrawEllipse gs 0.00 setgray ef gr gs col0 s gr

% Polyline
n 5400 3780 m
 5400 3645 l gs col0 s gr 
% Polyline
n 5400 3825 m
 5400 3960 l gs col0 s gr 
% Polyline
n 5310 3780 m
 5490 3780 l gs col0 s gr 
% Polyline
n 5310 3825 m
 5490 3825 l gs col0 s gr 
% Polyline
gs  clippath
11677 7171 m 11677 7050 l 11632 7050 l 11632 7171 l 11632 7171 l 11655 7081 l 11677 7171 l cp
eoclip
n 11655 7380 m
 11655 7065 l gs col0 s gr gr

% arrowhead
n 11677 7171 m 11655 7081 l 11632 7171 l 11677 7171 l  cp gs 0.00 setgray ef gr  col0 s
% Polyline
1 slc
30.000 slw
n 11565 8100 m
 11745 8100 l gs col0 s gr 
% Polyline
0 slc
7.500 slw
n 11655 7830 m
 11655 8100 l gs col0 s gr 
% Ellipse
n 8595 5535 20 20 0 360 DrawEllipse gs 0.00 setgray ef gr gs col0 s gr

% Polyline
n 10305 6525 m
 10215 6525 l gs col0 s gr 
% Polyline
n 10575 6570 m 10575 6480 l 10305 6480 l 10305 6570 l
 cp gs col0 s gr 
% Polyline
n 10665 6525 m
 10575 6525 l gs col0 s gr 
% Polyline
gs  clippath
10006 6502 m 9885 6502 l 9885 6547 l 10006 6547 l 10006 6547 l 9916 6525 l 10006 6502 l cp
eoclip
n 10215 6525 m
 9900 6525 l gs col0 s gr gr

% arrowhead
n 10006 6502 m 9916 6525 l 10006 6547 l 10006 6502 l  cp gs 0.00 setgray ef gr  col0 s
% Polyline
n 9270 5580 m 9225 5535 l
 9270 5490 l gs col0 s gr 
% Polyline
n 9225 5535 m
 8955 5535 l gs col0 s gr 
% Polyline
n 9225 6075 m 9180 6030 l
 9225 5985 l gs col0 s gr 
% Polyline
n 9180 6030 m
 8910 6030 l gs col0 s gr 
/Helvetica-iso ff 90.00 scf sf
5445 630 m
gs 1 -1 sc (VCC) col0 sh gr
/Helvetica-iso ff 90.00 scf sf
9360 540 m
gs 1 -1 sc (VCC) col0 sh gr
/Helvetica-iso ff 90.00 scf sf
12150 2925 m
gs 1 -1 sc (VCC) col0 sh gr
/Helvetica-iso ff 90.00 scf sf
4770 5175 m
gs 1 -1 sc (VCC) col0 sh gr
/Helvetica-iso ff 90.00 scf sf
11700 7200 m
gs 1 -1 sc (VCC) col0 sh gr
/Helvetica-iso ff 90.00 scf sf
10035 6480 m
gs 1 -1 sc  90.0 rot (VCC) col0 sh gr
% here ends figure;
pagefooter
showpage
%%Trailer
%EOF

%%EndDocument
 @endspecial Black Black eop end
%%Trailer

userdict /end-hook known{end-hook}if
%%EOF
