%!PS-Adobe-2.0
%%Creator: dvips(k) 5.993 Copyright 2013 Radical Eye Software
%%Title: job-001.dvi
%%CreationDate: Mon Apr  6 22:22:46 2015
%%Pages: 1
%%PageOrder: Ascend
%%BoundingBox: 156 2826 922 3229
%%EndComments
%DVIPSWebPage: (www.radicaleye.com)
%DVIPSCommandLine: dvips job-001.dvi -o job-001.dvips.ps
%DVIPSParameters: dpi=600
%DVIPSSource:  TeX output 2015.04.06:2222
%%BeginProcSet: tex.pro 0 0
%!
/TeXDict 300 dict def TeXDict begin/N{def}def/B{bind def}N/S{exch}N/X{S
N}B/A{dup}B/TR{translate}N/isls false N/vsize 11 72 mul N/hsize 8.5 72
mul N/landplus90{false}def/@rigin{isls{[0 landplus90{1 -1}{-1 1}ifelse 0
0 0]concat}if 72 Resolution div 72 VResolution div neg scale isls{
landplus90{VResolution 72 div vsize mul 0 exch}{Resolution -72 div hsize
mul 0}ifelse TR}if Resolution VResolution vsize -72 div 1 add mul TR[
matrix currentmatrix{A A round sub abs 0.00001 lt{round}if}forall round
exch round exch]setmatrix}N/@landscape{/isls true N}B/@manualfeed{
statusdict/manualfeed true put}B/@copies{/#copies X}B/FMat[1 0 0 -1 0 0]
N/FBB[0 0 0 0]N/nn 0 N/IEn 0 N/ctr 0 N/df-tail{/nn 8 dict N nn begin
/FontType 3 N/FontMatrix fntrx N/FontBBox FBB N string/base X array
/BitMaps X/BuildChar{CharBuilder}N/Encoding IEn N end A{/foo setfont}2
array copy cvx N load 0 nn put/ctr 0 N[}B/sf 0 N/df{/sf 1 N/fntrx FMat N
df-tail}B/dfs{div/sf X/fntrx[sf 0 0 sf neg 0 0]N df-tail}B/E{pop nn A
definefont setfont}B/Cw{Cd A length 5 sub get}B/Ch{Cd A length 4 sub get
}B/Cx{128 Cd A length 3 sub get sub}B/Cy{Cd A length 2 sub get 127 sub}
B/Cdx{Cd A length 1 sub get}B/Ci{Cd A type/stringtype ne{ctr get/ctr ctr
1 add N}if}B/CharBuilder{save 3 1 roll S A/base get 2 index get S
/BitMaps get S get/Cd X pop/ctr 0 N Cdx 0 Cx Cy Ch sub Cx Cw add Cy
setcachedevice Cw Ch true[1 0 0 -1 -.1 Cx sub Cy .1 sub]{Ci}imagemask
restore}B/D{/cc X A type/stringtype ne{]}if nn/base get cc ctr put nn
/BitMaps get S ctr S sf 1 ne{A A length 1 sub A 2 index S get sf div put
}if put/ctr ctr 1 add N}B/I{cc 1 add D}B/bop{userdict/bop-hook known{
bop-hook}if/SI save N @rigin 0 0 moveto/V matrix currentmatrix A 1 get A
mul exch 0 get A mul add .99 lt{/QV}{/RV}ifelse load def pop pop}N/eop{
SI restore userdict/eop-hook known{eop-hook}if showpage}N/@start{
userdict/start-hook known{start-hook}if pop/VResolution X/Resolution X
1000 div/DVImag X/IEn 256 array N 2 string 0 1 255{IEn S A 360 add 36 4
index cvrs cvn put}for pop 65781.76 div/vsize X 65781.76 div/hsize X}N
/dir 0 def/dyy{/dir 0 def}B/dyt{/dir 1 def}B/dty{/dir 2 def}B/dtt{/dir 3
def}B/p{dir 2 eq{-90 rotate show 90 rotate}{dir 3 eq{-90 rotate show 90
rotate}{show}ifelse}ifelse}N/RMat[1 0 0 -1 0 0]N/BDot 260 string N/Rx 0
N/Ry 0 N/V{}B/RV/v{/Ry X/Rx X V}B statusdict begin/product where{pop
false[(Display)(NeXT)(LaserWriter 16/600)]{A length product length le{A
length product exch 0 exch getinterval eq{pop true exit}if}{pop}ifelse}
forall}{false}ifelse end{{gsave TR -.1 .1 TR 1 1 scale Rx Ry false RMat{
BDot}imagemask grestore}}{{gsave TR -.1 .1 TR Rx Ry scale 1 1 false RMat
{BDot}imagemask grestore}}ifelse B/QV{gsave newpath transform round exch
round exch itransform moveto Rx 0 rlineto 0 Ry neg rlineto Rx neg 0
rlineto fill grestore}B/a{moveto}B/delta 0 N/tail{A/delta X 0 rmoveto}B
/M{S p delta add tail}B/b{S p tail}B/c{-4 M}B/d{-3 M}B/e{-2 M}B/f{-1 M}
B/g{0 M}B/h{1 M}B/i{2 M}B/j{3 M}B/k{4 M}B/w{0 rmoveto}B/l{p -4 w}B/m{p
-3 w}B/n{p -2 w}B/o{p -1 w}B/q{p 1 w}B/r{p 2 w}B/s{p 3 w}B/t{p 4 w}B/x{
0 S rmoveto}B/y{3 2 roll p a}B/bos{/SS save N}B/eos{SS restore}B end

%%EndProcSet
%%BeginProcSet: special.pro 0 0
%!
TeXDict begin/SDict 200 dict N SDict begin/@SpecialDefaults{/hs 612 N
/vs 792 N/ho 0 N/vo 0 N/hsc 1 N/vsc 1 N/ang 0 N/CLIP 0 N/rwiSeen false N
/rhiSeen false N/letter{}N/note{}N/a4{}N/legal{}N}B/@scaleunit 100 N
/@hscale{@scaleunit div/hsc X}B/@vscale{@scaleunit div/vsc X}B/@hsize{
/hs X/CLIP 1 N}B/@vsize{/vs X/CLIP 1 N}B/@clip{/CLIP 2 N}B/@hoffset{/ho
X}B/@voffset{/vo X}B/@angle{/ang X}B/@rwi{10 div/rwi X/rwiSeen true N}B
/@rhi{10 div/rhi X/rhiSeen true N}B/@llx{/llx X}B/@lly{/lly X}B/@urx{
/urx X}B/@ury{/ury X}B/magscale true def end/@MacSetUp{userdict/md known
{userdict/md get type/dicttype eq{userdict begin md length 10 add md
maxlength ge{/md md dup length 20 add dict copy def}if end md begin
/letter{}N/note{}N/legal{}N/od{txpose 1 0 mtx defaultmatrix dtransform S
atan/pa X newpath clippath mark{transform{itransform moveto}}{transform{
itransform lineto}}{6 -2 roll transform 6 -2 roll transform 6 -2 roll
transform{itransform 6 2 roll itransform 6 2 roll itransform 6 2 roll
curveto}}{{closepath}}pathforall newpath counttomark array astore/gc xdf
pop ct 39 0 put 10 fz 0 fs 2 F/|______Courier fnt invertflag{PaintBlack}
if}N/txpose{pxs pys scale ppr aload pop por{noflips{pop S neg S TR pop 1
-1 scale}if xflip yflip and{pop S neg S TR 180 rotate 1 -1 scale ppr 3
get ppr 1 get neg sub neg ppr 2 get ppr 0 get neg sub neg TR}if xflip
yflip not and{pop S neg S TR pop 180 rotate ppr 3 get ppr 1 get neg sub
neg 0 TR}if yflip xflip not and{ppr 1 get neg ppr 0 get neg TR}if}{
noflips{TR pop pop 270 rotate 1 -1 scale}if xflip yflip and{TR pop pop
90 rotate 1 -1 scale ppr 3 get ppr 1 get neg sub neg ppr 2 get ppr 0 get
neg sub neg TR}if xflip yflip not and{TR pop pop 90 rotate ppr 3 get ppr
1 get neg sub neg 0 TR}if yflip xflip not and{TR pop pop 270 rotate ppr
2 get ppr 0 get neg sub neg 0 S TR}if}ifelse scaleby96{ppr aload pop 4
-1 roll add 2 div 3 1 roll add 2 div 2 copy TR .96 dup scale neg S neg S
TR}if}N/cp{pop pop showpage pm restore}N end}if}if}N/normalscale{
Resolution 72 div VResolution 72 div neg scale magscale{DVImag dup scale
}if 0 setgray}N/psfts{S 65781.76 div N}N/startTexFig{/psf$SavedState
save N userdict maxlength dict begin/magscale true def normalscale
currentpoint TR/psf$ury psfts/psf$urx psfts/psf$lly psfts/psf$llx psfts
/psf$y psfts/psf$x psfts currentpoint/psf$cy X/psf$cx X/psf$sx psf$x
psf$urx psf$llx sub div N/psf$sy psf$y psf$ury psf$lly sub div N psf$sx
psf$sy scale psf$cx psf$sx div psf$llx sub psf$cy psf$sy div psf$ury sub
TR/showpage{}N/erasepage{}N/setpagedevice{pop}N/copypage{}N/p 3 def
@MacSetUp}N/doclip{psf$llx psf$lly psf$urx psf$ury currentpoint 6 2 roll
newpath 4 copy 4 2 roll moveto 6 -1 roll S lineto S lineto S lineto
closepath clip newpath moveto}N/endTexFig{end psf$SavedState restore}N
/@beginspecial{SDict begin/SpecialSave save N gsave normalscale
currentpoint TR @SpecialDefaults count/ocount X/dcount countdictstack N}
N/@setspecial{CLIP 1 eq{newpath 0 0 moveto hs 0 rlineto 0 vs rlineto hs
neg 0 rlineto closepath clip}if ho vo TR hsc vsc scale ang rotate
rwiSeen{rwi urx llx sub div rhiSeen{rhi ury lly sub div}{dup}ifelse
scale llx neg lly neg TR}{rhiSeen{rhi ury lly sub div dup scale llx neg
lly neg TR}if}ifelse CLIP 2 eq{newpath llx lly moveto urx lly lineto urx
ury lineto llx ury lineto closepath clip}if/showpage{}N/erasepage{}N
/setpagedevice{pop}N/copypage{}N newpath}N/@endspecial{count ocount sub{
pop}repeat countdictstack dcount sub{end}repeat grestore SpecialSave
restore end}N/@defspecial{SDict begin}N/@fedspecial{end}B/li{lineto}B
/rl{rlineto}B/rc{rcurveto}B/np{/SaveX currentpoint/SaveY X N 1
setlinecap newpath}N/st{stroke SaveX SaveY moveto}N/fil{fill SaveX SaveY
moveto}N/ellipse{/endangle X/startangle X/yrad X/xrad X/savematrix
matrix currentmatrix N TR xrad yrad scale 0 0 1 startangle endangle arc
savematrix setmatrix}N end

%%EndProcSet
%%BeginProcSet: color.pro 0 0
%!
TeXDict begin/setcmykcolor where{pop}{/setcmykcolor{dup 10 eq{pop
setrgbcolor}{1 sub 4 1 roll 3{3 index add neg dup 0 lt{pop 0}if 3 1 roll
}repeat setrgbcolor pop}ifelse}B}ifelse/TeXcolorcmyk{setcmykcolor}def
/TeXcolorrgb{setrgbcolor}def/TeXcolorgrey{setgray}def/TeXcolorgray{
setgray}def/TeXcolorhsb{sethsbcolor}def/currentcmykcolor where{pop}{
/currentcmykcolor{currentrgbcolor 10}B}ifelse/DC{exch dup userdict exch
known{pop pop}{X}ifelse}B/GreenYellow{0.15 0 0.69 0 setcmykcolor}DC
/Yellow{0 0 1 0 setcmykcolor}DC/Goldenrod{0 0.10 0.84 0 setcmykcolor}DC
/Dandelion{0 0.29 0.84 0 setcmykcolor}DC/Apricot{0 0.32 0.52 0
setcmykcolor}DC/Peach{0 0.50 0.70 0 setcmykcolor}DC/Melon{0 0.46 0.50 0
setcmykcolor}DC/YellowOrange{0 0.42 1 0 setcmykcolor}DC/Orange{0 0.61
0.87 0 setcmykcolor}DC/BurntOrange{0 0.51 1 0 setcmykcolor}DC
/Bittersweet{0 0.75 1 0.24 setcmykcolor}DC/RedOrange{0 0.77 0.87 0
setcmykcolor}DC/Mahogany{0 0.85 0.87 0.35 setcmykcolor}DC/Maroon{0 0.87
0.68 0.32 setcmykcolor}DC/BrickRed{0 0.89 0.94 0.28 setcmykcolor}DC/Red{
0 1 1 0 setcmykcolor}DC/OrangeRed{0 1 0.50 0 setcmykcolor}DC/RubineRed{
0 1 0.13 0 setcmykcolor}DC/WildStrawberry{0 0.96 0.39 0 setcmykcolor}DC
/Salmon{0 0.53 0.38 0 setcmykcolor}DC/CarnationPink{0 0.63 0 0
setcmykcolor}DC/Magenta{0 1 0 0 setcmykcolor}DC/VioletRed{0 0.81 0 0
setcmykcolor}DC/Rhodamine{0 0.82 0 0 setcmykcolor}DC/Mulberry{0.34 0.90
0 0.02 setcmykcolor}DC/RedViolet{0.07 0.90 0 0.34 setcmykcolor}DC
/Fuchsia{0.47 0.91 0 0.08 setcmykcolor}DC/Lavender{0 0.48 0 0
setcmykcolor}DC/Thistle{0.12 0.59 0 0 setcmykcolor}DC/Orchid{0.32 0.64 0
0 setcmykcolor}DC/DarkOrchid{0.40 0.80 0.20 0 setcmykcolor}DC/Purple{
0.45 0.86 0 0 setcmykcolor}DC/Plum{0.50 1 0 0 setcmykcolor}DC/Violet{
0.79 0.88 0 0 setcmykcolor}DC/RoyalPurple{0.75 0.90 0 0 setcmykcolor}DC
/BlueViolet{0.86 0.91 0 0.04 setcmykcolor}DC/Periwinkle{0.57 0.55 0 0
setcmykcolor}DC/CadetBlue{0.62 0.57 0.23 0 setcmykcolor}DC
/CornflowerBlue{0.65 0.13 0 0 setcmykcolor}DC/MidnightBlue{0.98 0.13 0
0.43 setcmykcolor}DC/NavyBlue{0.94 0.54 0 0 setcmykcolor}DC/RoyalBlue{1
0.50 0 0 setcmykcolor}DC/Blue{1 1 0 0 setcmykcolor}DC/Cerulean{0.94 0.11
0 0 setcmykcolor}DC/Cyan{1 0 0 0 setcmykcolor}DC/ProcessBlue{0.96 0 0 0
setcmykcolor}DC/SkyBlue{0.62 0 0.12 0 setcmykcolor}DC/Turquoise{0.85 0
0.20 0 setcmykcolor}DC/TealBlue{0.86 0 0.34 0.02 setcmykcolor}DC
/Aquamarine{0.82 0 0.30 0 setcmykcolor}DC/BlueGreen{0.85 0 0.33 0
setcmykcolor}DC/Emerald{1 0 0.50 0 setcmykcolor}DC/JungleGreen{0.99 0
0.52 0 setcmykcolor}DC/SeaGreen{0.69 0 0.50 0 setcmykcolor}DC/Green{1 0
1 0 setcmykcolor}DC/ForestGreen{0.91 0 0.88 0.12 setcmykcolor}DC
/PineGreen{0.92 0 0.59 0.25 setcmykcolor}DC/LimeGreen{0.50 0 1 0
setcmykcolor}DC/YellowGreen{0.44 0 0.74 0 setcmykcolor}DC/SpringGreen{
0.26 0 0.76 0 setcmykcolor}DC/OliveGreen{0.64 0 0.95 0.40 setcmykcolor}
DC/RawSienna{0 0.72 1 0.45 setcmykcolor}DC/Sepia{0 0.83 1 0.70
setcmykcolor}DC/Brown{0 0.81 1 0.60 setcmykcolor}DC/Tan{0.14 0.42 0.56 0
setcmykcolor}DC/Gray{0 0 0 0.50 setcmykcolor}DC/Black{0 0 0 1
setcmykcolor}DC/White{0 0 0 0 setcmykcolor}DC end

%%EndProcSet
TeXDict begin 156819571 221710428 1000 600 600 (job-001.dvi)
@start end
%%EndProlog
%%BeginSetup
%%Feature: *Resolution 600dpi
TeXDict begin
 end
%%EndSetup
%%Page: 1 1
TeXDict begin 1 0 bop Black Black 706 3936 a @beginspecial
0 @llx 0 @lly 765 @urx 403 @ury 7650 @rwi @setspecial
%%BeginDocument: job-001.fig2dev.ps
%!PS-Adobe-3.0 EPSF-3.0
%%Title: job-001.fig
%%Creator: fig2dev Version 3.2 Patchlevel 5e
%%CreationDate: Mon Apr  6 22:22:46 2015
%%BoundingBox: 156 2826 922 3229
%Magnification: 1.0000
%%EndComments
%%BeginProlog
/$F2psDict 200 dict def
$F2psDict begin
$F2psDict /mtrx matrix put
/col-1 {0 setgray} bind def
/col0 {0.000 0.000 0.000 srgb} bind def
/col1 {0.000 0.000 1.000 srgb} bind def
/col2 {0.000 1.000 0.000 srgb} bind def
/col3 {0.000 1.000 1.000 srgb} bind def
/col4 {1.000 0.000 0.000 srgb} bind def
/col5 {1.000 0.000 1.000 srgb} bind def
/col6 {1.000 1.000 0.000 srgb} bind def
/col7 {1.000 1.000 1.000 srgb} bind def
/col8 {0.000 0.000 0.560 srgb} bind def
/col9 {0.000 0.000 0.690 srgb} bind def
/col10 {0.000 0.000 0.820 srgb} bind def
/col11 {0.530 0.810 1.000 srgb} bind def
/col12 {0.000 0.560 0.000 srgb} bind def
/col13 {0.000 0.690 0.000 srgb} bind def
/col14 {0.000 0.820 0.000 srgb} bind def
/col15 {0.000 0.560 0.560 srgb} bind def
/col16 {0.000 0.690 0.690 srgb} bind def
/col17 {0.000 0.820 0.820 srgb} bind def
/col18 {0.560 0.000 0.000 srgb} bind def
/col19 {0.690 0.000 0.000 srgb} bind def
/col20 {0.820 0.000 0.000 srgb} bind def
/col21 {0.560 0.000 0.560 srgb} bind def
/col22 {0.690 0.000 0.690 srgb} bind def
/col23 {0.820 0.000 0.820 srgb} bind def
/col24 {0.500 0.190 0.000 srgb} bind def
/col25 {0.630 0.250 0.000 srgb} bind def
/col26 {0.750 0.380 0.000 srgb} bind def
/col27 {1.000 0.500 0.500 srgb} bind def
/col28 {1.000 0.630 0.630 srgb} bind def
/col29 {1.000 0.750 0.750 srgb} bind def
/col30 {1.000 0.880 0.880 srgb} bind def
/col31 {1.000 0.840 0.000 srgb} bind def
/col32 {0.906 0.906 0.906 srgb} bind def
/col33 {0.443 0.459 0.443 srgb} bind def
/col34 {0.851 0.851 0.851 srgb} bind def
/col35 {0.337 0.620 0.690 srgb} bind def
/col36 {0.255 0.271 0.255 srgb} bind def
/col37 {0.753 0.753 0.753 srgb} bind def

end

/cp {closepath} bind def
/ef {eofill} bind def
/gr {grestore} bind def
/gs {gsave} bind def
/sa {save} bind def
/rs {restore} bind def
/l {lineto} bind def
/m {moveto} bind def
/rm {rmoveto} bind def
/n {newpath} bind def
/s {stroke} bind def
/sh {show} bind def
/slc {setlinecap} bind def
/slj {setlinejoin} bind def
/slw {setlinewidth} bind def
/srgb {setrgbcolor} bind def
/rot {rotate} bind def
/sc {scale} bind def
/sd {setdash} bind def
/ff {findfont} bind def
/sf {setfont} bind def
/scf {scalefont} bind def
/sw {stringwidth} bind def
/tr {translate} bind def
/tnt {dup dup currentrgbcolor
  4 -2 roll dup 1 exch sub 3 -1 roll mul add
  4 -2 roll dup 1 exch sub 3 -1 roll mul add
  4 -2 roll dup 1 exch sub 3 -1 roll mul add srgb}
  bind def
/shd {dup dup currentrgbcolor 4 -2 roll mul 4 -2 roll mul
  4 -2 roll mul srgb} bind def
/reencdict 12 dict def /ReEncode { reencdict begin
/newcodesandnames exch def /newfontname exch def /basefontname exch def
/basefontdict basefontname findfont def /newfont basefontdict maxlength dict def
basefontdict { exch dup /FID ne { dup /Encoding eq
{ exch dup length array copy newfont 3 1 roll put }
{ exch newfont 3 1 roll put } ifelse } { pop pop } ifelse } forall
newfont /FontName newfontname put newcodesandnames aload pop
128 1 255 { newfont /Encoding get exch /.notdef put } for
newcodesandnames length 2 idiv { newfont /Encoding get 3 1 roll put } repeat
newfontname newfont definefont pop end } def
/isovec [
8#055 /minus 8#200 /grave 8#201 /acute 8#202 /circumflex 8#203 /tilde
8#204 /macron 8#205 /breve 8#206 /dotaccent 8#207 /dieresis
8#210 /ring 8#211 /cedilla 8#212 /hungarumlaut 8#213 /ogonek 8#214 /caron
8#220 /dotlessi 8#230 /oe 8#231 /OE
8#240 /space 8#241 /exclamdown 8#242 /cent 8#243 /sterling
8#244 /currency 8#245 /yen 8#246 /brokenbar 8#247 /section 8#250 /dieresis
8#251 /copyright 8#252 /ordfeminine 8#253 /guillemotleft 8#254 /logicalnot
8#255 /hyphen 8#256 /registered 8#257 /macron 8#260 /degree 8#261 /plusminus
8#262 /twosuperior 8#263 /threesuperior 8#264 /acute 8#265 /mu 8#266 /paragraph
8#267 /periodcentered 8#270 /cedilla 8#271 /onesuperior 8#272 /ordmasculine
8#273 /guillemotright 8#274 /onequarter 8#275 /onehalf
8#276 /threequarters 8#277 /questiondown 8#300 /Agrave 8#301 /Aacute
8#302 /Acircumflex 8#303 /Atilde 8#304 /Adieresis 8#305 /Aring
8#306 /AE 8#307 /Ccedilla 8#310 /Egrave 8#311 /Eacute
8#312 /Ecircumflex 8#313 /Edieresis 8#314 /Igrave 8#315 /Iacute
8#316 /Icircumflex 8#317 /Idieresis 8#320 /Eth 8#321 /Ntilde 8#322 /Ograve
8#323 /Oacute 8#324 /Ocircumflex 8#325 /Otilde 8#326 /Odieresis 8#327 /multiply
8#330 /Oslash 8#331 /Ugrave 8#332 /Uacute 8#333 /Ucircumflex
8#334 /Udieresis 8#335 /Yacute 8#336 /Thorn 8#337 /germandbls 8#340 /agrave
8#341 /aacute 8#342 /acircumflex 8#343 /atilde 8#344 /adieresis 8#345 /aring
8#346 /ae 8#347 /ccedilla 8#350 /egrave 8#351 /eacute
8#352 /ecircumflex 8#353 /edieresis 8#354 /igrave 8#355 /iacute
8#356 /icircumflex 8#357 /idieresis 8#360 /eth 8#361 /ntilde 8#362 /ograve
8#363 /oacute 8#364 /ocircumflex 8#365 /otilde 8#366 /odieresis 8#367 /divide
8#370 /oslash 8#371 /ugrave 8#372 /uacute 8#373 /ucircumflex
8#374 /udieresis 8#375 /yacute 8#376 /thorn 8#377 /ydieresis] def
/Times-Roman /Times-Roman-iso isovec ReEncode
/Helvetica /Helvetica-iso isovec ReEncode
 /DrawEllipse {
	/endangle exch def
	/startangle exch def
	/yrad exch def
	/xrad exch def
	/y exch def
	/x exch def
	/savematrix mtrx currentmatrix def
	x y tr xrad yrad sc 0 0 1 startangle endangle arc
	closepath
	savematrix setmatrix
	} def

/$F2psBegin {$F2psDict begin /$F2psEnteredState save def} def
/$F2psEnd {$F2psEnteredState restore end} def

/pageheader {
save
newpath 0 403 moveto 0 0 lineto 765 0 lineto 765 403 lineto closepath clip newpath
-27.6 427.3 translate
1 -1 scale
$F2psBegin
10 setmiterlimit
0 slj 0 slc
 0.06299 0.06299 sc
} bind def
/pagefooter {
$F2psEnd
restore
} bind def
%%EndProlog
pageheader
%
% Fig objects follow
%
% 
% here starts figure with depth 50
% Polyline
0 slj
0 slc
7.500 slw
n 1350 4725 m 2025 4725 l 2025 5175 l 1350 5175 l
 cp gs col0 s gr 
% Polyline
n 1350 4860 m
 1125 4860 l gs col0 s gr 
% Polyline
n 2025 4860 m
 2250 4860 l gs col0 s gr 
% Polyline
n 1665 5175 m
 1665 5400 l gs col0 s gr 
% Ellipse
n 6030 1305 45 45 0 360 DrawEllipse gs col0 s gr

% Polyline
n 1350 2025 m 1575 2025 l 1575 2565 l
 1340 2569 l gs col0 s gr 
% Polyline
n 1350 1530 m 1800 1530 l 1800 2475 l
 1340 2476 l gs col0 s gr 
% Polyline
n 1665 2700 m 1665 2340 l
 1340 2341 l gs col0 s gr 
% Polyline
n 1575 2565 m
 2250 2565 l gs col0 s gr 
% Polyline
n 1665 3825 m 1665 4275 l 900 4275 l 900 4860 l
 1125 4860 l gs col0 s gr 
% Polyline
n 900 4860 m
 900 5085 l gs col0 s gr 
% Polyline
n 1665 5490 m 900 5490 l
 900 5400 l gs col0 s gr 
% Polyline
n 1665 3060 m
 1665 3375 l gs col0 s gr 
% Polyline
n 1800 3195 m
 1665 3195 l gs col0 s gr 
% Polyline
n 2250 3195 m 2385 3195 l 2385 3600 l
 2115 3600 l gs col0 s gr 
% Polyline
n 2250 4860 m 2475 4860 l
 2475 5085 l gs col0 s gr 
% Polyline
n 1665 5490 m 2475 5490 l
 2475 5400 l gs col0 s gr 
% Polyline
n 2925 5220 m 2925 5490 l
 2475 5490 l gs col0 s gr 
% Polyline
n 2925 5490 m 3600 5490 l
 3600 5355 l gs col0 s gr 
% Polyline
n 3600 5490 m 4050 5490 l
 4050 5445 l gs col0 s gr 
% Polyline
n 3600 5085 m
 3600 4995 l gs col0 s gr 
% Polyline
n 2925 4770 m
 2925 4680 l gs col0 s gr 
% Polyline
n 2925 4320 m
 2925 4095 l gs col0 s gr 
% Polyline
n 3240 4185 m
 2925 4185 l gs col0 s gr 
% Polyline
n 8325 1305 m
 8775 1305 l gs col0 s gr 
% Polyline
n 8325 1485 m
 8775 1485 l gs col0 s gr 
% Polyline
n 8325 1665 m
 8775 1665 l gs col0 s gr 
% Polyline
n 8325 2025 m
 8775 2025 l gs col0 s gr 
% Polyline
n 8325 2205 m
 8775 2205 l gs col0 s gr 
% Polyline
n 8325 2745 m
 8775 2745 l gs col0 s gr 
% Polyline
n 8325 2925 m
 8775 2925 l gs col0 s gr 
% Polyline
n 8325 3105 m
 8775 3105 l gs col0 s gr 
% Polyline
n 8325 3285 m
 8775 3285 l gs col0 s gr 
% Polyline
n 8325 3465 m
 8775 3465 l gs col0 s gr 
% Polyline
n 8325 3645 m
 8775 3645 l gs col0 s gr 
% Polyline
n 8325 4005 m
 8775 4005 l gs col0 s gr 
% Polyline
n 8325 4185 m
 8775 4185 l gs col0 s gr 
% Polyline
n 8325 4365 m
 8775 4365 l gs col0 s gr 
% Polyline
n 8325 4545 m
 8775 4545 l gs col0 s gr 
% Polyline
n 8325 4725 m
 8775 4725 l gs col0 s gr 
% Polyline
n 8325 5085 m
 8730 5085 l gs col0 s gr 
% Polyline
n 8325 5265 m
 8640 5265 l gs col0 s gr 
% Polyline
n 5625 2025 m
 6075 2025 l gs col0 s gr 
% Polyline
n 5625 2385 m
 6075 2385 l gs col0 s gr 
% Polyline
n 5625 2925 m
 6075 2925 l gs col0 s gr 
% Polyline
n 5625 3420 m
 6075 3420 l gs col0 s gr 
% Polyline
n 5625 4905 m
 6075 4905 l gs col0 s gr 
% Polyline
n 8325 4905 m
 8775 4905 l gs col0 s gr 
% Polyline
n 5985 1305 m
 5625 1305 l gs col0 s gr 
% Polyline
n 5625 4365 m
 6075 4365 l gs col0 s gr 
% Polyline
n 5400 4275 m
 5400 4500 l gs col0 s gr 
% Polyline
n 5625 4365 m
 5400 4365 l gs col0 s gr 
% Polyline
n 5625 4905 m
 5400 4905 l gs col0 s gr 
% Polyline
n 5400 4815 m
 5400 5040 l gs col0 s gr 
% Polyline
n 5040 3960 m 5175 3960 l 5175 4365 l
 5400 4365 l gs col0 s gr 
% Polyline
n 4590 3960 m
 4230 3960 l gs col0 s gr 
% Polyline
n 5670 2925 m 5175 2925 l
 5175 2970 l gs col0 s gr 
% Polyline
n 5625 3420 m
 5175 3420 l gs col0 s gr 
% Polyline
n 4095 3150 m 4455 3150 l 4455 2925 l
 4500 2925 l gs col0 s gr 
% Polyline
n 4455 3150 m 4455 3420 l
 4500 3420 l gs col0 s gr 
% Polyline
n 4815 2925 m
 5175 2925 l gs col0 s gr 
% Polyline
n 4815 3420 m
 5175 3420 l gs col0 s gr 
% Polyline
n 5625 1665 m
 6075 1665 l gs col0 s gr 
% Polyline
n 5625 2385 m 4455 2385 l
 4455 2925 l gs col0 s gr 
% Polyline
n 4455 2385 m 4455 2025 l
 4950 2025 l gs col0 s gr 
% Polyline
n 5265 2025 m
 5625 2025 l gs col0 s gr 
% Polyline
n 4545 1665 m 4455 1665 l
 4455 2025 l gs col0 s gr 
% Polyline
n 5625 1665 m
 4860 1665 l gs col0 s gr 
% Polyline
n 8775 3645 m 11250 3645 l
 11250 2250 l gs col0 s gr 
% Polyline
n 8775 3465 m 11025 3465 l
 11025 2700 l gs col0 s gr 
% Polyline
n 8775 3285 m 10800 3285 l
 10800 2250 l gs col0 s gr 
% Polyline
n 8775 3105 m 10575 3105 l
 10575 2700 l gs col0 s gr 
% Polyline
n 8775 2925 m 10350 2925 l
 10350 2250 l gs col0 s gr 
% Polyline
n 9090 2340 m 9000 2340 l 9000 2205 l
 8775 2205 l gs col0 s gr 
% Polyline
n 5625 1305 m 5400 1305 l
 5400 1215 l gs col0 s gr 
% Polyline
n 9000 2205 m
 9000 1170 l gs col0 s gr 
% Polyline
gs  clippath
9030 620 m 9030 435 l 8970 435 l 8970 620 l 8970 620 l 9000 470 l 9030 620 l cp
eoclip
n 9000 720 m
 9000 450 l gs col0 s gr gr

% arrowhead
n 9030 620 m 9000 470 l 8970 620 l 9000 590 l 9030 620 l 
 cp gs col7 1.00 shd ef gr  col0 s
% Polyline
gs  clippath
930 4175 m 930 3990 l 870 3990 l 870 4175 l 870 4175 l 900 4025 l 930 4175 l cp
eoclip
n 900 4275 m
 900 4005 l gs col0 s gr gr

% arrowhead
n 930 4175 m 900 4025 l 870 4175 l 900 4145 l 930 4175 l 
 cp gs col7 1.00 shd ef gr  col0 s
% Polyline
n 5400 765 m 5085 765 l
 5085 1350 l gs col0 s gr 
% Polyline
n 5085 1350 m
 5085 1665 l gs col0 s gr 
% Polyline
n 11880 6300 m
 11565 6300 l gs col0 s gr 
% Polyline
n 11880 5940 m
 11565 5940 l gs col0 s gr 
% Polyline
n 11880 5760 m
 11565 5760 l gs col0 s gr 
% Polyline
n 11880 5220 m
 11565 5220 l gs col0 s gr 
% Polyline
n 11880 5040 m
 11565 5040 l gs col0 s gr 
% Polyline
n 11880 4680 m
 11565 4680 l gs col0 s gr 
% Polyline
n 11880 4320 m
 11565 4320 l gs col0 s gr 
% Polyline
n 11880 3960 m
 11565 3960 l gs col0 s gr 
% Polyline
n 11880 6480 m
 11565 6480 l gs col0 s gr 
% Polyline
n 11880 6120 m
 11565 6120 l gs col0 s gr 
% Polyline
n 11880 4140 m
 11565 4140 l gs col0 s gr 
% Polyline
n 11880 4500 m
 11565 4500 l gs col0 s gr 
% Polyline
n 11880 4860 m
 11565 4860 l gs col0 s gr 
% Polyline
n 11880 5400 m
 11565 5400 l gs col0 s gr 
% Polyline
n 11880 5580 m
 11565 5580 l gs col0 s gr 
% Polyline
n 11880 6615 m 11880 3645 l 12555 3645 l 12555 6615 l
 cp gs col0 s gr 
% Polyline
n 11880 6300 m 11970 6300 l 11970 6390 l
 12015 6390 l gs col0 s gr 
% Polyline
n 11880 6480 m 11970 6480 l 11970 6525 l 12465 6525 l 12465 6390 l
 12375 6390 l gs col0 s gr 
% Polyline
n 11565 6120 m 10800 6120 l 9900 6120 l 9900 4545 l
 8775 4545 l gs col0 s gr 
% Polyline
n 11565 5940 m 10035 5940 l 10035 4365 l
 8775 4365 l gs col0 s gr 
% Polyline
n 11565 5760 m 10215 5760 l 10215 4185 l
 8775 4185 l gs col0 s gr 
% Polyline
n 11565 5580 m 10350 5580 l 10350 4005 l
 8730 4005 l gs col0 s gr 
% Polyline
n 8775 4905 m 11385 4905 l 11385 4680 l
 11565 4680 l gs col0 s gr 
% Polyline
n 8775 4725 m 11250 4725 l 11250 4320 l
 11565 4320 l gs col0 s gr 
% Polyline
n 9315 1170 m 9315 2025 l
 9360 2025 l gs col0 s gr 
% Polyline
n 9810 2340 m
 9540 2340 l gs col0 s gr 
% Polyline
n 9810 2340 m 9810 2025 l
 9720 2025 l gs col0 s gr 
% Polyline
n 10125 2250 m
 10125 1305 l gs col0 s gr 
% Polyline
n 10350 1800 m
 10350 1305 l gs col0 s gr 
% Polyline
n 8775 1305 m
 11700 1305 l gs col0 s gr 
% Polyline
n 8775 2745 m 10125 2745 l
 10125 2700 l gs col0 s gr 
% Polyline
n 10575 2250 m
 10575 1485 l gs col0 s gr 
% Polyline
n 10800 1800 m
 10800 1485 l gs col0 s gr 
% Polyline
n 8775 1485 m
 11700 1485 l gs col0 s gr 
% Polyline
n 11025 2250 m
 11025 1665 l gs col0 s gr 
% Polyline
n 11250 1665 m
 11250 1800 l gs col0 s gr 
% Polyline
n 8775 1665 m
 11700 1665 l gs col0 s gr 
% Polyline
n 11880 3780 m
 11565 3780 l gs col0 s gr 
% Polyline
n 11070 4185 m 11160 4185 l 11160 4140 l
 11565 4140 l gs col0 s gr 
% Polyline
n 10935 4320 m
 10620 4320 l gs col0 s gr 
% Polyline
n 11565 4500 m 10935 4500 l
 10935 4320 l gs col0 s gr 
% Polyline
n 10620 4275 m 10620 3780 l
 11565 3780 l gs col0 s gr 
% Polyline
n 11565 6480 m
 11430 6480 l gs col0 s gr 
% Polyline
n 11565 6300 m
 10125 6300 l gs col0 s gr 
% Polyline
n 11520 3105 m 11385 3105 l 11385 3870 l
 10935 3870 l gs col0 s gr 
% Polyline
n 11970 3105 m
 12105 3105 l gs col0 s gr 
% Polyline
n 12105 3105 m 12105 3510 l 11520 3510 l 11520 3960 l
 11565 3960 l gs col0 s gr 
% Polyline
n 9315 2025 m
 8775 2025 l gs col0 s gr 
% Polyline
n 7290 6390 m
 7020 6390 l gs col0 s gr 
% Polyline
n 7290 6165 m
 7020 6165 l gs col0 s gr 
% Polyline
n 7290 6615 m
 7020 6615 l gs col0 s gr 
% Polyline
n 8280 6165 m
 8010 6165 l gs col0 s gr 
% Polyline
n 8280 6390 m
 8010 6390 l gs col0 s gr 
% Polyline
n 8280 6615 m
 8010 6615 l gs col0 s gr 
% Polyline
n 7290 6030 m 8010 6030 l 8010 6750 l 7290 6750 l
 cp gs col0 s gr 
% Polyline
n 7020 6165 m 7020 5805 l 8955 5805 l
 8955 3465 l gs col0 s gr 
% Polyline
n 7020 6390 m 6930 6390 l 6930 5715 l 8865 5715 l 8865 3645 l
 8955 3645 l gs col0 s gr 
% Polyline
n 11430 6480 m 10710 6480 l 10710 6615 l
 8280 6615 l gs col0 s gr 
% Polyline
n 8280 6390 m 9045 6390 l
 9045 3285 l gs col0 s gr 
% Polyline
gs  clippath
5823 873 m 5823 810 l 5696 810 l 5696 873 l 5696 873 l cp
eoclip
n 5760 1305 m
 5760 810 l gs col0 s gr gr

% arrowhead
n 5820 873 m 5819 863 l 5817 854 l 5813 845 l 5808 837 l 
5802 830 l 5794 824 l 5786 819 l 5777 815 l 5767 813 l 
5758 813 l 5748 814 l 5739 817 l 5730 821 l 5722 827 l 
5715 833 l 5709 841 l 5705 849 l 5702 859 l 5700 868 l 
5700 878 l 5702 887 l 5705 897 l 5709 905 l 5715 913 l 
5722 919 l 5730 925 l 5739 929 l 5748 932 l 5758 933 l 
5767 933 l 5777 931 l 5786 927 l 5794 922 l 5802 916 l 
5808 909 l 5813 901 l 5817 892 l 5819 883 l 5820 873 l 
 cp gs 0.00 setgray ef gr  col0 s
% Polyline
gs  clippath
6813 6551 m 6750 6551 l 6750 6678 l 6813 6678 l 6813 6678 l cp
eoclip
n 7020 6615 m
 6750 6615 l gs col0 s gr gr

% arrowhead
n 6813 6555 m 6803 6556 l 6794 6558 l 6785 6562 l 6777 6567 l 
6770 6573 l 6764 6581 l 6759 6589 l 6755 6598 l 6753 6608 l 
6753 6617 l 6754 6627 l 6757 6636 l 6761 6645 l 6767 6653 l 
6773 6660 l 6781 6666 l 6789 6670 l 6799 6673 l 6808 6675 l 
6818 6675 l 6827 6673 l 6837 6670 l 6845 6666 l 6853 6660 l 
6859 6653 l 6865 6645 l 6869 6636 l 6872 6627 l 6873 6617 l 
6873 6608 l 6871 6598 l 6867 6589 l 6862 6581 l 6856 6573 l 
6849 6567 l 6841 6562 l 6832 6558 l 6823 6556 l 6813 6555 l 
 cp gs 0.00 setgray ef gr  col0 s
% Polyline
n 4860 5400 m
 4860 5085 l gs col0 s gr 
% Polyline
n 8640 5265 m 8640 5490 l 5040 5490 l 5040 4275 l 4500 4275 l
 4500 3960 l gs col0 s gr 
% Polyline
n 8730 5085 m 8730 5580 l 4860 5580 l
 4860 5400 l gs col0 s gr 
% Polyline
n 4860 5085 m 4860 4995 l
 4770 4995 l gs col0 s gr 
% Polyline
n 4320 4995 m
 4050 4995 l gs col0 s gr 
% Polyline
n 4050 4995 m
 3375 4995 l gs col0 s gr 
% Polyline
n 9675 6300 m
 9495 6300 l gs col0 s gr 
% Polyline
n 9495 6300 m 9495 5895 l
 9495 5850 l gs col0 s gr 
% Polyline
n 900 4860 m 540 4860 l
 540 4950 l gs col0 s gr 
% Polyline
n 900 5490 m 540 5490 l
 540 5355 l gs col0 s gr 
% Polyline
n 5085 765 m 4455 765 l
 4455 945 l gs col0 s gr 
% Polyline
n 4455 1350 m
 4455 1665 l gs col0 s gr 
% Polyline
n 6075 1125 m 8325 1125 l 8325 5400 l 6075 5400 l
 cp gs col0 s gr 
% Polyline
n 8325 1845 m
 8685 1845 l gs col0 s gr 
% Polyline
n 8685 1845 m 8685 990 l
 8145 990 l gs col0 s gr 
% Polyline
n 2925 3645 m 2925 3600 l
 2385 3600 l gs col0 s gr 
% Polyline
n 5040 5490 m 5040 5850 l
 4590 5850 l gs col4 s gr 
/Times-Roman-iso ff 135.00 scf sf
1395 4950 m
gs 1 -1 sc (IN) col0 sh gr
/Times-Roman-iso ff 135.00 scf sf
2025 4950 m
gs 1 -1 sc (OUT) dup sw pop neg 0 rm  col0 sh gr
/Times-Roman-iso ff 135.00 scf sf
1665 5130 m
gs 1 -1 sc (GND) dup sw pop 2 div neg 0 rm  col0 sh gr
/Times-Roman-iso ff 150.00 scf sf
1665 4680 m
gs 1 -1 sc (IC2) dup sw pop 2 div neg 0 rm  col0 sh gr
/Times-Roman-iso ff 120.00 scf sf
6120 3465 m
gs 1 -1 sc (PB7\(XTAL2/TOSC2\)) col0 sh gr
/Times-Roman-iso ff 120.00 scf sf
6120 1350 m
gs 1 -1 sc (PC6\(RESET\)) col0 sh gr
/Times-Roman-iso ff 120.00 scf sf
8280 5310 m
gs 1 -1 sc (PD7\(AIN1\)) dup sw pop neg 0 rm  col0 sh gr
/Times-Roman-iso ff 120.00 scf sf
8280 5130 m
gs 1 -1 sc (PD6\(AIN0\)) dup sw pop neg 0 rm  col0 sh gr
/Times-Roman-iso ff 120.00 scf sf
8280 4950 m
gs 1 -1 sc (PD5\(T1\)) dup sw pop neg 0 rm  col0 sh gr
/Times-Roman-iso ff 120.00 scf sf
8280 4770 m
gs 1 -1 sc (PD4\(XCK/T0\)) dup sw pop neg 0 rm  col0 sh gr
/Times-Roman-iso ff 120.00 scf sf
8280 4590 m
gs 1 -1 sc (PD3\(INT1\)) dup sw pop neg 0 rm  col0 sh gr
/Times-Roman-iso ff 120.00 scf sf
8280 4410 m
gs 1 -1 sc (PD2\(INT0\)) dup sw pop neg 0 rm  col0 sh gr
/Times-Roman-iso ff 120.00 scf sf
8280 4230 m
gs 1 -1 sc (PD1\(TXD\)) dup sw pop neg 0 rm  col0 sh gr
/Times-Roman-iso ff 120.00 scf sf
8280 4050 m
gs 1 -1 sc (PD0\(RXD\)) dup sw pop neg 0 rm  col0 sh gr
/Times-Roman-iso ff 120.00 scf sf
8280 3510 m
gs 1 -1 sc (PB4\(MISO\)) dup sw pop neg 0 rm  col0 sh gr
/Times-Roman-iso ff 120.00 scf sf
8280 3690 m
gs 1 -1 sc (PB5\(SCK\)) dup sw pop neg 0 rm  col0 sh gr
/Times-Roman-iso ff 120.00 scf sf
8280 3330 m
gs 1 -1 sc (PB3\(MOSI/OC2\)) dup sw pop neg 0 rm  col0 sh gr
/Times-Roman-iso ff 120.00 scf sf
8280 3150 m
gs 1 -1 sc (PB2\(OC1B\)) dup sw pop neg 0 rm  col0 sh gr
/Times-Roman-iso ff 120.00 scf sf
8280 2970 m
gs 1 -1 sc (PB1\(OC1A\)) dup sw pop neg 0 rm  col0 sh gr
/Times-Roman-iso ff 120.00 scf sf
8280 2790 m
gs 1 -1 sc (PB0\(ICP\)) dup sw pop neg 0 rm  col0 sh gr
/Times-Roman-iso ff 120.00 scf sf
8280 1350 m
gs 1 -1 sc (PC0\(ADC0\)) dup sw pop neg 0 rm  col0 sh gr
/Times-Roman-iso ff 120.00 scf sf
8280 1530 m
gs 1 -1 sc (PC1\(ADC1\)) dup sw pop neg 0 rm  col0 sh gr
/Times-Roman-iso ff 120.00 scf sf
8280 1710 m
gs 1 -1 sc (PC2\(ADC2\)) dup sw pop neg 0 rm  col0 sh gr
/Times-Roman-iso ff 120.00 scf sf
8280 1890 m
gs 1 -1 sc (PC3\(ADC3\)) dup sw pop neg 0 rm  col0 sh gr
/Times-Roman-iso ff 120.00 scf sf
8280 2070 m
gs 1 -1 sc (PC4\(ADC4/SDA\)) dup sw pop neg 0 rm  col0 sh gr
/Times-Roman-iso ff 120.00 scf sf
8280 2250 m
gs 1 -1 sc (PC5\(ADC5/SCL\)) dup sw pop neg 0 rm  col0 sh gr
/Times-Roman-iso ff 120.00 scf sf
6120 2070 m
gs 1 -1 sc (AREF) col0 sh gr
/Times-Roman-iso ff 120.00 scf sf
6120 2970 m
gs 1 -1 sc (PB6\(XTAL1/TOSC1\)) col0 sh gr
/Times-Roman-iso ff 150.00 scf sf
7200 1035 m
gs 1 -1 sc (ATmega8/168/328) dup sw pop 2 div neg 0 rm  col0 sh gr
/Times-Roman-iso ff 120.00 scf sf
8415 1260 m
gs 1 -1 sc (23) col0 sh gr
/Times-Roman-iso ff 120.00 scf sf
8415 1440 m
gs 1 -1 sc (24) col0 sh gr
/Times-Roman-iso ff 120.00 scf sf
8415 1620 m
gs 1 -1 sc (25) col0 sh gr
/Times-Roman-iso ff 120.00 scf sf
8415 1800 m
gs 1 -1 sc (26) col0 sh gr
/Times-Roman-iso ff 120.00 scf sf
8415 1980 m
gs 1 -1 sc (27) col0 sh gr
/Times-Roman-iso ff 120.00 scf sf
8415 2160 m
gs 1 -1 sc (28) col0 sh gr
/Times-Roman-iso ff 120.00 scf sf
8415 2700 m
gs 1 -1 sc (14) col0 sh gr
/Times-Roman-iso ff 120.00 scf sf
8415 2880 m
gs 1 -1 sc (15) col0 sh gr
/Times-Roman-iso ff 120.00 scf sf
8415 3060 m
gs 1 -1 sc (16) col0 sh gr
/Times-Roman-iso ff 120.00 scf sf
8415 3240 m
gs 1 -1 sc (17) col0 sh gr
/Times-Roman-iso ff 120.00 scf sf
8415 3420 m
gs 1 -1 sc (18) col0 sh gr
/Times-Roman-iso ff 120.00 scf sf
8415 3600 m
gs 1 -1 sc (19) col0 sh gr
/Times-Roman-iso ff 120.00 scf sf
8460 4320 m
gs 1 -1 sc (4) col0 sh gr
/Times-Roman-iso ff 120.00 scf sf
8460 4140 m
gs 1 -1 sc (3) col0 sh gr
/Times-Roman-iso ff 120.00 scf sf
8460 3960 m
gs 1 -1 sc (2) col0 sh gr
/Times-Roman-iso ff 120.00 scf sf
8460 4500 m
gs 1 -1 sc (5) col0 sh gr
/Times-Roman-iso ff 120.00 scf sf
8460 4680 m
gs 1 -1 sc (6) col0 sh gr
/Times-Roman-iso ff 120.00 scf sf
8415 4860 m
gs 1 -1 sc (11) col0 sh gr
/Times-Roman-iso ff 120.00 scf sf
8415 5040 m
gs 1 -1 sc (12) col0 sh gr
/Times-Roman-iso ff 120.00 scf sf
8415 5220 m
gs 1 -1 sc (13) col0 sh gr
/Times-Roman-iso ff 120.00 scf sf
5895 1260 m
gs 1 -1 sc (1) dup sw pop neg 0 rm  col0 sh gr
/Times-Roman-iso ff 120.00 scf sf
5940 3375 m
gs 1 -1 sc (10) dup sw pop neg 0 rm  col0 sh gr
/Times-Roman-iso ff 120.00 scf sf
5940 1980 m
gs 1 -1 sc (21) dup sw pop neg 0 rm  col0 sh gr
/Times-Roman-iso ff 120.00 scf sf
5895 2880 m
gs 1 -1 sc (9) dup sw pop neg 0 rm  col0 sh gr
/Times-Roman-iso ff 120.00 scf sf
6120 4950 m
gs 1 -1 sc (GND) col0 sh gr
/Times-Roman-iso ff 120.00 scf sf
5850 4860 m
gs 1 -1 sc (8) dup sw pop neg 0 rm  col0 sh gr
/Times-Roman-iso ff 120.00 scf sf
6120 4410 m
gs 1 -1 sc (VCC) col0 sh gr
/Times-Roman-iso ff 120.00 scf sf
5895 4320 m
gs 1 -1 sc (7) dup sw pop neg 0 rm  col0 sh gr
/Times-Roman-iso ff 120.00 scf sf
6120 1710 m
gs 1 -1 sc (AVCC) col0 sh gr
/Times-Roman-iso ff 120.00 scf sf
6120 2430 m
gs 1 -1 sc (AGND) col0 sh gr
/Times-Roman-iso ff 120.00 scf sf
5940 1620 m
gs 1 -1 sc (20) dup sw pop neg 0 rm  col0 sh gr
/Times-Roman-iso ff 120.00 scf sf
5940 2340 m
gs 1 -1 sc (22) dup sw pop neg 0 rm  col0 sh gr
/Times-Roman-iso ff 120.00 scf sf
4815 4140 m
gs 1 -1 sc (27k) dup sw pop 2 div neg 0 rm  col2 sh gr
/Times-Roman-iso ff 120.00 scf sf
2025 3375 m
gs 1 -1 sc (33k) dup sw pop 2 div neg 0 rm  col0 sh gr
/Times-Roman-iso ff 150.00 scf sf
4725 3600 m
gs 1 -1 sc (22p) col4 sh gr
/Times-Roman-iso ff 150.00 scf sf
5355 3195 m
gs 1 -1 sc (8MHz) col4 sh gr
/Times-Roman-iso ff 150.00 scf sf
5535 4725 m
gs 1 -1 sc (100n) col14 sh gr
/Times-Roman-iso ff 150.00 scf sf
2520 5400 m
gs 1 -1 sc (100n) col14 sh gr
/Times-Roman-iso ff 150.00 scf sf
945 5400 m
gs 1 -1 sc (100n) col14 sh gr
/Times-Roman-iso ff 150.00 scf sf
945 4005 m
gs 1 -1 sc (Ubat) col0 sh gr
/Times-Roman-iso ff 120.00 scf sf
11745 5175 m
gs 1 -1 sc (9) dup sw pop neg 0 rm  col0 sh gr
/Times-Roman-iso ff 150.00 scf sf
12360 4950 m
gs 1 -1 sc  90.0 rot (LCD 2x16) dup sw pop 2 div neg 0 rm  col0 sh gr
/Times-Roman-iso ff 120.00 scf sf
11745 3735 m
gs 1 -1 sc (1) dup sw pop neg 0 rm  col0 sh gr
/Times-Roman-iso ff 120.00 scf sf
11745 3915 m
gs 1 -1 sc (2) dup sw pop neg 0 rm  col0 sh gr
/Times-Roman-iso ff 120.00 scf sf
11790 6435 m
gs 1 -1 sc (16) dup sw pop neg 0 rm  col0 sh gr
/Times-Roman-iso ff 120.00 scf sf
11790 6255 m
gs 1 -1 sc (15) dup sw pop neg 0 rm  col0 sh gr
/Times-Roman-iso ff 120.00 scf sf
11925 6165 m
gs 1 -1 sc (D7) col0 sh gr
/Times-Roman-iso ff 120.00 scf sf
11925 5985 m
gs 1 -1 sc (D6) col0 sh gr
/Times-Roman-iso ff 120.00 scf sf
11925 5805 m
gs 1 -1 sc (D5) col0 sh gr
/Times-Roman-iso ff 120.00 scf sf
11745 4095 m
gs 1 -1 sc (3) dup sw pop neg 0 rm  col0 sh gr
/Times-Roman-iso ff 120.00 scf sf
11790 6075 m
gs 1 -1 sc (14) dup sw pop neg 0 rm  col0 sh gr
/Times-Roman-iso ff 120.00 scf sf
11745 4275 m
gs 1 -1 sc (4) dup sw pop neg 0 rm  col0 sh gr
/Times-Roman-iso ff 120.00 scf sf
11745 4455 m
gs 1 -1 sc (5) dup sw pop neg 0 rm  col0 sh gr
/Times-Roman-iso ff 120.00 scf sf
11790 5895 m
gs 1 -1 sc (13) dup sw pop neg 0 rm  col0 sh gr
/Times-Roman-iso ff 120.00 scf sf
11790 5715 m
gs 1 -1 sc (12) dup sw pop neg 0 rm  col0 sh gr
/Times-Roman-iso ff 120.00 scf sf
11745 4635 m
gs 1 -1 sc (6) dup sw pop neg 0 rm  col0 sh gr
/Times-Roman-iso ff 120.00 scf sf
11745 4815 m
gs 1 -1 sc (7) dup sw pop neg 0 rm  col0 sh gr
/Times-Roman-iso ff 120.00 scf sf
11790 5535 m
gs 1 -1 sc (11) dup sw pop neg 0 rm  col0 sh gr
/Times-Roman-iso ff 120.00 scf sf
11790 5355 m
gs 1 -1 sc (10) dup sw pop neg 0 rm  col0 sh gr
/Times-Roman-iso ff 120.00 scf sf
11745 4995 m
gs 1 -1 sc (8) dup sw pop neg 0 rm  col0 sh gr
/Times-Roman-iso ff 120.00 scf sf
11925 5625 m
gs 1 -1 sc (D4) col0 sh gr
/Times-Roman-iso ff 120.00 scf sf
11925 5445 m
gs 1 -1 sc (D3) col0 sh gr
/Times-Roman-iso ff 120.00 scf sf
11925 5265 m
gs 1 -1 sc (D2) col0 sh gr
/Times-Roman-iso ff 120.00 scf sf
11925 5085 m
gs 1 -1 sc (D1) col0 sh gr
/Times-Roman-iso ff 120.00 scf sf
11925 4905 m
gs 1 -1 sc (D0) col0 sh gr
/Times-Roman-iso ff 120.00 scf sf
11925 4725 m
gs 1 -1 sc (E) col0 sh gr
/Times-Roman-iso ff 120.00 scf sf
11925 4545 m
gs 1 -1 sc (R/W) col0 sh gr
/Times-Roman-iso ff 120.00 scf sf
11925 4365 m
gs 1 -1 sc (RS) col0 sh gr
/Times-Roman-iso ff 120.00 scf sf
11925 4185 m
gs 1 -1 sc (VEE) col0 sh gr
/Times-Roman-iso ff 120.00 scf sf
11925 3825 m
gs 1 -1 sc (GND) col0 sh gr
/Times-Roman-iso ff 120.00 scf sf
11925 4005 m
gs 1 -1 sc (+5V) col0 sh gr
/Times-Roman-iso ff 150.00 scf sf
8865 585 m
gs 1 -1 sc (Ubat) dup sw pop neg 0 rm  col0 sh gr
/Times-Roman-iso ff 150.00 scf sf
9495 945 m
gs 1 -1 sc  90.0 rot (2k2) dup sw pop 2 div neg 0 rm  col4 sh gr
/Times-Roman-iso ff 150.00 scf sf
9900 6480 m
gs 1 -1 sc (33-270) dup sw pop 2 div neg 0 rm  col14 sh gr
/Times-Roman-iso ff 150.00 scf sf
3015 5310 m
gs 1 -1 sc (BC547) col0 sh gr
/Times-Roman-iso ff 150.00 scf sf
11070 4050 m
gs 1 -1 sc (10k) col14 sh gr
/Times-Roman-iso ff 150.00 scf sf
12240 1530 m
gs 1 -1 sc (TP2) col0 sh gr
/Times-Roman-iso ff 150.00 scf sf
12240 1710 m
gs 1 -1 sc (TP3) col0 sh gr
/Times-Roman-iso ff 150.00 scf sf
12240 1350 m
gs 1 -1 sc (TP1) col0 sh gr
/Times-Roman-iso ff 150.00 scf sf
3510 4455 m
gs 1 -1 sc (Test) dup sw pop 2 div neg 0 rm  col0 sh gr
/Times-Roman-iso ff 150.00 scf sf
11745 3285 m
gs 1 -1 sc (10k) dup sw pop 2 div neg 0 rm  col14 sh gr
/Times-Roman-iso ff 120.00 scf sf
2835 4410 m
gs 1 -1 sc (LED1) dup sw pop neg 0 rm  col0 sh gr
/Times-Roman-iso ff 150.00 scf sf
2025 3060 m
gs 1 -1 sc (R10) dup sw pop 2 div neg 0 rm  col0 sh gr
/Times-Roman-iso ff 150.00 scf sf
1575 3510 m
gs 1 -1 sc (T3) dup sw pop neg 0 rm  col0 sh gr
/Times-Roman-iso ff 150.00 scf sf
1575 3735 m
gs 1 -1 sc (BC557C) dup sw pop neg 0 rm  col0 sh gr
/Times-Roman-iso ff 150.00 scf sf
5040 2205 m
gs 1 -1 sc (C1) dup sw pop neg 0 rm  col14 sh gr
/Times-Roman-iso ff 150.00 scf sf
4275 4185 m
gs 1 -1 sc (T2) col0 sh gr
/Times-Roman-iso ff 150.00 scf sf
4275 4455 m
gs 1 -1 sc (BC547) col0 sh gr
/Times-Roman-iso ff 120.00 scf sf
10035 2475 m
gs 1 -1 sc  90.0 rot (R1) dup sw pop 2 div neg 0 rm  col0 sh gr
/Times-Roman-iso ff 135.00 scf sf
10305 2475 m
gs 1 -1 sc  90.0 rot (680) dup sw pop 2 div neg 0 rm  col0 sh gr
/Times-Roman-iso ff 120.00 scf sf
10485 2475 m
gs 1 -1 sc  90.0 rot (R3) dup sw pop 2 div neg 0 rm  col0 sh gr
/Times-Roman-iso ff 135.00 scf sf
10755 2475 m
gs 1 -1 sc  90.0 rot (680) dup sw pop 2 div neg 0 rm  col0 sh gr
/Times-Roman-iso ff 120.00 scf sf
10935 2475 m
gs 1 -1 sc  90.0 rot (R5) dup sw pop 2 div neg 0 rm  col0 sh gr
/Times-Roman-iso ff 135.00 scf sf
11205 2475 m
gs 1 -1 sc  90.0 rot (680) dup sw pop 2 div neg 0 rm  col0 sh gr
/Times-Roman-iso ff 120.00 scf sf
10260 2025 m
gs 1 -1 sc  90.0 rot (R2) dup sw pop 2 div neg 0 rm  col0 sh gr
/Times-Roman-iso ff 135.00 scf sf
10530 2025 m
gs 1 -1 sc  90.0 rot (470k) dup sw pop 2 div neg 0 rm  col0 sh gr
/Times-Roman-iso ff 120.00 scf sf
10710 2025 m
gs 1 -1 sc  90.0 rot (R4) dup sw pop 2 div neg 0 rm  col0 sh gr
/Times-Roman-iso ff 135.00 scf sf
10980 2025 m
gs 1 -1 sc  90.0 rot (470k) dup sw pop 2 div neg 0 rm  col0 sh gr
/Times-Roman-iso ff 120.00 scf sf
11160 2025 m
gs 1 -1 sc  90.0 rot (R6) dup sw pop 2 div neg 0 rm  col0 sh gr
/Times-Roman-iso ff 135.00 scf sf
11430 2025 m
gs 1 -1 sc  90.0 rot (470k) dup sw pop 2 div neg 0 rm  col0 sh gr
/Times-Roman-iso ff 150.00 scf sf
3645 5175 m
gs 1 -1 sc (C2) col14 sh gr
/Times-Roman-iso ff 150.00 scf sf
3645 5400 m
gs 1 -1 sc (10n) col14 sh gr
/Times-Roman-iso ff 150.00 scf sf
2880 4950 m
gs 1 -1 sc (T1) dup sw pop neg 0 rm  col0 sh gr
/Times-Roman-iso ff 150.00 scf sf
2835 3870 m
gs 1 -1 sc  90.0 rot (R7) dup sw pop 2 div neg 0 rm  col14 sh gr
/Times-Roman-iso ff 150.00 scf sf
3105 3870 m
gs 1 -1 sc  90.0 rot (3k3) dup sw pop 2 div neg 0 rm  col14 sh gr
/Times-Roman-iso ff 150.00 scf sf
8910 945 m
gs 1 -1 sc  90.0 rot (R11) dup sw pop 2 div neg 0 rm  col0 sh gr
/Times-Roman-iso ff 150.00 scf sf
5310 990 m
gs 1 -1 sc  90.0 rot (R13) dup sw pop 2 div neg 0 rm  col0 sh gr
/Times-Roman-iso ff 120.00 scf sf
5580 990 m
gs 1 -1 sc  90.0 rot (10k) dup sw pop 2 div neg 0 rm  col0 sh gr
/Times-Roman-iso ff 120.00 scf sf
7155 6345 m
gs 1 -1 sc (3) dup sw pop 2 div neg 0 rm  col0 sh gr
/Times-Roman-iso ff 120.00 scf sf
7155 6570 m
gs 1 -1 sc (5) dup sw pop 2 div neg 0 rm  col0 sh gr
/Times-Roman-iso ff 120.00 scf sf
7155 6120 m
gs 1 -1 sc (1) dup sw pop 2 div neg 0 rm  col0 sh gr
/Times-Roman-iso ff 90.00 scf sf
7335 6210 m
gs 1 -1 sc (MISO) col0 sh gr
/Times-Roman-iso ff 90.00 scf sf
7335 6435 m
gs 1 -1 sc (SCK) col0 sh gr
/Times-Roman-iso ff 90.00 scf sf
7335 6660 m
gs 1 -1 sc (RESET) col0 sh gr
/Times-Roman-iso ff 120.00 scf sf
8145 6120 m
gs 1 -1 sc (2) dup sw pop 2 div neg 0 rm  col0 sh gr
/Times-Roman-iso ff 120.00 scf sf
8145 6345 m
gs 1 -1 sc (4) dup sw pop 2 div neg 0 rm  col0 sh gr
/Times-Roman-iso ff 120.00 scf sf
8145 6570 m
gs 1 -1 sc (6) dup sw pop 2 div neg 0 rm  col0 sh gr
/Times-Roman-iso ff 90.00 scf sf
7965 6210 m
gs 1 -1 sc (VCC) dup sw pop neg 0 rm  col0 sh gr
/Times-Roman-iso ff 90.00 scf sf
7965 6435 m
gs 1 -1 sc (MOSI) dup sw pop neg 0 rm  col0 sh gr
/Times-Roman-iso ff 90.00 scf sf
7965 6660 m
gs 1 -1 sc (GND) dup sw pop neg 0 rm  col0 sh gr
/Times-Roman-iso ff 150.00 scf sf
7650 5985 m
gs 1 -1 sc (ISP) dup sw pop 2 div neg 0 rm  col4 sh gr
/Times-Roman-iso ff 150.00 scf sf
5715 765 m
gs 1 -1 sc (Reset) col0 sh gr
/Times-Roman-iso ff 150.00 scf sf
4725 3105 m
gs 1 -1 sc (22p) col4 sh gr
/Times-Roman-iso ff 150.00 scf sf
5175 2205 m
gs 1 -1 sc (1n) col14 sh gr
/Times-Roman-iso ff 120.00 scf sf
3960 5220 m
gs 1 -1 sc  90.0 rot (R9) dup sw pop 2 div neg 0 rm  col0 sh gr
/Times-Roman-iso ff 120.00 scf sf
4230 5220 m
gs 1 -1 sc  90.0 rot (100k) dup sw pop 2 div neg 0 rm  col0 sh gr
/Times-Roman-iso ff 150.00 scf sf
4770 1845 m
gs 1 -1 sc (100n) col0 sh gr
/Times-Roman-iso ff 150.00 scf sf
9180 945 m
gs 1 -1 sc  90.0 rot (10k) dup sw pop 2 div neg 0 rm  col0 sh gr
/Times-Roman-iso ff 150.00 scf sf
4545 5175 m
gs 1 -1 sc (27k) dup sw pop 2 div neg 0 rm  col14 sh gr
/Times-Roman-iso ff 150.00 scf sf
4545 4905 m
gs 1 -1 sc (R8) dup sw pop 2 div neg 0 rm  col14 sh gr
/Times-Roman-iso ff 150.00 scf sf
1575 2880 m
gs 1 -1 sc (D1) dup sw pop neg 0 rm  col4 sh gr
/Times-Roman-iso ff 150.00 scf sf
4815 3870 m
gs 1 -1 sc (R15) dup sw pop 2 div neg 0 rm  col2 sh gr
/Times-Roman-iso ff 150.00 scf sf
5535 4545 m
gs 1 -1 sc (C4) col14 sh gr
/Times-Roman-iso ff 150.00 scf sf
2160 5400 m
gs 1 -1 sc (C6) col14 sh gr
/Times-Roman-iso ff 150.00 scf sf
9675 6210 m
gs 1 -1 sc (R14) dup sw pop 2 div neg 0 rm  col0 sh gr
/Times-Roman-iso ff 150.00 scf sf
9630 2250 m
gs 1 -1 sc (2.5V) dup sw pop 2 div neg 0 rm  col4 sh gr
/Times-Roman-iso ff 150.00 scf sf
9630 1890 m
gs 1 -1 sc (LT1004) dup sw pop 2 div neg 0 rm  col4 sh gr
/Times-Roman-iso ff 120.00 scf sf
9315 2250 m
gs 1 -1 sc (R12) dup sw pop 2 div neg 0 rm  col0 sh gr
/Times-Roman-iso ff 135.00 scf sf
9315 2520 m
gs 1 -1 sc (3k3) dup sw pop 2 div neg 0 rm  col0 sh gr
/Times-Roman-iso ff 150.00 scf sf
9675 945 m
gs 1 -1 sc  90.0 rot (R16) dup sw pop 2 div neg 0 rm  col4 sh gr
/Times-Roman-iso ff 150.00 scf sf
990 5175 m
gs 1 -1 sc (C5) col14 sh gr
/Times-Roman-iso ff 150.00 scf sf
585 5400 m
gs 1 -1 sc (10u) col14 sh gr
/Times-Roman-iso ff 150.00 scf sf
630 5040 m
gs 1 -1 sc (C9) col14 sh gr
/Times-Roman-iso ff 150.00 scf sf
4950 1530 m
gs 1 -1 sc (C3) dup sw pop neg 0 rm  col0 sh gr
/Times-Roman-iso ff 150.00 scf sf
4140 990 m
gs 1 -1 sc (C10) col14 sh gr
/Times-Roman-iso ff 150.00 scf sf
4545 990 m
gs 1 -1 sc (10u) col14 sh gr
/Times-Roman-iso ff 180.00 scf sf
8145 945 m
gs 1 -1 sc (serial) col0 sh gr
/Times-Roman-iso ff 150.00 scf sf
765 1800 m
gs 1 -1 sc (9V) col0 sh gr
/Times-Roman-iso ff 150.00 scf sf
6885 6525 m
gs 1 -1 sc (Reset) dup sw pop neg 0 rm  col0 sh gr
/Times-Roman-iso ff 150.00 scf sf
4680 2790 m
gs 1 -1 sc (C11) col4 sh gr
/Times-Roman-iso ff 150.00 scf sf
4680 3330 m
gs 1 -1 sc (C12) col4 sh gr
/Times-Roman-iso ff 180.00 scf sf
4545 5895 m
gs 1 -1 sc (Button) dup sw pop neg 0 rm  col4 sh gr
% here ends figure;
% 
% here starts figure with depth 0
% Ellipse
7.500 slw
n 1305 2340 32 32 0 360 DrawEllipse gs col0 s gr

% Ellipse
n 1305 2475 32 32 0 360 DrawEllipse gs col0 s gr

% Ellipse
n 1305 2565 32 32 0 360 DrawEllipse gs col0 s gr

% Polyline
0 slj
0 slc
gs  clippath
1057 2406 m 1057 2325 l 1012 2325 l 1012 2406 l 1012 2406 l 1035 2350 l 1057 2406 l cp
eoclip
n 1270 2475 m 1035 2475 l
 1035 2340 l gs col0 s gr gr

% arrowhead
n 1057 2406 m 1035 2350 l 1012 2406 l 1035 2425 l 1057 2406 l 
 cp gs 0.00 setgray ef gr  col0 s
% Polyline
n 1270 2340 m 810 2340 l 765 2430 l
 720 2340 l gs col0 s gr 
% Polyline
n 585 2565 m 585 2340 l 495 2340 l 495 2565 l
 1270 2565 l gs col0 s gr 
% Ellipse
gs
1125 2025 tr
-180.000 rot
n 0 0 56 56 0 360 DrawEllipse 180.000 rot
gs col0 s gr
gr

% Polyline
n 1180 2025 m
 1350 2025 l gs col0 s gr 
% Polyline
n 1125 1995 m
 1125 2055 l gs col0 s gr 
% Polyline
1 slj
n 1665 2925 m 1620 2835 l 1710 2835 l
 1665 2925 l  cp gs 0.00 setgray ef gr gs col0 s gr 
% Polyline
0 slj
n 1710 2925 m
 1620 2925 l gs col0 s gr 
% Polyline
n 1665 2835 m
 1665 2700 l gs col0 s gr 
% Polyline
n 1665 2925 m
 1665 3060 l gs col0 s gr 
% Polyline
1 slc
30.000 slw
n 2160 2835 m
 2340 2835 l gs col0 s gr 
% Polyline
0 slc
7.500 slw
n 2250 2565 m
 2250 2835 l gs col0 s gr 
% Ellipse
n 1575 2565 20 20 0 360 DrawEllipse gs 0.00 setgray ef gr gs col0 s gr

% Polyline
1 slc
30.000 slw
n 1575 5670 m
 1755 5670 l gs col0 s gr 
% Polyline
0 slc
7.500 slw
n 1665 5400 m
 1665 5670 l gs col0 s gr 
% Polyline
n 900 5220 m
 900 5085 l gs col0 s gr 
% Polyline
n 900 5265 m
 900 5400 l gs col0 s gr 
% Polyline
n 810 5220 m
 990 5220 l gs col0 s gr 
% Polyline
n 810 5265 m
 990 5265 l gs col0 s gr 
% Ellipse
n 900 4860 20 20 0 360 DrawEllipse gs 0.00 setgray ef gr gs col0 s gr

% Ellipse
n 1665 5490 20 20 0 360 DrawEllipse gs 0.00 setgray ef gr gs col0 s gr

% Ellipse
gs
1845 3600 tr
-180.000 rot
n 0 0 191 191 0 360 DrawEllipse 180.000 rot
gs col0 s gr
gr

% Polyline
n 1878 3588 m 1788 3543 l 1833 3498 l
 1878 3588 l  cp gs 0.00 setgray ef gr gs col0 s gr 
% Polyline
n 1710 3420 m
 1665 3375 l gs col0 s gr 
% Polyline
n 1890 3600 m
 1710 3780 l gs col0 s gr 
% Polyline
n 1890 3600 m
 2115 3600 l gs col0 s gr 
% Polyline
n 1890 3735 m
 1890 3465 l gs col0 s gr 
% Polyline
n 1890 3600 m
 1710 3420 l gs col0 s gr 
% Polyline
n 1710 3780 m
 1665 3825 l gs col0 s gr 
% Polyline
n 2160 3195 m
 2250 3195 l gs col0 s gr 
% Polyline
n 1890 3240 m 1890 3150 l 2160 3150 l 2160 3240 l
 cp gs col0 s gr 
% Polyline
n 1800 3195 m
 1890 3195 l gs col0 s gr 
% Ellipse
n 1665 3195 20 20 0 360 DrawEllipse gs 0.00 setgray ef gr gs col0 s gr

% Polyline
n 2475 5220 m
 2475 5085 l gs col0 s gr 
% Polyline
n 2475 5265 m
 2475 5400 l gs col0 s gr 
% Polyline
n 2385 5220 m
 2565 5220 l gs col0 s gr 
% Polyline
n 2385 5265 m
 2565 5265 l gs col0 s gr 
% Polyline
gs  clippath
2497 4651 m 2497 4530 l 2452 4530 l 2452 4651 l 2452 4651 l 2475 4561 l 2497 4651 l cp
eoclip
n 2475 4860 m
 2475 4545 l gs col0 s gr gr

% arrowhead
n 2497 4651 m 2475 4561 l 2452 4651 l 2497 4651 l  cp gs 0.00 setgray ef gr  col0 s
% Ellipse
n 2475 4860 20 20 0 360 DrawEllipse gs 0.00 setgray ef gr gs col0 s gr

% Ellipse
n 3105 4995 186 186 0 360 DrawEllipse gs col0 s gr

% Polyline
n 3005 5140 m 3050 5050 l 3095 5095 l
 3005 5140 l  cp gs 0.00 setgray ef gr gs col0 s gr 
% Polyline
n 3150 4995 m
 2925 5220 l gs col0 s gr 
% Polyline
n 3150 4995 m
 2925 4770 l gs col0 s gr 
% Polyline
n 3150 4860 m
 3150 5130 l gs col0 s gr 
% Polyline
n 3150 4995 m
 3375 4995 l gs col0 s gr 
% Ellipse
n 2475 5490 20 20 0 360 DrawEllipse gs 0.00 setgray ef gr gs col0 s gr

% Polyline
n 3600 5220 m
 3600 5085 l gs col0 s gr 
% Polyline
n 3600 5265 m
 3600 5400 l gs col0 s gr 
% Polyline
n 3510 5220 m
 3690 5220 l gs col0 s gr 
% Polyline
n 3510 5265 m
 3690 5265 l gs col0 s gr 
% Ellipse
n 2925 5490 20 20 0 360 DrawEllipse gs 0.00 setgray ef gr gs col0 s gr

% Ellipse
n 3600 5490 20 20 0 360 DrawEllipse gs 0.00 setgray ef gr gs col0 s gr

% Ellipse
n 3600 4995 20 20 0 360 DrawEllipse gs 0.00 setgray ef gr gs col0 s gr

% Polyline
n 2925 4545 m 2970 4455 l 2880 4455 l
 2925 4545 l  cp gs 0.00 setgray ef gr gs col0 s gr 
% Polyline
n 2925 4545 m
 2925 4680 l gs col0 s gr 
% Polyline
n 2870 4545 m
 2980 4545 l gs col0 s gr 
% Polyline
n 3060 4500 m
 3015 4545 l gs col0 s gr 
% Polyline
n 3060 4545 m 3060 4500 l
 3015 4500 l gs col0 s gr 
% Polyline
n 3060 4455 m 3060 4410 l
 3015 4410 l gs col0 s gr 
% Polyline
n 3060 4410 m
 3015 4455 l gs col0 s gr 
% Polyline
n 2925 4320 m
 2925 4455 l gs col0 s gr 
% Polyline
n 2925 4005 m
 2925 4095 l gs col0 s gr 
% Polyline
n 2880 3735 m 2970 3735 l 2970 4005 l 2880 4005 l
 cp gs col0 s gr 
% Polyline
n 2925 3645 m
 2925 3735 l gs col0 s gr 
% Ellipse
n 2385 3600 20 20 0 360 DrawEllipse gs 0.00 setgray ef gr gs col0 s gr

% Ellipse
n 2925 4185 20 20 0 360 DrawEllipse gs 0.00 setgray ef gr gs col0 s gr

% Ellipse
n 3375 4185 38 38 0 360 DrawEllipse gs col0 s gr

% Ellipse
n 3645 4185 38 38 0 360 DrawEllipse gs col0 s gr

% Polyline
n 3330 4185 m
 3240 4185 l gs col0 s gr 
% Polyline
n 3690 4185 m
 3780 4185 l gs col0 s gr 
% Polyline
n 3510 4095 m
 3510 4005 l gs col0 s gr 
% Polyline
1 slc
n 3375 4095 m
 3645 4095 l gs col0 s gr 
% Polyline
n 3465 4005 m
 3555 4005 l gs col0 s gr 
% Ellipse
n 4050 4185 186 186 0 360 DrawEllipse gs col0 s gr

% Polyline
0 slc
n 4150 4330 m 4105 4240 l 4060 4285 l
 4150 4330 l  cp gs 0.00 setgray ef gr gs col0 s gr 
% Polyline
n 4005 4185 m
 4230 4410 l gs col0 s gr 
% Polyline
n 4005 4185 m
 4230 3960 l gs col0 s gr 
% Polyline
n 4005 4050 m
 4005 4320 l gs col0 s gr 
% Polyline
n 4005 4185 m
 3780 4185 l gs col0 s gr 
% Polyline
1 slc
30.000 slw
n 4140 4680 m
 4320 4680 l gs col0 s gr 
% Polyline
0 slc
7.500 slw
n 4230 4410 m
 4230 4680 l gs col0 s gr 
% Polyline
1 slc
30.000 slw
n 5310 5265 m
 5490 5265 l gs col0 s gr 
% Polyline
0 slc
7.500 slw
n 5400 4995 m
 5400 5265 l gs col0 s gr 
% Polyline
gs  clippath
5422 4066 m 5422 3945 l 5377 3945 l 5377 4066 l 5377 4066 l 5400 3976 l 5422 4066 l cp
eoclip
n 5400 4275 m
 5400 3960 l gs col0 s gr gr

% arrowhead
n 5422 4066 m 5400 3976 l 5377 4066 l 5422 4066 l  cp gs 0.00 setgray ef gr  col0 s
% Ellipse
n 5400 4365 20 20 0 360 DrawEllipse gs 0.00 setgray ef gr gs col0 s gr

% Ellipse
n 5400 4905 20 20 0 360 DrawEllipse gs 0.00 setgray ef gr gs col0 s gr

% Polyline
n 4680 3960 m
 4590 3960 l gs col0 s gr 
% Polyline
n 4950 4005 m 4950 3915 l 4680 3915 l 4680 4005 l
 cp gs col0 s gr 
% Polyline
n 5040 3960 m
 4950 3960 l gs col0 s gr 
% Ellipse
n 4500 3960 20 20 0 360 DrawEllipse gs 0.00 setgray ef gr gs col0 s gr

% Polyline
n 5175 3285 m
 5175 3420 l gs col0 s gr 
% Polyline
n 5085 3285 m
 5265 3285 l gs col0 s gr 
% Polyline
n 5065 3150 m 5285 3150 l 5285 3240 l 5065 3240 l
 cp gs col0 s gr 
% Polyline
n 5085 3105 m
 5265 3105 l gs col0 s gr 
% Polyline
n 5175 3105 m
 5175 2970 l gs col0 s gr 
% Polyline
n 4635 3420 m
 4500 3420 l gs col0 s gr 
% Polyline
n 4680 3420 m
 4815 3420 l gs col0 s gr 
% Polyline
n 4635 3510 m
 4635 3330 l gs col0 s gr 
% Polyline
n 4680 3510 m
 4680 3330 l gs col0 s gr 
% Polyline
1 slc
30.000 slw
n 4005 3420 m
 4185 3420 l gs col0 s gr 
% Polyline
0 slc
7.500 slw
n 4095 3150 m
 4095 3420 l gs col0 s gr 
% Ellipse
n 4455 3150 20 20 0 360 DrawEllipse gs 0.00 setgray ef gr gs col0 s gr

% Ellipse
n 5175 2925 20 20 0 360 DrawEllipse gs 0.00 setgray ef gr gs col0 s gr

% Ellipse
n 5175 3420 20 20 0 360 DrawEllipse gs 0.00 setgray ef gr gs col0 s gr

% Polyline
n 5130 2025 m
 5265 2025 l gs col0 s gr 
% Polyline
n 5085 2025 m
 4950 2025 l gs col0 s gr 
% Polyline
n 5130 1935 m
 5130 2115 l gs col0 s gr 
% Polyline
n 5085 1935 m
 5085 2115 l gs col0 s gr 
% Ellipse
n 4455 2925 20 20 0 360 DrawEllipse gs 0.00 setgray ef gr gs col0 s gr

% Ellipse
n 4455 2385 20 20 0 360 DrawEllipse gs 0.00 setgray ef gr gs col0 s gr

% Ellipse
n 4455 2025 20 20 0 360 DrawEllipse gs 0.00 setgray ef gr gs col0 s gr

% Polyline
n 11880 1260 m 11925 1305 l
 11880 1350 l gs col0 s gr 
% Polyline
n 11925 1260 m 11970 1305 l
 11925 1350 l gs col0 s gr 
% Polyline
n 11970 1305 m
 12150 1305 l gs col0 s gr 
% Polyline
n 11700 1305 m
 11925 1305 l gs col0 s gr 
% Polyline
n 11880 1440 m 11925 1485 l
 11880 1530 l gs col0 s gr 
% Polyline
n 11925 1440 m 11970 1485 l
 11925 1530 l gs col0 s gr 
% Polyline
n 11970 1485 m
 12150 1485 l gs col0 s gr 
% Polyline
n 11700 1485 m
 11925 1485 l gs col0 s gr 
% Polyline
n 11880 1620 m 11925 1665 l
 11880 1710 l gs col0 s gr 
% Polyline
n 11925 1620 m 11970 1665 l
 11925 1710 l gs col0 s gr 
% Polyline
n 11970 1665 m
 12150 1665 l gs col0 s gr 
% Polyline
n 11700 1665 m
 11925 1665 l gs col0 s gr 
% Polyline
gs  clippath
5422 601 m 5422 480 l 5377 480 l 5377 601 l 5377 601 l 5400 511 l 5422 601 l cp
eoclip
n 5400 810 m
 5400 495 l gs col0 s gr gr

% arrowhead
n 5422 601 m 5400 511 l 5377 601 l 5422 601 l  cp gs 0.00 setgray ef gr  col0 s
% Polyline
n 5400 1125 m
 5400 1215 l gs col0 s gr 
% Polyline
n 5355 855 m 5445 855 l 5445 1125 l 5355 1125 l
 cp gs col0 s gr 
% Polyline
n 5400 765 m
 5400 855 l gs col0 s gr 
% Ellipse
n 9000 2205 20 20 0 360 DrawEllipse gs 0.00 setgray ef gr gs col0 s gr

% Polyline
n 9000 1080 m
 9000 1170 l gs col0 s gr 
% Polyline
n 8955 810 m 9045 810 l 9045 1080 l 8955 1080 l
 cp gs col0 s gr 
% Polyline
n 9000 720 m
 9000 810 l gs col0 s gr 
% Ellipse
n 900 4275 20 20 0 360 DrawEllipse gs 0.00 setgray ef gr gs col0 s gr

% Ellipse
n 5400 765 20 20 0 360 DrawEllipse gs 0.00 setgray ef gr gs col0 s gr

% Polyline
n 4725 1665 m
 4860 1665 l gs col0 s gr 
% Polyline
n 4680 1665 m
 4545 1665 l gs col0 s gr 
% Polyline
n 4725 1575 m
 4725 1755 l gs col0 s gr 
% Polyline
n 4680 1575 m
 4680 1755 l gs col0 s gr 
% Ellipse
n 5085 1665 20 20 0 360 DrawEllipse gs 0.00 setgray ef gr gs col0 s gr

% Polyline
n 12240 6390 m 12150 6345 l 12150 6435 l
 12240 6390 l  cp gs 0.00 setgray ef gr gs col0 s gr 
% Polyline
n 12240 6390 m
 12375 6390 l gs col0 s gr 
% Polyline
n 12240 6445 m
 12240 6335 l gs col0 s gr 
% Polyline
n 12195 6255 m
 12240 6300 l gs col0 s gr 
% Polyline
n 12240 6255 m 12195 6255 l
 12195 6300 l gs col0 s gr 
% Polyline
n 12150 6255 m 12105 6255 l
 12105 6300 l gs col0 s gr 
% Polyline
n 12105 6255 m
 12150 6300 l gs col0 s gr 
% Polyline
n 12015 6390 m
 12150 6390 l gs col0 s gr 
% Polyline
n 9315 1080 m
 9315 1170 l gs col0 s gr 
% Polyline
n 9270 810 m 9360 810 l 9360 1080 l 9270 1080 l
 cp gs col0 s gr 
% Polyline
n 9315 720 m
 9315 810 l gs col0 s gr 
% Polyline
gs  clippath
9337 511 m 9337 390 l 9292 390 l 9292 511 l 9292 511 l 9315 421 l 9337 511 l cp
eoclip
n 9315 720 m
 9315 405 l gs col0 s gr gr

% arrowhead
n 9337 511 m 9315 421 l 9292 511 l 9337 511 l  cp gs 0.00 setgray ef gr  col0 s
% Polyline
1 slj
n 9620 2085 m 9620 1965 l 9500 2025 l
 9620 2085 l  cp gs 0.00 setgray ef gr gs col0 s gr 
% Polyline
0 slj
n 9360 2025 m
 9765 2025 l gs 1.00 setgray ef gr gs col0 s gr 
% Polyline
1 slc
n 9495 1955 m
 9540 1955 l gs 1.00 setgray ef gr gs col0 s gr 
% Polyline
n 9495 2095 m
 9495 1955 l gs 1.00 setgray ef gr gs col0 s gr 
% Polyline
n 9495 2095 m
 9450 2095 l gs 1.00 setgray ef gr gs col0 s gr 
% Polyline
30.000 slw
n 9720 2610 m
 9900 2610 l gs col0 s gr 
% Polyline
0 slc
7.500 slw
n 9810 2340 m
 9810 2610 l gs col0 s gr 
% Ellipse
n 9810 2340 20 20 0 360 DrawEllipse gs 0.00 setgray ef gr gs col0 s gr

% Polyline
n 10125 2610 m
 10125 2700 l gs col0 s gr 
% Polyline
n 10080 2340 m 10170 2340 l 10170 2610 l 10080 2610 l
 cp gs col0 s gr 
% Polyline
n 10125 2250 m
 10125 2340 l gs col0 s gr 
% Ellipse
n 10125 1305 20 20 0 360 DrawEllipse gs 0.00 setgray ef gr gs col0 s gr

% Polyline
n 10350 2160 m
 10350 2250 l gs col0 s gr 
% Polyline
n 10305 1890 m 10395 1890 l 10395 2160 l 10305 2160 l
 cp gs col0 s gr 
% Polyline
n 10350 1800 m
 10350 1890 l gs col0 s gr 
% Ellipse
n 10350 1305 20 20 0 360 DrawEllipse gs 0.00 setgray ef gr gs col0 s gr

% Polyline
n 10575 2610 m
 10575 2700 l gs col0 s gr 
% Polyline
n 10530 2340 m 10620 2340 l 10620 2610 l 10530 2610 l
 cp gs col0 s gr 
% Polyline
n 10575 2250 m
 10575 2340 l gs col0 s gr 
% Polyline
n 10800 2160 m
 10800 2250 l gs col0 s gr 
% Polyline
n 10755 1890 m 10845 1890 l 10845 2160 l 10755 2160 l
 cp gs col0 s gr 
% Polyline
n 10800 1800 m
 10800 1890 l gs col0 s gr 
% Ellipse
n 10575 1485 20 20 0 360 DrawEllipse gs 0.00 setgray ef gr gs col0 s gr

% Ellipse
n 10800 1485 20 20 0 360 DrawEllipse gs 0.00 setgray ef gr gs col0 s gr

% Polyline
n 11250 2160 m
 11250 2250 l gs col0 s gr 
% Polyline
n 11205 1890 m 11295 1890 l 11295 2160 l 11205 2160 l
 cp gs col0 s gr 
% Polyline
n 11250 1800 m
 11250 1890 l gs col0 s gr 
% Ellipse
n 11025 1665 20 20 0 360 DrawEllipse gs 0.00 setgray ef gr gs col0 s gr

% Ellipse
n 11250 1665 20 20 0 360 DrawEllipse gs 0.00 setgray ef gr gs col0 s gr

% Polyline
1 slc
30.000 slw
n 10530 4545 m
 10710 4545 l gs col0 s gr 
% Polyline
0 slc
7.500 slw
n 10620 4275 m
 10620 4545 l gs col0 s gr 
% Polyline
n 10935 4230 m
 10935 4320 l gs col0 s gr 
% Polyline
n 10980 3960 m 10890 3960 l 10890 4230 l 10980 4230 l
 cp gs col0 s gr 
% Polyline
n 10800 4005 m
 11070 4185 l gs col0 s gr 
% Polyline
n 10935 3870 m
 10935 3960 l gs col0 s gr 
% Polyline
1 slc
n 10827 3972 m
 10785 4047 l gs col0 s gr 
% Ellipse
n 10620 4320 20 20 0 360 DrawEllipse gs 0.00 setgray ef gr gs col0 s gr

% Ellipse
n 10935 4320 20 20 0 360 DrawEllipse gs 0.00 setgray ef gr gs col0 s gr

% Polyline
30.000 slw
n 11340 6750 m
 11520 6750 l gs col0 s gr 
% Polyline
0 slc
7.500 slw
n 11430 6480 m
 11430 6750 l gs col0 s gr 
% Polyline
n 9765 6300 m
 9675 6300 l gs col0 s gr 
% Polyline
n 10035 6345 m 10035 6255 l 9765 6255 l 9765 6345 l
 cp gs col0 s gr 
% Polyline
n 10125 6300 m
 10035 6300 l gs col0 s gr 
% Polyline
gs  clippath
12127 2896 m 12127 2775 l 12082 2775 l 12082 2896 l 12082 2896 l 12105 2806 l 12127 2896 l cp
eoclip
n 12105 3105 m
 12105 2790 l gs col0 s gr gr

% arrowhead
n 12127 2896 m 12105 2806 l 12082 2896 l 12127 2896 l  cp gs 0.00 setgray ef gr  col0 s
% Polyline
n 11610 3105 m
 11520 3105 l gs col0 s gr 
% Polyline
n 11880 3150 m 11880 3060 l 11610 3060 l 11610 3150 l
 cp gs col0 s gr 
% Polyline
n 11970 3105 m
 11880 3105 l gs col0 s gr 
% Ellipse
n 12105 3105 20 20 0 360 DrawEllipse gs 0.00 setgray ef gr gs col0 s gr

% Ellipse
n 9315 2025 20 20 0 360 DrawEllipse gs 0.00 setgray ef gr gs col0 s gr

% Polyline
n 11025 2610 m
 11025 2700 l gs col0 s gr 
% Polyline
n 10980 2340 m 11070 2340 l 11070 2610 l 10980 2610 l
 cp gs col0 s gr 
% Polyline
n 11025 2250 m
 11025 2340 l gs col0 s gr 
% Polyline
gs  clippath
8302 5956 m 8302 5835 l 8257 5835 l 8257 5956 l 8257 5956 l 8280 5866 l 8302 5956 l cp
eoclip
n 8280 6165 m
 8280 5850 l gs col0 s gr gr

% arrowhead
n 8302 5956 m 8280 5866 l 8257 5956 l 8302 5956 l  cp gs 0.00 setgray ef gr  col0 s
% Ellipse
n 11430 6480 20 20 0 360 DrawEllipse gs 0.00 setgray ef gr gs col0 s gr

% Ellipse
n 9045 3285 20 20 0 360 DrawEllipse gs 0.00 setgray ef gr gs col0 s gr

% Ellipse
n 8955 3465 20 20 0 360 DrawEllipse gs 0.00 setgray ef gr gs col0 s gr

% Ellipse
n 8865 3645 20 20 0 360 DrawEllipse gs 0.00 setgray ef gr gs col0 s gr

% Ellipse
n 5760 1305 20 20 0 360 DrawEllipse gs 0.00 setgray ef gr gs col0 s gr

% Polyline
n 4635 2925 m
 4500 2925 l gs col0 s gr 
% Polyline
n 4680 2925 m
 4815 2925 l gs col0 s gr 
% Polyline
n 4635 3015 m
 4635 2835 l gs col0 s gr 
% Polyline
n 4680 3015 m
 4680 2835 l gs col0 s gr 
% Polyline
n 4050 5355 m
 4050 5445 l gs col0 s gr 
% Polyline
n 4005 5085 m 4095 5085 l 4095 5355 l 4005 5355 l
 cp gs col0 s gr 
% Polyline
n 4050 4995 m
 4050 5085 l gs col0 s gr 
% Ellipse
n 4050 4995 20 20 0 360 DrawEllipse gs 0.00 setgray ef gr gs col0 s gr

% Polyline
n 4410 4995 m
 4320 4995 l gs col0 s gr 
% Polyline
n 4680 5040 m 4680 4950 l 4410 4950 l 4410 5040 l
 cp gs col0 s gr 
% Polyline
n 4770 4995 m
 4680 4995 l gs col0 s gr 
% Polyline
n 5400 4635 m
 5400 4500 l gs col0 s gr 
% Polyline
n 5400 4680 m
 5400 4815 l gs col0 s gr 
% Polyline
n 5310 4635 m
 5490 4635 l gs col0 s gr 
% Polyline
n 5310 4680 m
 5490 4680 l gs col0 s gr 
% Polyline
gs  clippath
9517 5686 m 9517 5565 l 9472 5565 l 9472 5686 l 9472 5686 l 9495 5596 l 9517 5686 l cp
eoclip
n 9495 5895 m
 9495 5580 l gs col0 s gr gr

% arrowhead
n 9517 5686 m 9495 5596 l 9472 5686 l 9517 5686 l  cp gs 0.00 setgray ef gr  col0 s
% Polyline
n 9180 2340 m
 9090 2340 l gs col0 s gr 
% Polyline
n 9450 2385 m 9450 2295 l 9180 2295 l 9180 2385 l
 cp gs col0 s gr 
% Polyline
n 9540 2340 m
 9450 2340 l gs col0 s gr 
% Ellipse
n 900 5490 20 20 0 360 DrawEllipse gs 0.00 setgray ef gr gs col0 s gr

% Polyline
n 540 5220 m
 540 5355 l gs col0 s gr 
% Polyline
n 460 5085 m 620 5085 l 620 5130 l 460 5130 l
 cp gs col0 s gr 
% Polyline
n 540 4950 m
 540 5085 l gs col0 s gr 
% Polyline
n 460 5175 m 620 5175 l 620 5220 l 460 5220 l
 cp gs 0.00 setgray ef gr gs col0 s gr 
% Polyline
n 4455 1215 m
 4455 1350 l gs col0 s gr 
% Polyline
n 4375 1080 m 4535 1080 l 4535 1125 l 4375 1125 l
 cp gs col0 s gr 
% Polyline
n 4455 945 m
 4455 1080 l gs col0 s gr 
% Polyline
n 4375 1170 m 4535 1170 l 4535 1215 l 4375 1215 l
 cp gs 0.00 setgray ef gr gs col0 s gr 
% Ellipse
n 4455 1665 20 20 0 360 DrawEllipse gs 0.00 setgray ef gr gs col0 s gr

% Ellipse
n 5085 765 20 20 0 360 DrawEllipse gs 0.00 setgray ef gr gs col0 s gr

% Polyline
n 585 1845 m
 585 2070 l gs 1.00 setgray ef gr gs col0 s gr 
% Polyline
n 495 1800 m 675 1800 l 675 1845 l 495 1845 l
 cp gs 0.00 setgray ef gr gs col0 s gr 
% Polyline
n 450 1755 m
 720 1755 l gs 1.00 setgray ef gr gs col0 s gr 
% Polyline
n 585 1755 m
 585 1530 l gs 1.00 setgray ef gr gs col0 s gr 
% Ellipse
gs
1125 1530 tr
-180.000 rot
n 0 0 56 56 0 360 DrawEllipse 180.000 rot
gs col0 s gr
gr

% Polyline
n 1125 1560 m
 1125 1500 l gs col0 s gr 
% Polyline
n 1095 1530 m
 1155 1530 l gs col0 s gr 
% Polyline
n 1180 1530 m
 1350 1530 l gs col0 s gr 
% Ellipse
n 5040 5490 20 20 0 360 DrawEllipse gs 0.00 setgray ef gr gs col0 s gr

/Helvetica-iso ff 90.00 scf sf
2520 4680 m
gs 1 -1 sc (VCC) col0 sh gr
/Helvetica-iso ff 90.00 scf sf
5445 4095 m
gs 1 -1 sc (VCC) col0 sh gr
/Helvetica-iso ff 90.00 scf sf
5445 630 m
gs 1 -1 sc (VCC) col0 sh gr
/Helvetica-iso ff 90.00 scf sf
9360 540 m
gs 1 -1 sc (VCC) col0 sh gr
/Helvetica-iso ff 90.00 scf sf
12150 2925 m
gs 1 -1 sc (VCC) col0 sh gr
/Helvetica-iso ff 90.00 scf sf
8325 5985 m
gs 1 -1 sc (VCC) col0 sh gr
/Helvetica-iso ff 90.00 scf sf
9540 5715 m
gs 1 -1 sc (VCC) col0 sh gr
% here ends figure;
pagefooter
showpage
%%Trailer
%EOF

%%EndDocument
 @endspecial Black Black eop end
%%Trailer

userdict /end-hook known{end-hook}if
%%EOF
