%!PS-Adobe-2.0
%%Creator: dvips(k) 5.993 Copyright 2013 Radical Eye Software
%%Title: job-001.dvi
%%CreationDate: Mon Apr  6 22:22:49 2015
%%Pages: 1
%%PageOrder: Ascend
%%BoundingBox: 156 3067 755 3229
%%EndComments
%DVIPSWebPage: (www.radicaleye.com)
%DVIPSCommandLine: dvips job-001.dvi -o job-001.dvips.ps
%DVIPSParameters: dpi=600
%DVIPSSource:  TeX output 2015.04.06:2222
%%BeginProcSet: tex.pro 0 0
%!
/TeXDict 300 dict def TeXDict begin/N{def}def/B{bind def}N/S{exch}N/X{S
N}B/A{dup}B/TR{translate}N/isls false N/vsize 11 72 mul N/hsize 8.5 72
mul N/landplus90{false}def/@rigin{isls{[0 landplus90{1 -1}{-1 1}ifelse 0
0 0]concat}if 72 Resolution div 72 VResolution div neg scale isls{
landplus90{VResolution 72 div vsize mul 0 exch}{Resolution -72 div hsize
mul 0}ifelse TR}if Resolution VResolution vsize -72 div 1 add mul TR[
matrix currentmatrix{A A round sub abs 0.00001 lt{round}if}forall round
exch round exch]setmatrix}N/@landscape{/isls true N}B/@manualfeed{
statusdict/manualfeed true put}B/@copies{/#copies X}B/FMat[1 0 0 -1 0 0]
N/FBB[0 0 0 0]N/nn 0 N/IEn 0 N/ctr 0 N/df-tail{/nn 8 dict N nn begin
/FontType 3 N/FontMatrix fntrx N/FontBBox FBB N string/base X array
/BitMaps X/BuildChar{CharBuilder}N/Encoding IEn N end A{/foo setfont}2
array copy cvx N load 0 nn put/ctr 0 N[}B/sf 0 N/df{/sf 1 N/fntrx FMat N
df-tail}B/dfs{div/sf X/fntrx[sf 0 0 sf neg 0 0]N df-tail}B/E{pop nn A
definefont setfont}B/Cw{Cd A length 5 sub get}B/Ch{Cd A length 4 sub get
}B/Cx{128 Cd A length 3 sub get sub}B/Cy{Cd A length 2 sub get 127 sub}
B/Cdx{Cd A length 1 sub get}B/Ci{Cd A type/stringtype ne{ctr get/ctr ctr
1 add N}if}B/CharBuilder{save 3 1 roll S A/base get 2 index get S
/BitMaps get S get/Cd X pop/ctr 0 N Cdx 0 Cx Cy Ch sub Cx Cw add Cy
setcachedevice Cw Ch true[1 0 0 -1 -.1 Cx sub Cy .1 sub]{Ci}imagemask
restore}B/D{/cc X A type/stringtype ne{]}if nn/base get cc ctr put nn
/BitMaps get S ctr S sf 1 ne{A A length 1 sub A 2 index S get sf div put
}if put/ctr ctr 1 add N}B/I{cc 1 add D}B/bop{userdict/bop-hook known{
bop-hook}if/SI save N @rigin 0 0 moveto/V matrix currentmatrix A 1 get A
mul exch 0 get A mul add .99 lt{/QV}{/RV}ifelse load def pop pop}N/eop{
SI restore userdict/eop-hook known{eop-hook}if showpage}N/@start{
userdict/start-hook known{start-hook}if pop/VResolution X/Resolution X
1000 div/DVImag X/IEn 256 array N 2 string 0 1 255{IEn S A 360 add 36 4
index cvrs cvn put}for pop 65781.76 div/vsize X 65781.76 div/hsize X}N
/dir 0 def/dyy{/dir 0 def}B/dyt{/dir 1 def}B/dty{/dir 2 def}B/dtt{/dir 3
def}B/p{dir 2 eq{-90 rotate show 90 rotate}{dir 3 eq{-90 rotate show 90
rotate}{show}ifelse}ifelse}N/RMat[1 0 0 -1 0 0]N/BDot 260 string N/Rx 0
N/Ry 0 N/V{}B/RV/v{/Ry X/Rx X V}B statusdict begin/product where{pop
false[(Display)(NeXT)(LaserWriter 16/600)]{A length product length le{A
length product exch 0 exch getinterval eq{pop true exit}if}{pop}ifelse}
forall}{false}ifelse end{{gsave TR -.1 .1 TR 1 1 scale Rx Ry false RMat{
BDot}imagemask grestore}}{{gsave TR -.1 .1 TR Rx Ry scale 1 1 false RMat
{BDot}imagemask grestore}}ifelse B/QV{gsave newpath transform round exch
round exch itransform moveto Rx 0 rlineto 0 Ry neg rlineto Rx neg 0
rlineto fill grestore}B/a{moveto}B/delta 0 N/tail{A/delta X 0 rmoveto}B
/M{S p delta add tail}B/b{S p tail}B/c{-4 M}B/d{-3 M}B/e{-2 M}B/f{-1 M}
B/g{0 M}B/h{1 M}B/i{2 M}B/j{3 M}B/k{4 M}B/w{0 rmoveto}B/l{p -4 w}B/m{p
-3 w}B/n{p -2 w}B/o{p -1 w}B/q{p 1 w}B/r{p 2 w}B/s{p 3 w}B/t{p 4 w}B/x{
0 S rmoveto}B/y{3 2 roll p a}B/bos{/SS save N}B/eos{SS restore}B end

%%EndProcSet
%%BeginProcSet: special.pro 0 0
%!
TeXDict begin/SDict 200 dict N SDict begin/@SpecialDefaults{/hs 612 N
/vs 792 N/ho 0 N/vo 0 N/hsc 1 N/vsc 1 N/ang 0 N/CLIP 0 N/rwiSeen false N
/rhiSeen false N/letter{}N/note{}N/a4{}N/legal{}N}B/@scaleunit 100 N
/@hscale{@scaleunit div/hsc X}B/@vscale{@scaleunit div/vsc X}B/@hsize{
/hs X/CLIP 1 N}B/@vsize{/vs X/CLIP 1 N}B/@clip{/CLIP 2 N}B/@hoffset{/ho
X}B/@voffset{/vo X}B/@angle{/ang X}B/@rwi{10 div/rwi X/rwiSeen true N}B
/@rhi{10 div/rhi X/rhiSeen true N}B/@llx{/llx X}B/@lly{/lly X}B/@urx{
/urx X}B/@ury{/ury X}B/magscale true def end/@MacSetUp{userdict/md known
{userdict/md get type/dicttype eq{userdict begin md length 10 add md
maxlength ge{/md md dup length 20 add dict copy def}if end md begin
/letter{}N/note{}N/legal{}N/od{txpose 1 0 mtx defaultmatrix dtransform S
atan/pa X newpath clippath mark{transform{itransform moveto}}{transform{
itransform lineto}}{6 -2 roll transform 6 -2 roll transform 6 -2 roll
transform{itransform 6 2 roll itransform 6 2 roll itransform 6 2 roll
curveto}}{{closepath}}pathforall newpath counttomark array astore/gc xdf
pop ct 39 0 put 10 fz 0 fs 2 F/|______Courier fnt invertflag{PaintBlack}
if}N/txpose{pxs pys scale ppr aload pop por{noflips{pop S neg S TR pop 1
-1 scale}if xflip yflip and{pop S neg S TR 180 rotate 1 -1 scale ppr 3
get ppr 1 get neg sub neg ppr 2 get ppr 0 get neg sub neg TR}if xflip
yflip not and{pop S neg S TR pop 180 rotate ppr 3 get ppr 1 get neg sub
neg 0 TR}if yflip xflip not and{ppr 1 get neg ppr 0 get neg TR}if}{
noflips{TR pop pop 270 rotate 1 -1 scale}if xflip yflip and{TR pop pop
90 rotate 1 -1 scale ppr 3 get ppr 1 get neg sub neg ppr 2 get ppr 0 get
neg sub neg TR}if xflip yflip not and{TR pop pop 90 rotate ppr 3 get ppr
1 get neg sub neg 0 TR}if yflip xflip not and{TR pop pop 270 rotate ppr
2 get ppr 0 get neg sub neg 0 S TR}if}ifelse scaleby96{ppr aload pop 4
-1 roll add 2 div 3 1 roll add 2 div 2 copy TR .96 dup scale neg S neg S
TR}if}N/cp{pop pop showpage pm restore}N end}if}if}N/normalscale{
Resolution 72 div VResolution 72 div neg scale magscale{DVImag dup scale
}if 0 setgray}N/psfts{S 65781.76 div N}N/startTexFig{/psf$SavedState
save N userdict maxlength dict begin/magscale true def normalscale
currentpoint TR/psf$ury psfts/psf$urx psfts/psf$lly psfts/psf$llx psfts
/psf$y psfts/psf$x psfts currentpoint/psf$cy X/psf$cx X/psf$sx psf$x
psf$urx psf$llx sub div N/psf$sy psf$y psf$ury psf$lly sub div N psf$sx
psf$sy scale psf$cx psf$sx div psf$llx sub psf$cy psf$sy div psf$ury sub
TR/showpage{}N/erasepage{}N/setpagedevice{pop}N/copypage{}N/p 3 def
@MacSetUp}N/doclip{psf$llx psf$lly psf$urx psf$ury currentpoint 6 2 roll
newpath 4 copy 4 2 roll moveto 6 -1 roll S lineto S lineto S lineto
closepath clip newpath moveto}N/endTexFig{end psf$SavedState restore}N
/@beginspecial{SDict begin/SpecialSave save N gsave normalscale
currentpoint TR @SpecialDefaults count/ocount X/dcount countdictstack N}
N/@setspecial{CLIP 1 eq{newpath 0 0 moveto hs 0 rlineto 0 vs rlineto hs
neg 0 rlineto closepath clip}if ho vo TR hsc vsc scale ang rotate
rwiSeen{rwi urx llx sub div rhiSeen{rhi ury lly sub div}{dup}ifelse
scale llx neg lly neg TR}{rhiSeen{rhi ury lly sub div dup scale llx neg
lly neg TR}if}ifelse CLIP 2 eq{newpath llx lly moveto urx lly lineto urx
ury lineto llx ury lineto closepath clip}if/showpage{}N/erasepage{}N
/setpagedevice{pop}N/copypage{}N newpath}N/@endspecial{count ocount sub{
pop}repeat countdictstack dcount sub{end}repeat grestore SpecialSave
restore end}N/@defspecial{SDict begin}N/@fedspecial{end}B/li{lineto}B
/rl{rlineto}B/rc{rcurveto}B/np{/SaveX currentpoint/SaveY X N 1
setlinecap newpath}N/st{stroke SaveX SaveY moveto}N/fil{fill SaveX SaveY
moveto}N/ellipse{/endangle X/startangle X/yrad X/xrad X/savematrix
matrix currentmatrix N TR xrad yrad scale 0 0 1 startangle endangle arc
savematrix setmatrix}N end

%%EndProcSet
%%BeginProcSet: color.pro 0 0
%!
TeXDict begin/setcmykcolor where{pop}{/setcmykcolor{dup 10 eq{pop
setrgbcolor}{1 sub 4 1 roll 3{3 index add neg dup 0 lt{pop 0}if 3 1 roll
}repeat setrgbcolor pop}ifelse}B}ifelse/TeXcolorcmyk{setcmykcolor}def
/TeXcolorrgb{setrgbcolor}def/TeXcolorgrey{setgray}def/TeXcolorgray{
setgray}def/TeXcolorhsb{sethsbcolor}def/currentcmykcolor where{pop}{
/currentcmykcolor{currentrgbcolor 10}B}ifelse/DC{exch dup userdict exch
known{pop pop}{X}ifelse}B/GreenYellow{0.15 0 0.69 0 setcmykcolor}DC
/Yellow{0 0 1 0 setcmykcolor}DC/Goldenrod{0 0.10 0.84 0 setcmykcolor}DC
/Dandelion{0 0.29 0.84 0 setcmykcolor}DC/Apricot{0 0.32 0.52 0
setcmykcolor}DC/Peach{0 0.50 0.70 0 setcmykcolor}DC/Melon{0 0.46 0.50 0
setcmykcolor}DC/YellowOrange{0 0.42 1 0 setcmykcolor}DC/Orange{0 0.61
0.87 0 setcmykcolor}DC/BurntOrange{0 0.51 1 0 setcmykcolor}DC
/Bittersweet{0 0.75 1 0.24 setcmykcolor}DC/RedOrange{0 0.77 0.87 0
setcmykcolor}DC/Mahogany{0 0.85 0.87 0.35 setcmykcolor}DC/Maroon{0 0.87
0.68 0.32 setcmykcolor}DC/BrickRed{0 0.89 0.94 0.28 setcmykcolor}DC/Red{
0 1 1 0 setcmykcolor}DC/OrangeRed{0 1 0.50 0 setcmykcolor}DC/RubineRed{
0 1 0.13 0 setcmykcolor}DC/WildStrawberry{0 0.96 0.39 0 setcmykcolor}DC
/Salmon{0 0.53 0.38 0 setcmykcolor}DC/CarnationPink{0 0.63 0 0
setcmykcolor}DC/Magenta{0 1 0 0 setcmykcolor}DC/VioletRed{0 0.81 0 0
setcmykcolor}DC/Rhodamine{0 0.82 0 0 setcmykcolor}DC/Mulberry{0.34 0.90
0 0.02 setcmykcolor}DC/RedViolet{0.07 0.90 0 0.34 setcmykcolor}DC
/Fuchsia{0.47 0.91 0 0.08 setcmykcolor}DC/Lavender{0 0.48 0 0
setcmykcolor}DC/Thistle{0.12 0.59 0 0 setcmykcolor}DC/Orchid{0.32 0.64 0
0 setcmykcolor}DC/DarkOrchid{0.40 0.80 0.20 0 setcmykcolor}DC/Purple{
0.45 0.86 0 0 setcmykcolor}DC/Plum{0.50 1 0 0 setcmykcolor}DC/Violet{
0.79 0.88 0 0 setcmykcolor}DC/RoyalPurple{0.75 0.90 0 0 setcmykcolor}DC
/BlueViolet{0.86 0.91 0 0.04 setcmykcolor}DC/Periwinkle{0.57 0.55 0 0
setcmykcolor}DC/CadetBlue{0.62 0.57 0.23 0 setcmykcolor}DC
/CornflowerBlue{0.65 0.13 0 0 setcmykcolor}DC/MidnightBlue{0.98 0.13 0
0.43 setcmykcolor}DC/NavyBlue{0.94 0.54 0 0 setcmykcolor}DC/RoyalBlue{1
0.50 0 0 setcmykcolor}DC/Blue{1 1 0 0 setcmykcolor}DC/Cerulean{0.94 0.11
0 0 setcmykcolor}DC/Cyan{1 0 0 0 setcmykcolor}DC/ProcessBlue{0.96 0 0 0
setcmykcolor}DC/SkyBlue{0.62 0 0.12 0 setcmykcolor}DC/Turquoise{0.85 0
0.20 0 setcmykcolor}DC/TealBlue{0.86 0 0.34 0.02 setcmykcolor}DC
/Aquamarine{0.82 0 0.30 0 setcmykcolor}DC/BlueGreen{0.85 0 0.33 0
setcmykcolor}DC/Emerald{1 0 0.50 0 setcmykcolor}DC/JungleGreen{0.99 0
0.52 0 setcmykcolor}DC/SeaGreen{0.69 0 0.50 0 setcmykcolor}DC/Green{1 0
1 0 setcmykcolor}DC/ForestGreen{0.91 0 0.88 0.12 setcmykcolor}DC
/PineGreen{0.92 0 0.59 0.25 setcmykcolor}DC/LimeGreen{0.50 0 1 0
setcmykcolor}DC/YellowGreen{0.44 0 0.74 0 setcmykcolor}DC/SpringGreen{
0.26 0 0.76 0 setcmykcolor}DC/OliveGreen{0.64 0 0.95 0.40 setcmykcolor}
DC/RawSienna{0 0.72 1 0.45 setcmykcolor}DC/Sepia{0 0.83 1 0.70
setcmykcolor}DC/Brown{0 0.81 1 0.60 setcmykcolor}DC/Tan{0.14 0.42 0.56 0
setcmykcolor}DC/Gray{0 0 0 0.50 setcmykcolor}DC/Black{0 0 0 1
setcmykcolor}DC/White{0 0 0 0 setcmykcolor}DC end

%%EndProcSet
TeXDict begin 156819571 221710428 1000 600 600 (job-001.dvi)
@start end
%%EndProlog
%%BeginSetup
%%Feature: *Resolution 600dpi
TeXDict begin
 end
%%EndSetup
%%Page: 1 1
TeXDict begin 1 0 bop Black Black 706 1924 a @beginspecial
0 @llx 0 @lly 599 @urx 162 @ury 5990 @rwi @setspecial
%%BeginDocument: job-001.fig2dev.ps
%!PS-Adobe-3.0 EPSF-3.0
%%Title: job-001.fig
%%Creator: fig2dev Version 3.2 Patchlevel 5e
%%CreationDate: Mon Apr  6 22:22:49 2015
%%BoundingBox: 156 3067 755 3229
%Magnification: 1.0000
%%EndComments
%%BeginProlog
/$F2psDict 200 dict def
$F2psDict begin
$F2psDict /mtrx matrix put
/col-1 {0 setgray} bind def
/col0 {0.000 0.000 0.000 srgb} bind def
/col1 {0.000 0.000 1.000 srgb} bind def
/col2 {0.000 1.000 0.000 srgb} bind def
/col3 {0.000 1.000 1.000 srgb} bind def
/col4 {1.000 0.000 0.000 srgb} bind def
/col5 {1.000 0.000 1.000 srgb} bind def
/col6 {1.000 1.000 0.000 srgb} bind def
/col7 {1.000 1.000 1.000 srgb} bind def
/col8 {0.000 0.000 0.560 srgb} bind def
/col9 {0.000 0.000 0.690 srgb} bind def
/col10 {0.000 0.000 0.820 srgb} bind def
/col11 {0.530 0.810 1.000 srgb} bind def
/col12 {0.000 0.560 0.000 srgb} bind def
/col13 {0.000 0.690 0.000 srgb} bind def
/col14 {0.000 0.820 0.000 srgb} bind def
/col15 {0.000 0.560 0.560 srgb} bind def
/col16 {0.000 0.690 0.690 srgb} bind def
/col17 {0.000 0.820 0.820 srgb} bind def
/col18 {0.560 0.000 0.000 srgb} bind def
/col19 {0.690 0.000 0.000 srgb} bind def
/col20 {0.820 0.000 0.000 srgb} bind def
/col21 {0.560 0.000 0.560 srgb} bind def
/col22 {0.690 0.000 0.690 srgb} bind def
/col23 {0.820 0.000 0.820 srgb} bind def
/col24 {0.500 0.190 0.000 srgb} bind def
/col25 {0.630 0.250 0.000 srgb} bind def
/col26 {0.750 0.380 0.000 srgb} bind def
/col27 {1.000 0.500 0.500 srgb} bind def
/col28 {1.000 0.630 0.630 srgb} bind def
/col29 {1.000 0.750 0.750 srgb} bind def
/col30 {1.000 0.880 0.880 srgb} bind def
/col31 {1.000 0.840 0.000 srgb} bind def
/col32 {0.906 0.906 0.906 srgb} bind def
/col33 {0.443 0.459 0.443 srgb} bind def
/col34 {0.851 0.851 0.851 srgb} bind def
/col35 {0.337 0.620 0.690 srgb} bind def
/col36 {0.255 0.271 0.255 srgb} bind def
/col37 {0.753 0.753 0.753 srgb} bind def

end

/cp {closepath} bind def
/ef {eofill} bind def
/gr {grestore} bind def
/gs {gsave} bind def
/sa {save} bind def
/rs {restore} bind def
/l {lineto} bind def
/m {moveto} bind def
/rm {rmoveto} bind def
/n {newpath} bind def
/s {stroke} bind def
/sh {show} bind def
/slc {setlinecap} bind def
/slj {setlinejoin} bind def
/slw {setlinewidth} bind def
/srgb {setrgbcolor} bind def
/rot {rotate} bind def
/sc {scale} bind def
/sd {setdash} bind def
/ff {findfont} bind def
/sf {setfont} bind def
/scf {scalefont} bind def
/sw {stringwidth} bind def
/tr {translate} bind def
/tnt {dup dup currentrgbcolor
  4 -2 roll dup 1 exch sub 3 -1 roll mul add
  4 -2 roll dup 1 exch sub 3 -1 roll mul add
  4 -2 roll dup 1 exch sub 3 -1 roll mul add srgb}
  bind def
/shd {dup dup currentrgbcolor 4 -2 roll mul 4 -2 roll mul
  4 -2 roll mul srgb} bind def
/reencdict 12 dict def /ReEncode { reencdict begin
/newcodesandnames exch def /newfontname exch def /basefontname exch def
/basefontdict basefontname findfont def /newfont basefontdict maxlength dict def
basefontdict { exch dup /FID ne { dup /Encoding eq
{ exch dup length array copy newfont 3 1 roll put }
{ exch newfont 3 1 roll put } ifelse } { pop pop } ifelse } forall
newfont /FontName newfontname put newcodesandnames aload pop
128 1 255 { newfont /Encoding get exch /.notdef put } for
newcodesandnames length 2 idiv { newfont /Encoding get 3 1 roll put } repeat
newfontname newfont definefont pop end } def
/isovec [
8#055 /minus 8#200 /grave 8#201 /acute 8#202 /circumflex 8#203 /tilde
8#204 /macron 8#205 /breve 8#206 /dotaccent 8#207 /dieresis
8#210 /ring 8#211 /cedilla 8#212 /hungarumlaut 8#213 /ogonek 8#214 /caron
8#220 /dotlessi 8#230 /oe 8#231 /OE
8#240 /space 8#241 /exclamdown 8#242 /cent 8#243 /sterling
8#244 /currency 8#245 /yen 8#246 /brokenbar 8#247 /section 8#250 /dieresis
8#251 /copyright 8#252 /ordfeminine 8#253 /guillemotleft 8#254 /logicalnot
8#255 /hyphen 8#256 /registered 8#257 /macron 8#260 /degree 8#261 /plusminus
8#262 /twosuperior 8#263 /threesuperior 8#264 /acute 8#265 /mu 8#266 /paragraph
8#267 /periodcentered 8#270 /cedilla 8#271 /onesuperior 8#272 /ordmasculine
8#273 /guillemotright 8#274 /onequarter 8#275 /onehalf
8#276 /threequarters 8#277 /questiondown 8#300 /Agrave 8#301 /Aacute
8#302 /Acircumflex 8#303 /Atilde 8#304 /Adieresis 8#305 /Aring
8#306 /AE 8#307 /Ccedilla 8#310 /Egrave 8#311 /Eacute
8#312 /Ecircumflex 8#313 /Edieresis 8#314 /Igrave 8#315 /Iacute
8#316 /Icircumflex 8#317 /Idieresis 8#320 /Eth 8#321 /Ntilde 8#322 /Ograve
8#323 /Oacute 8#324 /Ocircumflex 8#325 /Otilde 8#326 /Odieresis 8#327 /multiply
8#330 /Oslash 8#331 /Ugrave 8#332 /Uacute 8#333 /Ucircumflex
8#334 /Udieresis 8#335 /Yacute 8#336 /Thorn 8#337 /germandbls 8#340 /agrave
8#341 /aacute 8#342 /acircumflex 8#343 /atilde 8#344 /adieresis 8#345 /aring
8#346 /ae 8#347 /ccedilla 8#350 /egrave 8#351 /eacute
8#352 /ecircumflex 8#353 /edieresis 8#354 /igrave 8#355 /iacute
8#356 /icircumflex 8#357 /idieresis 8#360 /eth 8#361 /ntilde 8#362 /ograve
8#363 /oacute 8#364 /ocircumflex 8#365 /otilde 8#366 /odieresis 8#367 /divide
8#370 /oslash 8#371 /ugrave 8#372 /uacute 8#373 /ucircumflex
8#374 /udieresis 8#375 /yacute 8#376 /thorn 8#377 /ydieresis] def
/Times-Roman /Times-Roman-iso isovec ReEncode
 /DrawEllipse {
	/endangle exch def
	/startangle exch def
	/yrad exch def
	/xrad exch def
	/y exch def
	/x exch def
	/savematrix mtrx currentmatrix def
	x y tr xrad yrad sc 0 0 1 startangle endangle arc
	closepath
	savematrix setmatrix
	} def

/$F2psBegin {$F2psDict begin /$F2psEnteredState save def} def
/$F2psEnd {$F2psEnteredState restore end} def

/pageheader {
save
newpath 0 162 moveto 0 0 lineto 599 0 lineto 599 162 lineto closepath clip newpath
-47.2 171.6 translate
1 -1 scale
$F2psBegin
10 setmiterlimit
0 slj 0 slc
 0.06299 0.06299 sc
} bind def
/pagefooter {
$F2psEnd
restore
} bind def
%%EndProlog
pageheader
%
% Fig objects follow
%
% 
% here starts figure with depth 50
% Polyline
0 slj
0 slc
7.500 slw
n 7200 720 m
 7380 720 l gs col0 s gr 
% Polyline
n 7200 1170 m
 7380 1170 l gs col0 s gr 
% Polyline
n 5670 1260 m
 5535 1260 l gs col0 s gr 
% Polyline
n 5850 945 m
 5670 945 l gs col0 s gr 
% Polyline
n 5850 630 m
 5670 630 l gs col0 s gr 
% Polyline
n 5850 1260 m
 5670 1260 l gs col0 s gr 
% Polyline
n 5850 540 m 7200 540 l 7200 1350 l 5850 1350 l
 cp gs col0 s gr 
% Polyline
n 7560 1170 m
 7380 1170 l gs col0 s gr 
% Polyline
n 2070 630 m 2880 630 l
 2880 720 l gs col0 s gr 
% Polyline
n 2880 2115 m 2070 2115 l
 2070 1035 l gs col0 s gr 
% Polyline
n 2160 1440 m
 2070 1440 l gs col0 s gr 
% Polyline
n 2475 1440 m
 2880 1440 l gs col0 s gr 
% Polyline
n 2880 1170 m
 2880 1665 l gs col0 s gr 
% Polyline
n 2880 1440 m
 3105 1440 l gs col0 s gr 
% Polyline
n 2880 630 m
 3150 630 l gs col0 s gr 
% Polyline
n 7740 720 m
 7380 720 l gs col0 s gr 
% Polyline
n 7560 720 m
 7560 810 l gs col4 s gr 
% Polyline
n 7560 1080 m
 7560 1170 l gs col4 s gr 
% Polyline
n 8190 720 m 8370 720 l 8370 765 l
 8505 765 l gs col0 s gr 
% Polyline
n 10125 1350 m
 9900 1350 l gs col0 s gr 
% Polyline
n 5670 630 m
 5490 630 l gs col0 s gr 
% Polyline
n 5040 630 m
 4860 630 l gs col0 s gr 
% Polyline
n 8910 450 m 8910 225 l
 5175 225 l gs col0 s gr 
% Polyline
n 9540 765 m
 9045 765 l gs col0 s gr 
% Polyline
n 9900 1350 m 9900 765 l
 9855 765 l gs col0 s gr 
% Polyline
n 9900 1350 m 9900 2025 l
 9855 2025 l gs col0 s gr 
% Polyline
 [60 30 15 30] 0 sd
n 4275 180 m
 4275 2700 l gs col0 s gr  [] 0 sd
% Polyline
n 9900 2025 m
 9900 2520 l gs col0 s gr 
% Polyline
n 9495 2520 m 9360 2520 l
 9360 2025 l gs col0 s gr 
% Polyline
n 9540 2025 m
 8370 2025 l gs col0 s gr 
% Polyline
n 9360 1890 m
 9360 2025 l gs col0 s gr 
% Polyline
n 9375 990 m
 9375 765 l gs col0 s gr 
% Polyline
n 9690 1350 m
 9915 1350 l gs col0 s gr 
% Polyline
n 9360 1665 m
 9360 1890 l gs col0 s gr 
% Polyline
n 9240 1665 m 9240 990 l 9690 990 l 9690 1665 l
 cp gs col0 s gr 
/Times-Roman-iso ff 135.00 scf sf
7155 765 m
gs 1 -1 sc (Vin+) dup sw pop neg 0 rm  col0 sh gr
/Times-Roman-iso ff 135.00 scf sf
7155 1215 m
gs 1 -1 sc (Vin-) dup sw pop neg 0 rm  col0 sh gr
/Times-Roman-iso ff 150.00 scf sf
5895 990 m
gs 1 -1 sc (Com) col0 sh gr
/Times-Roman-iso ff 135.00 scf sf
6750 945 m
gs 1 -1 sc (DC-DC Conv.) dup sw pop 2 div neg 0 rm  col0 sh gr
/Times-Roman-iso ff 135.00 scf sf
5895 675 m
gs 1 -1 sc (Vout+15) col0 sh gr
/Times-Roman-iso ff 135.00 scf sf
5895 1305 m
gs 1 -1 sc (Vout-15) col0 sh gr
/Times-Roman-iso ff 150.00 scf sf
2790 945 m
gs 1 -1 sc  90.0 rot (R18) dup sw pop 2 div neg 0 rm  col4 sh gr
/Times-Roman-iso ff 150.00 scf sf
3060 945 m
gs 1 -1 sc  90.0 rot (180k) dup sw pop 2 div neg 0 rm  col4 sh gr
/Times-Roman-iso ff 150.00 scf sf
2790 1890 m
gs 1 -1 sc  90.0 rot (R17) dup sw pop 2 div neg 0 rm  col4 sh gr
/Times-Roman-iso ff 150.00 scf sf
3060 1845 m
gs 1 -1 sc  90.0 rot (20k) dup sw pop 2 div neg 0 rm  col4 sh gr
/Times-Roman-iso ff 150.00 scf sf
2205 1665 m
gs 1 -1 sc (10n) col4 sh gr
/Times-Roman-iso ff 180.00 scf sf
3150 1485 m
gs 1 -1 sc (serial / PC3) col4 sh gr
/Times-Roman-iso ff 180.00 scf sf
765 585 m
gs 1 -1 sc (External) col4 sh gr
/Times-Roman-iso ff 180.00 scf sf
765 810 m
gs 1 -1 sc (Voltage) col4 sh gr
/Times-Roman-iso ff 150.00 scf sf
7605 1080 m
gs 1 -1 sc (1uF) col4 sh gr
/Times-Roman-iso ff 150.00 scf sf
7920 900 m
gs 1 -1 sc (33uH) col4 sh gr
/Times-Roman-iso ff 150.00 scf sf
7830 630 m
gs 1 -1 sc (L1) col4 sh gr
/Times-Roman-iso ff 150.00 scf sf
7245 1080 m
gs 1 -1 sc (C13) col4 sh gr
/Times-Roman-iso ff 150.00 scf sf
4500 675 m
gs 1 -1 sc (Uext) col0 sh gr
/Times-Roman-iso ff 150.00 scf sf
5130 855 m
gs 1 -1 sc (10k) col4 sh gr
/Times-Roman-iso ff 150.00 scf sf
6525 1530 m
gs 1 -1 sc (TMA0515D) dup sw pop 2 div neg 0 rm  col4 sh gr
/Times-Roman-iso ff 150.00 scf sf
8460 495 m
gs 1 -1 sc (T4) col4 sh gr
/Times-Roman-iso ff 150.00 scf sf
3195 675 m
gs 1 -1 sc (Uext) col4 sh gr
/Times-Roman-iso ff 180.00 scf sf
5130 315 m
gs 1 -1 sc (Button) dup sw pop neg 0 rm  col0 sh gr
/Times-Roman-iso ff 150.00 scf sf
5265 540 m
gs 1 -1 sc (R19) dup sw pop 2 div neg 0 rm  col4 sh gr
/Times-Roman-iso ff 150.00 scf sf
7965 2070 m
gs 1 -1 sc (Ubat) col0 sh gr
/Times-Roman-iso ff 150.00 scf sf
9855 1845 m
gs 1 -1 sc  90.0 rot (100n) dup sw pop 2 div neg 0 rm  col4 sh gr
/Times-Roman-iso ff 150.00 scf sf
9630 1980 m
gs 1 -1 sc  90.0 rot (C15) col4 sh gr
/Times-Roman-iso ff 180.00 scf sf
4140 2655 m
gs 1 -1 sc (Can be placed on Tester board!) dup sw pop neg 0 rm  col0 sh gr
/Times-Roman-iso ff 180.00 scf sf
4590 2655 m
gs 1 -1 sc (Should be placed separate!) col0 sh gr
/Times-Roman-iso ff 135.00 scf sf
9465 1620 m
gs 1 -1 sc  90.0 rot (IN) col0 sh gr
/Times-Roman-iso ff 135.00 scf sf
9465 990 m
gs 1 -1 sc  90.0 rot (OUT) dup sw pop neg 0 rm  col0 sh gr
/Times-Roman-iso ff 135.00 scf sf
9645 1350 m
gs 1 -1 sc  90.0 rot (GND) dup sw pop 2 div neg 0 rm  col0 sh gr
/Times-Roman-iso ff 150.00 scf sf
9045 1350 m
gs 1 -1 sc  90.0 rot (IC3) dup sw pop 2 div neg 0 rm  col0 sh gr
/Times-Roman-iso ff 150.00 scf sf
9180 1350 m
gs 1 -1 sc  90.0 rot (MCP1702) dup sw pop 2 div neg 0 rm  col0 sh gr
/Times-Roman-iso ff 135.00 scf sf
8370 1035 m
gs 1 -1 sc (IRFU9024) col4 sh gr
/Times-Roman-iso ff 150.00 scf sf
2205 1305 m
gs 1 -1 sc (C17) col4 sh gr
/Times-Roman-iso ff 135.00 scf sf
9585 2430 m
gs 1 -1 sc  90.0 rot (C16) col4 sh gr
/Times-Roman-iso ff 150.00 scf sf
9855 2295 m
gs 1 -1 sc  90.0 rot (50u) dup sw pop 2 div neg 0 rm  col4 sh gr
/Times-Roman-iso ff 150.00 scf sf
9855 540 m
gs 1 -1 sc  90.0 rot (100n) dup sw pop 2 div neg 0 rm  col4 sh gr
/Times-Roman-iso ff 150.00 scf sf
9630 540 m
gs 1 -1 sc  90.0 rot (C14) dup sw pop 2 div neg 0 rm  col4 sh gr
% here ends figure;
% 
% here starts figure with depth 0
% Polyline
0 slj
0 slc
7.500 slw
n 2880 1080 m
 2880 1170 l gs col0 s gr 
% Polyline
n 2835 810 m 2925 810 l 2925 1080 l 2835 1080 l
 cp gs col0 s gr 
% Polyline
n 2880 720 m
 2880 810 l gs col0 s gr 
% Polyline
n 1890 675 m 1845 630 l
 1890 585 l gs col0 s gr 
% Polyline
n 1845 675 m 1800 630 l
 1845 585 l gs col0 s gr 
% Polyline
n 1800 630 m
 1620 630 l gs col0 s gr 
% Polyline
n 2070 630 m
 1845 630 l gs col0 s gr 
% Polyline
1 slc
30.000 slw
n 2790 2385 m
 2970 2385 l gs col0 s gr 
% Polyline
0 slc
7.500 slw
n 2880 2115 m
 2880 2385 l gs col0 s gr 
% Ellipse
n 2880 2115 20 20 0 360 DrawEllipse gs 0.00 setgray ef gr gs col0 s gr

% Polyline
n 2880 2025 m
 2880 2115 l gs col0 s gr 
% Polyline
n 2835 1755 m 2925 1755 l 2925 2025 l 2835 2025 l
 cp gs col0 s gr 
% Polyline
n 2880 1665 m
 2880 1755 l gs col0 s gr 
% Polyline
n 2340 1440 m
 2475 1440 l gs col0 s gr 
% Polyline
n 2295 1440 m
 2160 1440 l gs col0 s gr 
% Polyline
n 2340 1350 m
 2340 1530 l gs col0 s gr 
% Polyline
n 2295 1350 m
 2295 1530 l gs col0 s gr 
% Ellipse
n 2880 1440 20 20 0 360 DrawEllipse gs 0.00 setgray ef gr gs col0 s gr

% Ellipse
n 2070 1440 20 20 0 360 DrawEllipse gs 0.00 setgray ef gr gs col0 s gr

% Ellipse
n 2880 630 20 20 0 360 DrawEllipse gs 0.00 setgray ef gr gs col0 s gr

% Polyline
1 slj
n 1470 890 m 1590 890 l 1530 770 l
 1470 890 l  cp gs 0.00 setgray ef gr gs col0 s gr 
% Polyline
0 slj
n 1530 630 m
 1530 1035 l gs 1.00 setgray ef gr gs col0 s gr 
% Polyline
1 slc
n 1600 765 m
 1600 810 l gs 1.00 setgray ef gr gs col0 s gr 
% Polyline
n 1460 765 m
 1600 765 l gs 1.00 setgray ef gr gs col0 s gr 
% Polyline
n 1460 765 m
 1460 720 l gs 1.00 setgray ef gr gs col0 s gr 
% Polyline
0 slc
n 1890 1080 m 1845 1035 l
 1890 990 l gs col0 s gr 
% Polyline
n 1845 1080 m 1800 1035 l
 1845 990 l gs col0 s gr 
% Polyline
n 1800 1035 m
 1620 1035 l gs col0 s gr 
% Polyline
n 2070 1035 m
 1845 1035 l gs col0 s gr 
% Arc
1 slc
n 8055.0 720.0 45.0 180.0000 0.0000 arc
gs col0 s gr

% Arc
n 7965.0 720.0 45.0 180.0000 0.0000 arc
gs col0 s gr

% Arc
n 7875.0 720.0 45.0 180.0000 0.0000 arc
gs col0 s gr

% Polyline
0 slc
n 8100 720 m
 8190 720 l gs col0 s gr 
% Polyline
n 7740 720 m
 7830 720 l gs col0 s gr 
% Ellipse
gs
8775 685 tr
-90.000 rot
n 0 0 191 191 0 360 DrawEllipse 90.000 rot
gs col0 s gr
gr

% Polyline
n 8775 745 m 8795 700 l 8755 700 l
 cp gs 0.00 setgray ef gr gs col0 s gr 
% Polyline
n 8865 675 m 8865 765 l
 9045 765 l gs col0 s gr 
% Polyline
n 8775 675 m 8775 765 l
 8865 765 l gs col0 s gr 
% Polyline
n 8685 675 m 8685 765 l
 8505 765 l gs col0 s gr 
% Polyline
n 8640 630 m 8910 630 l
 8910 450 l gs col0 s gr 
% Polyline
1 slc
n 8840 675 m
 8895 675 l gs col0 s gr 
% Polyline
n 8746 675 m
 8807 675 l gs col0 s gr 
% Polyline
n 8654 675 m
 8713 675 l gs col0 s gr 
% Polyline
30.000 slw
n 10035 1620 m
 10215 1620 l gs col0 s gr 
% Polyline
0 slc
7.500 slw
n 10125 1350 m
 10125 1620 l gs col0 s gr 
% Ellipse
n 9900 1350 20 20 0 360 DrawEllipse gs 0.00 setgray ef gr gs col0 s gr

% Ellipse
n 7560 720 20 20 0 360 DrawEllipse gs 0.00 setgray ef gr gs col0 s gr

% Ellipse
n 9374 768 20 20 0 360 DrawEllipse gs 0.00 setgray ef gr gs col0 s gr

% Polyline
1 slc
30.000 slw
n 5445 1530 m
 5625 1530 l gs col0 s gr 
% Polyline
0 slc
7.500 slw
n 5535 1260 m
 5535 1530 l gs col0 s gr 
% Polyline
1 slc
30.000 slw
n 7470 1440 m
 7650 1440 l gs col0 s gr 
% Polyline
0 slc
7.500 slw
n 7560 1170 m
 7560 1440 l gs col0 s gr 
% Polyline
n 7560 900 m
 7560 765 l gs col0 s gr 
% Polyline
n 7560 945 m
 7560 1080 l gs col0 s gr 
% Polyline
n 7470 900 m
 7650 900 l gs col0 s gr 
% Polyline
n 7470 945 m
 7650 945 l gs col0 s gr 
% Ellipse
n 7560 1170 20 20 0 360 DrawEllipse gs 0.00 setgray ef gr gs col0 s gr

% Polyline
n 5400 630 m
 5490 630 l gs col0 s gr 
% Polyline
n 5130 675 m 5130 585 l 5400 585 l 5400 675 l
 cp gs col0 s gr 
% Polyline
n 5040 630 m
 5130 630 l gs col0 s gr 
% Polyline
n 9675 765 m
 9540 765 l gs col0 s gr 
% Polyline
n 9720 765 m
 9855 765 l gs col0 s gr 
% Polyline
n 9675 855 m
 9675 675 l gs col0 s gr 
% Polyline
n 9720 855 m
 9720 675 l gs col0 s gr 
% Polyline
n 9675 2025 m
 9540 2025 l gs col0 s gr 
% Polyline
n 9720 2025 m
 9855 2025 l gs col0 s gr 
% Polyline
n 9675 2115 m
 9675 1935 l gs col0 s gr 
% Polyline
n 9720 2115 m
 9720 1935 l gs col0 s gr 
% Ellipse
n 9360 2025 20 20 0 360 DrawEllipse gs 0.00 setgray ef gr gs col0 s gr

% Ellipse
n 9900 2025 20 20 0 360 DrawEllipse gs 0.00 setgray ef gr gs col0 s gr

% Polyline
n 9765 2520 m
 9900 2520 l gs col0 s gr 
% Polyline
n 9630 2600 m 9630 2440 l 9675 2440 l 9675 2600 l
 cp gs col0 s gr 
% Polyline
n 9495 2520 m
 9630 2520 l gs col0 s gr 
% Polyline
n 9720 2600 m 9720 2440 l 9765 2440 l 9765 2600 l
 cp gs 0.00 setgray ef gr gs col0 s gr 
% here ends figure;
pagefooter
showpage
%%Trailer
%EOF

%%EndDocument
 @endspecial Black Black eop end
%%Trailer

userdict /end-hook known{end-hook}if
%%EOF
